{
	"page": 3,
	"book_url": "https://www.gramedia.com/products/fiqih-kontemporer-1",
	"title": "Fiqih Kontemporer 1",
	"author": "Ahmad Zahro",
	"Jumlah Halaman": "450",
	"Tanggal Terbit": "4 Jun 2018",
	"ISBN": "9786025547188",
	"Bahasa": "Indonesia",
	"Penerbit": "Qaf Media",
	"Berat": "0.60 kg",
	"Lebar": "16 cm",
	"Panjang": "24 cm"
},
{
	"page": 3,
	"book_url": "https://www.gramedia.com/products/kisi-kisi-terbaru-usbn-sdmi-2020",
	"title": "Kisi-Kisi Terbaru Usbn Sd/Mi 2020",
	"author": "Tim Edu Penguin",
	"Jumlah Halaman": "436.0",
	"Tanggal Terbit": "6 Jan 2020",
	"ISBN": "9786020522692",
	"Bahasa": "Indonesia",
	"Penerbit": "Gramedia Widiasarana Indonesia",
	"Berat": "0.5 kg",
	"Lebar": "19.0 cm",
	"Panjang": "26.0 cm"
},
{
	"page": 3,
	"book_url": "https://www.gramedia.com/products/happy-kiss",
	"title": "Happy Kiss",
	"author": "Kiuchi Ramune",
	"Jumlah Halaman": "184.0",
	"Tanggal Terbit": "13 Jan 2020",
	"ISBN": "9786024808730",
	"Bahasa": "Indonesia",
	"Penerbit": "m&c!",
	"Berat": "0.09 kg",
	"Lebar": "11.4 cm",
	"Panjang": "17.2 cm"
},
{
	"page": 3,
	"book_url": "https://www.gramedia.com/products/claires",
	"title": "Claires",
	"author": "Valerie Patkar",
	"Jumlah Halaman": "380.0",
	"Tanggal Terbit": "19 Mar 2018",
	"ISBN": "9786024553661",
	"Bahasa": "Indonesia",
	"Penerbit": "Bhuana Ilmu Populer",
	"Berat": "0.23 kg",
	"Lebar": "13.0 cm",
	"Panjang": "19.0 cm"
},
{
	"page": 3,
	"book_url": "https://www.gramedia.com/products/skandal-perjamuan-natal-the-adventure-of-the-christmas-pudding",
	"title": "Skandal Perjamuan Natal (The Adventure of the Christmas Pudding )",
	"author": "Agatha Christie",
	"Jumlah Halaman": "352",
	"Tanggal Terbit": "26 Nov 2018",
	"ISBN": "9789792229707",
	"Bahasa": "Indonesia",
	"Penerbit": "Gramedia Pustaka Utama",
	"Berat": "0.152 kg",
	"Lebar": "11 cm",
	"Panjang": "18 cm"
},
{
	"page": 3,
	"book_url": "https://www.gramedia.com/products/secret-code-a-displeased-detective-of-cipher-02",
	"title": "Secret Code a Displeased Detective of Cipher 02",
	"author": "Torikoboshimaya .",
	"Jumlah Halaman": "216.0",
	"Tanggal Terbit": "9 Okt 2019",
	"ISBN": "9786230007316",
	"Bahasa": "Indonesia",
	"Penerbit": "Elex Media Komputindo",
	"Berat": "0.12 kg",
	"Lebar": "11.4 cm",
	"Panjang": "17.2 cm"
},
{
	"page": 3,
	"book_url": "https://www.gramedia.com/products/educomics-keluarga-super-irit-keliling-dunia-kutub-selat",
	"title": "Educomics : Keluarga Super Irit Keliling Dunia : Kutub Selatan",
	"author": "Yim, Young-Je",
	"Jumlah Halaman": "184",
	"Tanggal Terbit": "13 Mei 2019",
	"ISBN": "9786232161900",
	"Bahasa": "Indonesia",
	"Penerbit": "Bhuana Ilmu Populer",
	"Berat": "0.270 kg",
	"Lebar": "18 cm",
	"Panjang": "24 cm"
},
{
	"page": 3,
	"book_url": "https://www.gramedia.com/products/young-adult-acc-pak",
	"title": "Young Adult: Acc, Pak!!",
	"author": "Rara Rachel",
	"Jumlah Halaman": "288.0",
	"Tanggal Terbit": "30 Sep 2019",
	"ISBN": "9786020631523",
	"Bahasa": "Indonesia",
	"Penerbit": "Gramedia Pustaka Utama",
	"Berat": "0.18 kg",
	"Lebar": "13.5 cm",
	"Panjang": "20.0 cm"
},
{
	"page": 3,
	"book_url": "https://www.gramedia.com/products/smama-erlangga-x-press-un-2020-ekonomi",
	"title": "Sma/Ma Erlangga X-Press Un 2020 Ekonomi",
	"author": "Tim Progresif",
	"Jumlah Halaman": "248.0",
	"Tanggal Terbit": "1 Agt 2019",
	"ISBN": "9786024866679",
	"Penerbit": "Penerbit Erlangga",
	"Berat": "0.49 kg",
	"Lebar": "21.0 cm",
	"Panjang": "26.0 cm"
},
{
	"page": 3,
	"book_url": "https://www.gramedia.com/products/akasha-hitotsubana-the-cursed-flower-04",
	"title": "Akasha : Hitotsubana - The Cursed Flower 04",
	"author": "Minami",
	"Jumlah Halaman": "192.0",
	"Tanggal Terbit": "25 Sep 2019",
	"ISBN": "9786024805302",
	"Penerbit": "m&c!",
	"Berat": "0.12 kg",
	"Lebar": "13.0 cm",
	"Panjang": "18.0 cm"
},
{
	"page": 3,
	"book_url": "https://www.gramedia.com/products/smpmts-kl-vii-viii-ix-hafalan-rumus-matematika",
	"title": "SMP/MTS Kl. VII, VIII, IX Hafalan Rumus Matematika",
	"author": "Nia Karnita, Eka Fitriyani",
	"Jumlah Halaman": "180",
	"Tanggal Terbit": "7 Mei 2019",
	"ISBN": "9786025710100",
	"Bahasa": "Indonesia",
	"Penerbit": "C- Media",
	"Berat": "0.117 kg",
	"Lebar": "12 cm",
	"Panjang": "18 cm"
},
{
	"page": 3,
	"book_url": "https://www.gramedia.com/products/anti-aging-medicane-tetap-muda-dan-sehat-revisi",
	"title": "Anti Aging Medicane Tetap Muda Dan Sehat (Revisi)",
	"author": "PROF. DR WIMPIE PANGKAHILA",
	"Jumlah Halaman": "152",
	"Tanggal Terbit": "27 Mei 2019",
	"ISBN": "9786024127503",
	"Bahasa": "Indonesia",
	"Penerbit": "Penerbit Buku Kompas",
	"Berat": "0.120 kg",
	"Lebar": "14 cm",
	"Panjang": "21 cm"
},
{
	"page": 3,
	"book_url": "https://www.gramedia.com/products/smkmakk-klxii-produktif-berbhs-indonesia-jl3-k13-kikd18",
	"title": "Smk/Makk Kl.XII Produktif Berbahasa Indonesia Jl.3 K/13 Kikd18",
	"author": "Yustinah",
	"Jumlah Halaman": "284.0",
	"Tanggal Terbit": "24 Mar 2019",
	"ISBN": "9786024346409",
	"Bahasa": "Indonesia",
	"Penerbit": "Penerbit Erlangga",
	"Berat": "0.453 kg",
	"Lebar": "17.5 cm",
	"Panjang": "25.0 cm"
},
{
	"page": 3,
	"book_url": "https://www.gramedia.com/products/xplore-ulangan-harian-sd-mi-kelas-3",
	"title": "Xplore Ulangan Harian SD / MI Kelas 3",
	"author": "Tim Cendikia Nusantara",
	"Jumlah Halaman": "216.0",
	"Tanggal Terbit": "14 Okt 2019",
	"ISBN": "9786020521954",
	"Bahasa": "Indonesia",
	"Penerbit": "Gramedia Widiasarana Indonesia",
	"Berat": "0.39 kg",
	"Lebar": "20.5 cm",
	"Panjang": "27.5 cm"
},
{
	"page": 3,
	"book_url": "https://www.gramedia.com/products/the-art-of-the-good-life",
	"title": "The Art Of The Good Life",
	"author": "Rolf Dobelli",
	"Jumlah Halaman": "336",
	"Tanggal Terbit": "27 Mei 2019",
	"ISBN": "9786024811945",
	"Bahasa": "Indonesia",
	"Penerbit": "Kepustakaan Populer Gramedia",
	"Berat": "0.403 kg",
	"Lebar": "14 cm",
	"Panjang": "21 cm"
},
{
	"page": 3,
	"book_url": "https://www.gramedia.com/products/conf-kerumunan-terakhir",
	"title": "Kerumunan Terakhir",
	"author": "Okky Puspa Madasari",
	"Jumlah Halaman": "360",
	"Tanggal Terbit": "18 Apr 2016",
	"ISBN": "978602032543",
	"Penerbit": "Gramedia Pustaka Utama",
	"Berat": "0.28 kg",
	"Lebar": "13.5 cm",
	"Panjang": "20.0 cm"
},
{
	"page": 3,
	"book_url": "https://www.gramedia.com/products/anohana-the-flower-we-saw-that-day-01",
	"title": "Anohana - The Flower We Saw That Day 01",
	"author": "MITSU IZUMI",
	"Jumlah Halaman": "216",
	"Tanggal Terbit": "13 Mar 2019",
	"ISBN": "9786024803971",
	"Bahasa": "Indonesia",
	"Penerbit": "m&c!",
	"Berat": "0.120 kg",
	"Lebar": "11.4 cm",
	"Panjang": "17.2 cm"
},
{
	"page": 3,
	"book_url": "https://www.gramedia.com/products/sdmi-kliv-siap-penilain-ulangan-9-tema-in-1",
	"title": "SD/MI Kl.IV Siap Penilaian Ulangan 9 Tema In 1",
	"author": "Tim Kompas Ilmu",
	"Jumlah Halaman": "456",
	"Tanggal Terbit": "31 Jan 2019",
	"ISBN": "9786023433599",
	"Bahasa": "Indonesia",
	"Penerbit": "Tim Kompas Ilmu",
	"Berat": "0.585 kg",
	"Lebar": "19 cm",
	"Panjang": "26 cm"
},
{
	"page": 3,
	"book_url": "https://www.gramedia.com/products/all-new-khutbah-jumat-kekinian-pilihan-setahun",
	"title": "All New Khutbah Jumat Kekinian Pilihan Setahun",
	"author": "M.Ayyub Ashim",
	"Jumlah Halaman": "408",
	"Tanggal Terbit": "18 Mar 2019",
	"ISBN": "9786239040628",
	"Bahasa": "Indonesia",
	"Penerbit": "Qalam Hidayah",
	"Berat": "0.4 kg",
	"Lebar": "15 cm",
	"Panjang": "23 cm"
},
{
	"page": 3,
	"book_url": "https://www.gramedia.com/products/conf-muhammad-lelaki-penggenggam-hujan",
	"title": "Muhammad - Lelaki Penggenggam Hujan",
	"author": "Taufik Saptoto Rohadi",
	"Jumlah Halaman": "668",
	"Tanggal Terbit": "10 Mar 2016",
	"ISBN": "9786022910503",
	"Bahasa": "Indonesia",
	"Penerbit": "Mizan",
	"Berat": "0.5200 kg",
	"Lebar": "13 cm",
	"Panjang": "20.5 cm"
},
{
	"page": 3,
	"book_url": "https://www.gramedia.com/products/sdmi-klii-pr-tmtk-tema-8-keselamatan-di-rumahperj-k13",
	"title": "Sd/Mi Kl.II Pr Tmtk Tema 8 Keselamatan Di Rumah&Perj K/13",
	"author": "Andi Alexander, Dyaning Nidya Pangestika, Niki Aktania Renjani",
	"Jumlah Halaman": "136.0",
	"Tanggal Terbit": "17 Des 2019",
	"ISBN": "9789792831832",
	"Bahasa": "Indonesia",
	"Penerbit": "PENERBIT INTAN PARIWARA",
	"Berat": "0.204 kg",
	"Lebar": "20.5 cm",
	"Panjang": "28.0 cm"
},
{
	"page": 3,
	"book_url": "https://www.gramedia.com/products/top-modul-rpul-rangkuman-pengetahuan-umum-lengkap",
	"title": "Top Modul RPUL (Rangkuman Pengetahuan Umum Lengkap)",
	"author": "Tim Smart Genesis",
	"Jumlah Halaman": "498",
	"Tanggal Terbit": "13 Feb 2018",
	"ISBN": "9786026475817",
	"Bahasa": "Indonesia",
	"Penerbit": "Penerbit Genesis",
	"Berat": "0.56 kg",
	"Lebar": "15 cm",
	"Panjang": "23 cm"
},
{
	"page": 3,
	"book_url": "https://www.gramedia.com/products/destiny",
	"title": "Destiny",
	"author": "Tegar Setiadi",
	"Jumlah Halaman": "200",
	"Tanggal Terbit": "2 Jan 2018",
	"ISBN": "9786024553050",
	"Bahasa": "Indonesia",
	"Penerbit": "Bhuana Ilmu Populer",
	"Berat": "0.115 kg",
	"Lebar": "13 cm",
	"Panjang": "19 cm"
},
