{
	"page": 12,
	"book_url": "https://www.gramedia.com/products/doraemon-01-terbit-ulang",
	"title": "Doraemon 01 (Terbit Ulang)",
	"author": "Fujiko F. Fujio",
	"Jumlah Halaman": "180",
	"Tanggal Terbit": "1 Mar 2011",
	"ISBN": "9789792789133",
	"Bahasa": "Indonesia",
	"Penerbit": "Elex Media Komputindo",
	"Berat": "0.10 kg",
	"Lebar": "11 cm",
	"Panjang": "17 cm"
},
{
	"page": 12,
	"book_url": "https://www.gramedia.com/products/keluarga-super-irit-28-itu-irit-bukan-pelit",
	"title": "Keluarga Super Irit 28: Itu Irit Bukan Pelit",
	"author": "Glsongi (via Carrot Korean Agency)",
	"Jumlah Halaman": "192",
	"Tanggal Terbit": "27 Jun 2018",
	"ISBN": "9786024556419",
	"Bahasa": "Indonesia",
	"Penerbit": "Bhuana Ilmu Populer",
	"Berat": "0.27 kg",
	"Lebar": "18 cm",
	"Panjang": "24 cm"
},
{
	"page": 12,
	"book_url": "https://www.gramedia.com/products/the-monstrumologist-the-curse-of-the-wendigo-2-kutukan-wendigo",
	"title": "The Monstrumologist#2: The Curse ff The Wendigo ( Kutukan Wendigo )",
	"author": "Rick Yancey",
	"Jumlah Halaman": "480",
	"Tanggal Terbit": "16 Okt 2017",
	"ISBN": "9786020377797",
	"Penerbit": "Gramedia Pustaka Utama",
	"Berat": "0.3500 kg",
	"Lebar": "13.5 cm",
	"Panjang": "20 cm"
},
{
	"page": 12,
	"book_url": "https://www.gramedia.com/products/sagra",
	"title": "Sagra",
	"author": "Oka Rusmini",
	"Tanggal Terbit": "24 Apr 2017",
	"ISBN": "9786023758944",
	"Penerbit": "Gramedia Widiasarana Indonesia"
},
{
	"page": 12,
	"book_url": "https://www.gramedia.com/products/karyawan-juga-bisa-kaya-7-resep-makmur-yang-telah-dibuktikan-oleh-ribuan-karyawan-pensiunan",
	"title": "Karyawan Juga Bisa Kaya - 7 Resep Makmur yang Telah Dibuktikan oleh Ribuan Karyawan & Pensiunan",
	"author": "Ippho D. Santosa",
	"Tanggal Terbit": "18 Jan 2017",
	"ISBN": "9786020292588",
	"Penerbit": "Elex Media Komputindo"
},
{
	"page": 12,
	"book_url": "https://www.gramedia.com/products/wealth-management-tata-kelola",
	"title": "Wealth Management : Tata Kelola",
	"author": "Ikatan Bankir Indonesia",
	"Tanggal Terbit": "6 Mar 2017",
	"ISBN": "9786020339269",
	"Penerbit": "Gramedia Pustaka Utama"
},
{
	"page": 12,
	"book_url": "https://www.gramedia.com/products/50-panduan-untuk-mengasuh-anak-yang-sulit-diatur-dan-mudah-m",
	"title": "50 Panduan Untuk Mengasuh Anak Yang Sulit Diatur Dan Mudah Marah",
	"author": "Lynne Kenney & Wendy Young",
	"Jumlah Halaman": "340",
	"Tanggal Terbit": "27 Mar 2017",
	"ISBN": "9786023946365",
	"Bahasa": "Indonesia",
	"Penerbit": "Bhuana Ilmu Populer",
	"Berat": "0.4200 kg",
	"Lebar": "14 cm"
},
{
	"page": 12,
	"book_url": "https://www.gramedia.com/products/serat-doa-quantum-ikhlas",
	"title": "SERAT DOA QUANTUM IKHLAS",
	"author": "Erbe Sentanu",
	"Jumlah Halaman": "200",
	"Tanggal Terbit": "23 Sep 2013",
	"ISBN": "9786020218724",
	"Bahasa": "Indonesia",
	"Penerbit": "Elex Media Komputindo",
	"Berat": "0.1920 kg",
	"Lebar": "15 cm"
},
{
	"page": 12,
	"book_url": "https://www.gramedia.com/products/zarathustra-friedrich-nietzsche",
	"title": "Zarathustra Friedrich Nietzsche",
	"author": "Freidrich Nietzche",
	"Jumlah Halaman": "260",
	"Tanggal Terbit": "8 Jun 2017",
	"ISBN": "9789794051115",
	"Bahasa": "Indonesia",
	"Penerbit": "Cakrawala",
	"Berat": "0.2300 kg",
	"Lebar": "14 cm"
},
{
	"page": 12,
	"book_url": "https://www.gramedia.com/products/marvel-avengers-kemarahan-dahsyat",
	"title": "Marvel Avengers: Kemarahan Dahsyat",
	"author": "Disney - Marvel",
	"Jumlah Halaman": "32",
	"Tanggal Terbit": "25 Apr 2017",
	"ISBN": "9786020412153",
	"Bahasa": "Indonesia",
	"Penerbit": "Elex Media Komputindo",
	"Berat": "0.1000 kg",
	"Lebar": "21 cm"
},
{
	"page": 12,
	"book_url": "https://www.gramedia.com/products/belajar-mendeteksi-kebohongan-dalam-waktu-kurang-60-menit",
	"title": "Belajar Mendeteksi Kebohongan Dalam Waktu Kurang dari 60 Menit",
	"author": "Dr. David Craig",
	"Jumlah Halaman": "224",
	"Tanggal Terbit": "15 Mei 2017",
	"ISBN": "9786020346076",
	"Bahasa": "Indonesia",
	"Penerbit": "Gramedia Pustaka Utama",
	"Berat": "0.1600 kg",
	"Lebar": "13.5 cm"
},
{
	"page": 12,
	"book_url": "https://www.gramedia.com/products/teenlit-heart-reset",
	"title": "Teenlit: Heart Reset",
	"author": "Trissella",
	"Jumlah Halaman": "184",
	"Tanggal Terbit": "27 Mar 2017",
	"ISBN": "9786020338811",
	"Bahasa": "Indonesia",
	"Penerbit": "Gramedia Pustaka Utama",
	"Berat": "0.1300 kg",
	"Lebar": "13.5 cm"
},
{
	"page": 12,
	"book_url": "https://www.gramedia.com/products/i-love-you-dad-edisi-baru",
	"title": "I Love You Dad (Edisi Baru)",
	"author": "Arleen A.",
	"Jumlah Halaman": "216",
	"Tanggal Terbit": "13 Mar 2017",
	"ISBN": "9786023945009",
	"Bahasa": "Indonesia",
	"Penerbit": "Bhuana Ilmu Populer",
	"Berat": "0.2800 kg",
	"Lebar": "18 cm"
},
{
	"page": 12,
	"book_url": "https://www.gramedia.com/products/teenlit-trisula-mentari",
	"title": "Teenlit: Trisula Mentari",
	"author": "Shandy Tan",
	"Jumlah Halaman": "256",
	"Tanggal Terbit": "13 Mar 2017",
	"ISBN": "9786020339139",
	"Bahasa": "Indonesia",
	"Penerbit": "Gramedia Pustaka Utama",
	"Berat": "0.1800 kg",
	"Lebar": "13.5 cm"
},
{
	"page": 12,
	"book_url": "https://www.gramedia.com/products/teenlit-bad-boys-3-lionel-s-keeper",
	"title": "TeenLit: Bad Boys#3: Lionel's Keeper",
	"author": "Nathalia Theodora",
	"Jumlah Halaman": "272",
	"Tanggal Terbit": "13 Mar 2017",
	"ISBN": "9786020337555",
	"Bahasa": "Indonesia",
	"Penerbit": "Gramedia Pustaka Utama",
	"Berat": "0.1500 kg",
	"Lebar": "13.5 cm"
},
{
	"page": 12,
	"book_url": "https://www.gramedia.com/products/yokai-watch-exciting-wonderful-days-1",
	"title": "Yokai Watch Exciting Wonderful Days 1",
	"author": "Chikako Mori",
	"Jumlah Halaman": "200",
	"Tanggal Terbit": "22 Mar 2017",
	"ISBN": "9786020403427",
	"Bahasa": "Indonesia",
	"Penerbit": "Elex Media Komputindo",
	"Berat": "0.1250 kg",
	"Lebar": "11.4 cm"
},
{
	"page": 12,
	"book_url": "https://www.gramedia.com/products/conf-cemaras-family-2",
	"title": "Cemara's Family #2",
	"author": "Arswendo Atmowiloto",
	"Jumlah Halaman": "280",
	"Tanggal Terbit": "23 Apr 2015",
	"ISBN": "978602031572",
	"Penerbit": "Gramedia Pustaka Utama",
	"Berat": "0.23 kg",
	"Lebar": "14.0 cm",
	"Panjang": "20.0 cm"
},
{
	"page": 12,
	"book_url": "https://www.gramedia.com/products/kumpulan-soal-pembahasan-siap-unusbnunbk-smama-bahasa-indonesia-2019",
	"title": "Kumpulan Soal & Pembahasan Siap UN/USBN/UNBK SMA/MA Bahasa Indonesia 2019",
	"author": "Panji Pratama DKK",
	"Jumlah Halaman": "552",
	"Tanggal Terbit": "29 Okt 2018",
	"ISBN": "9786024832339",
	"Bahasa": "Indonesia",
	"Penerbit": "Bhuana Ilmu Populer",
	"Berat": "0.900 kg",
	"Lebar": "21 cm",
	"Panjang": "27 cm"
},
{
	"page": 12,
	"book_url": "https://www.gramedia.com/products/conf-secret-of-heart",
	"title": "Secret Of Heart",
	"author": "Byanca Sastra",
	"Jumlah Halaman": "-",
	"Tanggal Terbit": "10 Sep 2015",
	"ISBN": "9786023751631",
	"Bahasa": "Indonesia",
	"Penerbit": "Gramedia Widiasarana Indonesia",
	"Berat": "0.2500 kg",
	"Lebar": "13 cm"
},
{
	"page": 12,
	"book_url": "https://www.gramedia.com/products/conf-kimi-no-hitomi-ni-hikari",
	"title": "Kimi no Hitomi ni Hikari",
	"author": "Zachira",
	"Jumlah Halaman": "280",
	"Tanggal Terbit": "25 Agt 2014",
	"ISBN": "978602251677",
	"Penerbit": "Gramedia Widiasarana Indonesia",
	"Berat": "0.2 kg",
	"Lebar": "13.0 cm",
	"Panjang": "19.0 cm"
},
{
	"page": 12,
	"book_url": "https://www.gramedia.com/products/conf-bad-boys",
	"title": "Bad Boys",
	"author": "Nathalia Theodora",
	"Jumlah Halaman": "216",
	"Tanggal Terbit": "12 Agt 2014",
	"ISBN": "978602030662",
	"Penerbit": "Gramedia Pustaka Utama",
	"Berat": "0.17 kg",
	"Lebar": "13.0 cm",
	"Panjang": "20.0 cm"
},
{
	"page": 12,
	"book_url": "https://www.gramedia.com/products/conf-lho-kembar-kok-beda",
	"title": "Lho, Kembar Kok Beda?",
	"author": "Netty Virgiantini",
	"Jumlah Halaman": "216",
	"Tanggal Terbit": "10 Mar 2015",
	"ISBN": "978602030696",
	"Penerbit": "Gramedia Pustaka Utama",
	"Berat": "0.17 kg",
	"Lebar": "13.5 cm",
	"Panjang": "20.0 cm"
},
{
	"page": 12,
	"book_url": "https://www.gramedia.com/products/conf-aku-kau-dan-kua-edisi-baru",
	"title": "Aku, Kau dan KUA (Edisi Baru)",
	"author": "@tweetnikah",
	"Jumlah Halaman": "228",
	"Tanggal Terbit": "16 Sep 2014",
	"ISBN": "978602024811",
	"Penerbit": "Elex Media Komputindo",
	"Berat": "0.17 kg",
	"Lebar": "15.0 cm",
	"Panjang": "17.0 cm"
},
{
	"page": 12,
	"book_url": "https://www.gramedia.com/products/conf-winter-dreams-and-the-invicible-summer-edisi-bahasa-inggris",
	"title": "Winter Dreams and the Invicible Summer (Edisi Bahasa Inggris)",
	"author": "Maggie Tiojakin",
	"Jumlah Halaman": "342",
	"Tanggal Terbit": "16 Sep 2015",
	"ISBN": "978602032116",
	"Penerbit": "Gramedia Pustaka Utama",
	"Berat": "0.27 kg",
	"Lebar": "13.5 cm",
	"Panjang": "20.0 cm"
},
{
	"page": 12,
	"book_url": "https://www.gramedia.com/products/conf-jatisaba",
	"title": "Jatisaba",
	"author": "Ramayda Akmal",
	"Jumlah Halaman": "248",
	"Tanggal Terbit": "15 Mar 2017",
	"ISBN": "9786023758715",
	"Bahasa": "Indonesia",
	"Penerbit": "Gramedia Widiasarana Indonesia",
	"Berat": "0.1900 kg",
	"Lebar": "13.5 cm"
},
{
	"page": 12,
	"book_url": "https://www.gramedia.com/products/conf-bad-dream-best-wishes",
	"title": "Bad Dream, Best Wishes",
	"author": "Mega Marchelina",
	"Jumlah Halaman": "176",
	"Tanggal Terbit": "20 Nov 2015",
	"ISBN": "978602375171",
	"Penerbit": "Gramedia Widiasarana Indonesia",
	"Berat": "0.13 kg",
	"Lebar": "13.0 cm",
	"Panjang": "19.0 cm"
},
{
	"page": 12,
	"book_url": "https://www.gramedia.com/products/conf-bangku-itu-kosong-dua",
	"title": "Bangku Itu Kosong Dua",
	"author": "Anjar Anastasia",
	"Jumlah Halaman": "224",
	"Tanggal Terbit": "17 Des 2014",
	"ISBN": "978602251775",
	"Penerbit": "Gramedia Widiasarana Indonesia",
	"Berat": "0.16 kg",
	"Lebar": "13.0 cm",
	"Panjang": "19.0 cm"
},
{
	"page": 12,
	"book_url": "https://www.gramedia.com/products/conf-metropop-some-kind-of-wonderful",
	"title": "MetroPop: Some Kind of Wonderful",
	"author": "Winna Efendi",
	"Jumlah Halaman": "360",
	"Tanggal Terbit": "17 Jan 2017",
	"ISBN": "9786020335551",
	"Bahasa": "Indonesia",
	"Penerbit": "Gramedia Pustaka Utama",
	"Berat": "0.2500 kg",
	"Lebar": "13.5 cm"
},
{
	"page": 12,
	"book_url": "https://www.gramedia.com/products/conf-forever-monday",
	"title": "Metropop: Forever Monday",
	"author": "Ruth Priscillia Angelina",
	"Jumlah Halaman": "320",
	"Tanggal Terbit": "21 Okt 2014",
	"ISBN": "978602031006",
	"Penerbit": "Gramedia Pustaka Utama",
	"Berat": "0.26 kg",
	"Lebar": "14.0 cm",
	"Panjang": "20.0 cm"
},
{
	"page": 12,
	"book_url": "https://www.gramedia.com/products/conf-nataga-the-little-dragon",
	"title": "Nataga: The Little Dragon",
	"author": "Ugi Agustono",
	"Jumlah Halaman": "288",
	"Tanggal Terbit": "18 Mei 2015",
	"ISBN": "978602251999",
	"Penerbit": "Gramedia Widiasarana Indonesia",
	"Berat": "0.21 kg",
	"Lebar": "13.0 cm",
	"Panjang": "19.0 cm"
},
{
	"page": 12,
	"book_url": "https://www.gramedia.com/products/conf-kind-looking-eyes-versi-bahasa-inggris",
	"title": "Kind Looking Eyes (Versi Bahasa Inggris)",
	"author": "Ahmad Tohari",
	"Jumlah Halaman": "192",
	"Tanggal Terbit": "7 Apr 2015",
	"ISBN": "978602031520",
	"Penerbit": "Gramedia Pustaka Utama",
	"Berat": "0.15 kg",
	"Lebar": "13.5 cm",
	"Panjang": "20.0 cm"
},
{
	"page": 12,
	"book_url": "https://www.gramedia.com/products/conf-maret-flowers",
	"title": "Maret : Flowers",
	"author": "Adya Pramuditha, Ninna Rosmina & Kezia Evi Wiadji",
	"Jumlah Halaman": "232.0",
	"Tanggal Terbit": "10 Mar 2015",
	"ISBN": "9786022519218",
	"Bahasa": "Indonesia",
	"Penerbit": "Gramedia Widiasarana Indonesia",
	"Berat": "0.213 kg",
	"Lebar": "13.0 cm",
	"Panjang": "19.0 cm"
},
{
	"page": 12,
	"book_url": "https://www.gramedia.com/products/ensiklopedia-ringkas-untuk-anak-bintang-planet",
	"title": "Ensiklopedia Ringkas Untuk Anak Bintang & Planet",
	"author": "Steve Parker",
	"Jumlah Halaman": "32",
	"Tanggal Terbit": "22 Agt 2016",
	"ISBN": "9786020291727",
	"Bahasa": "Indonesia",
	"Penerbit": "Elex Media Komputindo",
	"Berat": "0.1500 kg",
	"Lebar": "21 cm"
},
{
	"page": 12,
	"book_url": "https://www.gramedia.com/products/pop-up-coloring-book-moana-discover-oceania",
	"title": "Pop Up Coloring Book Moana: Discover Oceania",
	"author": "Disney",
	"Jumlah Halaman": "24",
	"Tanggal Terbit": "13 Des 2016",
	"ISBN": "9786020297477",
	"Bahasa": "English",
	"Penerbit": "Elex Media Komputindo",
	"Berat": "0.1000 kg",
	"Lebar": "21 cm"
},
{
	"page": 12,
	"book_url": "https://www.gramedia.com/products/conf-heartsick",
	"title": "Heartsick",
	"author": "Ken Ariestyani & Pia Devina",
	"Jumlah Halaman": "240",
	"Tanggal Terbit": "20 Nov 2015",
	"ISBN": "978602375208",
	"Penerbit": "Gramedia Widiasarana Indonesia",
	"Berat": "0.17 kg",
	"Lebar": "13.0 cm",
	"Panjang": "19.0 cm"
},
{
	"page": 12,
	"book_url": "https://www.gramedia.com/products/conf-financial-and-time-freedom-with-entrepreneur-7-peta-langkah-menuju-kekayaan-dan-kemakmuran",
	"title": "Financial and Time Freedom with Entrepreneur - 7 Peta Langkah Menuju Kekayaan dan Kemakmuran",
	"author": "Sapto Raharjo",
	"Jumlah Halaman": "272",
	"Tanggal Terbit": "19 Mei 2014",
	"ISBN": "978602024030",
	"Penerbit": "Elex Media Komputindo",
	"Berat": "0.2 kg",
	"Lebar": "15.0 cm",
	"Panjang": "17.0 cm"
},
{
	"page": 12,
	"book_url": "https://www.gramedia.com/products/conf-86",
	"title": "86",
	"author": "Okky Puspa Madasari",
	"Jumlah Halaman": "256",
	"Tanggal Terbit": "11 Jul 2013",
	"ISBN": "9789792267693",
	"Bahasa": "Indonesia",
	"Penerbit": "Gramedia Pustaka Utama",
	"Berat": "0.1800 kg",
	"Lebar": "13.5 cm"
},
{
	"page": 12,
	"book_url": "https://www.gramedia.com/products/conf-the-kolor-of-my-life",
	"title": "The Kolor of My Life",
	"author": "Netty Virgiantini",
	"Jumlah Halaman": "192",
	"Tanggal Terbit": "14 Jul 2015",
	"ISBN": "978602031513",
	"Penerbit": "Gramedia Pustaka Utama",
	"Berat": "0.15 kg",
	"Lebar": "13.5 cm",
	"Panjang": "20.0 cm"
},
{
	"page": 12,
	"book_url": "https://www.gramedia.com/products/dino-club-trey-the-t-rex-who-kidnapped-the-dinosaur-kids",
	"title": "Dino Club: Trey The T-Rex & Who Kidnapped The Dinosaur Kids?",
	"author": "Arleen A.",
	"Jumlah Halaman": "52",
	"Tanggal Terbit": "30 Nov 2015",
	"ISBN": "9786023940387",
	"Bahasa": "Indonesia",
	"Penerbit": "Bhuana Ilmu Populer",
	"Berat": "0.2500 kg",
	"Lebar": "22 cm"
},
{
	"page": 12,
	"book_url": "https://www.gramedia.com/products/conf-bijak-memberdayakan-uang-plastik",
	"title": "Bijak Memberdayakan Uang Plastik",
	"author": "Heru Susanto S.sos & Nataniel Kristian Susantoputra",
	"Jumlah Halaman": "362",
	"Tanggal Terbit": "6 Apr 2015",
	"ISBN": "978602026139",
	"Penerbit": "Elex Media Komputindo",
	"Berat": "0.31 kg",
	"Lebar": "14.0 cm",
	"Panjang": "21.0 cm"
},
{
	"page": 12,
	"book_url": "https://www.gramedia.com/products/conf-dua-rembulan-new-cover",
	"title": "Dua Rembulan (New Cover)",
	"author": "Luna Torashyngu",
	"Jumlah Halaman": "304",
	"Tanggal Terbit": "29 Mei 2013",
	"ISBN": "978979229586",
	"Penerbit": "Gramedia Pustaka Utama",
	"Berat": "0.24 kg",
	"Lebar": "13.5 cm",
	"Panjang": "20.0 cm"
},
{
	"page": 12,
	"book_url": "https://www.gramedia.com/products/conf-akademi-harapan-irama-7-asa",
	"title": "Akademi Harapan: Irama 7 Asa",
	"author": "Vita Agustina",
	"Jumlah Halaman": "248",
	"Tanggal Terbit": "5 Agt 2015",
	"ISBN": "978602375121",
	"Penerbit": "Gramedia Widiasarana Indonesia",
	"Berat": "0.21 kg",
	"Lebar": "14.0 cm",
	"Panjang": "21.0 cm"
},
{
	"page": 12,
	"book_url": "https://www.gramedia.com/products/conf-april-fallen",
	"title": "April; Fallen",
	"author": "Mita Miranti, Ghyna Amanda, & Alamanda Hindersah",
	"Jumlah Halaman": "248",
	"Tanggal Terbit": "23 Apr 2015",
	"ISBN": "978602251954",
	"Penerbit": "Gramedia Widiasarana Indonesia",
	"Berat": "0.18 kg",
	"Lebar": "13.0 cm",
	"Panjang": "19.0 cm"
},
{
	"page": 12,
	"book_url": "https://www.gramedia.com/products/ensiklopedia-ringkas-untuk-anak-ekonomi-dunia",
	"title": "Ensiklopedia Ringkas Untuk Anak: Ekonomi Dunia",
	"author": "Jacqueline Dineen",
	"Jumlah Halaman": "32",
	"Tanggal Terbit": "20 Mei 2016",
	"ISBN": "9786020286426",
	"Bahasa": "Indonesia",
	"Penerbit": "Elex Media Komputindo",
	"Berat": "0.1000 kg",
	"Lebar": "21 cm",
	"Panjang": "27 cm"
},
{
	"page": 12,
	"book_url": "https://www.gramedia.com/products/sd-kelas-5-pbt-tematik-sehat-itu-penting-jilid-5d-semester-1-kurikulum-2013-revisi",
	"title": "SD Kelas 5 PBT Tematik Sehat Itu Penting Jilid 5D Semester 1 Kurikulum 2013 Revisi",
	"author": "Forum Bina Prestasi",
	"Jumlah Halaman": "100",
	"Tanggal Terbit": "26 Jun 2018",
	"ISBN": "9786022999034",
	"Bahasa": "Indonesia",
	"Penerbit": "Yudhistira",
	"Berat": "0.13 kg",
	"Lebar": "20 cm",
	"Panjang": "25 cm"
},
{
	"page": 12,
	"book_url": "https://www.gramedia.com/products/conf-anak-anak-revolusi",
	"title": "Anak-Anak Revolusi",
	"author": "Budiman Sudjatmiko",
	"Jumlah Halaman": "488",
	"Tanggal Terbit": "6 Nov 2013",
	"ISBN": "978979229943",
	"Penerbit": "Gramedia Pustaka Utama",
	"Berat": "0.41 kg",
	"Lebar": "14.0 cm",
	"Panjang": "21.0 cm"
},
{
	"page": 12,
	"book_url": "https://www.gramedia.com/products/conf-islammu-adalah-maharku",
	"title": "Islammu adalah Maharku",
	"author": "Ario Muhammad",
	"Jumlah Halaman": "240",
	"Tanggal Terbit": "27 Jul 2015",
	"ISBN": "978602026799",
	"Penerbit": "Elex Media Komputindo",
	"Berat": "0.17 kg",
	"Lebar": "12.5 cm",
	"Panjang": "19.5 cm"
},
{
	"page": 12,
	"book_url": "https://www.gramedia.com/products/oei-hui-lan-kisah-putri-sang-raja-gula-dari-semarang",
	"title": "Oei Hui Lan - Kisah putri Sang Raja Gula dari Semarang",
	"author": "Agnes Davonar",
	"Jumlah Halaman": "252",
	"Tanggal Terbit": "27 Mar 2017",
	"ISBN": "9786020411767",
	"Penerbit": "Elex Media Komputindo",
	"Berat": "0.3100 kg",
	"Lebar": "19 cm",
	"Panjang": "13 cm"
},
{
	"page": 12,
	"book_url": "https://www.gramedia.com/products/update-paling-lengkap-drilling-soal-soal-tes-masuk-tni-polri",
	"title": "Update Paling Lengkap Drilling Soal-Soal Tes Masuk TNI-Polri Sistem CAT",
	"author": "Hardi Soenanto",
	"Jumlah Halaman": "432",
	"Tanggal Terbit": "27 Mar 2017",
	"ISBN": "9786023758845",
	"Bahasa": "Indonesia",
	"Penerbit": "Gramedia Widiasarana Indonesia",
	"Berat": "0.9200 kg",
	"Lebar": "19 cm"
},
{
	"page": 12,
	"book_url": "https://www.gramedia.com/products/master-modul-grammar",
	"title": "Master Modul Grammar",
	"author": "Anis NH,S.S,M.A.",
	"Jumlah Halaman": "397.0",
	"Tanggal Terbit": "14 Agt 2019",
	"ISBN": "9786237345008",
	"Penerbit": "Andaliman Books",
	"Berat": "0.36 kg",
	"Lebar": "15.0 cm",
	"Panjang": "24.0 cm"
},
{
	"page": 12,
	"book_url": "https://www.gramedia.com/products/conf-dongeng-animasi-3d-itik-buruk-rupa",
	"title": "Dongeng Animasi 3D: Itik Buruk Rupa",
	"author": "Kyowon Co",
	"Jumlah Halaman": "52",
	"Tanggal Terbit": "19 Apr 2013",
	"ISBN": "9789790743861",
	"Penerbit": "Bhuana Ilmu Populer",
	"Berat": "0.2000 kg",
	"Lebar": "20 cm"
},
{
	"page": 12,
	"book_url": "https://www.gramedia.com/products/patriot-cilik-monster-raksasa",
	"title": "Patriot Cilik - Monster Raksasa",
	"author": "Iwan Nazif Fajar Natsutomo",
	"Jumlah Halaman": "32",
	"Tanggal Terbit": "4 Feb 2019",
	"ISBN": "9786024803636",
	"Bahasa": "Indonesia",
	"Penerbit": "m&c!",
	"Berat": "0.087 kg",
	"Lebar": "23 cm",
	"Panjang": "23 cm"
},
{
	"page": 12,
	"book_url": "https://www.gramedia.com/products/pintar-gambar-dengan-angka-huruf-dan-bentuk",
	"title": "Pintar Gambar dengan Angka, Huruf dan Bentuk",
	"author": "Yusup Somadinata",
	"Jumlah Halaman": "96",
	"Tanggal Terbit": "23 Jul 2018",
	"ISBN": "9786020477138",
	"Bahasa": "Indonesia",
	"Penerbit": "Elex Media Komputindo",
	"Berat": "0.35 kg",
	"Lebar": "21 cm",
	"Panjang": "27.5 cm"
},
{
	"page": 12,
	"book_url": "https://www.gramedia.com/products/chocolate-magic-honey-blood",
	"title": "Chocolate Magic: Honey Blood",
	"author": "Rino Mizuho",
	"Jumlah Halaman": "155",
	"Tanggal Terbit": "11 Jan 2003",
	"ISBN": "9786022663256",
	"Bahasa": "Indonesia",
	"Penerbit": "m&c!",
	"Berat": "0.10 kg",
	"Lebar": "11 cm",
	"Panjang": "17 cm"
},
{
	"page": 12,
	"book_url": "https://www.gramedia.com/products/lc-i-am-a-hero-19",
	"title": "LC: I am a Hero 19",
	"author": "Hanazawa Kengo",
	"Jumlah Halaman": "200",
	"Tanggal Terbit": "28 Nov 2018",
	"ISBN": "9786020479552",
	"Bahasa": "Indonesia",
	"Penerbit": "Elex Media Komputindo",
	"Berat": "0.50 kg",
	"Lebar": "13 cm",
	"Panjang": "18 cm"
},
{
	"page": 12,
	"book_url": "https://www.gramedia.com/products/ternyata-mendidik-anak-cara-rasulullah-mudah-efektif",
	"title": "Ternyata Mendidik Anak Cara Rasulullah Mudah & Efektif",
	"author": "Wendi Zarman",
	"Jumlah Halaman": "392",
	"Tanggal Terbit": "15 Nov 2017",
	"ISBN": "9789797576554",
	"Penerbit": "Kawan Pustaka",
	"Berat": "0.326 kg",
	"Lebar": "14 cm",
	"Panjang": "20 cm"
},
{
	"page": 12,
	"book_url": "https://www.gramedia.com/products/naruto-05",
	"title": "Naruto 05",
	"author": "Masashi Kishimoto",
	"Jumlah Halaman": "161",
	"Tanggal Terbit": "1 Jan 2004",
	"ISBN": "9789792060515",
	"Bahasa": "Indonesia",
	"Penerbit": "Elex Media Komputindo",
	"Berat": "0.10 kg",
	"Lebar": "11.5 cm",
	"Panjang": "17 cm"
},
{
	"page": 12,
	"book_url": "https://www.gramedia.com/products/naruto-28-1",
	"title": "Naruto 28",
	"author": "Masashi Kishimoto",
	"Jumlah Halaman": "184",
	"Tanggal Terbit": "1 Jan 2007",
	"ISBN": "9789792099546",
	"Bahasa": "Indonesia",
	"Penerbit": "Elex Media Komputindo",
	"Berat": "0.10 kg",
	"Lebar": "11 cm",
	"Panjang": "17 cm"
},
{
	"page": 12,
	"book_url": "https://www.gramedia.com/products/robocar-poli-terjebak-hujan-deras",
	"title": "Robocar Poli : Terjebak Hujan Deras",
	"author": "Roi Visual",
	"Jumlah Halaman": "32",
	"Tanggal Terbit": "28 Agt 2017",
	"ISBN": "9786024285425",
	"Bahasa": "Indonesia",
	"Penerbit": "m&c!",
	"Berat": "0.1200 kg",
	"Lebar": "24 cm"
},
{
	"page": 12,
	"book_url": "https://www.gramedia.com/products/opredo-smart-cards-5-in-1-animals-card-games",
	"title": "Opredo Smart Cards: 5 in 1 Animals Card Games",
	"author": "Christine Lerin Adventary",
	"Jumlah Halaman": "106",
	"Tanggal Terbit": "8 Okt 2018",
	"ISBN": "718231518",
	"Bahasa": "Indonesia",
	"Penerbit": "Elex Media Komputindo",
	"Berat": "0.150 kg",
	"Lebar": "9 cm",
	"Panjang": "13 cm"
},
{
	"page": 12,
	"book_url": "https://www.gramedia.com/products/kisah-ajaib-25-nabi-rasul-untuk-anak-shaleh",
	"title": "Kisah Ajaib 25 Nabi & Rasul Untuk Anak Shaleh",
	"author": "Ade Wulan",
	"Jumlah Halaman": "144",
	"Tanggal Terbit": "14 Okt 2016",
	"ISBN": "9786026940452",
	"Bahasa": "Indonesia",
	"Penerbit": "M Media",
	"Berat": "0.3000 kg",
	"Lebar": "21 cm"
},
{
	"page": 12,
	"book_url": "https://www.gramedia.com/products/si-genius-sains-7-menjelajahi-bumi",
	"title": "Si Genius Sains #7 : Menjelajahi Bumi",
	"author": "Shin Tae  Hoon",
	"Jumlah Halaman": "176.0",
	"Tanggal Terbit": "9 Sep 2019",
	"ISBN": "9786232163799",
	"Penerbit": "Bhuana Ilmu Populer",
	"Berat": "0.15 kg",
	"Lebar": "18.0 cm",
	"Panjang": "24.0 cm"
},
{
	"page": 12,
	"book_url": "https://www.gramedia.com/products/shaman-king-27",
	"title": "Shaman King 27",
	"author": "Hiroyuki Takei",
	"Jumlah Halaman": "192",
	"Tanggal Terbit": "4 Des 2017",
	"ISBN": "9789792305395",
	"Penerbit": "m&c!",
	"Berat": "0.125 kg",
	"Lebar": "11.2 cm",
	"Panjang": "17.6 cm"
},
{
	"page": 12,
	"book_url": "https://www.gramedia.com/products/jaringan-komputer-menggunakan-pendekatan-praktis",
	"title": "Jaringan Komputer Menggunakan Pendekatan Praktis",
	"author": "Kukuh Nugroho",
	"Jumlah Halaman": "144",
	"Tanggal Terbit": "29 Feb 2016",
	"ISBN": "9786027399907",
	"Bahasa": "Indonesia",
	"Penerbit": "Media Tera",
	"Berat": "0.2000 kg",
	"Lebar": "15 cm",
	"Panjang": "20 cm"
},
{
	"page": 12,
	"book_url": "https://www.gramedia.com/products/amazing-love-koleksi-donald",
	"title": "Amazing Love (Koleksi Donald)",
	"author": "Sarana Bobo",
	"Jumlah Halaman": "162",
	"Tanggal Terbit": "31 Jan 2017",
	"ISBN": "9789792372564",
	"Bahasa": "Indonesia",
	"Penerbit": "Penerbitan Sarana Bobo",
	"Berat": "0.243 kg",
	"Lebar": "17 cm",
	"Panjang": "24 cm"
},
{
	"page": 12,
	"book_url": "https://www.gramedia.com/products/conf-kotak-pelangi",
	"title": "Kotak Pelangi",
	"author": "Dyan Nuranindya",
	"Jumlah Halaman": "280",
	"Tanggal Terbit": "6 Jan 2015",
	"ISBN": "978602031040",
	"Penerbit": "Gramedia Pustaka Utama",
	"Berat": "0.22 kg",
	"Lebar": "13.5 cm",
	"Panjang": "20.0 cm"
},
{
	"page": 12,
	"book_url": "https://www.gramedia.com/products/perilaku-budaya-organisasi",
	"title": "Perilaku&Budaya Organisasi",
	"author": "Sudaryono",
	"Tanggal Terbit": "29 Sep 2014",
	"ISBN": "9786028969802",
	"Penerbit": "Lentera Ilmu Cendekia",
	"Berat": "0.3000 kg",
	"Lebar": "0 cm",
	"Panjang": "0 cm"
},
{
	"page": 12,
	"book_url": "https://www.gramedia.com/products/kisah-1001-serba-olahraga-yang-aneh-unik-dan-top-cd",
	"title": "Kisah 1001 Serba Olahraga Yang Aneh. Unik. Dan Top + Cd",
	"author": "Edelin Sari Wangsa",
	"Jumlah Halaman": "204",
	"Tanggal Terbit": "8 Agt 2014",
	"ISBN": "9786022516637",
	"Bahasa": "Indonesia",
	"Penerbit": "Gramedia Widiasarana Indonesia",
	"Berat": "0.3 kg",
	"Lebar": "17 cm",
	"Panjang": "24 cm"
},
{
	"page": 12,
	"book_url": "https://www.gramedia.com/products/best-husband",
	"title": "Best Husband",
	"author": "Sa_Mazidd",
	"Jumlah Halaman": "368",
	"Tanggal Terbit": "1 Feb 2018",
	"ISBN": "9786025713026",
	"Bahasa": "Indonesia",
	"Penerbit": "Penerbit Nauli Media",
	"Berat": "0.27 kg",
	"Lebar": "14 cm",
	"Panjang": "20 cm"
},
{
	"page": 12,
	"book_url": "https://www.gramedia.com/products/blue-spring-ride-01",
	"title": "Blue Spring Ride 01",
	"author": "Io Sakisaka",
	"Jumlah Halaman": "184",
	"Tanggal Terbit": "8 Jun 2016",
	"ISBN": "9786023398379",
	"Bahasa": "Indonesia",
	"Penerbit": "m&c!",
	"Berat": "0.2000 kg",
	"Lebar": "11 cm"
},
{
	"page": 12,
	"book_url": "https://www.gramedia.com/products/kumpulan-cerita-rakyat-nusantara-terpopuler",
	"title": "Kumpulan Cerita Rakyat Nusantara Terpopuler",
	"author": "Lisdy Rahayu",
	"Jumlah Halaman": "60",
	"Tanggal Terbit": "19 Apr 2016",
	"ISBN": "9786021576540",
	"Bahasa": "Indonesia",
	"Penerbit": "Ruang Kata",
	"Berat": "0.1200 kg",
	"Lebar": "19 cm"
},
{
	"page": 12,
	"book_url": "https://www.gramedia.com/products/mengenal-alat-transportasi-bersama-mike-kereta",
	"title": "Mengenal Alat Transportasi Bersama Mike : Kereta",
	"author": "David West",
	"Jumlah Halaman": "24",
	"Tanggal Terbit": "8 Agt 2016",
	"ISBN": "9786023942077",
	"Bahasa": "Indonesia",
	"Penerbit": "Bhuana Ilmu Populer",
	"Berat": "0.1000 kg",
	"Lebar": "20 cm"
},
{
	"page": 12,
	"book_url": "https://www.gramedia.com/products/mewarnai-huruf-bersama-bubu",
	"title": "Mewarnai Huruf Bersama Bubu",
	"author": "Vlorenia Octavyani",
	"Jumlah Halaman": "60",
	"Tanggal Terbit": "29 Okt 2018",
	"ISBN": "9786024831981",
	"Bahasa": "Indonesia",
	"Penerbit": "Bhuana Ilmu Populer",
	"Berat": "0.14 kg",
	"Lebar": "24 cm",
	"Panjang": "18 cm"
},
{
	"page": 12,
	"book_url": "https://www.gramedia.com/products/my-little-pony-the-movie-keajaiban-persahabatan",
	"title": "My Little Pony The Movie : Keajaiban Persahabatan",
	"author": "Michael Vogel",
	"Jumlah Halaman": "38",
	"Tanggal Terbit": "1 Jul 2018",
	"ISBN": "9786023674589",
	"Bahasa": "Indonesia",
	"Penerbit": "Muffin Graphics",
	"Berat": "0.1 kg",
	"Lebar": "17 cm",
	"Panjang": "19 cm"
},
{
	"page": 12,
	"book_url": "https://www.gramedia.com/products/asyik-melipat-mewarnai-dan-menempel-binatang",
	"title": "Asyik Melipat, Mewarnai, dan Menempel Binatang",
	"author": "Kanaya Larasati",
	"Jumlah Halaman": "72",
	"Tanggal Terbit": "23 Jul 2018",
	"ISBN": "9786020476971",
	"Bahasa": "Indonesia",
	"Penerbit": "Elex Media Komputindo",
	"Berat": "0.3 kg",
	"Lebar": "21 cm",
	"Panjang": "27 cm"
},
{
	"page": 12,
	"book_url": "https://www.gramedia.com/products/match-learn-profesi-1",
	"title": "Match & Learn: Profesi 1",
	"author": "Team Merchandising",
	"Jumlah Halaman": "8",
	"Tanggal Terbit": "6 Agt 2018",
	"ISBN": "9786020454795",
	"Bahasa": "Indonesia",
	"Penerbit": "Elex Media Komputindo",
	"Berat": "0.2 kg",
	"Lebar": "15 cm",
	"Panjang": "15 cm"
},
{
	"page": 12,
	"book_url": "https://www.gramedia.com/products/dongeng-dongeng-ajaib",
	"title": "Dongeng - Dongeng Ajaib",
	"author": "Renny Yaniar",
	"Jumlah Halaman": "136",
	"Tanggal Terbit": "8 Agt 2018",
	"ISBN": "9786020504926",
	"Penerbit": "Gramedia Widiasarana Indonesia",
	"Berat": "0.24 kg",
	"Lebar": "20.5 cm",
	"Panjang": "27.5 cm"
},
{
	"page": 12,
	"book_url": "https://www.gramedia.com/products/science-quiz-horror",
	"title": "Science Quiz-Horror",
	"author": "Yang Seung Bok",
	"Jumlah Halaman": "200",
	"Tanggal Terbit": "7 Jun 2013",
	"ISBN": "9786020213927",
	"Bahasa": "Indonesia",
	"Penerbit": "Elex Media Komputindo",
	"Berat": "0.4500 kg",
	"Lebar": "15 cm",
	"Panjang": "23 cm"
},
{
	"page": 12,
	"book_url": "https://www.gramedia.com/products/seri-aku-ingin-menjadi-guru",
	"title": "Aku Ingin Menjadi Guru",
	"author": "Stella Ernes",
	"Jumlah Halaman": "32",
	"Tanggal Terbit": "19 Jun 2017",
	"ISBN": "9786023947508",
	"Bahasa": "Indonesia",
	"Penerbit": "Bhuana Ilmu Populer",
	"Berat": "0.1000 kg",
	"Lebar": "20 cm"
},
{
	"page": 12,
	"book_url": "https://www.gramedia.com/products/seri-ensiklopedia-cilik-bayi-binatang",
	"title": "Seri Ensiklopedia Cilik: Bayi Binatang",
	"author": "Emilie Beaumont",
	"Jumlah Halaman": "24",
	"Tanggal Terbit": "30 Des 2014",
	"ISBN": "9786022498254",
	"Bahasa": "Indonesia",
	"Penerbit": "Bhuana Ilmu Populer",
	"Berat": "0.100 kg",
	"Lebar": "16 cm",
	"Panjang": "21 cm"
},
{
	"page": 12,
	"book_url": "https://www.gramedia.com/products/conf-stories-from-the-heart-berbagi-cerita-berbagi-cinta-bilingual-book",
	"title": "Stories from The Heart - Berbagi Cerita Berbagi Cinta (Bilingual Book)",
	"author": "Clara Ng",
	"Jumlah Halaman": "172",
	"Tanggal Terbit": "15 Jun 2015",
	"ISBN": "9786020304465",
	"Bahasa": "Indonesia",
	"Penerbit": "Gramedia Pustaka Utama",
	"Berat": "0.3000 kg",
	"Lebar": "22 cm"
},
{
	"page": 12,
	"book_url": "https://www.gramedia.com/products/dongeng-3d-nusantara-legenda-telaga-biru-maluku-utara",
	"title": "Dongeng 3D Nusantara : Legenda Telaga Biru",
	"author": "Lilis Hu",
	"Jumlah Halaman": "56",
	"Tanggal Terbit": "9 Jul 2018",
	"ISBN": "9786024557065",
	"Bahasa": "Bilingual",
	"Penerbit": "Bhuana Ilmu Populer",
	"Berat": "0.18 kg",
	"Lebar": "20.5 cm",
	"Panjang": "20.5 cm"
},
{
	"page": 12,
	"book_url": "https://www.gramedia.com/products/mengenal-hewan-bersama-nora-hewan-berukuran-kecil",
	"title": "Mengenal Hewan bersama Nora: Hewan Berukuran Kecil",
	"author": "David West",
	"Jumlah Halaman": "24",
	"Tanggal Terbit": "9 Jul 2018",
	"ISBN": "9786024556891",
	"Bahasa": "Indonesia",
	"Penerbit": "Bhuana Ilmu Populer",
	"Berat": "0.15 kg",
	"Lebar": "20 cm",
	"Panjang": "20 cm"
},
{
	"page": 12,
	"book_url": "https://www.gramedia.com/products/kreasi-asyik-pintar-origami",
	"title": "Kreasi Asyik Pintar Origami",
	"author": "Munnal Hani`ah",
	"Jumlah Halaman": "80",
	"Tanggal Terbit": "26 Mar 2019",
	"ISBN": "9786024075224",
	"Bahasa": "Indonesia",
	"Penerbit": "Laksana",
	"Berat": "0.205 kg"
},
{
	"page": 12,
	"book_url": "https://www.gramedia.com/products/seperti-sungai-yang-mengalir-like-a-flowing-river",
	"title": "Seperti Sungai Yang Mengalir (Like A Flowing River)",
	"author": "Paulo Coelho",
	"Jumlah Halaman": "304",
	"Tanggal Terbit": "27 Mar 2012",
	"ISBN": "9789797228156",
	"Bahasa": "Indonesia",
	"Penerbit": "Gramedia Pustaka Utama",
	"Berat": "0.230 kg",
	"Lebar": "20 cm",
	"Panjang": "13.5 cm"
},
{
	"page": 12,
	"book_url": "https://www.gramedia.com/products/akuntansi-manajemen-teori-aplikasi",
	"title": "Akuntansi Manajemen Teori&Aplikasi",
	"author": "V Wiratna Sujarweni",
	"Jumlah Halaman": "150",
	"Tanggal Terbit": "23 Sep 2015",
	"ISBN": "9786023760107",
	"Bahasa": "Indonesia",
	"Penerbit": "Pustaka Baru Press",
	"Berat": "0.2600 kg",
	"Lebar": "19 cm",
	"Panjang": "26 cm"
},
{
	"page": 12,
	"book_url": "https://www.gramedia.com/products/3-in-1-activity-sleeping-beauty",
	"title": "3 In 1 Activity Sleeping Beauty",
	"author": "Disney",
	"Jumlah Halaman": "32",
	"Tanggal Terbit": "6 Mei 2016",
	"ISBN": "9786020285344",
	"Bahasa": "Indonesia",
	"Penerbit": "Elex Media Komputindo",
	"Berat": "0.1000 kg",
	"Lebar": "21 cm"
},
{
	"page": 12,
	"book_url": "https://www.gramedia.com/products/naruto-39",
	"title": "Naruto 39",
	"author": "Masashi Kishimoto",
	"Jumlah Halaman": "191",
	"Tanggal Terbit": "1 Jan 2008",
	"ISBN": "9789792722659",
	"Bahasa": "Indonesia",
	"Penerbit": "Elex Media Komputindo",
	"Berat": "0.145 kg",
	"Lebar": "11 cm",
	"Panjang": "17 cm"
},
{
	"page": 12,
	"book_url": "https://www.gramedia.com/products/seri-bayi-pintar-mengenal-kata",
	"title": "Seri Bayi Pintar : Mengenal Kata",
	"author": "Ballon Media",
	"Jumlah Halaman": "22",
	"Tanggal Terbit": "13 Feb 2017",
	"ISBN": "9786023944125",
	"Bahasa": "Indonesia",
	"Penerbit": "Bhuana Ilmu Populer",
	"Berat": "0.1000 kg",
	"Lebar": "9.6 cm"
},
{
	"page": 12,
	"book_url": "https://www.gramedia.com/products/taktis-berinvestasi-reksa-dana",
	"title": "Taktis Berinvestasi Reksa Dana",
	"author": "Liyanto Sudarso",
	"Jumlah Halaman": "152",
	"Tanggal Terbit": "24 Sep 2018",
	"ISBN": "9786020483634",
	"Bahasa": "Indonesia",
	"Penerbit": "Elex Media Komputindo",
	"Berat": "0.2 kg",
	"Lebar": "14 cm",
	"Panjang": "21 cm"
},
{
	"page": 12,
	"book_url": "https://www.gramedia.com/products/memeluk-masa-lalu",
	"title": "Memeluk Masa Lalu",
	"author": "Dwitasari",
	"Jumlah Halaman": "132",
	"Tanggal Terbit": "5 Feb 2016",
	"ISBN": "9786021383773",
	"Bahasa": "Indonesia",
	"Penerbit": "Mizan",
	"Berat": "0.1000 kg",
	"Lebar": "11 cm"
},
{
	"page": 12,
	"book_url": "https://www.gramedia.com/products/mencintaimu-bukanlah-sebuah-kesalahan",
	"title": "Mencintaimu Bukanlah Sebuah Kesalahan",
	"author": "Infiniteloved",
	"Jumlah Halaman": "199",
	"Tanggal Terbit": "14 Mar 2017",
	"ISBN": "9786021036525",
	"Bahasa": "Indonesia",
	"Penerbit": "Transmedia",
	"Berat": "0.1650 kg",
	"Lebar": "13 cm"
},
{
	"page": 12,
	"book_url": "https://www.gramedia.com/products/mata-malam",
	"title": "Mata Malam",
	"author": "Han Kang",
	"Jumlah Halaman": "257",
	"Tanggal Terbit": "30 Okt 2017",
	"ISBN": "9786026486127",
	"Bahasa": "Indonesia",
	"Penerbit": "Baca",
	"Berat": "0.20 kg",
	"Lebar": "13 cm",
	"Panjang": "20.5 cm"
},
{
	"page": 12,
	"book_url": "https://www.gramedia.com/products/sma-klxxixii-1-for-all-update-bank-soal-full-pemb-soshum",
	"title": "SMA Kls.X,XI,XII 1 For All Update Bank Soal Full Pembahasan Soshum",
	"author": "Tim Presiden Eduka",
	"Jumlah Halaman": "718",
	"Tanggal Terbit": "1 Mar 2018",
	"ISBN": "9786055851422",
	"Bahasa": "Indonesia",
	"Penerbit": "Genta Smart Publisher",
	"Berat": "1.212 kg",
	"Lebar": "19 cm",
	"Panjang": "26 cm"
},
{
	"page": 12,
	"book_url": "https://www.gramedia.com/products/seraph-of-the-end-05",
	"title": "Seraph Of The End 05",
	"author": "Yamamoto Yamato",
	"Jumlah Halaman": "192",
	"Tanggal Terbit": "28 Des 2016",
	"ISBN": "9786020298542",
	"Bahasa": "Indonesia",
	"Penerbit": "Elex Media Komputindo",
	"Berat": "0.1300 kg",
	"Lebar": "11.4 cm"
},
{
	"page": 12,
	"book_url": "https://www.gramedia.com/products/the-mystery-of-the-blue-train-misteri-kereta-api-biru",
	"title": "The Mystery of the Blue Train (Misteri Kereta Api Biru)",
	"author": "Agatha Christie",
	"Jumlah Halaman": "376",
	"Tanggal Terbit": "17 Sep 2018",
	"ISBN": "9789792234183",
	"Bahasa": "Indonesia",
	"Penerbit": "Gramedia Pustaka Utama",
	"Berat": "0.15 kg",
	"Lebar": "11 cm",
	"Panjang": "18 cm"
},
{
	"page": 12,
	"book_url": "https://www.gramedia.com/products/rindu-surga-ayah",
	"title": "Rindu Surga Ayah",
	"author": "Lulu",
	"Jumlah Halaman": "194",
	"Tanggal Terbit": "2 Jan 2019",
	"ISBN": "9786025350900",
	"Bahasa": "Indonesia",
	"Penerbit": "After Us",
	"Berat": "0.155 kg",
	"Lebar": "19 cm",
	"Panjang": "13 cm"
},
{
	"page": 12,
	"book_url": "https://www.gramedia.com/products/komik-anak-muslim",
	"title": "Komik Anak Muslim",
	"author": "Dian Kristiani",
	"Jumlah Halaman": "108",
	"Tanggal Terbit": "1 Jan 2001",
	"ISBN": "9786026380548",
	"Bahasa": "Indonesia",
	"Penerbit": "Anak Hebat Indonesia",
	"Berat": "0.2000 kg",
	"Lebar": "18 cm"
},
{
	"page": 12,
	"book_url": "https://www.gramedia.com/products/fun-cooking-with-yackikuka",
	"title": "Fun Cooking With Yackikuka",
	"author": "Melliana Hardi",
	"Jumlah Halaman": "160",
	"Tanggal Terbit": "9 Nov 2018",
	"ISBN": "9786025406799",
	"Bahasa": "Indonesia",
	"Penerbit": "Loveable",
	"Berat": "0.2 kg"
},
