{
	page: 9,
	kategori 1: fiksi-sastra,
	kategori 2: fiksi-populer,
	book_url: https://www.gramedia.com/products/the-fourth-monkey,
	title: The Fourth Monkey,
	author: J.D. Barker,
	Jumlah Halaman: 576,
	Tanggal Terbit: 28 Mei 2018,
	ISBN: 9786024555740,
	Bahasa: Indonesia,
	Penerbit: Bhuana Ilmu Populer,
	Berat: 0.480 kg,
	Lebar: 13.5 cm,
	Panjang: 20 cm,
},
{
	page: 9,
	kategori 1: fiksi-sastra,
	kategori 2: fiksi-populer,
	book_url: https://www.gramedia.com/products/city-lite-beta-testing-job-series-1,
	title: City Lite: Beta Testing (Job Series #1),
	author: Mooseboo .,
	Jumlah Halaman: 352.0,
	Tanggal Terbit: 14 Okt 2019,
	ISBN: 9786230006784,
	Bahasa: Indonesia,
	Penerbit: Elex Media Komputindo,
	Berat: 0.23 kg,
	Lebar: 12.5 cm,
	Panjang: 19.5 cm,
},
{
	page: 9,
	kategori 1: fiksi-sastra,
	kategori 2: fiksi-populer,
	book_url: https://www.gramedia.com/products/tentang-setelahnya,
	title: Tentang Setelahnya,
	author: Rey Mbayang,
	Jumlah Halaman: 166.0,
	Tanggal Terbit: 20 Nov 2019,
	ISBN: 9786026714572,
	Bahasa: Indonesia,
	Penerbit: Falcon,
	Berat: 0.17 kg,
	Lebar: 14.0 cm,
	Panjang: 21.0 cm,
},
{
	page: 9,
	kategori 1: fiksi-sastra,
	kategori 2: fiksi-populer,
	book_url: https://www.gramedia.com/products/crying-in-my-porsche,
	title: Crying In My Porsche,
	author: Christian Simamora,
	Jumlah Halaman: 0,
	Tanggal Terbit: 18 Jun 2019,
	ISBN: 9786025344688,
	Bahasa: Indonesia,
	Penerbit: Buku Kita,
	Berat: 0.32 kg,
	Lebar: 0.0 cm,
	Panjang: 0.0 cm,
},
{
	page: 9,
	kategori 1: fiksi-sastra,
	kategori 2: fiksi-populer,
	book_url: https://www.gramedia.com/products/kepingan-supernova,
	title: Kepingan Supernova,
	author: Dewi 'Dee' Lestari,
	Jumlah Halaman: 172,
	Tanggal Terbit: 11 Apr 2017,
	ISBN: 9786022912705,
	Bahasa: Indonesia,
	Penerbit: Bentang Pustaka,
	Berat: 0.23 kg,
	Lebar: 14 cm,
	Panjang: 20 cm,
},
{
	page: 9,
	kategori 1: fiksi-sastra,
	kategori 2: fiksi-populer,
	book_url: https://www.gramedia.com/products/sketch-of-love,
	title: Sketch Of Love,
	author: Amelia,
	Jumlah Halaman: 196,
	Tanggal Terbit: 24 Jun 2019,
	ISBN: 9786232162259,
	Bahasa: Indonesia,
	Penerbit: Bhuana Ilmu Populer,
	Berat: 0.120 kg,
	Lebar: 13 cm,
	Panjang: 19 cm,
},
{
	page: 9,
	kategori 1: fiksi-sastra,
	kategori 2: fiksi-populer,
	book_url: https://www.gramedia.com/products/classics-perjalanan-pulang-the-incredible-journey,
	title: Classics: Perjalanan Pulang (The Incredible Journey),
	author: Sheila Burnford,
	Jumlah Halaman: 144.0,
	Tanggal Terbit: 18 Nov 2019,
	ISBN: 9789792281712,
	Bahasa: Indonesia,
	Penerbit: Gramedia Pustaka Utama,
	Berat: 0.13 kg,
	Lebar: 13.5 cm,
	Panjang: 20.0 cm,
},
{
	page: 9,
	kategori 1: fiksi-sastra,
	kategori 2: fiksi-populer,
	book_url: https://www.gramedia.com/products/the-grumpy,
	title: The Grumpy,
	author: Liliana Hikari,
	Jumlah Halaman: 420,
	Tanggal Terbit: 20 Mar 2019,
	ISBN: 9786239033217,
	Bahasa: Indonesia,
	Penerbit: Rainbow Books,
	Berat: 0.3 kg,
},
{
	page: 9,
	kategori 1: fiksi-sastra,
	kategori 2: fiksi-populer,
	book_url: https://www.gramedia.com/products/hidden-story,
	title: Hidden Story,
	author: Bang Mirae,
	Jumlah Halaman: 400,
	Tanggal Terbit: 5 Nov 2018,
	ISBN: 9786239088521,
	Bahasa: Indonesia,
	Penerbit: Rainbow Books,
	Berat: 0.230 kg,
},
{
	page: 9,
	kategori 1: fiksi-sastra,
	kategori 2: fiksi-populer,
	book_url: https://www.gramedia.com/products/saudade-kumpulan-senandika-dari-falla-adinda,
	title: Saudade; Kumpulan Senandika Dari Falla Adinda,
	author: Falla Adinda,
	Jumlah Halaman: 172.0,
	Tanggal Terbit: 26 Sep 2019,
	ISBN: 9786026714558,
	Bahasa: Indonesia,
	Penerbit: Buku Kita Pt,
	Berat: 0.165 kg,
	Lebar: 15.5 cm,
	Panjang: 15.5 cm,
},
{
	page: 9,
	kategori 1: fiksi-sastra,
	kategori 2: fiksi-populer,
	book_url: https://www.gramedia.com/products/a-cogheart-adventure-2-moonlocket,
	title: A Cogheart Adventure #2: Moonlocket,
	author: Peter Bunzl,
	Jumlah Halaman: 336,
	Tanggal Terbit: 25 Mar 2019,
	ISBN: 9786232160248,
	Bahasa: Indonesia,
	Penerbit: Bhuana Ilmu Populer,
	Berat: 0.210 kg,
	Lebar: 13.5 cm,
	Panjang: 20 cm,
},
{
	page: 9,
	kategori 1: fiksi-sastra,
	kategori 2: fiksi-populer,
	book_url: https://www.gramedia.com/products/temu,
	title: Temu,
	author: Wirasakti Setyawan,
	Jumlah Halaman: 224.0,
	Tanggal Terbit: 14 Nov 2018,
	ISBN: 9786021036914,
	Bahasa: Indonesia,
	Penerbit: Transmedia,
	Berat: 0.23 kg,
	Lebar: 14.0 cm,
	Panjang: 19.0 cm,
},
{
	page: 9,
	kategori 1: fiksi-sastra,
	kategori 2: fiksi-populer,
	book_url: https://www.gramedia.com/products/holy-mother-1,
	title: Holy Mother (2019),
	author: Akiyoshi Rikako,
	Jumlah Halaman: 280,
	Tanggal Terbit: 20 Feb 2019,
	ISBN: 9786025385810,
	Bahasa: Indonesia,
	Penerbit: Penerbit Haru,
	Berat: 0.275 kg,
	Lebar: 13 cm,
	Panjang: 19 cm,
},
{
	page: 9,
	kategori 1: fiksi-sastra,
	kategori 2: fiksi-populer,
	book_url: https://www.gramedia.com/products/harlequin-koleksi-istimewa-terikat-cinta-miliarder-yunani,
	title: Harlequin Koleksi Istimewa: Terikat Cinta Miliarder Yunani (Bound to her Greek Billionaire),
	author: Rebecca Winters,
	Jumlah Halaman: 246,
	Tanggal Terbit: 29 Jul 2019,
	ISBN: 9786020630403,
	Bahasa: Indonesia,
	Penerbit: Gramedia Pustaka Utama,
	Berat: 0.120 kg,
	Lebar: 11 cm,
	Panjang: 18 cm,
},
{
	page: 9,
	kategori 1: fiksi-sastra,
	kategori 2: fiksi-populer,
	book_url: https://www.gramedia.com/products/earth-edisi-inggris-bumi,
	title: Earth (Bumi Versi English),
	author: Tere Liye,
	Jumlah Halaman: 368,
	Tanggal Terbit: 11 Mar 2019,
	ISBN: 9786020627519,
	Bahasa: English,
	Penerbit: Gramedia Pustaka Utama,
	Berat: 0.2 kg,
	Lebar: 13.5 cm,
	Panjang: 20 cm,
},
{
	page: 9,
	kategori 1: fiksi-sastra,
	kategori 2: fiksi-populer,
	book_url: https://www.gramedia.com/products/kkn-di-desa-penari,
	title: KKN Di Desa Penari,
	author: SIMPLEMAN,
	Jumlah Halaman: 255.0,
	Tanggal Terbit: 16 Sep 2019,
	ISBN: 9786022203339,
	Bahasa: Indonesia,
	Penerbit: BUKUNE,
	Berat: 0.215 kg,
	Lebar: 14.0 cm,
	Panjang: 20.0 cm,
},
{
	page: 9,
	kategori 1: fiksi-sastra,
	kategori 2: fiksi-populer,
	book_url: https://www.gramedia.com/products/a-poem-i-wrote-for-you-a-poem-with-your-name-2-hard-cover,
	title: A Poem I Wrote For You (A Poem with Your Name #2),
	author: Adi K.,
	Jumlah Halaman: 192,
	Tanggal Terbit: 8 Apr 2019,
	ISBN: 9786020495422,
	Bahasa: English,
	Penerbit: Elex Media Komputindo,
	Berat: 0.110 kg,
	Lebar: 10 cm,
	Panjang: 15 cm,
},
{
	page: 9,
	kategori 1: fiksi-sastra,
	kategori 2: fiksi-populer,
	book_url: https://www.gramedia.com/products/harry-potter-dan-tawanan-azkaban-harry-potter-and-the-priso,
	title: Harry Potter dan Tawanan Azkaban (Harry Potter and The Prisoner of Azkaban) - Cover Baru,
	author: J.k. Rowling,
	Jumlah Halaman: 544,
	Tanggal Terbit: 5 Apr 2017,
	ISBN: 9786020342733,
	Bahasa: Indonesia,
	Penerbit: Gramedia Pustaka Utama,
	Berat: 0.4800 kg,
	Lebar: 13.5 cm,
	Panjang: 20 cm,
},
{
	page: 9,
	kategori 1: fiksi-sastra,
	kategori 2: fiksi-populer,
	book_url: https://www.gramedia.com/products/hr-a-scot-in-the-dark,
	title: HR: A Scot in The Dark,
	author: Sarah Maclean,
	Jumlah Halaman: 488.0,
	Tanggal Terbit: 6 Jan 2020,
	ISBN: 9786230011771,
	Bahasa: Indonesia,
	Penerbit: Elex Media Komputindo,
	Berat: 0.12 kg,
	Lebar: 11.0 cm,
	Panjang: 18.0 cm,
},
{
	page: 9,
	kategori 1: fiksi-sastra,
	kategori 2: fiksi-populer,
	book_url: https://www.gramedia.com/products/english-classics-the-black-arrow,
	title: English Classics: The Black Arrow,
	author: Robert Louis Stevenson,
	Jumlah Halaman: 336.0,
	Tanggal Terbit: 27 Mei 2019,
	ISBN: 9786020630007,
	Bahasa: English,
	Penerbit: Gramedia Pustaka Utama,
	Berat: 0.12 kg,
	Lebar: 11.0 cm,
	Panjang: 18.0 cm,
},
