{
	page: 17,
	kategori 1: fiksi-sastra,
	kategori 2: fiksi-populer,
	book_url: https://www.gramedia.com/products/countless-love-cinta-tak-terhitung,
	title: Countless Love (Cinta Tak Terhitung),
	author: Fala Amalina,
	Jumlah Halaman: 316,
	Tanggal Terbit: 21 Agt 2018,
	ISBN: 9789797809287,
	Bahasa: Indonesia,
	Penerbit: Gagas Media,
	Berat: 0.4 kg,
	Lebar: 14 cm,
	Panjang: 20 cm,
},
{
	page: 17,
	kategori 1: fiksi-sastra,
	kategori 2: fiksi-populer,
	book_url: https://www.gramedia.com/products/paradigma,
	title: Paradigma,
	author: Syahid Muhammad,
	Jumlah Halaman: 316,
	Tanggal Terbit: 10 Sep 2018,
	ISBN: 9786022081692,
	Bahasa: Indonesia,
	Penerbit: Gradien Mediatama,
	Berat: 0.3 kg,
},
{
	page: 17,
	kategori 1: fiksi-sastra,
	kategori 2: fiksi-populer,
	book_url: https://www.gramedia.com/products/the-outsider-sang-pemberontak,
	title: The Outsider (Sang Pemberontak),
	author: Albert Camus,
	Jumlah Halaman: 164,
	Tanggal Terbit: 31 Okt 2017,
	ISBN: 9786021527535,
	Bahasa: Indonesia,
	Penerbit: Ecosystem,
	Berat: 0.13 kg,
	Lebar: 13 cm,
	Panjang: 20 cm,
},
{
	page: 17,
	kategori 1: fiksi-sastra,
	kategori 2: fiksi-populer,
	book_url: https://www.gramedia.com/products/light-in-a-maze,
	title: Light In A Maze,
	author: Citra Novy,
	Jumlah Halaman: 256,
	Tanggal Terbit: 26 Feb 2018,
	ISBN: 9786024528089,
	Bahasa: Indonesia,
	Penerbit: Gramedia Widiasarana Indonesia,
	Berat: 0.180 kg,
	Lebar: 13.5 cm,
	Panjang: 20 cm,
},
{
	page: 17,
	kategori 1: fiksi-sastra,
	kategori 2: fiksi-populer,
	book_url: https://www.gramedia.com/products/wf-in-this-moment,
	title: WF: In This Moment,
	author: KARMA BROWN,
	Jumlah Halaman: 360,
	Tanggal Terbit: 18 Feb 2019,
	ISBN: 9786020490168,
	Bahasa: Indonesia,
	Penerbit: Elex Media Komputindo,
	Berat: 0.250 kg,
	Lebar: 20 cm,
	Panjang: 13.5 cm,
},
{
	page: 17,
	kategori 1: fiksi-sastra,
	kategori 2: fiksi-populer,
	book_url: https://www.gramedia.com/products/kanuku-leon,
	title: Kanuku Leon,
	author: Dicky Senda,
	Jumlah Halaman: 150,
	Tanggal Terbit: 23 Apr 2018,
	ISBN: 9786020502519,
	Bahasa: Indonesia,
	Penerbit: Gramedia Widiasarana Indonesia,
	Berat: 0.200 kg,
	Lebar: 14 cm,
	Panjang: 20 cm,
},
{
	page: 17,
	kategori 1: fiksi-sastra,
	kategori 2: fiksi-populer,
	book_url: https://www.gramedia.com/products/merinding,
	title: Merinding,
	author: Tuti Kasih,
	Jumlah Halaman: 132.0,
	Tanggal Terbit: 26 Agt 2019,
	ISBN: 9786232164161,
	Penerbit: Bhuana Ilmu Populer,
	Berat: 0.12 kg,
	Lebar: 13.0 cm,
	Panjang: 19.0 cm,
},
{
	page: 17,
	kategori 1: fiksi-sastra,
	kategori 2: fiksi-populer,
	book_url: https://www.gramedia.com/products/moga-bunda-disayang-allah-ed-film,
	title: Moga Bunda Disayang Allah,
	author: Tere Liye,
	Jumlah Halaman: 246,
	Tanggal Terbit: 19 Feb 2013,
	ISBN: 9786028997652,
	Bahasa: Indonesia,
	Penerbit: Republika,
	Berat: 0.500 kg,
	Lebar: 14 cm,
	Panjang: 20.5 cm,
},
{
	page: 17,
	kategori 1: fiksi-sastra,
	kategori 2: fiksi-populer,
	book_url: https://www.gramedia.com/products/teenlit-perfect-scenario,
	title: TeenLit: Perfect Scenario,
	author: Kezia Evi Wiadji,
	Jumlah Halaman: 280,
	Tanggal Terbit: 13 Agt 2018,
	ISBN: 9786020320885,
	Bahasa: Indonesia,
	Penerbit: Gramedia Pustaka Utama,
	Berat: 0.185 kg,
	Lebar: 13.5 cm,
	Panjang: 20 cm,
},
{
	page: 17,
	kategori 1: fiksi-sastra,
	kategori 2: fiksi-populer,
	book_url: https://www.gramedia.com/products/sampar,
	title: Sampar,
	author: Albert Camus,
	Jumlah Halaman: 130,
	Tanggal Terbit: 3 Jun 2016,
	ISBN: 9789791684408,
	Bahasa: Indonesia,
	Penerbit: Narasi,
	Berat: 0.1 kg,
	Lebar: 14 cm,
	Panjang: 20.5 cm,
},
{
	page: 17,
	kategori 1: fiksi-sastra,
	kategori 2: fiksi-populer,
	book_url: https://www.gramedia.com/products/ada-berita-apa-hari-ini-den-sastro,
	title: Ada Berita Apa Hari Ini, Den Sastro?,
	author: Sapardi Djoko Damono,
	Jumlah Halaman: 124,
	Tanggal Terbit: 27 Mar 2017,
	ISBN: 9786020339634,
	Bahasa: Indonesia,
	Penerbit: Gramedia Pustaka Utama,
	Berat: 0.1800 kg,
	Lebar: 14 cm,
	Panjang: 21 cm,
},
{
	page: 17,
	kategori 1: fiksi-sastra,
	kategori 2: fiksi-populer,
	book_url: https://www.gramedia.com/products/hi-fi,
	title: HI-FI,
	author: Bayu Permana,
	Jumlah Halaman: 160,
	Tanggal Terbit: 19 Mar 2019,
	ISBN: 9786024804039,
	Bahasa: Indonesia,
	Penerbit: m&c!,
	Berat: 0.130 kg,
	Lebar: 13 cm,
	Panjang: 19 cm,
},
{
	page: 17,
	kategori 1: fiksi-sastra,
	kategori 2: fiksi-populer,
	book_url: https://www.gramedia.com/products/harlequin-no-one-but-you-hanya-dirimu,
	title: Harlequin: No One but You (Hanya Dirimu),
	author: Brenda Novak,
	Jumlah Halaman: 528,
	Tanggal Terbit: 4 Jun 2018,
	ISBN: 9786020386584,
	Bahasa: Indonesia,
	Penerbit: Gramedia Pustaka Utama,
	Berat: 0.25 kg,
	Lebar: 11 cm,
	Panjang: 18 cm,
},
{
	page: 17,
	kategori 1: fiksi-sastra,
	kategori 2: fiksi-populer,
	book_url: https://www.gramedia.com/products/cr-the-shape-of-my-heart,
	title: CR: The Shape of My Heart,
	author: Ann Aguirre,
	Jumlah Halaman: 464,
	Tanggal Terbit: 23 Nov 2015,
	ISBN: 9786020275307,
	Bahasa: Indonesia,
	Penerbit: Elex Media Komputindo,
	Berat: 0.2 kg,
	Lebar: 11 cm,
	Panjang: 18 cm,
},
{
	page: 17,
	kategori 1: fiksi-sastra,
	kategori 2: fiksi-populer,
	book_url: https://www.gramedia.com/products/cermin-tak-pernah-berdusta,
	title: Cermin Tak Pernah Berdusta,
	author: Mira W,
	Jumlah Halaman: 176,
	Tanggal Terbit: 14 Jan 2019,
	ISBN: 9786020621036,
	Bahasa: Indonesia,
	Penerbit: Gramedia Pustaka Utama,
	Berat: 0.13 kg,
	Lebar: 20 cm,
	Panjang: 13.5 cm,
},
{
	page: 17,
	kategori 1: fiksi-sastra,
	kategori 2: fiksi-populer,
	book_url: https://www.gramedia.com/products/q-a,
	title: Q & A,
	author: Sherina Salsabila,
	Jumlah Halaman: 237,
	Tanggal Terbit: 23 Nov 2018,
	ISBN: 9786025199356,
	Bahasa: Indonesia,
	Penerbit: Moka Media,
	Berat: 0.172 kg,
	Lebar: 19 cm,
	Panjang: 13 cm,
},
{
	page: 17,
	kategori 1: fiksi-sastra,
	kategori 2: fiksi-populer,
	book_url: https://www.gramedia.com/products/historical-romance-my-american-duchess-duchess-amerika,
	title: Historical Romance: My American Duchess (Duchess Amerika),
	author: Eloisa James,
	Jumlah Halaman: 528,
	Tanggal Terbit: 24 Sep 2018,
	ISBN: 9786020616247,
	Bahasa: Indonesia,
	Penerbit: Gramedia Pustaka Utama,
	Berat: 0.26 kg,
	Lebar: 11 cm,
	Panjang: 18 cm,
},
{
	page: 17,
	kategori 1: fiksi-sastra,
	kategori 2: fiksi-populer,
	book_url: https://www.gramedia.com/products/historical-romance-shes-no-princess-pangeran-miss-valenti,
	title: Historical Romance: She's No Princess (Pangeran Miss Valenti),
	author: Laura Lee Guhrke,
	Jumlah Halaman: 456,
	Tanggal Terbit: 17 Des 2018,
	ISBN: 9786020620725,
	Bahasa: Indonesia,
	Penerbit: Gramedia Pustaka Utama,
	Berat: 0.230 kg,
	Lebar: 11 cm,
	Panjang: 18 cm,
},
{
	page: 17,
	kategori 1: fiksi-sastra,
	kategori 2: fiksi-populer,
	book_url: https://www.gramedia.com/products/bad-girl-in-pesantren,
	title: BAD GIRL IN PESANTREN,
	author: Intan Zs,
	Jumlah Halaman: 224,
	Tanggal Terbit: 2 Mei 2018,
	ISBN: 9786025508158,
	Bahasa: Indonesia,
	Penerbit: Bintang Media,
	Berat: 0.20 kg,
	Lebar: 14 cm,
	Panjang: 20 cm,
},
{
	page: 17,
	kategori 1: fiksi-sastra,
	kategori 2: fiksi-populer,
	book_url: https://www.gramedia.com/products/teenlit-dark-love,
	title: TeenLit: Dark Love,
	author: Ken Terate,
	Jumlah Halaman: 248,
	Tanggal Terbit: 27 Agt 2018,
	ISBN: 9789792287516,
	Bahasa: Indonesia,
	Penerbit: Gramedia Pustaka Utama,
	Berat: 0.18 kg,
	Lebar: 13.5 cm,
	Panjang: 20 cm,
},
