{
	page: 75,
	kategori 1: fiksi-sastra,
	kategori 2: fiksi-populer,
	book_url: https://www.gramedia.com/products/my-precious-ghost-in-a-jar-2,
	title: My Precious Ghost In A Jar 2,
	author: Ra Hye Won,
	Jumlah Halaman: 480.0,
	Tanggal Terbit: 25 Nov 2019,
	ISBN: 9786024805647,
	Bahasa: Indonesia,
	Penerbit: m&c!,
	Berat: 0.25 kg,
	Lebar: 13.0 cm,
	Panjang: 19.0 cm,
},
{
	page: 75,
	kategori 1: fiksi-sastra,
	kategori 2: fiksi-populer,
	book_url: https://www.gramedia.com/products/kesatria-kuda-putih-santri-pejuang,
	title: Kesatria Kuda Putih: Santri Pejuang,
	author: Ahmad Sufiatur Rahman,
	Jumlah Halaman: 210,
	Tanggal Terbit: 3 Jul 2015,
	ISBN: 9786027212978,
	Bahasa: Indonesia,
	Penerbit: Tinta Medina,
	Berat: 0.2000 kg,
	Lebar: 14 cm,
},
{
	page: 75,
	kategori 1: fiksi-sastra,
	kategori 2: fiksi-populer,
	book_url: https://www.gramedia.com/products/terima-kasih-atas-kehidupan-ini,
	title: Terima Kasih Atas Kehidupan Ini,
	author: Edi Ah Iyubenu,
	Jumlah Halaman: 152,
	Tanggal Terbit: 25 Des 2017,
	ISBN: 9786023914975,
	Penerbit: Divapress,
	Berat: 0.125 kg,
	Lebar: 14 cm,
	Panjang: 20 cm,
},
{
	page: 75,
	kategori 1: fiksi-sastra,
	kategori 2: fiksi-populer,
	book_url: https://www.gramedia.com/products/luka-paling-dalam,
	title: Luka Paling Dalam,
	author: Ari Keling,
	Jumlah Halaman: 248,
	Tanggal Terbit: 19 Feb 2019,
	ISBN: 9786024074913,
	Bahasa: Indonesia,
	Penerbit: Laksana,
	Berat: 0.210 kg,
	Lebar: 20 cm,
	Panjang: 14 cm,
},
{
	page: 75,
	kategori 1: fiksi-sastra,
	kategori 2: fiksi-populer,
	book_url: https://www.gramedia.com/products/radios-heart,
	title: Radio's Heart,
	author: Lia Nurida,
	Jumlah Halaman: 224,
	Tanggal Terbit: 22 Des 2018,
	ISBN: 9786020515205,
	Bahasa: Indonesia,
	Penerbit: Gramedia Widiasarana Indonesia,
	Berat: 0.17 kg,
	Lebar: 19 cm,
	Panjang: 13 cm,
},
{
	page: 75,
	kategori 1: fiksi-sastra,
	kategori 2: fiksi-populer,
	book_url: https://www.gramedia.com/products/728-hari,
	title: 728 Hari,
	author: Djono W. Oesman,
	Jumlah Halaman: 320,
	Tanggal Terbit: 15 Okt 2015,
	ISBN: 9786027330313,
	Bahasa: Indonesia,
	Penerbit: Best Media,
	Berat: 0.3100 kg,
	Lebar: 13 cm,
},
{
	page: 75,
	kategori 1: fiksi-sastra,
	kategori 2: fiksi-populer,
	book_url: https://www.gramedia.com/products/fall-a-part,
	title: Fall A Part,
	author: Healer,
	Jumlah Halaman: 392,
	Tanggal Terbit: 25 Apr 2019,
	ISBN: 9786025392931,
	Bahasa: Indonesia,
	Penerbit: Antera,
	Berat: 0.32 kg,
	Lebar: 14 cm,
	Panjang: 20 cm,
},
{
	page: 75,
	kategori 1: fiksi-sastra,
	kategori 2: fiksi-populer,
	book_url: https://www.gramedia.com/products/tuhan-tidak-makan-ikan,
	title: Tuhan Tidak Makan Ikan,
	author: Gunawan Tri Atmodjo,
	Jumlah Halaman: 244,
	Tanggal Terbit: 27 Apr 2016,
	ISBN: 9786022792253,
	Penerbit: Diva Press,
	Berat: 0.1900 kg,
	Lebar: 14 cm,
},
{
	page: 75,
	kategori 1: fiksi-sastra,
	kategori 2: fiksi-populer,
	book_url: https://www.gramedia.com/products/komik-dilan-bagian-1,
	title: Komik Dilan Bagian 1,
	author: Pidi Baiq,
	Jumlah Halaman: 280.0,
	Tanggal Terbit: 15 Jan 2020,
	ISBN: 9786239208325,
	Bahasa: Indonesia,
	Penerbit: Pastel,
	Berat: 0.241 kg,
	Lebar: 14.0 cm,
	Panjang: 21.0 cm,
},
{
	page: 75,
	kategori 1: fiksi-sastra,
	kategori 2: fiksi-populer,
	book_url: https://www.gramedia.com/products/fantasteenkutukan-kisah-drama,
	title: Fantasteen:Kutukan kisah Drama,
	author: Evangelina Tessia P (Tessia),
	Jumlah Halaman: 256.0,
	Tanggal Terbit: 4 Des 2019,
	ISBN: 9786024209803,
	Bahasa: Indonesia,
	Penerbit: Mizan Media Utama,
	Berat: 0.204 kg,
	Lebar: 13.5 cm,
	Panjang: 19.5 cm,
},
{
	page: 75,
	kategori 1: fiksi-sastra,
	kategori 2: fiksi-populer,
	book_url: https://www.gramedia.com/products/three-words-left-unsaid,
	title: Three Words Left Unsaid,
	author: Gianni Brigitta Laurent,
	Jumlah Halaman: 355,
	Tanggal Terbit: 6 Feb 2019,
	ISBN: 9786027862579,
	Bahasa: English,
	Penerbit: Brilliant,
	Berat: 0.350 kg,
	Lebar: 19.5 cm,
	Panjang: 13.5 cm,
},
{
	page: 75,
	kategori 1: fiksi-sastra,
	kategori 2: fiksi-populer,
	book_url: https://www.gramedia.com/products/kissing-the-playboy,
	title: Kissing The Playboy,
	author: Despersa,
	Jumlah Halaman: 318.0,
	Tanggal Terbit: 14 Feb 2020,
	ISBN: 9786237211532,
	Bahasa: Indonesia,
	Penerbit: LOVEABLE,
	Berat: 0.214 kg,
	Lebar: 13.0 cm,
	Panjang: 19.0 cm,
},
{
	page: 75,
	kategori 1: fiksi-sastra,
	kategori 2: fiksi-populer,
	book_url: https://www.gramedia.com/products/mahakarya-tak-dikenal,
	title: Mahakarya Tak Dikenal,
	author: Honore De Balzac,
	Jumlah Halaman: 140.0,
	Tanggal Terbit: 31 Jan 2020,
	ISBN: 9786023918966,
	Bahasa: Indonesia,
	Penerbit: DivaPress,
	Berat: 0.125 kg,
	Lebar: 14.0 cm,
	Panjang: 20.0 cm,
},
{
	page: 75,
	kategori 1: fiksi-sastra,
	kategori 2: fiksi-populer,
	book_url: https://www.gramedia.com/products/kepak-sayap-patah,
	title: Kepak Sayap Patah,
	author: Renyta Listyawati,
	Jumlah Halaman: 156,
	Tanggal Terbit: 6 Des 2017,
	ISBN: 9786025469053,
	Bahasa: Indonesia,
	Penerbit: Psikologi Corner,
	Berat: 0.14 kg,
	Lebar: 14 cm,
	Panjang: 20 cm,
},
{
	page: 75,
	kategori 1: fiksi-sastra,
	kategori 2: fiksi-populer,
	book_url: https://www.gramedia.com/products/finally-the-netherland,
	title: Finally, The Netherland,
	author: FITRIA SAWARDI DAN IRHAM ALADIST,
	Jumlah Halaman: 192.0,
	Tanggal Terbit: 24 Jun 2019,
	ISBN: 9786232162228,
	Penerbit: Bhuana Ilmu Populer,
	Berat: 0.15 kg,
	Lebar: 13.0 cm,
	Panjang: 19.0 cm,
},
{
	page: 75,
	kategori 1: fiksi-sastra,
	kategori 2: fiksi-populer,
	book_url: https://www.gramedia.com/products/koala-and-her-story,
	title: Koala And Her Story,
	author: PUTERI RAKA,
	Jumlah Halaman: 416.0,
	Tanggal Terbit: 9 Mar 2020,
	ISBN: 9786230014406,
	Bahasa: Indonesia,
	Penerbit: Elex Media Komputindo,
	Berat: 0.25 kg,
	Lebar: 12.5 cm,
	Panjang: 19.5 cm,
},
{
	page: 75,
	kategori 1: fiksi-sastra,
	kategori 2: fiksi-populer,
	book_url: https://www.gramedia.com/products/a-farewell-to-arm-selamat-tinggal-pertempuran,
	title: A Farewell To Arm, Selamat Tinggal Pertempuran,
	author: Ernest Hemingway,
	Jumlah Halaman: 408,
	Tanggal Terbit: 10 Jan 2017,
	ISBN: 9786026466341,
	Bahasa: Indonesia,
	Penerbit: Solusi Distribusi,
	Berat: 1.0000 kg,
	Lebar: 15 cm,
},
{
	page: 75,
	kategori 1: fiksi-sastra,
	kategori 2: fiksi-populer,
	book_url: https://www.gramedia.com/products/racauan-yang-kusesali-untuk-kusyukuri,
	title: Racauan Yang Kusesali Untuk Kusyukuri,
	author: Recvy Ineka Putra,
	Jumlah Halaman: 168.0,
	Tanggal Terbit: 17 Jan 2020,
	ISBN: 9789797946012,
	Bahasa: Indonesia,
	Penerbit: Mediakita,
	Berat: 0.135 kg,
	Lebar: 13.0 cm,
	Panjang: 19.0 cm,
},
{
	page: 75,
	kategori 1: fiksi-sastra,
	kategori 2: fiksi-populer,
	book_url: https://www.gramedia.com/products/fantasteenlurkers,
	title: Fantasteen: Lukers,
	author: PUTRI SASKIA,
	Jumlah Halaman: None,
	Tanggal Terbit: 11 Jun 2018,
	ISBN: 9786024206079,
	Bahasa: Indonesia,
	Penerbit: Mizan Publishing,
	Berat: 0.150 kg,
	Lebar: 13.5 cm,
	Panjang: 19.5 cm,
},
{
	page: 75,
	kategori 1: fiksi-sastra,
	kategori 2: fiksi-populer,
	book_url: https://www.gramedia.com/products/btob-the-biggest-mood-ever,
	title: BTOB : The Biggest Mood Ever,
	author: DIVIANA90 & ANNISA,
	Jumlah Halaman: 127,
	Tanggal Terbit: 31 Jan 2019,
	ISBN: 9786025921117,
	Bahasa: Indonesia,
	Penerbit: Aria Media Mandiri,
	Berat: 0.250 kg,
	Lebar: 19 cm,
	Panjang: 13 cm,
},
