{
	page: 41,
	book_url: https://www.gramedia.com/products/natsume-yujincho-18,
	title: Natsume Yujincho 18,
	author: Yuki Midorikawa,
	Jumlah Halaman: 192,
	Tanggal Terbit: 4 Nov 2015,
	ISBN: 9786020274935,
	Bahasa: Indonesia,
	Penerbit: Elex Media Komputindo,
	Berat: 0.1000 kg,
	Lebar: 11.4 cm,
},
{
	page: 41,
	book_url: https://www.gramedia.com/products/sticker-puzzle-barbie-rock-n-royals-princess-by-day-rockstar-by-night,
	title: Sticker Puzzle Barbie Rock N Royals: Princess By Day Rockstar By Night,
	author: Mattel East Asia Limited,
	Jumlah Halaman: 16,
	Tanggal Terbit: 2 Nov 2015,
	ISBN: 9786020275628,
	Bahasa: Indonesia,
	Penerbit: Elex Media Komputindo,
	Berat: 0.2500 kg,
	Lebar: 25 cm,
},
{
	page: 41,
	book_url: https://www.gramedia.com/products/w-juliet-12,
	title: W Juliet 12,
	author: Emura,
	Jumlah Halaman: 192,
	Tanggal Terbit: 25 Nov 2015,
	ISBN: 9786023396047,
	Bahasa: Indonesia,
	Penerbit: m&c!,
	Berat: 0.115 kg,
	Lebar: 11 cm,
	Panjang: 128 cm,
},
{
	page: 41,
	book_url: https://www.gramedia.com/products/hinatama-01,
	title: Hinatama 01,
	author: Soyogo Iwaki,
	Jumlah Halaman: 160,
	Tanggal Terbit: 25 Nov 2015,
	ISBN: 9786023395958,
	Bahasa: Indonesia,
	Penerbit: m&c!,
	Berat: 0.1000 kg,
	Lebar: 11 cm,
},
{
	page: 41,
	book_url: https://www.gramedia.com/products/non-non-biyori-07,
	title: Non Non Biyori 07,
	author: Atto,
	Jumlah Halaman: 156,
	Tanggal Terbit: 25 Nov 2015,
	ISBN: 9786020276878,
	Bahasa: Indonesia,
	Penerbit: Elex Media Komputindo,
	Berat: 0.1000 kg,
	Lebar: 11.4 cm,
},
{
	page: 41,
	book_url: https://www.gramedia.com/products/countdown-7-days-02,
	title: Countdown 7 Days 02,
	author: Karakara Kemuri,
	Jumlah Halaman: 184,
	Tanggal Terbit: 11 Nov 2015,
	ISBN: 9786023395835,
	Bahasa: Indonesia,
	Penerbit: m&c!,
	Berat: 0.1000 kg,
	Lebar: 11 cm,
},
{
	page: 41,
	book_url: https://www.gramedia.com/products/w-juliet-4,
	title: W Juliet 4,
	author: Emura,
	Jumlah Halaman: 128,
	Tanggal Terbit: 29 Jul 2015,
	ISBN: 9786023393954,
	Bahasa: Indonesia,
	Penerbit: Hakusensha,
	Berat: 0.1000 kg,
	Lebar: 11 cm,
},
{
	page: 41,
	book_url: https://www.gramedia.com/products/s-the-last-policeman-10-lc,
	title: LC: S - The Last Policeman 10,
	author: Komori Yoichi,toudou Yutaka,
	Jumlah Halaman: 208,
	Tanggal Terbit: 17 Agt 2016,
	ISBN: 9786020291536,
	Bahasa: Indonesia,
	Penerbit: Elex Media Komputindo,
	Berat: 0.1000 kg,
	Lebar: 13 cm,
},
{
	page: 41,
	book_url: https://www.gramedia.com/products/air-gear-10-lc-terbit-ulang,
	title: Air Gear 10: Lc (Terbit Ulang),
	author: Oh!great,
	Jumlah Halaman: 212,
	Tanggal Terbit: 25 Nov 2015,
	ISBN: 9786020276991,
	Bahasa: Indonesia,
	Penerbit: Elex Media Komputindo,
	Berat: 0.1000 kg,
	Lebar: 12 cm,
},
{
	page: 41,
	book_url: https://www.gramedia.com/products/hajime-is-no-1-deluxe-vol-07,
	title: Hajime Is No.1 (Deluxe) Vol.07,
	author: Taeko Watanabe,
	Jumlah Halaman: 304,
	Tanggal Terbit: 27 Jan 2016,
	ISBN: 9786020278803,
	Bahasa: Indonesia,
	Penerbit: Elex Media Komputindo,
	Berat: 0.200 kg,
	Lebar: 11.4 cm,
	Panjang: 17.2 cm,
},
{
	page: 41,
	book_url: https://www.gramedia.com/products/ouroboros-13-lc,
	title: Ouroboros 13: :Lc,
	author: Yuya Kanzaki,
	Jumlah Halaman: 192,
	Tanggal Terbit: 27 Apr 2016,
	ISBN: 9786020284675,
	Bahasa: Indonesia,
	Penerbit: Elex Media Komputindo,
	Berat: 0.1000 kg,
	Lebar: 11 cm,
},
{
	page: 41,
	book_url: https://www.gramedia.com/products/full-bloom-cheekiness-03,
	title: Full Bloom Cheekiness 03,
	author: Miyuki Mitsubachi,
	Jumlah Halaman: 192,
	Tanggal Terbit: 20 Jan 2016,
	ISBN: 9786023396290,
	Bahasa: Indonesia,
	Penerbit: m&c!,
	Berat: 0.1000 kg,
	Lebar: 11 cm,
},
{
	page: 41,
	book_url: https://www.gramedia.com/products/stealth-symphony-02,
	title: Stealth Symphony 02,
	author: Narita Ryogo & Amano Yoichi,
	Jumlah Halaman: 200,
	Tanggal Terbit: 17 Feb 2016,
	ISBN: 9786020280707,
	Bahasa: Indonesia,
	Penerbit: Elex Media Komputindo,
	Berat: 0.1000 kg,
	Lebar: 11 cm,
},
{
	page: 41,
	book_url: https://www.gramedia.com/products/mix-06,
	title: Mix 06,
	author: Mitsuru Adachi,
	Jumlah Halaman: 192,
	Tanggal Terbit: 20 Jan 2016,
	ISBN: 9786020275765,
	Bahasa: Indonesia,
	Penerbit: Elex Media Komputindo,
	Berat: 0.1000 kg,
	Lebar: 11.4 cm,
},
{
	page: 41,
	book_url: https://www.gramedia.com/products/good-night-memories,
	title: Good Night Memories,
	author: Hifumi Sasaki,
	Jumlah Halaman: 192,
	Tanggal Terbit: 23 Feb 2015,
	ISBN: 9786023390762,
	Bahasa: Indonesia,
	Penerbit: m&c!,
	Berat: 0.120 kg,
	Lebar: 11 cm,
	Panjang: 18 cm,
},
{
	page: 41,
	book_url: https://www.gramedia.com/products/first-love-honey-10,
	title: First Love Honey 10,
	author: Ai Minase,
	Jumlah Halaman: 192,
	Tanggal Terbit: 20 Jan 2016,
	ISBN: 9786023396924,
	Bahasa: Indonesia,
	Penerbit: m&c!,
	Berat: 0.1000 kg,
	Lebar: 11 cm,
},
{
	page: 41,
	book_url: https://www.gramedia.com/products/chibi-fairy-vol-9,
	title: Chibi Fairy 09,
	author: Hiromu Shinozuka,
	Jumlah Halaman: 184,
	Tanggal Terbit: 13 Feb 2015,
	ISBN: 9786023390229,
	Bahasa: Indonesia,
	Penerbit: m&c!,
	Berat: 0.1000 kg,
	Lebar: 11 cm,
},
{
	page: 41,
	book_url: https://www.gramedia.com/products/new-kobochan-29,
	title: New Kobochan 29,
	author: Masashi Ueda,
	Jumlah Halaman: -,
	Tanggal Terbit: 1 Jul 2015,
	ISBN: 9786020265414,
	Bahasa: Indonesia,
	Penerbit: Elex Media Komputindo,
	Berat: 0.1000 kg,
	Lebar: 11 cm,
},
{
	page: 41,
	book_url: https://www.gramedia.com/products/ouroboros-11-lc,
	title: Ouroboros 11: Lc,
	author: Kanzaki Yuya,
	Jumlah Halaman: 192,
	Tanggal Terbit: 17 Feb 2016,
	ISBN: 9786020280752,
	Bahasa: Indonesia,
	Penerbit: Elex Media Komputindo,
	Berat: 0.1500 kg,
	Lebar: 13 cm,
},
{
	page: 41,
	book_url: https://www.gramedia.com/products/kurogane-ichiba-02,
	title: Kurogane Ichiba 02,
	author: Masaki Goto,
	Jumlah Halaman: 182,
	Tanggal Terbit: 4 Mar 2015,
	ISBN: 9786020259765,
	Bahasa: Indonesia,
	Penerbit: Elex Media Komputindo,
	Berat: 0.1000 kg,
	Lebar: 11 cm,
},
