{
	page: 58,
	book_url: https://www.gramedia.com/products/miracle-power-of-love-the-03,
	title: Miracle Power Of Love,The 03,
	author: Yoko Maki,
	Jumlah Halaman: 216,
	Tanggal Terbit: 16 Des 2015,
	ISBN: 9786023396702,
	Bahasa: Indonesia,
	Penerbit: m&c!,
	Berat: 0.1000 kg,
	Lebar: 11 cm,
},
{
	page: 58,
	book_url: https://www.gramedia.com/products/pxp,
	title: P X P,
	author: Wataru Yoshizumi,
	Jumlah Halaman: 183,
	Tanggal Terbit: 25 Feb 2015,
	ISBN: 9786023390724,
	Bahasa: Indonesia,
	Penerbit: m&c!,
	Berat: 0.1000 kg,
	Lebar: 11 cm,
	Panjang: 18 cm,
},
{
	page: 58,
	book_url: https://www.gramedia.com/products/fairy-tail-39-0,
	title: Fairy Tail 39,
	author: Hiro Mashima,
	Jumlah Halaman: 200,
	Tanggal Terbit: 25 Mei 2016,
	ISBN: 9786020286525,
	Bahasa: Indonesia,
	Penerbit: Elex Media Komputindo,
	Berat: 0.1000 kg,
	Lebar: 11 cm,
},
{
	page: 58,
	book_url: https://www.gramedia.com/products/hunter-x-hunter-07,
	title: Hunter X Hunter 07,
	author: Yoshihiro To,
	Jumlah Halaman: 190,
	Tanggal Terbit: 26 Feb 2014,
	ISBN: 9786020233291,
	Bahasa: Indonesia,
	Penerbit: Elex Media Komputindo,
	Berat: 0.1000 kg,
	Lebar: 11 cm,
	Panjang: 17 cm,
},
{
	page: 58,
	book_url: https://www.gramedia.com/products/scary-lessons-05,
	title: Scary Lessons 05,
	author: Emi Ishikawa,
	Jumlah Halaman: 192,
	Tanggal Terbit: 4 Jun 2015,
	ISBN: 9786020262192,
	Bahasa: Indonesia,
	Penerbit: Elex Media Komputindo,
	Berat: 0.120 kg,
	Lebar: 11.4 cm,
	Panjang: 17.2 cm,
},
{
	page: 58,
	book_url: https://www.gramedia.com/products/sensei-i-once-loved,
	title: Sensei I Once Loved,
	author: Shiraishi Yuki,
	Jumlah Halaman: 0,
	Tanggal Terbit: 2 Mar 2013,
	Penerbit: Elex Media Komputindo,
	Berat: 0.1000 kg,
	Lebar: 11 cm,
	Panjang: 0 cm,
},
{
	page: 58,
	book_url: https://www.gramedia.com/products/hunter-x-hunter-23,
	title: Hunter X Hunter 23,
	author: Yoshihiro Togashi,
	Jumlah Halaman: 200,
	Tanggal Terbit: 23 Sep 2015,
	ISBN: 9786020273013,
	Bahasa: Indonesia,
	Penerbit: Elex Media Komputindo,
	Berat: 0.1000 kg,
	Lebar: 11.4 cm,
},
{
	page: 58,
	book_url: https://www.gramedia.com/products/between-the-sky-and-you-01,
	title: Between The Sky And You 01,
	author: Yukimo Hoshimori,
	Jumlah Halaman: 192,
	Tanggal Terbit: 6 Jan 2016,
	ISBN: 9786023396757,
	Penerbit: m&c!,
	Berat: 0.1000 kg,
	Lebar: 11 cm,
},
{
	page: 58,
	book_url: https://www.gramedia.com/products/fist-of-the-blue-sky-16-lc,
	title: LC: Fist Of The Blue Sky 16,
	author: Tetsuo Hara & Buronson,
	Jumlah Halaman: 184,
	Tanggal Terbit: 20 Jul 2016,
	ISBN: 9786020288987,
	Bahasa: Indonesia,
	Penerbit: Elex Media Komputindo,
	Berat: 0.1200 kg,
	Lebar: 13 cm,
},
{
	page: 58,
	book_url: https://www.gramedia.com/products/pancake-love-02,
	title: Pancake Love 02,
	author: Akimi Hata,
	Jumlah Halaman: 192,
	Tanggal Terbit: 28 Okt 2015,
	ISBN: 9786023395590,
	Bahasa: Indonesia,
	Penerbit: m&c!,
	Berat: 0.1000 kg,
	Lebar: 11 cm,
},
{
	page: 58,
	book_url: https://www.gramedia.com/products/shonan-junaigumi-gto-the-early-years-09-lc,
	title: Shonan Junaigumi - Gto The Early Years 09: Lc,
	author: Toru Fujisawa,
	Jumlah Halaman: -,
	Tanggal Terbit: 12 Agt 2015,
	ISBN: 9786020270388,
	Bahasa: Indonesia,
	Penerbit: Elex Media Komputindo,
	Berat: 0.1000 kg,
	Lebar: 12 cm,
},
{
	page: 58,
	book_url: https://www.gramedia.com/products/yamada-the-7-witches-vol-04,
	title: Yamada & The 7 Witches Vol. 04,
	author: Miki Yoshikawa,
	Jumlah Halaman: 200,
	Tanggal Terbit: 23 Sep 2015,
	ISBN: 9786020273020,
	Bahasa: Indonesia,
	Penerbit: Elex Media Komputindo,
	Berat: 0.1000 kg,
	Lebar: 11.4 cm,
},
{
	page: 58,
	book_url: https://www.gramedia.com/products/kosmik-mook-07,
	title: Kosmik Mook 07,
	author: Kosmik,
	Jumlah Halaman: 168,
	Tanggal Terbit: 27 Apr 2016,
	ISBN: 9786023399161,
	Bahasa: Indonesia,
	Penerbit: m&c!,
	Berat: 0.1000 kg,
	Lebar: 11 cm,
},
{
	page: 58,
	book_url: https://www.gramedia.com/products/samurai-drive-02,
	title: Samurai Drive 02,
	author: Fujiko Kosumi,
	Jumlah Halaman: 184,
	Tanggal Terbit: 11 Nov 2015,
	ISBN: 9786023395859,
	Bahasa: Indonesia,
	Penerbit: m&c!,
	Berat: 0.1000 kg,
	Lebar: 11 cm,
},
{
	page: 58,
	book_url: https://www.gramedia.com/products/crayon-shinchan-10,
	title: Crayon Shinchan 10,
	author: Usui Yoshito,
	Tanggal Terbit: 9 Des 2011,
	Penerbit: Elex Media Komputindo,
	Berat: 0.3000 kg,
	Lebar: 0 cm,
	Panjang: 0 cm,
},
{
	page: 58,
	book_url: https://www.gramedia.com/products/world-is-still-beautiful-the-08,
	title: The World is Still Beautiful 08,
	author: Dai Shiina,
	Jumlah Halaman: 192,
	Tanggal Terbit: 23 Nov 2016,
	ISBN: 9786024281649,
	Bahasa: Indonesia,
	Penerbit: m&c!,
	Berat: 0.1200 kg,
	Lebar: 11.4 cm,
},
{
	page: 58,
	book_url: https://www.gramedia.com/products/rosario-vampire-08-lc,
	title: Rosario Vampire 08: Lc,
	author: Akihisa Ikeda,
	Jumlah Halaman: 192,
	Tanggal Terbit: 8 Jun 2016,
	ISBN: 9786020286136,
	Bahasa: Indonesia,
	Penerbit: Elex Media Komputindo,
	Berat: 0.1000 kg,
	Lebar: 12 cm,
},
{
	page: 58,
	book_url: https://www.gramedia.com/products/fortress-of-apocalypse-08,
	title: Fortress Of Apocalypse 08,
	author: Yu Kuraishi / Kazu Inabe,
	Jumlah Halaman: 192,
	Tanggal Terbit: 8 Jun 2016,
	ISBN: 9786023397563,
	Bahasa: Indonesia,
	Penerbit: m&c!,
	Berat: 0.2000 kg,
	Lebar: 11 cm,
},
{
	page: 58,
	book_url: https://www.gramedia.com/products/shape-of-voice-the-07-tamat,
	title: The Shape Of Voice 07 - Tamat,
	author: Yoshitoki Oima,
	Jumlah Halaman: 192,
	Tanggal Terbit: 20 Jul 2016,
	ISBN: 9786024280123,
	Bahasa: Indonesia,
	Penerbit: Kodansha,
	Berat: 0.1000 kg,
	Lebar: 11.2 cm,
},
{
	page: 58,
	book_url: https://www.gramedia.com/products/sc-my-sweet-darling,
	title: Sc: My `Sweet` Darling,
	author: Airi Sano,
	Jumlah Halaman: 192,
	Tanggal Terbit: 28 Sep 2016,
	ISBN: 9786020294032,
	Bahasa: Indonesia,
	Penerbit: Elex Media Komputindo,
	Berat: 0.1000 kg,
	Lebar: 11.4 cm,
},
