{
	page: 97,
	book_url: https://www.gramedia.com/products/fake-lover-03,
	title: Fake Lover 03,
	author: Mikase Hayashi,
	Jumlah Halaman: 0,
	Tanggal Terbit: 23 Mar 2015,
	ISBN: 9786023391608,
	Bahasa: Indonesia,
	Penerbit: m&c!,
	Berat: 0.1000 kg,
	Lebar: 11 cm,
},
{
	page: 97,
	book_url: https://www.gramedia.com/products/non-non-biyori-06,
	title: Non Non Biyori 06,
	author: Atto,
	Jumlah Halaman: 156,
	Tanggal Terbit: 28 Okt 2015,
	ISBN: 9786020275147,
	Bahasa: Indonesia,
	Penerbit: Elex Media Komputindo,
	Berat: 0.1000 kg,
	Lebar: 11.4 cm,
},
{
	page: 97,
	book_url: https://www.gramedia.com/products/bus-for-spring-01-terbit-ulang,
	title: Bus For Spring 01 (Terbit Ulang),
	author: Usami Maki,
	Jumlah Halaman: 192,
	Tanggal Terbit: 16 Mar 2015,
	ISBN: 9786023391356,
	Bahasa: Indonesia,
	Penerbit: m&c!,
	Berat: 0.1000 kg,
	Lebar: 11 cm,
},
{
	page: 97,
	book_url: https://www.gramedia.com/products/kiss-me-darling,
	title: Kiss Me Darling,
	author: Tae Satori,
	Jumlah Halaman: 190,
	Tanggal Terbit: 15 Apr 2015,
	ISBN: 9786023392292,
	Bahasa: Indonesia,
	Penerbit: m&c!,
	Berat: 0.1000 kg,
	Lebar: 11 cm,
},
{
	page: 97,
	book_url: https://www.gramedia.com/products/madame-petit-01,
	title: Madame Petit 01,
	author: Shigeru Takao,
	Jumlah Halaman: 192,
	Tanggal Terbit: 22 Apr 2015,
	ISBN: 9786023392278,
	Bahasa: Indonesia,
	Penerbit: m&c!,
	Berat: 0.1000 kg,
	Lebar: 11 cm,
},
{
	page: 97,
	book_url: https://www.gramedia.com/products/conf-pak-guru-nyanpachi-02,
	title: Pak Guru Nyanpachi! 02,
	author: Shonen-gahosha / Sakuraba Tsukasa,
	Jumlah Halaman: -,
	Tanggal Terbit: 17 Jan 2016,
	ISBN: 9786020262635,
	Bahasa: Indonesia,
	Penerbit: Elex Media Komputindo,
	Berat: 0.1000 kg,
	Lebar: 11 cm,
},
{
	page: 97,
	book_url: https://www.gramedia.com/products/conf-world-embryo-09,
	title: World Embryo 09,
	author: Shonen-gahosha / Moriyama Daisuke,
	Tanggal Terbit: 18 Jan 2016,
	ISBN: 9786020250939,
	Penerbit: Elex Media Komputindo,
	Berat: 0.3000 kg,
	Lebar: 0 cm,
},
{
	page: 97,
	book_url: https://www.gramedia.com/products/no-6-02,
	title: No. 6 02,
	author: Atsuko Asano / Hinoki Kino,
	Jumlah Halaman: 165,
	Tanggal Terbit: 25 Mar 2015,
	ISBN: 9786023391585,
	Bahasa: Indonesia,
	Penerbit: m&c!,
	Berat: 0.1000 kg,
	Lebar: 11 cm,
},
{
	page: 97,
	book_url: https://www.gramedia.com/products/poyo-poyo-04,
	title: Poyo-Poyo 04,
	author: Ru Tatuki,
	Jumlah Halaman: 120,
	Tanggal Terbit: 21 Jun 2013,
	ISBN: 9786020214986,
	Penerbit: Elex Media Komputindo,
	Berat: 0.1000 kg,
	Lebar: 11.4 cm,
	Panjang: 0 cm,
},
{
	page: 97,
	book_url: https://www.gramedia.com/products/alice-in-borderland-08,
	title: Alice In Borderland 08,
	author: Haro Aso,
	Jumlah Halaman: 172,
	Tanggal Terbit: 29 Apr 2015,
	ISBN: 9786020263694,
	Bahasa: Indonesia,
	Penerbit: Elex Media Komputindo,
	Berat: 0.1000 kg,
	Lebar: 11 cm,
},
{
	page: 97,
	book_url: https://www.gramedia.com/products/king-s-detective-note-01,
	title: King`S Detective Note 01,
	author: Huh Yoon-mi,
	Jumlah Halaman: 192,
	Tanggal Terbit: 23 Sep 2015,
	ISBN: 9786020272931,
	Bahasa: Indonesia,
	Penerbit: Elex Media Komputindo,
	Berat: 0.1000 kg,
	Lebar: 11.2 cm,
	Panjang: 17 cm,
},
{
	page: 97,
	book_url: https://www.gramedia.com/products/magi-17,
	title: Magi 17,
	author: Shinobu Ohtaka,
	Jumlah Halaman: -,
	Tanggal Terbit: 16 Sep 2015,
	ISBN: 9786020271767,
	Bahasa: Indonesia,
	Penerbit: Elex Media Komputindo,
	Berat: 0.1000 kg,
	Lebar: 11 cm,
},
{
	page: 97,
	book_url: https://www.gramedia.com/products/familiar-of-zero-the-04,
	title: Familiar of Zero 4,
	author: Mochizuki Nana,
	Jumlah Halaman: 176,
	Tanggal Terbit: 25 Feb 2015,
	ISBN: 9786020258409,
	Penerbit: Elex Media Komputindo,
	Berat: 0.115 kg,
	Lebar: 11.4 cm,
	Panjang: 17.2 cm,
},
{
	page: 97,
	book_url: https://www.gramedia.com/products/evil-eater-02-lc,
	title: LC: Evil Eater 02,
	author: Issei Eifuku, Kojino,
	Jumlah Halaman: 200,
	Tanggal Terbit: 20 Apr 2016,
	ISBN: 9786020284132,
	Penerbit: Elex Media Komputindo,
	Berat: 0.115 kg,
	Lebar: 11 cm,
	Panjang: 18 cm,
},
{
	page: 97,
	book_url: https://www.gramedia.com/products/hope-02,
	title: Hope 02,
	author: Keiko Suenobu,
	Jumlah Halaman: 192,
	Tanggal Terbit: 11 Mar 2015,
	ISBN: 9786023390526,
	Bahasa: Indonesia,
	Penerbit: m&c!,
	Berat: 0.1000 kg,
	Lebar: 11 cm,
},
{
	page: 97,
	book_url: https://www.gramedia.com/products/conf-shrine-of-the-morning-mist-07,
	title: Shrine of the Morning Mist 07,
	author: Shonen-gahosha / Ugawa Hiroki,
	Tanggal Terbit: 19 Jan 2016,
	ISBN: 9786020254951,
	Penerbit: Elex Media Komputindo,
	Berat: 0.3000 kg,
	Lebar: 0 cm,
},
{
	page: 97,
	book_url: https://www.gramedia.com/products/shonan-junaigumi-gto-the-early-years-07-lc,
	title: Shonan Junaigumi - Gto The Early Years 07: Lc,
	author: Toru Fujisawa,
	Jumlah Halaman: -,
	Tanggal Terbit: 18 Mar 2015,
	ISBN: 9786020259062,
	Bahasa: Indonesia,
	Penerbit: Elex Media Komputindo,
	Berat: 0.1000 kg,
	Lebar: 12 cm,
},
{
	page: 97,
	book_url: https://www.gramedia.com/products/muhyo-roji-13,
	title: Muhyo & Roji 13,
	author: Nishi Yoshiyuki,
	Jumlah Halaman: 192,
	Tanggal Terbit: 27 Jul 2016,
	ISBN: 9786020289045,
	Bahasa: Indonesia,
	Penerbit: Shueisha,
	Berat: 0.1000 kg,
	Lebar: 11.4 cm,
},
{
	page: 97,
	book_url: https://www.gramedia.com/products/shattered-knife-17-lc,
	title: Shattered Knife 17: Lc,
	author: George Asakura,
	Jumlah Halaman: -,
	Tanggal Terbit: 30 Sep 2015,
	ISBN: 9786020273389,
	Bahasa: Indonesia,
	Penerbit: Elex Media Komputindo,
	Berat: 0.1000 kg,
	Lebar: 12 cm,
},
{
	page: 97,
	book_url: https://www.gramedia.com/products/angel-heart-31-lc,
	title: Angel Heart 31:Lc,
	author: Hojo Tsukasa,
	Jumlah Halaman: 208,
	Tanggal Terbit: 27 Jul 2016,
	ISBN: 9786020290300,
	Bahasa: Indonesia,
	Penerbit: Elex Media Komputindo,
	Berat: 0.1000 kg,
	Lebar: 13 cm,
},
