{
	page: 83,
	book_url: https://www.gramedia.com/products/les-miserables-02,
	title: Les Miserables 02,
	author: Takahiro Arai, Victor Hugo,
	Jumlah Halaman: 216,
	Tanggal Terbit: 16 Des 2015,
	ISBN: 9786020277530,
	Bahasa: Indonesia,
	Penerbit: Elex Media Komputindo,
	Berat: 0.1000 kg,
	Lebar: 11.4 cm,
},
{
	page: 83,
	book_url: https://www.gramedia.com/products/last-game-04,
	title: Last Game 04,
	author: Shinobu Amano,
	Jumlah Halaman: 192,
	Tanggal Terbit: 8 Apr 2015,
	ISBN: 9786023391691,
	Bahasa: Indonesia,
	Penerbit: m&c!,
	Berat: 0.1000 kg,
	Lebar: 11 cm,
},
{
	page: 83,
	book_url: https://www.gramedia.com/products/brave-10-vol-04-lc,
	title: Brave 10 Vol. 04: Lc,
	author: Kairi Shimotsuki,
	Tanggal Terbit: 27 Okt 2014,
	ISBN: 9786020251592,
	Penerbit: Elex Media Komputindo,
	Berat: 0.3000 kg,
	Lebar: 13 cm,
	Panjang: 0 cm,
},
{
	page: 83,
	book_url: https://www.gramedia.com/products/home-sweet-home-02-tamat,
	title: Home Sweet Home 02 - Tamat,
	author: Yasuko,
	Jumlah Halaman: 192,
	Tanggal Terbit: 13 Apr 2016,
	ISBN: 9786023398874,
	Bahasa: Indonesia,
	Penerbit: m&c!,
	Berat: 0.1000 kg,
	Lebar: 11 cm,
},
{
	page: 83,
	book_url: https://www.gramedia.com/products/drops-of-god-the-33-lc,
	title: Drops Of God,The 33: Lc,
	author: Agi Tadashi,shu Okimoto,
	Jumlah Halaman: 222,
	Tanggal Terbit: 22 Jun 2016,
	ISBN: 9786020288215,
	Bahasa: Indonesia,
	Penerbit: Elex Media Komputindo,
	Berat: 0.1000 kg,
	Lebar: 13 cm,
},
{
	page: 83,
	book_url: https://www.gramedia.com/products/love-lullaby-01,
	title: Love Lullaby 01,
	author: Kana Nanajima,
	Jumlah Halaman: 184,
	Tanggal Terbit: 22 Apr 2015,
	ISBN: 9786023392193,
	Penerbit: m&c!,
	Berat: 0.1000 kg,
	Lebar: 11 cm,
},
{
	page: 83,
	book_url: https://www.gramedia.com/products/ijime-memorial-selection,
	title: Ijime - Memorial Selection,
	author: Kaoru Igarashi,
	Jumlah Halaman: 256,
	Tanggal Terbit: 7 Okt 2015,
	ISBN: 9786023395163,
	Bahasa: Indonesia,
	Penerbit: m&c!,
	Berat: 0.1000 kg,
	Lebar: 11 cm,
},
{
	page: 83,
	book_url: https://www.gramedia.com/products/restore-garage-31-lc,
	title: LC: Restore Garage 31,
	author: Ryuji Tsugihara,
	Jumlah Halaman: 192,
	Tanggal Terbit: 14 Sep 2016,
	ISBN: 9786020293189,
	Bahasa: Indonesia,
	Penerbit: Elex Media Komputindo,
	Berat: 0.1000 kg,
	Lebar: 13 cm,
},
{
	page: 83,
	book_url: https://www.gramedia.com/products/code-breaker-14,
	title: Code Breaker 14,
	author: Akimine Kamijyo,
	Tanggal Terbit: 6 Des 2014,
	ISBN: 9786020254838,
	Penerbit: Elex Media Komputindo,
	Berat: 0.1000 kg,
	Lebar: 11.4 cm,
	Panjang: 0 cm,
},
{
	page: 83,
	book_url: https://www.gramedia.com/products/kageno-s-springtime-of-love-04,
	title: Kageno`S Springtime Of Love 04,
	author: Yuka Kitagawa,
	Jumlah Halaman: 176,
	Tanggal Terbit: 10 Feb 2016,
	ISBN: 9786023397600,
	Bahasa: Indonesia,
	Penerbit: Kodansha,
	Berat: 0.1000 kg,
	Lebar: 11 cm,
},
{
	page: 83,
	book_url: https://www.gramedia.com/products/sc-cute-mouse-king,
	title: Sc: Cute Mouse King,
	author: Misslin,
	Jumlah Halaman: 200,
	Tanggal Terbit: 30 Mar 2016,
	ISBN: 9786020283098,
	Bahasa: Indonesia,
	Penerbit: Elex Media Komputindo,
	Berat: 0.1000 kg,
	Lebar: 11 cm,
},
{
	page: 83,
	book_url: https://www.gramedia.com/products/kuroko-s-basketball-vol-12,
	title: Kuroko`S Basketball Vol. 12,
	author: Tadatoshi Fujimaki,
	Jumlah Halaman: 202,
	Tanggal Terbit: 11 Feb 2015,
	ISBN: 9786022669975,
	Bahasa: Indonesia,
	Penerbit: m&c!,
	Berat: 0.130 kg,
	Lebar: 11 cm,
	Panjang: 18 cm,
},
{
	page: 83,
	book_url: https://www.gramedia.com/products/death-note-01-terbit-ulang,
	title: Death Note 01 (Terbit Ulang),
	author: Tsugumi Ohba, Takeshi Obata,
	Jumlah Halaman: 200,
	Tanggal Terbit: 2 Mar 2016,
	ISBN: 9786023397778,
	Bahasa: Indonesia,
	Penerbit: m&c!,
	Berat: 0.1000 kg,
	Lebar: 11 cm,
},
{
	page: 83,
	book_url: https://www.gramedia.com/products/between-the-sky-and-you-04-tamat,
	title: Between The Sky And You 04 - Tamat,
	author: Yukimo Hoshino,
	Jumlah Halaman: 184,
	Tanggal Terbit: 16 Nov 2016,
	ISBN: 9786024281458,
	Penerbit: m&c!,
	Berat: 0.1100 kg,
	Lebar: 11.4 cm,
},
{
	page: 83,
	book_url: https://www.gramedia.com/products/your-lie-in-april-04,
	title: Your Lie In April 04,
	author: Naoshi Arakawa,
	Jumlah Halaman: 192,
	Tanggal Terbit: 18 Nov 2015,
	ISBN: 9786023395989,
	Bahasa: Indonesia,
	Penerbit: m&c!,
	Berat: 0.1000 kg,
	Lebar: 11 cm,
},
{
	page: 83,
	book_url: https://www.gramedia.com/products/mr-kappa-in-love,
	title: Mr. Kappa In Love,
	author: Kamaro Kikuchi,
	Jumlah Halaman: 192,
	Tanggal Terbit: 17 Agt 2016,
	ISBN: 9786024280406,
	Bahasa: Indonesia,
	Penerbit: m&c!,
	Berat: 0.1000 kg,
	Lebar: 11.4 cm,
},
{
	page: 83,
	book_url: https://www.gramedia.com/products/yu-gi-oh-premium-06,
	title: Yu-Gi-Oh (Premium) 06,
	author: Kazuki Takahashi,
	Jumlah Halaman: 328,
	Tanggal Terbit: 23 Des 2015,
	ISBN: 9786020272825,
	Bahasa: Indonesia,
	Penerbit: Elex Media Komputindo,
	Berat: 0.1000 kg,
	Lebar: 11.4 cm,
},
{
	page: 83,
	book_url: https://www.gramedia.com/products/prince-of-light-novels-the-01,
	title: The Prince of Light Novels 1,
	author: Mano Sakamoto,
	Jumlah Halaman: 164,
	Tanggal Terbit: 7 Des 2016,
	ISBN: 9786020297408,
	Bahasa: Indonesia,
	Penerbit: Elex Media Komputindo,
	Berat: 0.1200 kg,
	Lebar: 11.4 cm,
},
{
	page: 83,
	book_url: https://www.gramedia.com/products/livingstone-03-lc,
	title: Lc: Livingstone 03,
	author: Tomohiro Maekawa, Jinsei Kataoka,
	Jumlah Halaman: 208,
	Tanggal Terbit: 6 Nov 2016,
	ISBN: 9786020296203,
	Bahasa: Indonesia,
	Penerbit: Elex Media Komputindo,
	Berat: 0.1500 kg,
	Lebar: 13 cm,
},
{
	page: 83,
	book_url: https://www.gramedia.com/products/fist-of-the-blue-sky-15-lc,
	title: Fist Of The Blue Sky 15: Lc,
	author: Tetsuo Hara & Buronson,
	Jumlah Halaman: 200,
	Tanggal Terbit: 8 Jun 2016,
	ISBN: 9786020281582,
	Bahasa: Indonesia,
	Penerbit: Elex Media Komputindo,
	Berat: 0.1300 kg,
	Lebar: 13 cm,
},
