{
	page: 72,
	book_url: https://www.gramedia.com/products/nakayoshi-3-2016,
	title: Nakayoshi 3/2016,
	author: Rin Miasa,haruhi Seta,pedoro Toriumi,
	Jumlah Halaman: 408,
	Tanggal Terbit: 30 Mar 2016,
	ISBN: XXX,
	Bahasa: Indonesia,
	Penerbit: Elex Media Komputindo,
	Berat: 0.1300 kg,
	Lebar: 12 cm,
},
{
	page: 72,
	book_url: https://www.gramedia.com/products/ciuman-dewa-19,
	title: Ciuman Dewa 19,
	author: Julietta Suzuki,
	Jumlah Halaman: 196,
	Tanggal Terbit: 11 Nov 2015,
	ISBN: 9786020272870,
	Bahasa: Indonesia,
	Penerbit: Elex Media Komputindo,
	Berat: 0.1000 kg,
	Lebar: 11.4 cm,
},
{
	page: 72,
	book_url: https://www.gramedia.com/products/love-come-secretly-05,
	title: Love Come Secretly 05,
	author: So Kirishima,
	Jumlah Halaman: 204,
	Tanggal Terbit: 25 Nov 2015,
	ISBN: 9786020276632,
	Bahasa: Indonesia,
	Penerbit: Elex Media Komputindo,
	Berat: 0.1000 kg,
	Lebar: 11.4 cm,
},
{
	page: 72,
	book_url: https://www.gramedia.com/products/utsuho-19,
	title: Utsuho 19,
	author: Yuki Iinuma,
	Jumlah Halaman: 196,
	Tanggal Terbit: 18 Nov 2015,
	ISBN: 9786020276564,
	Bahasa: Indonesia,
	Penerbit: Elex Media Komputindo,
	Berat: 0.1000 kg,
	Lebar: 11.4 cm,
},
{
	page: 72,
	book_url: https://www.gramedia.com/products/pandai-berhitung-cars-pengurangan,
	title: Pandai Berhitung Cars: Pengurangan,
	author: Disney,
	Jumlah Halaman: 0,
	Tanggal Terbit: 17 Apr 2014,
	ISBN: 9786020238838,
	Bahasa: Indonesia,
	Penerbit: Elex Media Komputindo,
	Berat: 0.1000 kg,
	Lebar: 11 cm,
},
{
	page: 72,
	book_url: https://www.gramedia.com/products/saint-seiya-lost-canvas-16-lc,
	title: Saint Seiya Lost Canvas 16: Lc,
	author: Masami Kurumada & Shiori Teshirogi,
	Tanggal Terbit: 26 Sep 2014,
	ISBN: 9786020249674,
	Penerbit: Elex Media Komputindo,
	Berat: 0.3000 kg,
	Lebar: 0 cm,
	Panjang: 0 cm,
},
{
	page: 72,
	book_url: https://www.gramedia.com/products/dr-koto-16,
	title: Dr. Koto 16,
	author: Yamada Takatoshi,
	Jumlah Halaman: None,
	Tanggal Terbit: 26 Sep 2014,
	ISBN: 9786020248714,
	Penerbit: Elex Media Komputindo,
	Berat: 0.1500 kg,
	Lebar: 11.4 cm,
	Panjang: 17.2 cm,
},
{
	page: 72,
	book_url: https://www.gramedia.com/products/love-lies-12,
	title: Love Lies 12,
	author: Aoki Kotomi,
	Jumlah Halaman: 192,
	Tanggal Terbit: 1 Des 2014,
	ISBN: 9786022668435,
	Bahasa: Indonesia,
	Penerbit: m&c!,
	Berat: 0.1000 kg,
	Lebar: 11 cm,
	Panjang: 0 cm,
},
{
	page: 72,
	book_url: https://www.gramedia.com/products/twinkle-twinkle-love,
	title: Twinkle Twinkle Love,
	author: Ando Mai,
	Jumlah Halaman: 193,
	Tanggal Terbit: 27 Okt 2014,
	ISBN: 9786022667933,
	Penerbit: m&c!,
	Berat: 0.1000 kg,
	Lebar: 11 cm,
	Panjang: 0 cm,
},
{
	page: 72,
	book_url: https://www.gramedia.com/products/yumeiro-patissiere-07,
	title: Yumeiro Patissiere 07,
	author: Natsumi Matsumoto,
	Jumlah Halaman: 184,
	Tanggal Terbit: 6 Okt 2014,
	ISBN: 9786020249155,
	Penerbit: Elex Media Komputindo,
	Berat: 0.1500 kg,
	Lebar: 11.4 cm,
	Panjang: 17.2 cm,
},
{
	page: 72,
	book_url: https://www.gramedia.com/products/house-of-the-sun-04,
	title: House Of The Sun 04,
	author: Taamo,
	Jumlah Halaman: 0,
	Tanggal Terbit: 6 Okt 2014,
	ISBN: 9786022667605,
	Penerbit: m&c!,
	Berat: 0.1000 kg,
	Lebar: 11 cm,
	Panjang: 0 cm,
},
{
	page: 72,
	book_url: https://www.gramedia.com/products/toriko-01,
	title: Toriko 01,
	author: Mitsutoshi Shimabukuro,
	Tanggal Terbit: 27 Okt 2014,
	ISBN: 9786020238067,
	Penerbit: Elex Media Komputindo,
	Berat: 0.1000 kg,
	Lebar: 11.4 cm,
	Panjang: 0 cm,
},
{
	page: 72,
	book_url: https://www.gramedia.com/products/yotsubato-12,
	title: Yotsubato 12,
	author: Kiyohiko Azuma,
	Jumlah Halaman: 224,
	Tanggal Terbit: 9 Mei 2014,
	ISBN: 9786020240534,
	Bahasa: Indonesia,
	Penerbit: Elex Media Komputindo,
	Berat: 0.1000 kg,
	Lebar: 11.4 cm,
	Panjang: 17.2 cm,
},
{
	page: 72,
	book_url: https://www.gramedia.com/products/pure-love-kamikaze-captain-the-next-generation-02,
	title: Pure Love Kamikaze Captain - The Next Generation 02,
	author: Shizuru Seino,
	Jumlah Halaman: 160,
	Tanggal Terbit: 6 Des 2014,
	ISBN: 9786022668411,
	Bahasa: Indonesia,
	Penerbit: m&c!,
	Berat: 0.1000 kg,
	Lebar: 11 cm,
	Panjang: 0 cm,
},
{
	page: 72,
	book_url: https://www.gramedia.com/products/crayon-shinchan-34,
	title: Crayon Shinchan 34,
	author: Yoshito Usui,
	Tanggal Terbit: 26 Sep 2014,
	ISBN: 9786020249636,
	Penerbit: Elex Media Komputindo,
	Berat: 0.3000 kg,
	Lebar: 0 cm,
	Panjang: 0 cm,
},
{
	page: 72,
	book_url: https://www.gramedia.com/products/breaker-new-waves-the-08,
	title: The Breaker New Waves 8,
	author: Park Jin-hwan,
	Jumlah Halaman: 0,
	Tanggal Terbit: 6 Okt 2014,
	ISBN: 9786022667582,
	Bahasa: Indonesia,
	Penerbit: m&c!,
	Berat: 0.1000 kg,
	Lebar: 11 cm,
	Panjang: 0 cm,
},
{
	page: 72,
	book_url: https://www.gramedia.com/products/faster-than-a-kiss-12,
	title: Faster Than A Kiss 12,
	author: Meca Tanaka,
	Tanggal Terbit: 7 Nov 2014,
	ISBN: 9786020252759,
	Bahasa: Indonesia,
	Penerbit: Elex Media Komputindo,
	Berat: 0.1500 kg,
	Lebar: 0 cm,
	Panjang: 0 cm,
},
{
	page: 72,
	book_url: https://www.gramedia.com/products/crayon-shinchan-08,
	title: Crayon Shinchan 08,
	author: Yoshito Usui,
	Tanggal Terbit: 5 Agt 2011,
	Penerbit: Elex Media Komputindo,
	Berat: 0.3000 kg,
	Lebar: 0 cm,
	Panjang: 0 cm,
},
{
	page: 72,
	book_url: https://www.gramedia.com/products/prince-of-tennis-ii-no-06,
	title: Prince Of Tennis Ii No. 06,
	author: Takeshi Konomi,
	Jumlah Halaman: 177,
	Tanggal Terbit: 20 Okt 2014,
	ISBN: 9786022667780,
	Penerbit: m&c!,
	Berat: 0.1000 kg,
	Lebar: 11 cm,
	Panjang: 0 cm,
},
{
	page: 72,
	book_url: https://www.gramedia.com/products/utsuho-23-end,
	title: Utsuho 23 / End,
	author: Yuki Iinuma,
	Jumlah Halaman: 192,
	Tanggal Terbit: 4 Mei 2016,
	ISBN: 9786020283395,
	Bahasa: Indonesia,
	Penerbit: Elex Media Komputindo,
	Berat: 0.1000 kg,
	Lebar: 11 cm,
},
