{
	page: 92,
	book_url: https://www.gramedia.com/products/summer-love-throw-line,
	title: Summer Love Throw Line,
	author: Kuze Mizuki,
	Jumlah Halaman: 194,
	Tanggal Terbit: 21 Jan 2015,
	ISBN: 9786022669395,
	Bahasa: Indonesia,
	Penerbit: m&c!,
	Berat: 0.1000 kg,
	Lebar: 11 cm,
	Panjang: 0 cm,
},
{
	page: 92,
	book_url: https://www.gramedia.com/products/saint-seiya-the-lost-canvas-22-lc,
	title: Saint Seiya The Lost Canvas 22: Lc,
	author: Masami Kurumada,shiori Teshirogi,
	Jumlah Halaman: -,
	Tanggal Terbit: 21 Jan 2015,
	ISBN: 9786020257006,
	Bahasa: Indonesia,
	Penerbit: Elex Media Komputindo,
	Berat: 0.1000 kg,
	Lebar: 12 cm,
	Panjang: 0 cm,
},
{
	page: 92,
	book_url: https://www.gramedia.com/products/puella-magi-kazumi-magica-02,
	title: Puella Magi Kazumi Magica 02,
	author: Tensugi Takashi & Magica Quartet,
	Jumlah Halaman: 148,
	Tanggal Terbit: 25 Mar 2015,
	ISBN: 9786020256894,
	Bahasa: Indonesia,
	Penerbit: Elex Media Komputindo,
	Berat: 0.1000 kg,
	Lebar: 11 cm,
	Panjang: 0 cm,
},
{
	page: 92,
	book_url: https://www.gramedia.com/products/super-school-03,
	title: Super School 03,
	author: Yousuke Kokuzawa,
	Tanggal Terbit: 28 Des 2014,
	ISBN: 9786020255637,
	Penerbit: Elex Media Komputindo,
	Berat: 0.1500 kg,
	Lebar: 0 cm,
	Panjang: 0 cm,
},
{
	page: 92,
	book_url: https://www.gramedia.com/products/samurai-x-vol-12-terbit-ulang,
	title: Samurai X Vol. 12 (Terbit Ulang),
	author: Nobuhiro Watsuki,
	Tanggal Terbit: 30 Des 2014,
	ISBN: 9786020255781,
	Penerbit: Elex Media Komputindo,
	Berat: 0.1500 kg,
	Lebar: 0 cm,
	Panjang: 0 cm,
},
{
	page: 92,
	book_url: https://www.gramedia.com/products/all-rounder-meguru-05-lc,
	title: All Rounder Meguru 05: Lc,
	author: Hiroki Endo,
	Tanggal Terbit: 28 Des 2014,
	ISBN: 9786020255118,
	Bahasa: Indonesia,
	Penerbit: Elex Media Komputindo,
	Berat: 0.3000 kg,
	Lebar: 0 cm,
	Panjang: 0 cm,
},
{
	page: 92,
	book_url: https://www.gramedia.com/products/conf-fairy-tail-16,
	title: Fairy Tail 16,
	author: Kodansha - Hiro Mashima,
	Tanggal Terbit: 3 Des 2014,
	ISBN: 9786020217468,
	Penerbit: Elex Media Komputindo,
	Berat: 0.1500 kg,
},
{
	page: 92,
	book_url: https://www.gramedia.com/products/shanaou-yoshitsune-genpei-war-10,
	title: Shanaou Yoshitsune - Genpei War #10,
	author: Hirofumi Sawada,
	Jumlah Halaman: None,
	Tanggal Terbit: 23 Feb 2011,
	ISBN: 9789792346985,
	Penerbit: m&c!,
	Berat: 0.12 kg,
},
{
	page: 92,
	book_url: https://www.gramedia.com/products/sluggish-tanakathe-02,
	title: The Sluggish Tanaka 02,
	author: Nozomi Uda,
	Jumlah Halaman: 160,
	Tanggal Terbit: 5 Agt 2016,
	ISBN: 9786020285597,
	Bahasa: Indonesia,
	Penerbit: Elex Media Komputindo,
	Berat: 0.120 kg,
	Lebar: 11.2 cm,
	Panjang: 17.2 cm,
},
{
	page: 92,
	book_url: https://www.gramedia.com/products/for-my-teacher-1,
	title: For MY TEACHER 1,
	author: Yamada Daisy,
	Jumlah Halaman: 176,
	Tanggal Terbit: 3 Feb 2016,
	ISBN: 9786020276168,
	Bahasa: Indonesia,
	Penerbit: Elex Media Komputindo,
	Berat: 0.1000 kg,
	Lebar: 11.4 cm,
},
{
	page: 92,
	book_url: https://www.gramedia.com/products/mysterious-scandal-05,
	title: Mysterious Scandal 05,
	author: Kim Yoon Ah,
	Jumlah Halaman: 152,
	Tanggal Terbit: 6 Mei 2015,
	ISBN: 9786023391912,
	Bahasa: Indonesia,
	Penerbit: m&c!,
	Berat: 0.1370 kg,
	Lebar: 13 cm,
},
{
	page: 92,
	book_url: https://www.gramedia.com/products/the-world-is-still-beautiful-05,
	title: The World Is Still Beautiful 05,
	author: Dai Shiina,
	Jumlah Halaman: 0,
	Tanggal Terbit: 19 Agt 2015,
	ISBN: 9786023394388,
	Bahasa: Indonesia,
	Penerbit: m&c!,
	Berat: 0.1000 kg,
	Lebar: 11 cm,
},
{
	page: 92,
	book_url: https://www.gramedia.com/products/red-haired-snow-white-11,
	title: Red Haired Snow White 11,
	author: Akizuki Sorata,
	Jumlah Halaman: -,
	Tanggal Terbit: 19 Agt 2015,
	ISBN: 9786020270890,
	Bahasa: Indonesia,
	Penerbit: Elex Media Komputindo,
	Berat: 0.1000 kg,
	Lebar: 11 cm,
},
{
	page: 92,
	book_url: https://www.gramedia.com/products/secret-case-of-s-h-the-01,
	title: Secret Case Of S.H.,The 01,
	author: Kaihei Nakahara,
	Jumlah Halaman: -,
	Tanggal Terbit: 26 Agt 2015,
	ISBN: 9786020271101,
	Bahasa: Indonesia,
	Penerbit: Elex Media Komputindo,
	Berat: 0.1000 kg,
	Lebar: 11 cm,
},
{
	page: 92,
	book_url: https://www.gramedia.com/products/oresama-teacher-05,
	title: Oresama Teacher 05,
	author: Izumi Tsubaki,
	Jumlah Halaman: 192,
	Tanggal Terbit: 6 Mei 2015,
	ISBN: 9786023390779,
	Bahasa: Indonesia,
	Penerbit: m&c!,
	Berat: 0.1000 kg,
	Lebar: 11 cm,
},
{
	page: 92,
	book_url: https://www.gramedia.com/products/let-s-eat-together-01,
	title: Let`S Eat Together 01,
	author: Sei Takano,
	Jumlah Halaman: 176,
	Tanggal Terbit: 6 Mei 2015,
	ISBN: 9786023392698,
	Bahasa: Indonesia,
	Penerbit: m&c!,
	Berat: 0.1000 kg,
	Lebar: 11 cm,
},
{
	page: 92,
	book_url: https://www.gramedia.com/products/rock-03,
	title: Rock 03,
	author: Hidekazu Gomi,
	Jumlah Halaman: -,
	Tanggal Terbit: 20 Mei 2015,
	ISBN: 9786020263762,
	Bahasa: Indonesia,
	Penerbit: Elex Media Komputindo,
	Berat: 0.1000 kg,
	Lebar: 12 cm,
},
{
	page: 92,
	book_url: https://www.gramedia.com/products/motorik-halus-cars-pintar-bentuk-0,
	title: Motorik Halus Cars Pintar Bentuk,
	author: Disney,
	Jumlah Halaman: 32,
	Tanggal Terbit: 24 Agt 2015,
	ISBN: 9786020271156,
	Bahasa: Indonesia,
	Penerbit: Elex Media Komputindo,
	Berat: 0.1500 kg,
	Lebar: 21 cm,
},
{
	page: 92,
	book_url: https://www.gramedia.com/products/today-in-the-past-01,
	title: Today In The Past 01,
	author: Won, Hye-jung,
	Jumlah Halaman: 146,
	Tanggal Terbit: 20 Mei 2015,
	ISBN: 9786023392995,
	Bahasa: Indonesia,
	Penerbit: m&c!,
	Berat: 0.1800 kg,
	Lebar: 16 cm,
},
{
	page: 92,
	book_url: https://www.gramedia.com/products/nakayoshi-9-2016,
	title: Nakayoshi 9/2016,
	author: Haruhi Seta,mikayo Nakae,
	Jumlah Halaman: 408,
	Tanggal Terbit: 26 Okt 2016,
	ISBN: 716011837,
	Bahasa: Indonesia,
	Penerbit: Elex Media Komputindo,
	Berat: 0.2010 kg,
	Lebar: 12 cm,
},
