{
	page: 64,
	book_url: https://www.gramedia.com/products/swordsmanthe-03,
	title: The Swordsman 03,
	author: Lee Jae Heon / Hong Ki Woo,
	Jumlah Halaman: 168,
	Tanggal Terbit: 3 Sep 2015,
	ISBN: 9786023390953,
	Bahasa: Indonesia,
	Penerbit: m&c!,
	Berat: 0.125 kg,
	Lebar: 13 cm,
	Panjang: 18 cm,
},
{
	page: 64,
	book_url: https://www.gramedia.com/products/sc-reincarnation-of-vampires,
	title: Sc: Reincarnation Of Vampires,
	author: Minami Mizuno,
	Jumlah Halaman: 200,
	Tanggal Terbit: 22 Agt 2014,
	ISBN: 9786020247441,
	Bahasa: Indonesia,
	Penerbit: Elex Media Komputindo,
	Berat: 0.120 kg,
	Lebar: 11.4 cm,
	Panjang: 17.2 cm,
},
{
	page: 64,
	book_url: https://www.gramedia.com/products/to-be-continued-tomorrow-01,
	title: To Be Continued Tomorrow 01,
	author: Kita Konno,
	Jumlah Halaman: 208,
	Tanggal Terbit: 25 Mei 2015,
	ISBN: 9786023393046,
	Bahasa: Indonesia,
	Penerbit: m&c!,
	Berat: 0.150 kg,
	Lebar: 13 cm,
	Panjang: 18 cm,
},
{
	page: 64,
	book_url: https://www.gramedia.com/products/hey-sensei,
	title: Hey. Sensei,
	author: Saki Haruki,
	Jumlah Halaman: 168,
	Tanggal Terbit: 30 Des 2014,
	ISBN: 9786022669043,
	Bahasa: Indonesia,
	Penerbit: m&c!,
	Berat: 0.120 kg,
	Lebar: 11.2 cm,
	Panjang: 17.6 cm,
},
{
	page: 64,
	book_url: https://www.gramedia.com/products/high-school-debut-13,
	title: High School Debut 13,
	author: Kazune Kawahara,
	Jumlah Halaman: 192,
	Tanggal Terbit: 8 Apr 2015,
	ISBN: 9786020259932,
	Penerbit: Elex Media Komputindo,
	Berat: 0.13 kg,
	Lebar: 11.2 cm,
	Panjang: 17.4 cm,
},
{
	page: 64,
	book_url: https://www.gramedia.com/products/the-crown-prince-of-darkness-4,
	title: The Crown Prince of Darkness 4,
	author: Nyun Miyao,
	Jumlah Halaman: 136,
	Tanggal Terbit: 7 Okt 2015,
	ISBN: 9786020273761,
	Penerbit: Elex Media Komputindo,
	Berat: 0.11 kg,
	Lebar: 11.4 cm,
	Panjang: 17.2 cm,
},
{
	page: 64,
	book_url: https://www.gramedia.com/products/alice-in-borderland-09,
	title: Alice In Borderland 09,
	author: Haro Aso,
	Jumlah Halaman: 172,
	Tanggal Terbit: 17 Jun 2015,
	ISBN: 9786020267173,
	Bahasa: Indonesia,
	Penerbit: Elex Media Komputindo,
	Berat: 0.1000 kg,
	Lebar: 11 cm,
},
{
	page: 64,
	book_url: https://www.gramedia.com/products/montage-05-lc,
	title: Montage 05: Lc,
	author: Jun Watanabe,
	Jumlah Halaman: -,
	Tanggal Terbit: 19 Agt 2015,
	ISBN: 9786020270661,
	Bahasa: Indonesia,
	Penerbit: Elex Media Komputindo,
	Berat: 0.1500 kg,
	Lebar: 13 cm,
},
{
	page: 64,
	book_url: https://www.gramedia.com/products/over-rev-30-lc,
	title: Over Rev 30: Lc,
	author: Katsumi Yamaguchi Dan Team 39,
	Jumlah Halaman: -,
	Tanggal Terbit: 19 Agt 2015,
	ISBN: 9786020269641,
	Bahasa: Indonesia,
	Penerbit: Elex Media Komputindo,
	Berat: 0.1500 kg,
	Lebar: 13 cm,
},
{
	page: 64,
	book_url: https://www.gramedia.com/products/general-s-daughter-the-06,
	title: General`S Daughter,The 06,
	author: Han Yu-rang,
	Jumlah Halaman: 160,
	Tanggal Terbit: 19 Agt 2015,
	ISBN: 9786023394364,
	Bahasa: Indonesia,
	Penerbit: Samyang,
	Berat: 0.1590 kg,
	Lebar: 13 cm,
},
{
	page: 64,
	book_url: https://www.gramedia.com/products/happy-09-lc,
	title: Happy! 09: Lc,
	author: Nobuko Hama,
	Jumlah Halaman: -,
	Tanggal Terbit: 27 Mei 2015,
	ISBN: 9786020265025,
	Bahasa: Indonesia,
	Penerbit: Elex Media Komputindo,
	Berat: 0.1000 kg,
	Lebar: 12 cm,
},
{
	page: 64,
	book_url: https://www.gramedia.com/products/rinne-18,
	title: Rinne 18,
	author: Takahashi Rumiko,
	Jumlah Halaman: -,
	Tanggal Terbit: 26 Agt 2015,
	ISBN: 9786020270586,
	Bahasa: Indonesia,
	Penerbit: Elex Media Komputindo,
	Berat: 0.1000 kg,
	Lebar: 11 cm,
},
{
	page: 64,
	book_url: https://www.gramedia.com/products/red-river-22-lc,
	title: Lc: Red River 22,
	author: Shinohara Chie,
	Jumlah Halaman: 200,
	Tanggal Terbit: 9 Des 2014,
	ISBN: 9786020248516,
	Bahasa: Indonesia,
	Penerbit: Elex Media Komputindo,
	Berat: 0.120 kg,
	Lebar: 12 cm,
	Panjang: 18 cm,
},
{
	page: 64,
	book_url: https://www.gramedia.com/products/altair-tale-of-the-great-war-01-lc,
	title: Lc: Altair - Tale Of The Great War 01,
	author: Kotono Kato,
	Jumlah Halaman: 224,
	Tanggal Terbit: 8 Agt 2014,
	ISBN: 9786020241111,
	Bahasa: Indonesia,
	Penerbit: Elex Media Komputindo,
	Berat: 0.120 kg,
	Lebar: 13 cm,
	Panjang: 18 cm,
},
{
	page: 64,
	book_url: https://www.gramedia.com/products/lc-happy-10,
	title: LC: Happy! 10,
	author: Nobuko Hama,
	Jumlah Halaman: 416,
	Tanggal Terbit: 2 Sep 2015,
	ISBN: 9786020271453,
	Penerbit: Elex Media Komputindo,
	Berat: 0.138 kg,
	Lebar: 12 cm,
	Panjang: 18 cm,
},
{
	page: 64,
	book_url: https://www.gramedia.com/products/salon-for-a-broken-heart,
	title: Salon for a Broken Heart,
	author: Ayumi Rin,
	Jumlah Halaman: None,
	Tanggal Terbit: 12 Jan 2015,
	ISBN: 9786022669593,
	Penerbit: m&c!,
	Berat: 0.11 kg,
	Lebar: 11.5 cm,
	Panjang: 17.5 cm,
},
{
	page: 64,
	book_url: https://www.gramedia.com/products/girlish-season-collection-edition,
	title: Girlish Season (Collection Edition),
	author: Natsuna Kawase,
	Jumlah Halaman: 0,
	Tanggal Terbit: 1 Okt 2014,
	ISBN: 9786022664307,
	Bahasa: Indonesia,
	Penerbit: m&c!,
	Berat: 0.150 kg,
	Lebar: 11 cm,
	Panjang: 17 cm,
},
{
	page: 64,
	book_url: https://www.gramedia.com/products/hells-kitchen-07,
	title: Hell`s Kitchen 07,
	author: Amazi Gumi & Nishimura Mitsuru,
	Jumlah Halaman: 200,
	Tanggal Terbit: 23 Feb 2016,
	ISBN: 9786020280660,
	Bahasa: Indonesia,
	Penerbit: Elex Media Komputindo,
	Berat: 0.130 kg,
	Lebar: 11.4 cm,
	Panjang: 17.2 cm,
},
{
	page: 64,
	book_url: https://www.gramedia.com/products/altair-tale-of-the-great-war-06-lc,
	title: LC: Altair - Tale of The Great War 06,
	author: Kotono Kato,
	Jumlah Halaman: 192,
	Tanggal Terbit: 13 Feb 2015,
	ISBN: 9786020258645,
	Bahasa: Indonesia,
	Penerbit: Elex Media Komputindo,
	Berat: 0.130 kg,
	Lebar: 13 cm,
	Panjang: 18 cm,
},
{
	page: 64,
	book_url: https://www.gramedia.com/products/magi-15,
	title: Magi 15,
	author: Shinobu Ohtaka,
	Jumlah Halaman: 196,
	Tanggal Terbit: 10 Jun 2015,
	ISBN: 9786020266848,
	Bahasa: Indonesia,
	Penerbit: Elex Media Komputindo,
	Berat: 0.1000 kg,
	Lebar: 12 cm,
},
