{
	page: 23,
	kategori 1: komik,
	book_url: https://www.gramedia.com/products/lc-fight-ippo-112,
	title: LC: Fight Ippo 112,
	author: Joji Morikawa,
	Jumlah Halaman: 200,
	Tanggal Terbit: 1 Nov 2017,
	ISBN: 9786020448923,
	Penerbit: Elex Media Komputindo,
	Berat: 0.12 kg,
	Lebar: 11 cm,
	Panjang: 18 cm,
},
{
	page: 23,
	kategori 1: komik,
	book_url: https://www.gramedia.com/products/sugar-soldier-08,
	title: Sugar Soldier 08,
	author: Mayu Sakai,
	Jumlah Halaman: 192,
	Tanggal Terbit: 14 Nov 2018,
	ISBN: 9786024800758,
	Bahasa: Indonesia,
	Penerbit: m&c!,
	Berat: 0.098 kg,
	Lebar: 17.2 cm,
	Panjang: 11.4 cm,
},
{
	page: 23,
	kategori 1: komik,
	book_url: https://www.gramedia.com/products/170-cm-otometica-02-end,
	title: 170 cm Otometica 02 (END),
	author: Megu Sakura,
	Jumlah Halaman: 160,
	Tanggal Terbit: 5 Des 2018,
	ISBN: 9786020486956,
	Bahasa: Indonesia,
	Penerbit: Elex Media Komputindo,
	Berat: 0.80 kg,
	Lebar: 11.4 cm,
	Panjang: 17.2 cm,
},
{
	page: 23,
	kategori 1: komik,
	book_url: https://www.gramedia.com/products/naruto-57,
	title: Naruto 57,
	author: Masashi Kishimoto,
	Jumlah Halaman: 185,
	Tanggal Terbit: 21 Sep 2012,
	ISBN: 9786020033303,
	Bahasa: Indonesia,
	Penerbit: Elex Media Komputindo,
	Berat: 0.10 kg,
	Lebar: 11.5 cm,
	Panjang: 17 cm,
},
{
	page: 23,
	kategori 1: komik,
	book_url: https://www.gramedia.com/products/lc-akame-ga-kill-01-1,
	title: LC: Akame ga Kill! 01,
	author: Takahiro,Tetsuya Tashiro,
	Jumlah Halaman: 248,
	Tanggal Terbit: 7 Nov 2018,
	ISBN: 9786020485096,
	Bahasa: Indonesia,
	Penerbit: Elex Media Komputindo,
	Berat: 0.11 kg,
	Lebar: 17.2 cm,
	Panjang: 11.4 cm,
},
{
	page: 23,
	kategori 1: komik,
	book_url: https://www.gramedia.com/products/cardcaptor-sakura-09-terbit-ulang,
	title: Cardcaptor Sakura 09 (Terbit Ulang),
	author: Clamp,
	Jumlah Halaman: 192,
	Tanggal Terbit: 22 Nov 2017,
	ISBN: 9789792018202,
	Penerbit: Elex Media Komputindo,
	Berat: 0.130 kg,
	Lebar: 11.4 cm,
	Panjang: 17.2 cm,
},
{
	page: 23,
	kategori 1: komik,
	book_url: https://www.gramedia.com/products/rainbow-days-12,
	title: Rainbow Days 12,
	author: Minami Mizuno,
	Jumlah Halaman: 200,
	Tanggal Terbit: 21 Nov 2018,
	ISBN: 9786020479989,
	Bahasa: Indonesia,
	Penerbit: Elex Media Komputindo,
	Berat: 0.070 kg,
	Lebar: 17.2 cm,
	Panjang: 11.4 cm,
},
{
	page: 23,
	kategori 1: komik,
	book_url: https://www.gramedia.com/products/million-rooms-labyrinth-last,
	title: Million Rooms Labyrinth (Last),
	author: Takamichi,
	Jumlah Halaman: 240,
	Tanggal Terbit: 1 Nov 2017,
	ISBN: 9786020447629,
	Penerbit: Elex Media Komputindo,
	Berat: 0.13 kg,
	Lebar: 11.4 cm,
	Panjang: 17.2 cm,
},
{
	page: 23,
	kategori 1: komik,
	book_url: https://www.gramedia.com/products/why-3d-printing,
	title: Why? 3D Printing,
	author: Yearimdang,
	Jumlah Halaman: 160,
	Tanggal Terbit: 5 Agt 2019,
	ISBN: 9786020495767,
	Bahasa: Indonesia,
	Penerbit: Elex Media Komputindo,
	Berat: 0.240 kg,
	Lebar: 18 cm,
	Panjang: 24 cm,
},
{
	page: 23,
	kategori 1: komik,
	book_url: https://www.gramedia.com/products/he-is-my-boss-02,
	title: He is My Boss 02,
	author: Mimi Tajima,
	Jumlah Halaman: 176,
	Tanggal Terbit: 28 Nov 2018,
	ISBN: 9786024802585,
	Bahasa: Indonesia,
	Penerbit: m&c!,
	Berat: 0.75 kg,
	Lebar: 17.2 cm,
	Panjang: 11.4 cm,
},
{
	page: 23,
	kategori 1: komik,
	book_url: https://www.gramedia.com/products/blue-exorcist-11,
	title: Blue Exorcist 11,
	author: Kazue Kato,
	Jumlah Halaman: 208,
	Tanggal Terbit: 23 Mei 2018,
	ISBN: 9786024289102,
	Bahasa: Indonesia,
	Penerbit: m&c!,
	Berat: 0.10 kg,
	Lebar: 11.5 cm,
	Panjang: 18 cm,
},
{
	page: 23,
	kategori 1: komik,
	book_url: https://www.gramedia.com/products/sc-my-little-love-story,
	title: SC: My Little Love Story,
	author: Haruno Aoyama,
	Jumlah Halaman: 192,
	Tanggal Terbit: 2 Jan 2019,
	ISBN: 9786020487113,
	Bahasa: Indonesia,
	Penerbit: Elex Media Komputindo,
	Berat: 0.096 kg,
	Lebar: 11.4 cm,
	Panjang: 17.2 cm,
},
{
	page: 23,
	kategori 1: komik,
	book_url: https://www.gramedia.com/products/vampire-of-the-east-11,
	title: Vampire of The East 11,
	author: Jo Joo Hee / Han Seung Hee,
	Jumlah Halaman: 168,
	Tanggal Terbit: 1 Nov 2017,
	ISBN: 9786024286330,
	Penerbit: m&c!,
	Berat: 0.13 kg,
	Lebar: 13.2 cm,
	Panjang: 20 cm,
},
{
	page: 23,
	kategori 1: komik,
	book_url: https://www.gramedia.com/products/fullmetal-alchemist-premium-10,
	title: Fullmetal Alchemist (Premium) 10,
	author: Hiromu Arakawa,
	Jumlah Halaman: 260,
	Tanggal Terbit: 26 Sep 2018,
	ISBN: 9786020478302,
	Bahasa: Indonesia,
	Penerbit: Elex Media Komputindo,
	Berat: 0.18 kg,
	Lebar: 15 cm,
	Panjang: 21 cm,
},
{
	page: 23,
	kategori 1: komik,
	book_url: https://www.gramedia.com/products/lc-red-eyes-20,
	title: LC: Red Eyes 20,
	author: Jun Shindo,
	Jumlah Halaman: 168,
	Tanggal Terbit: 18 Jul 2018,
	ISBN: 9786020472720,
	Bahasa: Indonesia,
	Penerbit: Elex Media Komputindo,
	Berat: 0.15 kg,
	Lebar: 13 cm,
	Panjang: 18 cm,
},
{
	page: 23,
	kategori 1: komik,
	book_url: https://www.gramedia.com/products/dragon-ball-vol-40,
	title: Dragon Ball Vol. 40,
	author: Akira Toriyama,
	Jumlah Halaman: 184,
	Tanggal Terbit: 19 Des 2018,
	ISBN: 9786020487311,
	Bahasa: Indonesia,
	Penerbit: Elex Media Komputindo,
	Berat: 0.120 kg,
	Lebar: 11.4 cm,
	Panjang: 17.2 cm,
},
{
	page: 23,
	kategori 1: komik,
	book_url: https://www.gramedia.com/products/shisho-series-05,
	title: Shisho Series 05,
	author: Uni & Shu Katayama,
	Jumlah Halaman: 224,
	Tanggal Terbit: 24 Okt 2018,
	ISBN: 9786020485010,
	Bahasa: Indonesia,
	Penerbit: Elex Media Komputindo,
	Berat: 0.12 kg,
	Lebar: 11.4 cm,
	Panjang: 17.2 cm,
},
{
	page: 23,
	kategori 1: komik,
	book_url: https://www.gramedia.com/products/the-labyrinth-of-wing-09,
	title: The Labyrinth of Wing 09,
	author: Kumagai Kyoko,
	Jumlah Halaman: 192,
	Tanggal Terbit: 22 Agt 2018,
	ISBN: 9786024800024,
	Bahasa: Indonesia,
	Penerbit: m&c!,
	Berat: 0.12 kg,
	Lebar: 11.4 cm,
	Panjang: 17.2 cm,
},
{
	page: 23,
	kategori 1: komik,
	book_url: https://www.gramedia.com/products/fire-force-8,
	title: Fire Force 8,
	author: Atsushi Ohkubo,
	Jumlah Halaman: 192,
	Tanggal Terbit: 22 Mei 2019,
	ISBN: 9786020497549,
	Bahasa: Indonesia,
	Penerbit: Elex Media Komputindo,
	Berat: 0.120 kg,
	Lebar: 11.4 cm,
	Panjang: 17.2 cm,
},
{
	page: 23,
	kategori 1: komik,
	book_url: https://www.gramedia.com/products/lc-giant-killing-44,
	title: Giant Killing 44,
	author: Masaya Tsunamoto,
	Jumlah Halaman: 220,
	Tanggal Terbit: 14 Feb 2018,
	ISBN: 9786020453095,
	Bahasa: Indonesia,
	Penerbit: Elex Media Komputindo,
	Berat: 0.15 kg,
	Lebar: 13 cm,
	Panjang: 18 cm,
},
