{
	page: 39,
	book_url: https://www.gramedia.com/products/seri-pancaindra-alhamdulillah-aku-bisa-mencium-bau,
	title: Seri Pancaindra; Alhamdulillah, Aku Bisa Mencium Bau,
	author: Nurhayati Pujiastuti,
	Jumlah Halaman: 24.0,
	Tanggal Terbit: 26 Feb 2020,
	ISBN: 9786022506638,
	Bahasa: Indonesia,
	Penerbit: Gema Insani,
	Berat: 0.102 kg,
	Lebar: 23.0 cm,
	Panjang: 22.5 cm,
},
{
	page: 39,
	book_url: https://www.gramedia.com/products/incredible-journey,
	title: Incredible Journey,
	author: siti umrotun,
	Jumlah Halaman: 384.0,
	Tanggal Terbit: 26 Feb 2020,
	ISBN: 9786239256425,
	Bahasa: Indonesia,
	Penerbit: NARATAMA,
	Berat: 0.291 kg,
	Lebar: 14.0 cm,
	Panjang: 20.0 cm,
},
{
	page: 39,
	book_url: https://www.gramedia.com/products/seri-pancaindra-alhamdulillah-aku-bisa-menyentuh,
	title: Seri Pancaindra; Alhamdulillah, Aku Bisa Menyentuh,
	author: Nurhayati Pujiastuti,
	Jumlah Halaman: 24.0,
	Tanggal Terbit: 26 Feb 2020,
	ISBN: 9786022506607,
	Bahasa: Indonesia,
	Penerbit: Gema Insani,
	Berat: 0.102 kg,
	Lebar: 23.0 cm,
	Panjang: 22.5 cm,
},
{
	page: 39,
	book_url: https://www.gramedia.com/products/seri-kata-ajaib-aku-mengucap-maaf,
	title: Seri Kata Ajaib; Aku Mengucap Maaf,
	author: Saptorini,
	Jumlah Halaman: 24.0,
	Tanggal Terbit: 26 Feb 2020,
	ISBN: 9786022506676,
	Bahasa: Indonesia,
	Penerbit: Gema Insani,
	Berat: 0.102 kg,
	Lebar: 23.0 cm,
	Panjang: 22.5 cm,
},
{
	page: 39,
	book_url: https://www.gramedia.com/products/seri-pancaindra-alhamdulillah-aku-bisa-merasa,
	title: Seri Pancaindra; Alhamdulillah, Aku Bisa Merasa,
	author: Nurhayati Pujiastuti,
	Jumlah Halaman: 24.0,
	Tanggal Terbit: 26 Feb 2020,
	ISBN: 9786022506645,
	Bahasa: Indonesia,
	Penerbit: Gema Insani,
	Berat: 0.102 kg,
	Lebar: 23.0 cm,
	Panjang: 22.5 cm,
},
{
	page: 39,
	book_url: https://www.gramedia.com/products/smile-at-the-runaway-02,
	title: Smile At The Runaway 02,
	author: Kotoba Inoya,
	Jumlah Halaman: 192.0,
	Tanggal Terbit: 26 Feb 2020,
	ISBN: 9786024809157,
	Bahasa: Indonesia,
	Penerbit: m&c!,
	Berat: 0.093 kg,
	Lebar: 11.4 cm,
	Panjang: 17.2 cm,
},
{
	page: 39,
	book_url: https://www.gramedia.com/products/yagami-kun-youre-so-mean-06,
	title: Yagami-Kun, You'Re So Mean! 06,
	author: Saki Aikawa,
	Jumlah Halaman: 168.0,
	Tanggal Terbit: 26 Feb 2020,
	ISBN: 9786024808846,
	Bahasa: Indonesia,
	Penerbit: m&c!,
	Berat: 0.08 kg,
	Lebar: 11.4 cm,
	Panjang: 17.2 cm,
},
{
	page: 39,
	book_url: https://www.gramedia.com/products/foxs-kiss-3,
	title: Fox`s Kiss 3,
	author: Saki Aikawa,
	Jumlah Halaman: 224.0,
	Tanggal Terbit: 26 Feb 2020,
	ISBN: 9786230013904,
	Bahasa: Indonesia,
	Penerbit: Elex Media Komputindo,
	Berat: 0.12 kg,
	Lebar: 11.4 cm,
	Panjang: 17.2 cm,
},
{
	page: 39,
	book_url: https://www.gramedia.com/products/the-royal-tutor-11,
	title: The Royal Tutor 11,
	author: Higasa Akai,
	Jumlah Halaman: 200.0,
	Tanggal Terbit: 26 Feb 2020,
	ISBN: 9786230011948,
	Bahasa: Indonesia,
	Penerbit: Elex Media Komputindo,
	Berat: 0.1 kg,
	Lebar: 11.4 cm,
	Panjang: 17.2 cm,
},
{
	page: 39,
	book_url: https://www.gramedia.com/products/long-hu-men-the-vengeance-continues-31,
	title: Long Hu Men The Vengeance Continues 31,
	author: Tony Wong,
	Jumlah Halaman: 184.0,
	Tanggal Terbit: 26 Feb 2020,
	ISBN: 9786024809706,
	Bahasa: Indonesia,
	Penerbit: m&c!,
	Berat: 0.2 kg,
	Lebar: 17.0 cm,
	Panjang: 24.5 cm,
},
{
	page: 39,
	book_url: https://www.gramedia.com/products/my-first-doodle-300-characters,
	title: My First Doodle 300 + Characters,
	author: Liendhy,
	Jumlah Halaman: 72.0,
	Tanggal Terbit: 26 Feb 2020,
	ISBN: 9786026731364,
	Bahasa: Indonesia,
	Penerbit: GAVIN`S STORY BOOK,
	Berat: 0.252 kg,
	Lebar: 20.0 cm,
	Panjang: 20.0 cm,
},
{
	page: 39,
	book_url: https://www.gramedia.com/products/surat-surat-wasiat-mendiang-nana,
	title: Surat-Surat Wasiat Mendiang Nana,
	author: Ilham Bintang,
	Jumlah Halaman: 268.0,
	Tanggal Terbit: 26 Feb 2020,
	ISBN: 9786239299408,
	Bahasa: Indonesia,
	Penerbit: PT BINTANG ADVIS MULTIMEDIA,
	Berat: 0.43 kg,
	Lebar: 14.5 cm,
	Panjang: 21.0 cm,
},
{
	page: 39,
	book_url: https://www.gramedia.com/products/seri-pancaindra-alhamdulillah-aku-bisa-mendengar,
	title: Seri Pancaindra; Alhamdulillah, Aku Bisa Mendengar,
	author: Nurhayati Pujiastuti,
	Jumlah Halaman: 24.0,
	Tanggal Terbit: 26 Feb 2020,
	ISBN: 9786022506614,
	Bahasa: Indonesia,
	Penerbit: Gema Insani,
	Berat: 0.102 kg,
	Lebar: 23.0 cm,
	Panjang: 22.5 cm,
},
{
	page: 39,
	book_url: https://www.gramedia.com/products/lc-to-the-abandoned-sacred-beast-9,
	title: Lc: To The Abandoned Sacred Beast 9,
	author: Maybe,
	Jumlah Halaman: 160.0,
	Tanggal Terbit: 26 Feb 2020,
	ISBN: 9786230012358,
	Bahasa: Indonesia,
	Penerbit: Elex Media Komputindo,
	Berat: 0.11 kg,
	Lebar: 12.0 cm,
	Panjang: 18.0 cm,
},
{
	page: 39,
	book_url: https://www.gramedia.com/products/we-hope-for-blooming-06,
	title: We Hope For Blooming 06,
	author: Anashin,
	Jumlah Halaman: 168.0,
	Tanggal Terbit: 26 Feb 2020,
	ISBN: 9786024809676,
	Bahasa: Indonesia,
	Penerbit: m&c!,
	Berat: 0.08 kg,
	Lebar: 11.4 cm,
	Panjang: 17.2 cm,
},
{
	page: 39,
	book_url: https://www.gramedia.com/products/ellie-is-lovesick-04,
	title: Ellie Is Lovesick 04,
	author: Fujimomo,
	Jumlah Halaman: 168.0,
	Tanggal Terbit: 26 Feb 2020,
	ISBN: 9786024809843,
	Bahasa: Indonesia,
	Penerbit: m&c!,
	Berat: 0.08 kg,
	Lebar: 11.4 cm,
	Panjang: 17.2 cm,
},
{
	page: 39,
	book_url: https://www.gramedia.com/products/seri-yuk-mewarnai-alat-musik-tradisional,
	title: Seri Yuk Mewarnai: Alat Musik Tradisional,
	author: Tim Kreatif Rainbow,
	Jumlah Halaman: 36.0,
	Tanggal Terbit: 25 Feb 2020,
	ISBN: 9786237230274,
	Bahasa: Indonesia,
	Penerbit: Andi Offset,
	Berat: 0.094 kg,
	Lebar: 21.0 cm,
	Panjang: 28.0 cm,
},
{
	page: 39,
	book_url: https://www.gramedia.com/products/my-very-first-abc-in-english,
	title: My Very First Abc In English,
	author: Jennifer Choy,
	Jumlah Halaman: 52.0,
	Tanggal Terbit: 25 Feb 2020,
	ISBN: 9786239069599,
	Bahasa: Indonesia,
	Penerbit: Outre,
	Berat: 0.183 kg,
	Lebar: 16.5 cm,
	Panjang: 16.5 cm,
},
{
	page: 39,
	book_url: https://www.gramedia.com/products/lebih-mahir-dengan-microsoft-word-2019-membantu-menulis-dok,
	title: Lebih Mahir Dengan Microsoft Word 2019,
	author: Edi S. Mulyanta Dan Joko I. Mumpuni,
	Jumlah Halaman: 224.0,
	Tanggal Terbit: 25 Feb 2020,
	ISBN: 9786230103391,
	Bahasa: Indonesia,
	Penerbit: Andi Offset,
	Berat: 0.249 kg,
	Lebar: 14.0 cm,
	Panjang: 21.0 cm,
},
{
	page: 39,
	book_url: https://www.gramedia.com/products/teknologi-perbaikan-tanah,
	title: Teknologi Perbaikan Tanah,
	author: JOHN TRI HATMOKO DAN HENDRA SURYADHARMA,
	Jumlah Halaman: 432.0,
	Tanggal Terbit: 25 Feb 2020,
	ISBN: 9786230100017,
	Bahasa: Indonesia,
	Penerbit: Andi Offset,
	Berat: 0.688 kg,
	Lebar: 19.0 cm,
	Panjang: 23.0 cm,
},
