{
	page: 29,
	book_url: https://www.gramedia.com/products/cookie-run-sweet-escape-adventure-science-ajaib,
	title: Cookie Run Sweet Escape Adventure! - Science Ajaib!,
	author: Seoul Cultural Publisher, Inc.,
	Jumlah Halaman: 176.0,
	Tanggal Terbit: 9 Mar 2020,
	ISBN: 9786230014765,
	Bahasa: Indonesia,
	Penerbit: Elex Media Komputindo,
	Berat: 0.35 kg,
	Lebar: 15.0 cm,
	Panjang: 22.0 cm,
},
{
	page: 29,
	book_url: https://www.gramedia.com/products/komik-horor-nusantara-setan-urban,
	title: Komik Horor Nusantara: Setan Urban,
	author: BAE DONG-SUN,
	Jumlah Halaman: 144.0,
	Tanggal Terbit: 9 Mar 2020,
	ISBN: 9786024813499,
	Bahasa: Indonesia,
	Penerbit: Kepustakaan Populer Gramedia,
	Berat: 0.25 kg,
	Lebar: 17.0 cm,
	Panjang: 22.0 cm,
},
{
	page: 29,
	book_url: https://www.gramedia.com/products/seri-mengelola-emosi-ketika-puput-takut,
	title: Seri Mengelola Emosi : Ketika Puput Takut,
	author: Dian K,
	Jumlah Halaman: 32.0,
	Tanggal Terbit: 9 Mar 2020,
	ISBN: 9786230300226,
	Bahasa: Indonesia,
	Penerbit: m&c!,
	Berat: 0.15 kg,
	Lebar: 23.0 cm,
	Panjang: 23.0 cm,
},
{
	page: 29,
	book_url: https://www.gramedia.com/products/berguru-kepada-ulama,
	title: Berguru Kepada Ulama,
	author: Muhammad Al Mubassyir,
	Jumlah Halaman: 280.0,
	Tanggal Terbit: 9 Mar 2020,
	ISBN: 9786230014536,
	Bahasa: Indonesia,
	Penerbit: Elex Media Komputindo,
	Berat: 0.35 kg,
	Lebar: 14.0 cm,
	Panjang: 21.0 cm,
},
{
	page: 29,
	book_url: https://www.gramedia.com/products/pasutrilyf,
	title: #Pasutrilyf,
	author: Sobar D. Prabowo,
	Jumlah Halaman: 228.0,
	Tanggal Terbit: 9 Mar 2020,
	ISBN: 9786026358929,
	Bahasa: Indonesia,
	Penerbit: Wahyuqolbu,
	Berat: 0.172 kg,
	Lebar: 13.0 cm,
	Panjang: 19.0 cm,
},
{
	page: 29,
	book_url: https://www.gramedia.com/products/hunger-games3-mockingkjay,
	title: Hunger Games#3: Mockingkjay,
	author: Suzanne Collins,
	Jumlah Halaman: 432.0,
	Tanggal Terbit: 9 Mar 2020,
	ISBN: 9789792278439,
	Bahasa: Indonesia,
	Penerbit: Gramedia Pustaka Utama,
	Berat: 0.31 kg,
	Lebar: 13.5 cm,
	Panjang: 20.0 cm,
},
{
	page: 29,
	book_url: https://www.gramedia.com/products/aku-tahu-profesi-pilot,
	title: Aku Tahu Profesi : Pilot,
	author: Novi Kurnia,
	Jumlah Halaman: 28.0,
	Tanggal Terbit: 9 Mar 2020,
	ISBN: 9786232168732,
	Bahasa: Indonesia,
	Penerbit: Bhuana Ilmu Populer,
	Berat: 0.15 kg,
	Lebar: 18.0 cm,
	Panjang: 24.0 cm,
},
{
	page: 29,
	book_url: https://www.gramedia.com/products/ayo-membaca-untuk-anak-usia-3-tahun-paud-tk,
	title: Ayo, Membaca Untuk Anak Usia 3 Tahun; Paud & Tk,
	author: Kak Lingling,
	Jumlah Halaman: 16.0,
	Tanggal Terbit: 9 Mar 2020,
	ISBN: 9786022860693,
	Bahasa: Indonesia,
	Penerbit: Anak Kita,
	Berat: 0.15 kg,
	Lebar: 21.0 cm,
	Panjang: 28.0 cm,
},
{
	page: 29,
	book_url: https://www.gramedia.com/products/asyik-sudoku-26,
	title: Asyik Sudoku 26,
	author: Dinastindo,
	Jumlah Halaman: 196.0,
	Tanggal Terbit: 9 Mar 2020,
	ISBN: 9789799335906,
	Bahasa: Indonesia,
	Penerbit: Dinastindo,
	Berat: 0.11 kg,
	Lebar: 12.0 cm,
	Panjang: 15.0 cm,
},
{
	page: 29,
	book_url: https://www.gramedia.com/products/mengenal-kosakata-sehari-hari,
	title: Mengenal Kosakata Sehari-Hari,
	author: Kak Rin,
	Jumlah Halaman: 204.0,
	Tanggal Terbit: 6 Mar 2020,
	ISBN: 9786237324829,
	Bahasa: Indonesia,
	Penerbit: Playground,
	Berat: 0.307 kg,
	Lebar: 10.0 cm,
	Panjang: 15.0 cm,
},
{
	page: 29,
	book_url: https://www.gramedia.com/products/tuntunan-berbisnis-ala-rasulullah,
	title: Tuntunan Berbisnis Ala Rasulullah,
	author: Althafurrahman, S.Pd.I,
	Jumlah Halaman: 212.0,
	Tanggal Terbit: 6 Mar 2020,
	ISBN: 9786237345220,
	Bahasa: Indonesia,
	Penerbit: Andaliman Books,
	Berat: 0.176 kg,
	Lebar: 14.0 cm,
	Panjang: 20.5 cm,
},
{
	page: 29,
	book_url: https://www.gramedia.com/products/smama-smkmak-klxii-super-coach-bahasa-inggris-k13-revisi,
	title: Sma/Ma-Smk/Mak Kl.Xii Super Coach Bahasa Inggris K/13 Revisi,
	author: Wulandari Pratiwi,
	Jumlah Halaman: 160.0,
	Tanggal Terbit: 6 Mar 2020,
	ISBN: 9786023749614,
	Bahasa: Indonesia,
	Penerbit: Yrama Widya,
	Berat: 0.268 kg,
	Lebar: 17.6 cm,
	Panjang: 25.0 cm,
},
{
	page: 29,
	book_url: https://www.gramedia.com/products/hatsukoi,
	title: Hatsukoi,
	author: Akashisedai,
	Jumlah Halaman: 292.0,
	Tanggal Terbit: 6 Mar 2020,
	ISBN: 9789797946036,
	Bahasa: Indonesia,
	Penerbit: Mediakita,
	Berat: 0.214 kg,
	Lebar: 13.0 cm,
	Panjang: 19.0 cm,
},
{
	page: 29,
	book_url: https://www.gramedia.com/products/terjemah-syarah-al-hikam,
	title: Terjemah & Syarah Al-Hikam,
	author: Ibnu Atha'illah As-Sakandari,
	Jumlah Halaman: 404.0,
	Tanggal Terbit: 6 Mar 2020,
	ISBN: 9786237076346,
	Bahasa: Indonesia,
	Penerbit: Semesta Hikmah Publishing,
	Berat: 0.36 kg,
	Lebar: 15.0 cm,
	Panjang: 23.0 cm,
},
{
	page: 29,
	book_url: https://www.gramedia.com/products/les-korea-bareng-blackpink,
	title: Les Korea Bareng Blackpink,
	author: Han Soora,
	Jumlah Halaman: 152.0,
	Tanggal Terbit: 6 Mar 2020,
	ISBN: 9786232441361,
	Bahasa: Indonesia,
	Penerbit: Histeria,
	Berat: 0.181 kg,
	Lebar: 14.0 cm,
	Panjang: 20.0 cm,
},
{
	page: 29,
	book_url: https://www.gramedia.com/products/halo-balita-sali-saliha-aku-sayang-guru-boardbook,
	title: Halo Balita Sali Saliha: Aku Sayang Guru (Boardbook),
	author: Wiwien Widyawanti,
	Jumlah Halaman: 20.0,
	Tanggal Terbit: 6 Mar 2020,
	ISBN: 9786024722135,
	Bahasa: Indonesia,
	Penerbit: Pelangi Mizan,
	Berat: 0.349 kg,
	Lebar: 17.0 cm,
	Panjang: 17.0 cm,
},
{
	page: 29,
	book_url: https://www.gramedia.com/products/unlimited-you,
	title: Unlimited You,
	author: Wirda Mansur,
	Jumlah Halaman: 292.0,
	Tanggal Terbit: 6 Mar 2020,
	ISBN: 9786237567196,
	Bahasa: Indonesia,
	Penerbit: Penerbit Katadepan,
	Berat: 0.282 kg,
	Lebar: 13.0 cm,
	Panjang: 19.0 cm,
},
{
	page: 29,
	book_url: https://www.gramedia.com/products/kamus-pintar-bergambar-inggris-mandarin-indonesia-1,
	title: Kamus Pintar Bergambar ( Inggris-Mandarin-Indonesia ),
	author: Tim Cabe Rawit,
	Jumlah Halaman: 120.0,
	Tanggal Terbit: 6 Mar 2020,
	ISBN: 9786239062880,
	Bahasa: Indonesia,
	Penerbit: Cabe Rawit,
	Berat: 0.276 kg,
	Lebar: 20.5 cm,
	Panjang: 28.0 cm,
},
{
	page: 29,
	book_url: https://www.gramedia.com/products/tetap-waras-walau-patah-hati,
	title: Tetap Waras, Walau Patah Hati,
	author: Mawila Pertiwi & Kang Sam,
	Jumlah Halaman: 160.0,
	Tanggal Terbit: 6 Mar 2020,
	ISBN: 9786237333326,
	Bahasa: Indonesia,
	Penerbit: Cemerlang Publishing,
	Berat: 0.145 kg,
	Lebar: 14.0 cm,
	Panjang: 20.0 cm,
},
{
	page: 29,
	book_url: https://www.gramedia.com/products/bupelas-pemetaan-materi-bank-soal-ipa-smp-kelas-8,
	title: Bupelas Pemetaan Materi & Bank Soal Ipa Smp Kelas 8,
	author: Tim Maestro Genta,
	Jumlah Halaman: 232.0,
	Tanggal Terbit: 6 Mar 2020,
	ISBN: 9786232350236,
	Bahasa: Indonesia,
	Penerbit: Genta Group Production,
	Berat: 0.419 kg,
	Lebar: 19.0 cm,
	Panjang: 25.5 cm,
},
