{
	page: 29,
	kategori 1: fiksi-sastra,
	kategori 2: sastra,
	book_url: https://www.gramedia.com/products/city-lite-dirt-on-my-boots,
	title: CITY LITE: Dirt on My Boots,
	author: Titi Sanaria,
	Jumlah Halaman: 300,
	Tanggal Terbit: 9 Okt 2017,
	ISBN: 9786020447230,
	Bahasa: Indonesia,
	Penerbit: Elex Media Komputindo,
	Berat: 0.2000 kg,
	Lebar: 12.5 cm,
},
{
	page: 29,
	kategori 1: fiksi-sastra,
	kategori 2: sastra,
	book_url: https://www.gramedia.com/products/conf-3-tiga,
	title: 3 - Tiga,
	author: Alicia Lidwina,
	Jumlah Halaman: 320,
	Tanggal Terbit: 4 Agt 2015,
	ISBN: 978602031677,
	Penerbit: Gramedia Pustaka Utama,
	Berat: 0.25 kg,
	Lebar: 13.5 cm,
	Panjang: 20.0 cm,
},
{
	page: 29,
	kategori 1: fiksi-sastra,
	kategori 2: sastra,
	book_url: https://www.gramedia.com/products/macbeth-keadilan-itu-busuk-dan-kebusukan-itu-adil-1,
	title: Macbeth: Keadilan Itu Busuk, dan Kebusukan Itu Adil,
	author: William Shakespeare,
	Jumlah Halaman: 160,
	Tanggal Terbit: 10 Des 2017,
	ISBN: 9789791685269,
	Penerbit: Narasi,
	Berat: 0.155 kg,
	Lebar: 14 cm,
	Panjang: 20 cm,
},
{
	page: 29,
	kategori 1: fiksi-sastra,
	kategori 2: sastra,
	book_url: https://www.gramedia.com/products/keberangkatan-cover-baru-2018,
	title: Keberangkatan - Cover Baru,
	author: Nurhayati Srihardini,
	Jumlah Halaman: 196,
	Tanggal Terbit: 25 Feb 2019,
	ISBN: 9789792258363,
	Bahasa: Indonesia,
	Penerbit: Gramedia Pustaka Utama,
	Berat: 0.1 kg,
	Lebar: 14 cm,
	Panjang: 21 cm,
},
{
	page: 29,
	kategori 1: fiksi-sastra,
	kategori 2: sastra,
	book_url: https://www.gramedia.com/products/girl-on-paper-the,
	title: The Girl On Paper,
	author: Guillaume Musso,
	Jumlah Halaman: 448,
	Tanggal Terbit: 5 Sep 2016,
	ISBN: 9786027432246,
	Bahasa: Indonesia,
	Penerbit: Huta Parhapuran,
	Berat: 0.4500 kg,
	Lebar: 14 cm,
},
{
	page: 29,
	kategori 1: fiksi-sastra,
	kategori 2: sastra,
	book_url: https://www.gramedia.com/products/kahlil-gibran-sang-nabi-edisi-2017,
	title: Kahlil Gibran: Sang Nabi (Edisi 2017),
	author: Kahlil Gibran,
	Jumlah Halaman: 142,
	Tanggal Terbit: 19 Des 2017,
	ISBN: 9789791685191,
	Bahasa: Indonesia,
	Penerbit: Narasi,
	Berat: 0.12 kg,
	Lebar: 13 cm,
	Panjang: 19 cm,
},
{
	page: 29,
	kategori 1: fiksi-sastra,
	kategori 2: sastra,
	book_url: https://www.gramedia.com/products/diary-of-an-unpopularity,
	title: Diary Of An Unpopularity,
	author: Yolana Ivanka,
	Jumlah Halaman: 628,
	Tanggal Terbit: 9 Mei 2016,
	ISBN: 9786026922250,
	Bahasa: Indonesia,
	Penerbit: Loveable,
	Berat: 0.35 kg,
	Lebar: 11 cm,
	Panjang: 19 cm,
},
{
	page: 29,
	kategori 1: fiksi-sastra,
	kategori 2: sastra,
	book_url: https://www.gramedia.com/products/to-be-with-you,
	title: To Be With You,
	author: Indah Hanaco,
	Jumlah Halaman: 416,
	Tanggal Terbit: 21 Mar 2016,
	ISBN: 9786020282442,
	Bahasa: Indonesia,
	Penerbit: Elex Media Komputindo,
	Berat: 0.2000 kg,
	Lebar: 13 cm,
},
{
	page: 29,
	kategori 1: fiksi-sastra,
	kategori 2: sastra,
	book_url: https://www.gramedia.com/products/hadiah-perasaan,
	title: Hadiah Perasaan,
	author: Ivanasha,
	Jumlah Halaman: 148,
	Tanggal Terbit: 23 Jan 2018,
	ISBN: 9789797945527,
	Bahasa: Indonesia,
	Penerbit: Media Kita,
	Berat: 0.12 kg,
	Lebar: 13 cm,
	Panjang: 19 cm,
},
{
	page: 29,
	kategori 1: fiksi-sastra,
	kategori 2: sastra,
	book_url: https://www.gramedia.com/products/fragmen-sajak-sajak-baru-format-baru,
	title: Fragmen, Sajak-Sajak Baru (Format Baru),
	author: Goenawan Hohamad,
	Jumlah Halaman: 88,
	Tanggal Terbit: 24 Jul 2017,
	ISBN: 9786020366661,
	Bahasa: Indonesia,
	Penerbit: Gramedia Pustaka Utama,
	Berat: 0.1000 kg,
	Lebar: 13.5 cm,
},
{
	page: 29,
	kategori 1: fiksi-sastra,
	kategori 2: sastra,
	book_url: https://www.gramedia.com/products/red-queen-trilogy-2-glass-sword,
	title: Red Queen Trilogy #2: Glass Sword,
	author: Victoria Aveyard,
	Jumlah Halaman: 601,
	Tanggal Terbit: 12 Okt 2016,
	ISBN: 9786023851683,
	Bahasa: Indonesia,
	Penerbit: Mizan,
	Berat: 0.52 kg,
	Lebar: 14 cm,
	Panjang: 20 cm,
},
{
	page: 29,
	kategori 1: fiksi-sastra,
	kategori 2: sastra,
	book_url: https://www.gramedia.com/products/pacor-story-seberapa-berat-sih-hidup-lo,
	title: Pacor Story: Seberapa Berat Sih Hidup Lo?,
	author: Bret Pitt,
	Jumlah Halaman: 272,
	Tanggal Terbit: 4 Sep 2018,
	ISBN: 9786026731166,
	Bahasa: Indonesia,
	Penerbit: Kubus Media,
	Berat: 0.170 kg,
	Lebar: 13 cm,
	Panjang: 19 cm,
},
{
	page: 29,
	kategori 1: fiksi-sastra,
	kategori 2: sastra,
	book_url: https://www.gramedia.com/products/english-classics-sherlock-holmes-short-stories-2,
	title: English Classics: Sherlock Holmes Short Stories#2,
	author: Sir Arthur Conan Doyle,
	Jumlah Halaman: 200,
	Tanggal Terbit: 19 Jun 2017,
	ISBN: 9786020356822,
	Bahasa: English,
	Penerbit: Gramedia Pustaka Utama,
	Berat: 0.1300 kg,
	Lebar: 11 cm,
	Panjang: 18 cm,
},
{
	page: 29,
	kategori 1: fiksi-sastra,
	kategori 2: sastra,
	book_url: https://www.gramedia.com/products/kahlil-gibran-damai-bahagia,
	title: Kahlil Gibran - Damai & Bahagia,
	author: Kahlil Gibran,
	Jumlah Halaman: 136,
	Tanggal Terbit: 12 Agt 2017,
	ISBN: 9786021527504,
	Bahasa: Indonesia,
	Penerbit: BYZANTIUM,
	Berat: 0.16 kg,
	Lebar: 13.5 cm,
	Panjang: 20 cm,
},
{
	page: 29,
	kategori 1: fiksi-sastra,
	kategori 2: sastra,
	book_url: https://www.gramedia.com/products/english-classics-the-time-machine,
	title: English Classics: The Time Machine,
	author: H.g. Wells,
	Jumlah Halaman: 160,
	Tanggal Terbit: 16 Apr 2018,
	ISBN: 9786020382807,
	Bahasa: English,
	Penerbit: Gramedia Pustaka Utama,
	Berat: 0.120 kg,
	Lebar: 11 cm,
	Panjang: 18 cm,
},
{
	page: 29,
	kategori 1: fiksi-sastra,
	kategori 2: sastra,
	book_url: https://www.gramedia.com/products/red-queen-trilogy-1-red-queen,
	title: Red Queen Trilogy #1: Red Queen,
	author: Victoria Aveyard,
	Jumlah Halaman: 524,
	Tanggal Terbit: 5 Apr 2016,
	ISBN: 9786023850624,
	Bahasa: Indonesia,
	Penerbit: Mizan Publishing,
	Berat: 0.4600 kg,
	Lebar: 14 cm,
	Panjang: 20 cm,
},
{
	page: 29,
	kategori 1: fiksi-sastra,
	kategori 2: sastra,
	book_url: https://www.gramedia.com/products/english-classics-pride-and-prejudice,
	title: English Classics: Pride and Prejudice,
	author: Jane Austen,
	Jumlah Halaman: 520,
	Tanggal Terbit: 18 Sep 2017,
	ISBN: 9786020375915,
	Bahasa: Indonesia,
	Penerbit: Gramedia Pustaka Utama,
	Berat: 0.2600 kg,
	Lebar: 11 cm,
	Panjang: 18 cm,
},
{
	page: 29,
	kategori 1: fiksi-sastra,
	kategori 2: sastra,
	book_url: https://www.gramedia.com/products/kata-yang-tak-sempat-terucap,
	title: Kata Yang Tak Sempat Terucap,
	author: Radinda Anggia,
	Jumlah Halaman: 104,
	Tanggal Terbit: 15 Jul 2017,
	ISBN: 9786026922977,
	Bahasa: Indonesia,
	Penerbit: Loveable,
	Berat: 0.1700 kg,
	Lebar: 12 cm,
},
{
	page: 29,
	kategori 1: fiksi-sastra,
	kategori 2: sastra,
	book_url: https://www.gramedia.com/products/tentang-aku-kamu-jarak,
	title: Tentang Aku,Kamu,& Jarak,
	author: @twetldr,
	Jumlah Halaman: 180,
	Tanggal Terbit: 26 Okt 2015,
	ISBN: 9786023752317,
	Bahasa: Indonesia,
	Penerbit: Gramedia Widiasarana Indonesia,
	Berat: 0.2500 kg,
	Lebar: 13 cm,
},
{
	page: 29,
	kategori 1: fiksi-sastra,
	kategori 2: sastra,
	book_url: https://www.gramedia.com/products/tidak-pernah-ada-kita,
	title: Tidak Pernah Ada Kita,
	author: Dwitasari,
	Jumlah Halaman: 162,
	Tanggal Terbit: 23 Jan 2018,
	ISBN: 9786024302412,
	Bahasa: Indonesia,
	Penerbit: Bentang Pustaka,
	Berat: 0.20 kg,
	Lebar: 14.5 cm,
	Panjang: 21 cm,
},
