{
	page: 75,
	kategori 1: fiksi-sastra,
	kategori 2: sastra,
	book_url: https://www.gramedia.com/products/truly-yours,
	title: Truly Yours,
	author: Fathnisa Hasnah,
	Jumlah Halaman: 260,
	Tanggal Terbit: 22 Des 2017,
	ISBN: 9786026113849,
	Bahasa: Indonesia,
	Penerbit: Penerbit Roro Raya Sejahtera,
	Berat: 0.26 kg,
	Lebar: 14 cm,
	Panjang: 20 cm,
},
{
	page: 75,
	kategori 1: fiksi-sastra,
	kategori 2: sastra,
	book_url: https://www.gramedia.com/products/dunia-maya-misteri-dunia-dan-cinta,
	title: Dunia Maya Misteri Dunia dan Cinta,
	author: Jostein Gaarder,
	Jumlah Halaman: 420,
	Tanggal Terbit: 17 Feb 2016,
	ISBN: 9789794339220,
	Bahasa: Indonesia,
	Penerbit: Mizan,
	Berat: 0.3500 kg,
	Lebar: 13 cm,
},
{
	page: 75,
	kategori 1: fiksi-sastra,
	kategori 2: sastra,
	book_url: https://www.gramedia.com/products/cintaku-setengah-agama,
	title: Cintaku Setengah Agama,
	author: Iswadi Suhari,
	Jumlah Halaman: 319,
	Tanggal Terbit: 11 Des 2017,
	ISBN: 9786025441035,
	Bahasa: Indonesia,
	Penerbit: Eduquer,
	Berat: 0.300 kg,
	Lebar: 14 cm,
	Panjang: 20 cm,
},
{
	page: 75,
	kategori 1: fiksi-sastra,
	kategori 2: sastra,
	book_url: https://www.gramedia.com/products/unconsciously-in-love,
	title: Unconsciously In Love,
	author: Kincirmainan,
	Jumlah Halaman: 460,
	Tanggal Terbit: 9 Apr 2018,
	ISBN: 9786024553678,
	Bahasa: Indonesia,
	Penerbit: Bhuana Ilmu Populer,
	Berat: 0.430 kg,
	Lebar: 13 cm,
	Panjang: 19 cm,
},
{
	page: 75,
	kategori 1: fiksi-sastra,
	kategori 2: sastra,
	book_url: https://www.gramedia.com/products/cr-call-me-wild-panggil-aku-si-liar,
	title: Cr: Call Me Wild (Panggil Aku Si Liar),
	author: Robin Kaye,
	Jumlah Halaman: 456,
	Tanggal Terbit: 20 Jun 2014,
	ISBN: 9786020243672,
	Bahasa: Indonesia,
	Penerbit: Elex Media Komputindo,
	Berat: 0.3000 kg,
	Lebar: 11 cm,
	Panjang: 18 cm,
},
{
	page: 75,
	kategori 1: fiksi-sastra,
	kategori 2: sastra,
	book_url: https://www.gramedia.com/products/attach-ments,
	title: Attach Ments,
	author: Rainbow Rowell,
	Jumlah Halaman: 436,
	Tanggal Terbit: 19 Nov 2015,
	ISBN: 9786027150553,
	Bahasa: Indonesia,
	Penerbit: Spring,
	Berat: 0.4000 kg,
	Lebar: 14 cm,
},
{
	page: 75,
	kategori 1: fiksi-sastra,
	kategori 2: sastra,
	book_url: https://www.gramedia.com/products/cr-some-like-it-hot,
	title: Cr: Some Like It Hot,
	author: Louisa Edward,
	Jumlah Halaman: 448,
	Tanggal Terbit: 19 Okt 2015,
	ISBN: 9786020274348,
	Bahasa: Indonesia,
	Penerbit: St. Martin Press,
	Berat: 0.250 kg,
	Lebar: 11 cm,
	Panjang: 18 cm,
},
{
	page: 75,
	kategori 1: fiksi-sastra,
	kategori 2: sastra,
	book_url: https://www.gramedia.com/products/dirty-marriage,
	title: Dirty Marriage,
	author: Anindana,
	Jumlah Halaman: 448,
	Tanggal Terbit: 21 Nov 2017,
	ISBN: 9786026940445,
	Bahasa: Indonesia,
	Penerbit: Best Media,
	Berat: 0.35 kg,
	Lebar: 14 cm,
	Panjang: 20.5 cm,
},
{
	page: 75,
	kategori 1: fiksi-sastra,
	kategori 2: sastra,
	book_url: https://www.gramedia.com/products/hal-yang-paling-sia-sia,
	title: Hal Yang Paling Sia-Sia,
	author: Gery Ardian,
	Jumlah Halaman: 200.0,
	Tanggal Terbit: 5 Sep 2019,
	ISBN: 9786237211259,
	Penerbit: ROMANCIOUS X BHUMI ANOMA,
	Berat: 0.216 kg,
	Lebar: 13.0 cm,
	Panjang: 19.0 cm,
},
{
	page: 75,
	kategori 1: fiksi-sastra,
	kategori 2: sastra,
	book_url: https://www.gramedia.com/products/sayap-besi-vol-1,
	title: Sayap Besi Vol. 1,
	author: Ikhromi Oktafiandi,
	Jumlah Halaman: 154,
	Tanggal Terbit: 30 Mei 2017,
	ISBN: 9789797945381,
	Bahasa: Indonesia,
	Penerbit: Media Kita,
	Berat: 0.1700 kg,
	Lebar: 14.5 cm,
},
{
	page: 75,
	kategori 1: fiksi-sastra,
	kategori 2: sastra,
	book_url: https://www.gramedia.com/products/double-spin-round,
	title: Double Spin Round,
	author: Miyashita Natsu & Shoji Yukiya,
	Jumlah Halaman: 200,
	Tanggal Terbit: 18 Feb 2016,
	ISBN: XXX,
	Bahasa: Indonesia,
	Penerbit: Haru,
	Berat: 0.2000 kg,
	Lebar: 13 cm,
},
{
	page: 75,
	kategori 1: fiksi-sastra,
	kategori 2: sastra,
	book_url: https://www.gramedia.com/products/figthing-son-seng-nim,
	title: Figthing,Son Seng Nim!,
	author: Nuraisah H,
	Jumlah Halaman: 392,
	Tanggal Terbit: 3 Okt 2016,
	ISBN: 9786021614501,
	Bahasa: Indonesia,
	Penerbit: Indiva Media Kreasi,
	Berat: 0.3500 kg,
	Lebar: 14 cm,
},
{
	page: 75,
	kategori 1: fiksi-sastra,
	kategori 2: sastra,
	book_url: https://www.gramedia.com/products/break-a-leg,
	title: Break A Leg,
	author: Umi Astusti,
	Jumlah Halaman: 316,
	Tanggal Terbit: 15 Jan 2018,
	ISBN: 9786026022998,
	Bahasa: Indonesia,
	Penerbit: Namina Books,
	Berat: 0.30 kg,
	Lebar: 14 cm,
	Panjang: 20 cm,
},
{
	page: 75,
	kategori 1: fiksi-sastra,
	kategori 2: sastra,
	book_url: https://www.gramedia.com/products/frasa-di-penghujung-musim,
	title: Frasa di Penghujung Musim,
	author: Adiska Niramaya,
	Jumlah Halaman: 96,
	Tanggal Terbit: 12 Feb 2018,
	ISBN: 9786024287788,
	Penerbit: m&c!,
	Berat: 0.100 kg,
	Lebar: 13.5 cm,
	Panjang: 20 cm,
},
{
	page: 75,
	kategori 1: fiksi-sastra,
	kategori 2: sastra,
	book_url: https://www.gramedia.com/products/scholastic-harry-potter-3-sc,
	title: Scholastic: Harry Potter #3 (Sc),
	author: J.K. Rowling,
	Jumlah Halaman: 464,
	Tanggal Terbit: 26 Jun 2018,
	ISBN: 9781338299168,
	Bahasa: Indonesia,
	Penerbit: Scholastic Us,
	Berat: 0.384 kg,
	Lebar: 13.5 cm,
	Panjang: 20 cm,
},
{
	page: 75,
	kategori 1: fiksi-sastra,
	kategori 2: sastra,
	book_url: https://www.gramedia.com/products/buka-pintu-kiri,
	title: Buka Pintu Kiri,
	author: Afrizal Malna,
	Jumlah Halaman: None,
	Tanggal Terbit: 24 Nov 2018,
	ISBN: 9786023916368,
	Bahasa: Indonesia,
	Penerbit: Diva Press,
	Berat: 0.30 kg,
	Lebar: 14 cm,
	Panjang: 21 cm,
},
{
	page: 75,
	kategori 1: fiksi-sastra,
	kategori 2: sastra,
	book_url: https://www.gramedia.com/products/chicklit-good-in-bed-cover-baru,
	title: Chicklit: Good In Bed - Cover Baru,
	author: Jennifer Weiner,
	Jumlah Halaman: 480,
	Tanggal Terbit: 21 Sep 2015,
	ISBN: 9786020317953,
	Bahasa: Indonesia,
	Penerbit: Gramedia Pustaka Utama,
	Berat: 0.485 kg,
	Lebar: 14 cm,
	Panjang: 20 cm,
},
{
	page: 75,
	kategori 1: fiksi-sastra,
	kategori 2: sastra,
	book_url: https://www.gramedia.com/products/historical-romance-keangkuhan-sang-lady-the-untamed-bride,
	title: Historical Romance: Keangkuhan Sang Lady (The Untamed Bride),
	author: Stephanie Laurens,
	Jumlah Halaman: 504,
	Tanggal Terbit: 25 Agt 2014,
	ISBN: 9786020307640,
	Bahasa: Indonesia,
	Penerbit: Gramedia Pustaka Utama,
	Berat: 0.3000 kg,
	Lebar: 11 cm,
},
{
	page: 75,
	kategori 1: fiksi-sastra,
	kategori 2: sastra,
	book_url: https://www.gramedia.com/products/les-tempetes-de-la-vie,
	title: Les Tempetes De La Vie,
	author: Josephine Widya Wijaya,
	Jumlah Halaman: 334,
	Tanggal Terbit: 28 Des 2017,
	ISBN: 9786024072759,
	Bahasa: Indonesia,
	Penerbit: Laksana,
	Berat: 0.4 kg,
	Lebar: 14 cm,
	Panjang: 20 cm,
},
{
	page: 75,
	kategori 1: fiksi-sastra,
	kategori 2: sastra,
	book_url: https://www.gramedia.com/products/patah-hati-terindah-karena-allah-adalah-cinta,
	title: Patah Hati Terindah : Karena Allah Adalah Cinta,
	author: Aguk Irawan M.N.,
	Jumlah Halaman: 364,
	Tanggal Terbit: 10 Sep 2015,
	ISBN: 9786027202498,
	Bahasa: Indonesia,
	Penerbit: Exchange,
	Berat: 0.3500 kg,
	Lebar: 13.5 cm,
},
