{
	"page": 98,
	"kategori 1": "non-fiksi",
	"kategori 2": "agama",
	"book_url": "https://www.gramedia.com/products/iping-3-beryukur-hidup-jadi-lebih-indah",
	"title": "Iping 3: Beryukur Hidup Jadi Lebih Indah",
	"author": "Ypa Jayeng Siswanto, Msf",
	"Jumlah Halaman": "198",
	"Tanggal Terbit": "8 Mar 2016",
	"ISBN": "9786021659649",
	"Bahasa": "Indonesia",
	"Penerbit": "Scritto",
	"Berat": "0.2000 kg",
	"Lebar": "13 cm"
},
{
	"page": 98,
	"kategori 1": "non-fiksi",
	"kategori 2": "agama",
	"book_url": "https://www.gramedia.com/products/al-quran-tanggung-hvs-15-x-21",
	"title": "Al Quran Tanggung Hvs 15 X 21",
	"author": "Redaksi",
	"Jumlah Halaman": "886.0",
	"Tanggal Terbit": "25 Mar 2019",
	"ISBN": "9789792682656",
	"Bahasa": "Indonesia",
	"Penerbit": "Pustaka Baru",
	"Berat": "0.606 kg",
	"Lebar": "15.5 cm",
	"Panjang": "21.5 cm"
},
{
	"page": 98,
	"kategori 1": "non-fiksi",
	"kategori 2": "agama",
	"book_url": "https://www.gramedia.com/products/bujuk-rayu-stan-kepada-perempuan-hijrah",
	"title": "Bujuk Rayu Stan Kepada Perempuan Hijrah",
	"author": "Izzah Qanita Nailiya",
	"Jumlah Halaman": "224.0",
	"Tanggal Terbit": "17 Sep 2019",
	"ISBN": "9786237145592",
	"Bahasa": "Indonesia",
	"Penerbit": "Solusi Distribusi Buku Cv",
	"Berat": "0.35 kg",
	"Lebar": "14.0 cm",
	"Panjang": "20.5 cm"
},
{
	"page": 98,
	"kategori 1": "non-fiksi",
	"kategori 2": "agama",
	"book_url": "https://www.gramedia.com/products/60-hari-bisa-menerjemahkan-al-quran-sendiri-pand-bljr-bhs-ar",
	"title": "60 Hari Bisa Menerjemahkan Al Quran Sendiri",
	"author": "Ustadz Ahmad H",
	"Jumlah Halaman": "258",
	"Tanggal Terbit": "11 Des 2013",
	"ISBN": "9786021583036",
	"Bahasa": "Indonesia",
	"Penerbit": "Turos Pustaka",
	"Berat": "0.361 kg",
	"Lebar": "19 cm",
	"Panjang": "24 cm"
},
{
	"page": 98,
	"kategori 1": "non-fiksi",
	"kategori 2": "agama",
	"book_url": "https://www.gramedia.com/products/al-quranul-karim-terjemah-al-hilali",
	"title": "Al-Qur'anul Karim Terjemah Al Hilali",
	"author": "Alfatih Quran",
	"Jumlah Halaman": "600",
	"Tanggal Terbit": "15 Nov 2017",
	"ISBN": "9786026796028",
	"Penerbit": "Alfatih Quran",
	"Berat": "0.645 kg",
	"Lebar": "14 cm",
	"Panjang": "21 cm"
},
{
	"page": 98,
	"kategori 1": "non-fiksi",
	"kategori 2": "agama",
	"book_url": "https://www.gramedia.com/products/kepada-sahabat-nasihat-nasihat-dari-bait-bait-alfiyah",
	"title": "Kepada Sahabat Nasihat-Nasihat Dari Bait-Bait Alfiyah",
	"author": "Fina Lailatul Masruroh",
	"Jumlah Halaman": "110",
	"Tanggal Terbit": "12 Des 2018",
	"ISBN": "9786025731310",
	"Bahasa": "Indonesia",
	"Penerbit": "Tinta Medina",
	"Berat": "0.144 kg",
	"Lebar": "14 cm",
	"Panjang": "21 cm"
},
{
	"page": 98,
	"kategori 1": "non-fiksi",
	"kategori 2": "agama",
	"book_url": "https://www.gramedia.com/products/hafalan-mudah-doa-sehari-hari-bacaan-shalat-dan-surah-sura",
	"title": "Hafalan Mudah Doa Sehari-Hari, Bacaan Shalat, dan Surah-Sura",
	"author": "Arifin Idham",
	"Jumlah Halaman": "168.0",
	"Tanggal Terbit": "10 Jan 2020",
	"ISBN": "9786232440487",
	"Bahasa": "Indonesia",
	"Penerbit": "Mueeza",
	"Berat": "0.125 kg",
	"Lebar": "13.0 cm",
	"Panjang": "19.0 cm"
},
{
	"page": 98,
	"kategori 1": "non-fiksi",
	"kategori 2": "agama",
	"book_url": "https://www.gramedia.com/products/mencintaimu-sedalam-lukaku",
	"title": "Mencintaimu Sedalam Lukaku",
	"author": "Ayat Khalili",
	"Jumlah Halaman": "150",
	"Tanggal Terbit": "3 Jul 2018",
	"ISBN": "9786026358547",
	"Bahasa": "Indonesia",
	"Penerbit": "Wahyu Qolbu",
	"Berat": "0.130 kg",
	"Lebar": "13 cm",
	"Panjang": "19 cm"
},
{
	"page": 98,
	"kategori 1": "non-fiksi",
	"kategori 2": "agama",
	"book_url": "https://www.gramedia.com/products/al-quran-transliterasi-sedang-at-thayyib-perkata-terjemah-perkata",
	"title": "Al Quran Transliterasi Sedang At-Thayyib Perkata&Terjemah Perkata",
	"author": "Alfatih",
	"Jumlah Halaman": "640.0",
	"Tanggal Terbit": "20 Jun 2001",
	"ISBN": "9786027307414",
	"Bahasa": "Indonesia",
	"Penerbit": "No Publisher",
	"Berat": "0.625 kg",
	"Lebar": "14.5 cm",
	"Panjang": "22.0 cm"
},
{
	"page": 98,
	"kategori 1": "non-fiksi",
	"kategori 2": "agama",
	"book_url": "https://www.gramedia.com/products/kamus-doa-dzikir-ibadah-haji",
	"title": "Kamus Doa & Dzikir Ibadah Haji",
	"author": "Agus Arifin",
	"Jumlah Halaman": "1",
	"Tanggal Terbit": "12 Mei 2009",
	"ISBN": "9789792761672",
	"Bahasa": "Indonesia",
	"Penerbit": "Elex Media Komputindo",
	"Berat": "0.47 kg",
	"Lebar": "12 cm",
	"Panjang": "18 cm"
},
{
	"page": 98,
	"kategori 1": "non-fiksi",
	"kategori 2": "agama",
	"book_url": "https://www.gramedia.com/products/nasihat2-keseharian-buya-hamka-quraish-shihab-buya-syafii",
	"title": "Nasihat-Nasihat Keseharian",
	"author": "Ahfa Waid",
	"Jumlah Halaman": "176",
	"Tanggal Terbit": "23 Apr 2019",
	"ISBN": "9786025781575",
	"Bahasa": "Indonesia",
	"Penerbit": "Penerbit Noktah",
	"Berat": "0.2 kg",
	"Lebar": "14 cm",
	"Panjang": "20 cm"
},
{
	"page": 98,
	"kategori 1": "non-fiksi",
	"kategori 2": "agama",
	"book_url": "https://www.gramedia.com/products/pidato-para-khalifah",
	"title": "Pidato Para Khalifah",
	"author": "Dr. H. Abd. Halim, M.a.",
	"Jumlah Halaman": "219",
	"Tanggal Terbit": "9 Feb 2016",
	"ISBN": "9786027177765",
	"Bahasa": "Indonesia",
	"Penerbit": "Solusi Distribusi",
	"Berat": "1.0000 kg",
	"Lebar": "15.5 cm"
},
{
	"page": 98,
	"kategori 1": "non-fiksi",
	"kategori 2": "agama",
	"book_url": "https://www.gramedia.com/products/resign-and-survive-yuk-hijrah",
	"title": "Resign And Survive; Yuk Hijrah",
	"author": "Ade Eka Saputra",
	"Jumlah Halaman": "180",
	"Tanggal Terbit": "5 Feb 2018",
	"ISBN": "9786020454016",
	"Bahasa": "Indonesia",
	"Penerbit": "Elex Media Komputindo",
	"Berat": "0.300 kg",
	"Lebar": "14 cm",
	"Panjang": "21 cm"
},
{
	"page": 98,
	"kategori 1": "non-fiksi",
	"kategori 2": "agama",
	"book_url": "https://www.gramedia.com/products/nikahi-aku-karena-allah",
	"title": "Nikahi Aku Karena Allah",
	"author": "Syaikh Isham Muhammad Syarif as-Salafim, dkk",
	"Jumlah Halaman": "246",
	"Tanggal Terbit": "18 Des 2017",
	"ISBN": "9786029215557",
	"Bahasa": "Indonesia",
	"Penerbit": "Akbarmedia",
	"Berat": "0.37 kg",
	"Lebar": "16 cm",
	"Panjang": "24 cm"
},
{
	"page": 98,
	"kategori 1": "non-fiksi",
	"kategori 2": "agama",
	"book_url": "https://www.gramedia.com/products/jangan-marah-lupakan-maafkan-ikhlaskan",
	"title": "Jangan Marah: Lupakan, Maafkan, Ikhlaskan",
	"author": "Ipnu R Noegroho",
	"Jumlah Halaman": "220",
	"Tanggal Terbit": "6 Feb 2019",
	"ISBN": "9786020770567",
	"Bahasa": "Indonesia",
	"Penerbit": "Mueeza",
	"Berat": "0.20 kg",
	"Lebar": "13 cm",
	"Panjang": "19 cm"
},
{
	"page": 98,
	"kategori 1": "non-fiksi",
	"kategori 2": "agama",
	"book_url": "https://www.gramedia.com/products/tanya-jawab-bersama-nabi-kitab-islam",
	"title": "Tanya & Jawab Bersama Nabi: Kitab Islam",
	"author": "LingkarKalam",
	"Jumlah Halaman": "432",
	"Tanggal Terbit": "6 Mei 2019",
	"ISBN": "9786020497457",
	"Bahasa": "Indonesia",
	"Penerbit": "Elex Media Komputindo",
	"Berat": "0.600 kg",
	"Lebar": "15 cm",
	"Panjang": "23 cm"
},
{
	"page": 98,
	"kategori 1": "non-fiksi",
	"kategori 2": "agama",
	"book_url": "https://www.gramedia.com/products/the-miracle-of-tahajud-dhuha",
	"title": "The Miracle Of Tahajud & Dhuha",
	"author": "Muclas Al-Farbi",
	"Jumlah Halaman": "224",
	"Tanggal Terbit": "15 Mei 2019",
	"ISBN": "9786237145349",
	"Bahasa": "Indonesia",
	"Penerbit": "Araska Publisher",
	"Berat": "0.259 kg",
	"Lebar": "14 cm",
	"Panjang": "21 cm"
},
{
	"page": 98,
	"kategori 1": "non-fiksi",
	"kategori 2": "agama",
	"book_url": "https://www.gramedia.com/products/kado-pernikahan-2",
	"title": "Kado Pernikahan",
	"author": "Syaikh Muhammad Mahdi Al Istanbuli",
	"Jumlah Halaman": "336",
	"Tanggal Terbit": "4 Feb 2012",
	"ISBN": "9789791303590",
	"Bahasa": "Indonesia",
	"Penerbit": "Qisthi Press",
	"Berat": "0.500 kg",
	"Lebar": "24 cm",
	"Panjang": "16 cm"
},
{
	"page": 98,
	"kategori 1": "non-fiksi",
	"kategori 2": "agama",
	"book_url": "https://www.gramedia.com/products/panduan-shalat-wajib-sunah-sepanjang-masa-plus-juz-amma",
	"title": "Panduan Shalat Wajib&Sunah Sepanjang Masa Plus Juz Amma",
	"author": "Ahmad Rasyid",
	"Tanggal Terbit": "23 Apr 2013",
	"ISBN": "9786028454605",
	"Penerbit": "Puspa Swara",
	"Berat": "0.2500 kg",
	"Lebar": "18 cm",
	"Panjang": "0 cm"
},
{
	"page": 98,
	"kategori 1": "non-fiksi",
	"kategori 2": "agama",
	"book_url": "https://www.gramedia.com/products/berjamaah-lebih-utama",
	"title": "Berjamaah Lebih Utama",
	"author": "USTADZ MUHAMMAD SYAFRIL",
	"Jumlah Halaman": "176",
	"Tanggal Terbit": "19 Mar 2019",
	"ISBN": "9789790174207",
	"Bahasa": "Indonesia",
	"Penerbit": "Kawah Media Pustaka",
	"Berat": "0.21 kg",
	"Lebar": "15 cm",
	"Panjang": "23 cm"
},
{
	"page": 98,
	"kategori 1": "non-fiksi",
	"kategori 2": "agama",
	"book_url": "https://www.gramedia.com/products/disiplin",
	"title": "Disiplin",
	"author": "Elisabeth Elliot",
	"Jumlah Halaman": "188",
	"Tanggal Terbit": "19 Jan 2018",
	"ISBN": "9786029803884",
	"Bahasa": "Indonesia",
	"Penerbit": "Omid Publishing House",
	"Berat": "0.170 kg",
	"Lebar": "14 cm",
	"Panjang": "21 cm"
},
{
	"page": 98,
	"kategori 1": "non-fiksi",
	"kategori 2": "agama",
	"book_url": "https://www.gramedia.com/products/conf-di-bawah-panji-muhammad",
	"title": "Di Bawah Panji Muhammad",
	"author": "Supriyadi",
	"Jumlah Halaman": "212",
	"Tanggal Terbit": "22 Feb 2017",
	"ISBN": "9786020282619",
	"Bahasa": "Indonesia",
	"Penerbit": "Elex Media Komputindo",
	"Berat": "0.2500 kg",
	"Lebar": "14 cm"
},
{
	"page": 98,
	"kategori 1": "non-fiksi",
	"kategori 2": "agama",
	"book_url": "https://www.gramedia.com/products/hidup-membiara-di-zaman-modern",
	"title": "Hidup Membiara Di Zaman Modern",
	"author": "Paul Suparno, Sj",
	"Jumlah Halaman": "248",
	"Tanggal Terbit": "4 Agt 2016",
	"ISBN": "9789792145588",
	"Bahasa": "Indonesia",
	"Penerbit": "Kanisius",
	"Berat": "0.2300 kg",
	"Lebar": "12.5 cm"
},
{
	"page": 98,
	"kategori 1": "non-fiksi",
	"kategori 2": "agama",
	"book_url": "https://www.gramedia.com/products/jangan-asal-sabar",
	"title": "Jangan Asal Sabar",
	"author": "Ustadz Ukasyah Habibu Ahmad",
	"Jumlah Halaman": "198",
	"Tanggal Terbit": "21 Feb 2018",
	"ISBN": "9786024071820",
	"Bahasa": "Indonesia",
	"Penerbit": "Laksana",
	"Berat": "0.160 kg",
	"Lebar": "13 cm",
	"Panjang": "19 cm"
},
{
	"page": 98,
	"kategori 1": "non-fiksi",
	"kategori 2": "agama",
	"book_url": "https://www.gramedia.com/products/how-happiness-happens-bagaimana-kebahagiaan-terjadi",
	"title": "How Happiness Happens (Bagaimana Kebahagiaan Terjadi)",
	"author": "Max Lucado",
	"Jumlah Halaman": "140.0",
	"Tanggal Terbit": "2 Nov 2019",
	"ISBN": "9786024191498",
	"Bahasa": "Indonesia",
	"Penerbit": "Light Publishing",
	"Berat": "0.231 kg",
	"Lebar": "14.0 cm",
	"Panjang": "20.0 cm"
},
{
	"page": 98,
	"kategori 1": "non-fiksi",
	"kategori 2": "agama",
	"book_url": "https://www.gramedia.com/products/conf-buku-pintar-alam-gaib",
	"title": "Buku Pintar Alam Gaib",
	"author": "Aep Saepulloh Darusmanwiati",
	"Jumlah Halaman": "280.0",
	"Tanggal Terbit": "23 Sep 2019",
	"ISBN": "9786025547577",
	"Bahasa": "Indonesia",
	"Penerbit": "Qaf Media Kreativa Pt",
	"Berat": "0.207 kg",
	"Lebar": "13.0 cm",
	"Panjang": "19.0 cm"
},
{
	"page": 98,
	"kategori 1": "non-fiksi",
	"kategori 2": "agama",
	"book_url": "https://www.gramedia.com/products/adabun-nufus-tuntunan-merasakan-nikmatnya-hidup-tulus-tanpa",
	"title": "Adabun Nufus: Tuntunan Merasakan Nikmatnya Hidup Tulus Tanpa Batas",
	"author": "Imam Al-Muhasibi",
	"Jumlah Halaman": "255",
	"Tanggal Terbit": "28 Des 2017",
	"ISBN": "9786026721099",
	"Bahasa": "Indonesia",
	"Penerbit": "Qalam",
	"Berat": "0.245 kg",
	"Lebar": "13 cm",
	"Panjang": "20.5 cm"
},
{
	"page": 98,
	"kategori 1": "non-fiksi",
	"kategori 2": "agama",
	"book_url": "https://www.gramedia.com/products/menyimak-kisah-menyibak-hikmah-merah-jilid-2",
	"title": "Menyimak Kisah Menyibak Hikmah (Merah) Jilid 2",
	"author": "Mhd. Rois Almaududy",
	"Jumlah Halaman": "218",
	"Tanggal Terbit": "26 Apr 2018",
	"ISBN": "9786025479465",
	"Bahasa": "Indonesia",
	"Penerbit": "Checklist",
	"Berat": "0.20 kg",
	"Lebar": "14 cm",
	"Panjang": "20.5 cm"
},
{
	"page": 98,
	"kategori 1": "non-fiksi",
	"kategori 2": "agama",
	"book_url": "https://www.gramedia.com/products/islam-untuk-hari2-besar-nasional-seri-khotbah-jumat",
	"title": "Islam Untuk Hari-hari Besar Nasional : Seri Khotbah Jumat",
	"author": "Prof. Dr. Jamhari Makruf",
	"Jumlah Halaman": "160",
	"Tanggal Terbit": "18 Mar 2016",
	"ISBN": "9786020895260",
	"Bahasa": "Indonesia",
	"Penerbit": "Kencana Prenada Media",
	"Berat": "0.1000 kg",
	"Lebar": "13.5 cm"
},
{
	"page": 98,
	"kategori 1": "non-fiksi",
	"kategori 2": "agama",
	"book_url": "https://www.gramedia.com/products/cerita-teladan-25-nabi-dan-rasul",
	"title": "Cerita Teladan 25 Nabi Dan Rasul",
	"author": "IIP SYARIFAH SPDI",
	"Jumlah Halaman": "164",
	"Tanggal Terbit": "16 Jul 2018",
	"ISBN": "9786021267769",
	"Bahasa": "Indonesia",
	"Penerbit": "Romancious",
	"Berat": "0.250 kg",
	"Lebar": "21 cm",
	"Panjang": "26 cm"
},
{
	"page": 98,
	"kategori 1": "non-fiksi",
	"kategori 2": "agama",
	"book_url": "https://www.gramedia.com/products/energi-doa-zikir-mustajab",
	"title": "Energi Doa & Zikir Mustajab",
	"author": "M.K. Nareswari",
	"Jumlah Halaman": "212.0",
	"Tanggal Terbit": "4 Okt 2019",
	"ISBN": "9786239126018",
	"Bahasa": "Indonesia",
	"Penerbit": "Pustaka al Uswah",
	"Berat": "0.185 kg",
	"Lebar": "14.0 cm",
	"Panjang": "20.0 cm"
},
{
	"page": 98,
	"kategori 1": "non-fiksi",
	"kategori 2": "agama",
	"book_url": "https://www.gramedia.com/products/pengantar-filsafat-islam",
	"title": "Pengantar Filsafat Islam",
	"author": "DR. ZAPRULKHAN, S.SOS.I., M.S.I",
	"Jumlah Halaman": "376.0",
	"Tanggal Terbit": "29 Okt 2019",
	"ISBN": "9786027696952",
	"Bahasa": "Indonesia",
	"Penerbit": "Divapress",
	"Berat": "0.411 kg",
	"Lebar": "15.5 cm",
	"Panjang": "24.0 cm"
},
{
	"page": 98,
	"kategori 1": "non-fiksi",
	"kategori 2": "agama",
	"book_url": "https://www.gramedia.com/products/story-of-my-hijrah",
	"title": "Story Of My Hijrah",
	"author": "Riris Setio Rini",
	"Jumlah Halaman": "152",
	"Tanggal Terbit": "11 Jan 2019",
	"ISBN": "9789797808891",
	"Bahasa": "Indonesia",
	"Penerbit": "Gagasmedia",
	"Berat": "0.1600 kg",
	"Lebar": "19 cm",
	"Panjang": "13 cm"
},
{
	"page": 98,
	"kategori 1": "non-fiksi",
	"kategori 2": "agama",
	"book_url": "https://www.gramedia.com/products/agama-konflik-sosial",
	"title": "Agama & Konflik Sosial",
	"author": "Adon Nasrullah Jamaludin",
	"Jumlah Halaman": "376",
	"Tanggal Terbit": "18 Des 2017",
	"ISBN": "9789790765290",
	"Bahasa": "Indonesia",
	"Penerbit": "Pustaka Setia",
	"Berat": "0.44 kg",
	"Lebar": "16 cm",
	"Panjang": "24 cm"
},
{
	"page": 98,
	"kategori 1": "non-fiksi",
	"kategori 2": "agama",
	"book_url": "https://www.gramedia.com/products/begini-cara-rasul-mendidik-anak-modern-mudah-dan-efektif",
	"title": "Begini Cara Rasul Mendidik Anak: Modern, Mudah, Dan Efektif",
	"author": "Ipnu Rinto Noegroho",
	"Jumlah Halaman": "508",
	"Tanggal Terbit": "20 Mei 2018",
	"ISBN": "9786237115892",
	"Bahasa": "Indonesia",
	"Penerbit": "Anak Hebat Indonesia",
	"Berat": "0.5 kg",
	"Lebar": "14 cm",
	"Panjang": "20 cm"
},
{
	"page": 98,
	"kategori 1": "non-fiksi",
	"kategori 2": "agama",
	"book_url": "https://www.gramedia.com/products/mushaf-an-nur-edisi-wanita",
	"title": "Al Quran Mushaf An-Nur Edisi Wanita",
	"author": "",
	"Jumlah Halaman": "406",
	"Tanggal Terbit": "1 Jun 2017",
	"ISBN": "-",
	"Bahasa": "Indonesia",
	"Penerbit": "Zamrud",
	"Berat": "0.90 kg",
	"Lebar": "18.5 cm",
	"Panjang": "25.5 cm"
},
{
	"page": 98,
	"kategori 1": "non-fiksi",
	"kategori 2": "agama",
	"book_url": "https://www.gramedia.com/products/hijrah-asyik-muslimah-milenial",
	"title": "Hijrah Asyik Muslimah Milenial",
	"author": "RIRIN RAHAYU ASTUTININGRUM DAN RATNANI LATIFAH",
	"Jumlah Halaman": "272.0",
	"Tanggal Terbit": "4 Nov 2019",
	"ISBN": "9786230009167",
	"Bahasa": "Indonesia",
	"Penerbit": "Elex Media Komputindo",
	"Berat": "0.3 kg",
	"Lebar": "14.0 cm",
	"Panjang": "21.0 cm"
},
{
	"page": 98,
	"kategori 1": "non-fiksi",
	"kategori 2": "agama",
	"book_url": "https://www.gramedia.com/products/stop-nyinyir-lets-zikir",
	"title": "Stop Nyinyir, Let`S Zikir",
	"author": "Ratna Dhahita",
	"Jumlah Halaman": "168.0",
	"Tanggal Terbit": "16 Sep 2019",
	"ISBN": "9786230005756",
	"Penerbit": "Elex Media Komputindo",
	"Berat": "0.3 kg",
	"Lebar": "14.0 cm",
	"Panjang": "21.0 cm"
},
{
	"page": 98,
	"kategori 1": "non-fiksi",
	"kategori 2": "agama",
	"book_url": "https://www.gramedia.com/products/seni-komunikasi-ala-rasul-cara-cerdas-menjadi-komunikator",
	"title": "Seni Komunikasi Ala Rasul : Cara Cerdas Menjadi Komunikator",
	"author": "A.R. Shohibul Ulum",
	"Jumlah Halaman": "392.0",
	"Tanggal Terbit": "6 Nov 2019",
	"ISBN": "9786237324867",
	"Bahasa": "Indonesia",
	"Penerbit": "Mueeza",
	"Berat": "0.3 kg",
	"Lebar": "14.0 cm",
	"Panjang": "20.0 cm"
},
{
	"page": 98,
	"kategori 1": "non-fiksi",
	"kategori 2": "agama",
	"book_url": "https://www.gramedia.com/products/sejenak-menepi-hari",
	"title": "Sejenak Menepi Hari",
	"author": "A.R. Shohibul Ulum",
	"Jumlah Halaman": "264",
	"Tanggal Terbit": "14 Nov 2018",
	"ISBN": "9786025479861",
	"Bahasa": "Indonesia",
	"Penerbit": "Checklist",
	"Berat": "0.250 kg",
	"Lebar": "15 cm",
	"Panjang": "28 cm"
},
{
	"page": 98,
	"kategori 1": "non-fiksi",
	"kategori 2": "agama",
	"book_url": "https://www.gramedia.com/products/150-kisah-abu-bakar-al-shiddiq",
	"title": "150 Kisah Abu Bakar Al-Shiddiq",
	"author": "Ahmad Abdul Al Al-thahthawi",
	"Jumlah Halaman": "164",
	"Tanggal Terbit": "2 Mei 2016",
	"ISBN": "9786024180119",
	"Bahasa": "Indonesia",
	"Penerbit": "Mizan",
	"Berat": "0.1400 kg",
	"Lebar": "14 cm"
},
{
	"page": 98,
	"kategori 1": "non-fiksi",
	"kategori 2": "agama",
	"book_url": "https://www.gramedia.com/products/ya-allah-aku-pengin-curhat",
	"title": "Ya Allah Aku Pengin Curhat",
	"author": "Rizem Aizid",
	"Jumlah Halaman": "214",
	"Tanggal Terbit": "23 Feb 2018",
	"ISBN": "9786025118524",
	"Bahasa": "Indonesia",
	"Penerbit": "Penerbit Noktah",
	"Berat": "0.165 kg",
	"Lebar": "13 cm",
	"Panjang": "19 cm"
},
{
	"page": 98,
	"kategori 1": "non-fiksi",
	"kategori 2": "agama",
	"book_url": "https://www.gramedia.com/products/90-nasihat-nabi-untuk-perempuan",
	"title": "90 + + Nasihat Nabi Untuk Perempuan",
	"author": "Angga Priatna",
	"Tanggal Terbit": "29 Des 2014",
	"ISBN": "9789797959456",
	"Bahasa": "Indonesia",
	"Penerbit": "Wahyuqolbu",
	"Berat": "0.3000 kg",
	"Panjang": "0 cm"
},
{
	"page": 98,
	"kategori 1": "non-fiksi",
	"kategori 2": "agama",
	"book_url": "https://www.gramedia.com/products/ushul-fiqh-jalan-tengah-memahami-hukum-islam",
	"title": "Ushul Fiqh (Jalan Tengah Memahami Hukum Islam)",
	"author": "Amrullah Hayatudin, S.H.I., M.AG.",
	"Jumlah Halaman": "328.0",
	"Tanggal Terbit": "23 Sep 2019",
	"ISBN": "9786020875859",
	"Bahasa": "Indonesia",
	"Penerbit": "Bumi Aksara Pt",
	"Berat": "0.372 kg",
	"Lebar": "15.4 cm",
	"Panjang": "23.0 cm"
},
{
	"page": 98,
	"kategori 1": "non-fiksi",
	"kategori 2": "agama",
	"book_url": "https://www.gramedia.com/products/jangan-pernah-menyerah-special-edition",
	"title": "Jangan Pernah Menyerah (Special Edition)",
	"author": "Aldilla Dharma",
	"Jumlah Halaman": "258",
	"Tanggal Terbit": "8 Nov 2017",
	"ISBN": "9789790173736",
	"Penerbit": "Qultum Media",
	"Berat": "0.26 kg",
	"Lebar": "14 cm",
	"Panjang": "20 cm"
},
{
	"page": 98,
	"kategori 1": "non-fiksi",
	"kategori 2": "agama",
	"book_url": "https://www.gramedia.com/products/ngeluh-ke-allah-aja",
	"title": "Ngeluh? Ke Allah Aja!",
	"author": "Muh. Ramli",
	"Jumlah Halaman": "213",
	"Tanggal Terbit": "26 Mar 2019",
	"ISBN": "9786237011828",
	"Bahasa": "Indonesia",
	"Penerbit": "Tiga Serangkai",
	"Berat": "0.1 kg",
	"Lebar": "14 cm",
	"Panjang": "21 cm"
},
{
	"page": 98,
	"kategori 1": "non-fiksi",
	"kategori 2": "agama",
	"book_url": "https://www.gramedia.com/products/amalan-amalan-untuk-mempercepat-datangnya-rezeki",
	"title": "Amalan-Amalan Untuk Mempercepat Datangnya Rezeki",
	"author": "Nasrudin Abdulrohim",
	"Jumlah Halaman": "130",
	"Tanggal Terbit": "12 Des 2017",
	"ISBN": "9789790173798",
	"Bahasa": "Indonesia",
	"Penerbit": "Qultum Media",
	"Berat": "0.109 kg",
	"Lebar": "13 cm",
	"Panjang": "19 cm"
},
{
	"page": 98,
	"kategori 1": "non-fiksi",
	"kategori 2": "agama",
	"book_url": "https://www.gramedia.com/products/buku-tuntunan-shalat-lengkap-wajib-sunah-dzikir-dan-doa",
	"title": "Buku Tuntunan Shalat Lengkap Wajib, Sunah Dzikir Dan Doa",
	"author": "Ust. Zakaria R.Rachman",
	"Jumlah Halaman": "393",
	"Tanggal Terbit": "18 Mar 2019",
	"ISBN": "9786239040604",
	"Bahasa": "Indonesia",
	"Penerbit": "Qalam Hidayah",
	"Berat": "0.4 kg",
	"Lebar": "13 cm",
	"Panjang": "19 cm"
},
{
	"page": 98,
	"kategori 1": "non-fiksi",
	"kategori 2": "agama",
	"book_url": "https://www.gramedia.com/products/al-quran-terjemah-waqaf-ibtida-resleting-kain-a5",
	"title": "Al Quran Terjemah Waqaf & Ibtida Resleting Kain A5",
	"author": "Suara Agung",
	"Jumlah Halaman": "0.0",
	"Tanggal Terbit": "1 Mei 2018",
	"ISBN": "9786025755088",
	"Bahasa": "Indonesia",
	"Penerbit": "Suara Agung",
	"Berat": "0.66 kg",
	"Lebar": "14.0 cm",
	"Panjang": "20.0 cm"
},
{
	"page": 98,
	"kategori 1": "non-fiksi",
	"kategori 2": "agama",
	"book_url": "https://www.gramedia.com/products/innallaha-maana",
	"title": "Innallaha Ma`Ana",
	"author": "#Hambaallah",
	"Jumlah Halaman": "124",
	"Tanggal Terbit": "1 Des 2017",
	"ISBN": "9786026744074",
	"Bahasa": "Indonesia",
	"Penerbit": "Magenta Media",
	"Berat": "0.243 kg",
	"Lebar": "14 cm",
	"Panjang": "21 cm"
},
{
	"page": 98,
	"kategori 1": "non-fiksi",
	"kategori 2": "agama",
	"book_url": "https://www.gramedia.com/products/33-pesan-nabi-vol-3-jaga-sikap-raih-kebaikan",
	"title": "33 Pesan Nabi Vol 3 : Jaga Sikap,Raih Kebaikan",
	"author": "Vbi_djenggoten",
	"Jumlah Halaman": "152",
	"Tanggal Terbit": "9 Mei 2016",
	"ISBN": "9786023720958",
	"Bahasa": "Indonesia",
	"Penerbit": "Prima Ufuk Semesta",
	"Berat": "0.1700 kg",
	"Lebar": "15 cm"
},
{
	"page": 98,
	"kategori 1": "non-fiksi",
	"kategori 2": "agama",
	"book_url": "https://www.gramedia.com/products/rahasia-al-fatihah",
	"title": "Rahasia Al-Fatihah",
	"author": "Al-thabari Dkk",
	"Jumlah Halaman": "260",
	"Tanggal Terbit": "25 Mei 2016",
	"ISBN": "9786027428010",
	"Bahasa": "Indonesia",
	"Penerbit": "Qalam",
	"Berat": "0.2000 kg",
	"Lebar": "13 cm"
},
{
	"page": 98,
	"kategori 1": "non-fiksi",
	"kategori 2": "agama",
	"book_url": "https://www.gramedia.com/products/unstolen-christmas-natal-yang-tak-dapat-dicuri",
	"title": "Unstolen Christmas : Natal yang Tak Dapat Dicuri",
	"author": "Petruk Kwik",
	"Jumlah Halaman": "152",
	"Tanggal Terbit": "12 Okt 2015",
	"ISBN": "9786027238329",
	"Bahasa": "Indonesia",
	"Penerbit": "Gloria Usaha Mulia",
	"Berat": "0.1500 kg",
	"Lebar": "14 cm"
},
{
	"page": 98,
	"kategori 1": "non-fiksi",
	"kategori 2": "agama",
	"book_url": "https://www.gramedia.com/products/fikih-darurat",
	"title": "Fikih Darurat",
	"author": "Dr. Muhammad Abul Fatah Al-Bayanuni",
	"Jumlah Halaman": "202",
	"Tanggal Terbit": "12 Mar 2018",
	"ISBN": "9786021583517",
	"Bahasa": "Indonesia",
	"Penerbit": "Serambi Ilmu Semesta",
	"Berat": "0.245 kg",
	"Lebar": "12 cm",
	"Panjang": "18 cm"
},
{
	"page": 98,
	"kategori 1": "non-fiksi",
	"kategori 2": "agama",
	"book_url": "https://www.gramedia.com/products/sejarah-madinah",
	"title": "Sejarah Madinah",
	"author": "Nizar Abazhah",
	"Jumlah Halaman": "509",
	"Tanggal Terbit": "18 Des 2017",
	"ISBN": "9786022900719",
	"Bahasa": "Indonesia",
	"Penerbit": "Serambi",
	"Berat": "0.503 kg",
	"Lebar": "15 cm",
	"Panjang": "23 cm"
},
{
	"page": 98,
	"kategori 1": "non-fiksi",
	"kategori 2": "agama",
	"book_url": "https://www.gramedia.com/products/sakinah-mawaddah-wa-rahmah",
	"title": "Sakinah Mawaddah Wa Rahmah",
	"author": "Abdul Syukur Al-azizi",
	"Jumlah Halaman": "496",
	"Tanggal Terbit": "18 Des 2017",
	"ISBN": "9786023914531",
	"Bahasa": "Indonesia",
	"Penerbit": "Diva Press",
	"Berat": "0.65 kg",
	"Lebar": "16 cm",
	"Panjang": "24 cm"
},
{
	"page": 98,
	"kategori 1": "non-fiksi",
	"kategori 2": "agama",
	"book_url": "https://www.gramedia.com/products/tanya-jawab-bersama-nabi-kitab-ihsan",
	"title": "Tanya & Jawab Bersama Nabi: Kitab Ihsan",
	"author": "LingkarKalam",
	"Jumlah Halaman": "304",
	"Tanggal Terbit": "13 Mei 2019",
	"ISBN": "9786020498218",
	"Bahasa": "Indonesia",
	"Penerbit": "Elex Media Komputindo",
	"Berat": "0.600 kg",
	"Lebar": "15 cm",
	"Panjang": "23 cm"
},
{
	"page": 98,
	"kategori 1": "non-fiksi",
	"kategori 2": "agama",
	"book_url": "https://www.gramedia.com/products/affaf-menjaga-kesucian-diri",
	"title": "Affaf: Menjaga Kesucian Diri",
	"author": "Muhammad Bin Riyadh Al Atsari",
	"Jumlah Halaman": "326",
	"Tanggal Terbit": "14 Sep 2016",
	"ISBN": "9786020894355",
	"Bahasa": "Indonesia",
	"Penerbit": "Tinta Medina",
	"Berat": "0.3000 kg",
	"Lebar": "14 cm"
},
{
	"page": 98,
	"kategori 1": "non-fiksi",
	"kategori 2": "agama",
	"book_url": "https://www.gramedia.com/products/rahasia-surah-yasin",
	"title": "Rahasia Surah Yasin",
	"author": "Asep Rahmat",
	"Jumlah Halaman": "208",
	"Tanggal Terbit": "1 Mar 2018",
	"ISBN": "9786025166006",
	"Bahasa": "Indonesia",
	"Penerbit": "Qalam Nusantara",
	"Berat": "0.75 kg",
	"Lebar": "13 cm",
	"Panjang": "19 cm"
},
{
	"page": 98,
	"kategori 1": "non-fiksi",
	"kategori 2": "agama",
	"book_url": "https://www.gramedia.com/products/kekuatan-doa-istri-hc",
	"title": "Kekuatan Doa Istri",
	"author": "Ibnu Ibrahim",
	"Jumlah Halaman": "230",
	"Tanggal Terbit": "23 Apr 2018",
	"ISBN": "9786027413702",
	"Bahasa": "Indonesia",
	"Penerbit": "Byrru Cakrawala",
	"Berat": "0.40 kg",
	"Lebar": "13 cm",
	"Panjang": "18 cm"
},
{
	"page": 98,
	"kategori 1": "non-fiksi",
	"kategori 2": "agama",
	"book_url": "https://www.gramedia.com/products/ibadah-para-juara",
	"title": "Ibadah Para Juara",
	"author": "Rizem Aizid",
	"Jumlah Halaman": "228",
	"Tanggal Terbit": "19 Des 2016",
	"ISBN": "9786022962199",
	"Bahasa": "Indonesia",
	"Penerbit": "Sabil",
	"Berat": "0.20 kg",
	"Lebar": "14 cm",
	"Panjang": "25 cm"
},
