{
	"page": 60,
	"kategori 1": "buku-anak",
	"kategori 2": "anak-anak",
	"book_url": "https://www.gramedia.com/products/first-look-and-find-disney-lets-play-hc",
	"title": "First Look And Find: Disney Lets Play!",
	"author": "Phoenix International Publication",
	"Jumlah Halaman": "16",
	"Tanggal Terbit": "21 Mei 2019",
	"ISBN": "9781503743311",
	"Bahasa": "Indonesia",
	"Penerbit": "Phoenix International Publication",
	"Berat": "0.77 kg",
	"Lebar": "25 cm",
	"Panjang": "30 cm"
},
{
	"page": 60,
	"kategori 1": "buku-anak",
	"kategori 2": "anak-anak",
	"book_url": "https://www.gramedia.com/products/buku-aktivitas-paud-di-laut",
	"title": "Buku Aktivitas Paud : Di Laut",
	"author": "Nagiga",
	"Jumlah Halaman": "52.0",
	"Tanggal Terbit": "21 Okt 2019",
	"ISBN": "9786232165861",
	"Bahasa": "Indonesia",
	"Penerbit": "Bhuana Ilmu Populer",
	"Berat": "0.18 kg",
	"Lebar": "18.0 cm",
	"Panjang": "24.0 cm"
},
{
	"page": 60,
	"kategori 1": "buku-anak",
	"kategori 2": "anak-anak",
	"book_url": "https://www.gramedia.com/products/komik-next-g-masakan-ibu",
	"title": "Komik Next G: Masakan Ibu",
	"author": "Jasmine Az-Zahra dkk",
	"Jumlah Halaman": "104",
	"Tanggal Terbit": "19 Sep 2018",
	"ISBN": "9786023675609",
	"Bahasa": "Indonesia",
	"Penerbit": "Curhat Anak Bangsa",
	"Berat": "0.230 kg",
	"Lebar": "14.5 cm",
	"Panjang": "21 cm"
},
{
	"page": 60,
	"kategori 1": "buku-anak",
	"kategori 2": "anak-anak",
	"book_url": "https://www.gramedia.com/products/shimmer-shine-kami-shimmer-dan-shine",
	"title": "Shimmer & Shine : Kami, Shimmer Dan Shine!",
	"author": "Nickelodeon",
	"Jumlah Halaman": "24.0",
	"Tanggal Terbit": "23 Sep 2019",
	"ISBN": "9786024805074",
	"Penerbit": "m&c!",
	"Berat": "0.13 kg",
	"Lebar": "17.0 cm",
	"Panjang": "24.0 cm"
},
{
	"page": 60,
	"kategori 1": "buku-anak",
	"kategori 2": "anak-anak",
	"book_url": "https://www.gramedia.com/products/opredo-soft-book-123-pertamaku",
	"title": "Opredo Soft Book 123 Pertamaku",
	"author": "Tim Oopredoo",
	"Jumlah Halaman": "6.0",
	"Tanggal Terbit": "18 Nov 2019",
	"ISBN": "9786230007361",
	"Bahasa": "Indonesia",
	"Penerbit": "Elex Media Komputindo",
	"Berat": "0.1 kg",
	"Lebar": "15.0 cm",
	"Panjang": "15.0 cm"
},
{
	"page": 60,
	"kategori 1": "buku-anak",
	"kategori 2": "anak-anak",
	"book_url": "https://www.gramedia.com/products/fabel-34-provinsi-lampung-rusli-dan-gajah-penolong",
	"title": "Fabel 34 Provinsi : Lampung - Rusli Dan Gajah Penolong",
	"author": "Dian K",
	"Jumlah Halaman": "32.0",
	"Tanggal Terbit": "9 Sep 2019",
	"ISBN": "9786232164949",
	"Penerbit": "Bhuana Ilmu Populer",
	"Berat": "0.2 kg",
	"Lebar": "20.0 cm",
	"Panjang": "20.0 cm"
},
{
	"page": 60,
	"kategori 1": "buku-anak",
	"kategori 2": "anak-anak",
	"book_url": "https://www.gramedia.com/products/doru-seri-aktivitas-cerdas-mewarnai",
	"title": "Doru Seri Aktivitas Cerdas: Mewarnai",
	"author": "Ariella Ivana",
	"Jumlah Halaman": "24.0",
	"Tanggal Terbit": "14 Okt 2019",
	"ISBN": "9786024812560",
	"Bahasa": "Indonesia",
	"Penerbit": "Kepustakaan Populer Gramedia",
	"Berat": "0.12 kg",
	"Lebar": "21.0 cm",
	"Panjang": "27.0 cm"
},
{
	"page": 60,
	"kategori 1": "buku-anak",
	"kategori 2": "anak-anak",
	"book_url": "https://www.gramedia.com/products/cerbin-dalam-al-quran-ular-mukjizat-tongkat-nabi-musa",
	"title": "Cerbin dalam Al-Quran: Ular Mukjizat Tongkat Nabi Musa",
	"author": "Irfan Amalee",
	"Jumlah Halaman": "20",
	"Tanggal Terbit": "12 Jun 2018",
	"ISBN": "9786024720438",
	"Bahasa": "Indonesia",
	"Penerbit": "Pelangi Mizan",
	"Berat": "0.350 kg",
	"Lebar": "17 cm",
	"Panjang": "17 cm"
},
{
	"page": 60,
	"kategori 1": "buku-anak",
	"kategori 2": "anak-anak",
	"book_url": "https://www.gramedia.com/products/scb-aku-bisa-bilang-permisrdbooki-boa",
	"title": "Scb: Aku Bisa Bilang Permisrdbook)i (Boa",
	"author": "Erika Medinah",
	"Jumlah Halaman": "20.0",
	"Tanggal Terbit": "8 Nov 2019",
	"ISBN": "9786024209605",
	"Bahasa": "Indonesia",
	"Penerbit": "Mizan Media Utama Pt",
	"Berat": "0.38 kg",
	"Lebar": "17.0 cm",
	"Panjang": "17.0 cm"
},
{
	"page": 60,
	"kategori 1": "buku-anak",
	"kategori 2": "anak-anak",
	"book_url": "https://www.gramedia.com/products/little-explorers-dinosaurs-hc",
	"title": "Little Explorers: Dinosaurs",
	"author": "Little Bee Books",
	"Jumlah Halaman": "18",
	"Tanggal Terbit": "20 Jun 2013",
	"ISBN": "9781499804904",
	"Bahasa": "Indonesia",
	"Penerbit": "Simon And Schuster",
	"Berat": "0.23 kg",
	"Lebar": "20 cm",
	"Panjang": "20 cm"
},
{
	"page": 60,
	"kategori 1": "buku-anak",
	"kategori 2": "anak-anak",
	"book_url": "https://www.gramedia.com/products/cerita-rakyat-nusantara-jilid-2revisi",
	"title": "Cerita Rakyat Nusantara Jilid 2/Revisi",
	"author": "Tim Efk",
	"Jumlah Halaman": "72",
	"Tanggal Terbit": "19 Nov 2017",
	"ISBN": "9786022529040",
	"Bahasa": "Indonesia",
	"Penerbit": "Erlangga For Kids",
	"Berat": "0.155 kg",
	"Lebar": "15 cm",
	"Panjang": "23 cm"
},
{
	"page": 60,
	"kategori 1": "buku-anak",
	"kategori 2": "anak-anak",
	"book_url": "https://www.gramedia.com/products/opredo-poster-2-in-1-hijaiah-benda",
	"title": "Opredo Poster 2 In 1 : Hijaiah Benda",
	"author": "Tim Oopredoo",
	"Jumlah Halaman": "2",
	"Tanggal Terbit": "27 Mei 2019",
	"ISBN": "719120674",
	"Bahasa": "Indonesia",
	"Penerbit": "Elex Media Komputindo",
	"Berat": "0.100 kg",
	"Lebar": "37 cm",
	"Panjang": "58 cm"
},
{
	"page": 60,
	"kategori 1": "buku-anak",
	"kategori 2": "anak-anak",
	"book_url": "https://www.gramedia.com/products/berani-ke-dokter-gigi-1",
	"title": "Berani Ke Dokter Gigi!",
	"author": "Drg. Stella Lesmana & Drg. Tara Prathita",
	"Jumlah Halaman": "32",
	"Tanggal Terbit": "20 Mei 2019",
	"ISBN": "9786020329628",
	"Bahasa": "Indonesia",
	"Penerbit": "Gramedia Pustaka Utama",
	"Berat": "0.120 kg",
	"Lebar": "17.5 cm",
	"Panjang": "24 cm"
},
{
	"page": 60,
	"kategori 1": "buku-anak",
	"kategori 2": "anak-anak",
	"book_url": "https://www.gramedia.com/products/fun-simple-hewan-liar-peliharaan-menggunting-menempel",
	"title": "Fun & Simple Hewan Liar & Peliharaan Menggunting, Menempel,",
	"author": "KAK AYU",
	"Jumlah Halaman": "25.0",
	"Tanggal Terbit": "1 Sep 2019",
	"ISBN": "9786025121586",
	"Bahasa": "Indonesia",
	"Penerbit": "PENSIL WARNA",
	"Berat": "0.093 kg",
	"Lebar": "17.6 cm",
	"Panjang": "25.0 cm"
},
{
	"page": 60,
	"kategori 1": "buku-anak",
	"kategori 2": "anak-anak",
	"book_url": "https://www.gramedia.com/products/seri-amal-jariyah-pahala-wakaf-al-quran",
	"title": "Seri Amal Jariyah: Pahala Wakaf Al-Quran(full color)",
	"author": "Aan Wulandari",
	"Jumlah Halaman": "24",
	"Tanggal Terbit": "26 Nov 2018",
	"ISBN": "9786022505945",
	"Bahasa": "Indonesia",
	"Penerbit": "Gema Insani",
	"Berat": "0.320 kg",
	"Lebar": "17.5 cm",
	"Panjang": "17.5 cm"
},
{
	"page": 60,
	"kategori 1": "buku-anak",
	"kategori 2": "anak-anak",
	"book_url": "https://www.gramedia.com/products/fabel-34-provinsi-jawa-tengah-kijang-bertanduk-emas-dan-pemuda-baik-hati",
	"title": "Fabel 34 Provinsi: Jawa Tengah - Kijang Bertanduk Emas dan Pemuda Baik Hati",
	"author": "Dian Kristiani",
	"Jumlah Halaman": "32.0",
	"Tanggal Terbit": "13 Jan 2020",
	"ISBN": "9786232166752",
	"Bahasa": "Indonesia",
	"Penerbit": "Bhuana Ilmu Populer",
	"Berat": "0.12 kg",
	"Lebar": "20.0 cm",
	"Panjang": "20.0 cm"
},
{
	"page": 60,
	"kategori 1": "buku-anak",
	"kategori 2": "anak-anak",
	"book_url": "https://www.gramedia.com/products/aku-pintar-membaca-menulis-menghitung",
	"title": "Aku Pintar Membaca, Menulis, Menghitung",
	"author": "Kak Nung",
	"Jumlah Halaman": "120",
	"Tanggal Terbit": "1 Mar 2018",
	"ISBN": "9786025480331",
	"Bahasa": "Indonesia",
	"Penerbit": "Charissa Publisher",
	"Berat": "0.25 kg",
	"Lebar": "18 cm",
	"Panjang": "24 cm"
},
{
	"page": 60,
	"kategori 1": "buku-anak",
	"kategori 2": "anak-anak",
	"book_url": "https://www.gramedia.com/products/di-sini-ada-setan-rumah-sakit-angker",
	"title": "Di Sini Ada Setan : Rumah Sakit Angker",
	"author": "Sloow Studio",
	"Jumlah Halaman": "132.0",
	"Tanggal Terbit": "26 Agt 2019",
	"ISBN": "9786232164567",
	"Penerbit": "Bhuana Ilmu Populer",
	"Berat": "0.2 kg",
	"Lebar": "14.0 cm",
	"Panjang": "20.0 cm"
},
{
	"page": 60,
	"kategori 1": "buku-anak",
	"kategori 2": "anak-anak",
	"book_url": "https://www.gramedia.com/products/disney-pixar-finding-dory-fin-tastic-colouring",
	"title": "Disney Pixar Finding Dory Fin-Tastic Colouring",
	"author": "Disney",
	"Jumlah Halaman": "48",
	"Tanggal Terbit": "8 Feb 2016",
	"ISBN": "9781474838740",
	"Bahasa": "Indonesia",
	"Penerbit": "Mitra Pelita Internusa",
	"Berat": "0.150 kg",
	"Lebar": "27 cm",
	"Panjang": "19 cm"
},
{
	"page": 60,
	"kategori 1": "buku-anak",
	"kategori 2": "anak-anak",
	"book_url": "https://www.gramedia.com/products/si-utut-burung-perkutut-yang-setia",
	"title": "Si Utut Burung Perkutut Yang Setia",
	"author": "Yoli Hemdi",
	"Jumlah Halaman": "0",
	"Tanggal Terbit": "26 Des 2018",
	"ISBN": "9786022682417",
	"Bahasa": "Indonesia",
	"Penerbit": "Luxima",
	"Berat": "0.150 kg",
	"Lebar": "18 cm",
	"Panjang": "24 cm"
},
{
	"page": 60,
	"kategori 1": "buku-anak",
	"kategori 2": "anak-anak",
	"book_url": "https://www.gramedia.com/products/ensiklopedia-dinosaurus-suchomimus-kecebur-byur-byur-byur",
	"title": "Ensiklopedia Dinosaurus: Suchomimus Kecebur Byur! Byur! Byur!",
	"author": "Dreaming Turtle",
	"Jumlah Halaman": "32",
	"Tanggal Terbit": "18 Des 2017",
	"ISBN": "9786020379258",
	"Penerbit": "Gramedia Pustaka Utama",
	"Berat": "0.100 kg",
	"Lebar": "20 cm",
	"Panjang": "25.4 cm"
},
{
	"page": 60,
	"kategori 1": "buku-anak",
	"kategori 2": "anak-anak",
	"book_url": "https://www.gramedia.com/products/komik-petualangan-sains-alam-semesta",
	"title": "Komik Petualangan Sains : Alam Semesta",
	"author": "YONG HONG YING",
	"Jumlah Halaman": "144",
	"Tanggal Terbit": "22 Jul 2019",
	"ISBN": "9786232163034",
	"Bahasa": "Indonesia",
	"Penerbit": "Bhuana Ilmu Populer",
	"Berat": "0.120 kg",
	"Lebar": "18 cm",
	"Panjang": "24 cm"
},
{
	"page": 60,
	"kategori 1": "buku-anak",
	"kategori 2": "anak-anak",
	"book_url": "https://www.gramedia.com/products/doru-seri-berpikir-cerdas-aku-suka-mencari-tahu",
	"title": "Doru Seri Berpikir Cerdas: Aku Suka Mencari Tahu",
	"author": "Watiek Ideo",
	"Jumlah Halaman": "32.0",
	"Tanggal Terbit": "14 Okt 2019",
	"ISBN": "9786024812577",
	"Bahasa": "Indonesia",
	"Penerbit": "Kepustakaan Populer Gramedia",
	"Berat": "0.12 kg",
	"Lebar": "21.0 cm",
	"Panjang": "27.0 cm"
},
{
	"page": 60,
	"kategori 1": "buku-anak",
	"kategori 2": "anak-anak",
	"book_url": "https://www.gramedia.com/products/buku-pertamaku-bermain-belajar-es-buah-segar",
	"title": "Buku Pertamaku Bermain & Belajar : Es Buah Segar",
	"author": "Watiek Ideo & Nindia Maya",
	"Jumlah Halaman": "36",
	"Tanggal Terbit": "22 Jul 2019",
	"ISBN": "9786232163294",
	"Bahasa": "Indonesia",
	"Penerbit": "Bhuana Ilmu Populer",
	"Berat": "0.120 kg",
	"Lebar": "13 cm",
	"Panjang": "19.5 cm"
},
{
	"page": 60,
	"kategori 1": "buku-anak",
	"kategori 2": "anak-anak",
	"book_url": "https://www.gramedia.com/products/opredo-smart-card-huruf",
	"title": "Opredo Smart Card: Huruf",
	"author": "Tim Oopredoo",
	"Jumlah Halaman": "25.0",
	"Tanggal Terbit": "7 Okt 2019",
	"ISBN": "719121089",
	"Bahasa": "Indonesia",
	"Penerbit": "Elex Media Komputindo",
	"Berat": "0.12 kg",
	"Lebar": "9.0 cm",
	"Panjang": "9.0 cm"
},
{
	"page": 60,
	"kategori 1": "buku-anak",
	"kategori 2": "anak-anak",
	"book_url": "https://www.gramedia.com/products/belajar-mengenal-angka-buku-paud-pendidikan-anak-usia-dini",
	"title": "Belajar Mengenal Angka Buku Paud Pendidikan Anak Usia Dini",
	"author": "Novita Syauqi",
	"Jumlah Halaman": "64.0",
	"Tanggal Terbit": "18 Sep 2019",
	"ISBN": "9786023763443",
	"Bahasa": "Indonesia",
	"Penerbit": "Pustaka Baru/Cv Pustaka Mahardika",
	"Berat": "0.137 kg",
	"Lebar": "21.0 cm",
	"Panjang": "27.0 cm"
},
{
	"page": 60,
	"kategori 1": "buku-anak",
	"kategori 2": "anak-anak",
	"book_url": "https://www.gramedia.com/products/disney-frozen-buku-tahunan-2019",
	"title": "Disney Frozen: Buku Tahunan 2019",
	"author": "Disney",
	"Jumlah Halaman": "68",
	"Tanggal Terbit": "4 Feb 2019",
	"ISBN": "9786020622125",
	"Bahasa": "Indonesia",
	"Penerbit": "Gramedia Pustaka Utama",
	"Berat": "0.1 kg",
	"Lebar": "21 cm",
	"Panjang": "28.5 cm"
},
