{
	"page": 88,
	"kategori 1": "buku-anak",
	"kategori 2": "anak-anak",
	"book_url": "https://www.gramedia.com/products/rabbids-4-corat-coret",
	"title": "Rabbids 4: Corat-Coret",
	"author": "Thitaume-pujol",
	"Jumlah Halaman": "0",
	"Tanggal Terbit": "26 Okt 2015",
	"ISBN": "9786022499749",
	"Bahasa": "Indonesia",
	"Penerbit": "Bhuana Ilmu Populer",
	"Berat": "0.3000 kg",
	"Lebar": "0 cm"
},
{
	"page": 88,
	"kategori 1": "buku-anak",
	"kategori 2": "anak-anak",
	"book_url": "https://www.gramedia.com/products/fun-smart-origami-tumbuhan",
	"title": "Fun & Smart Origami: Tumbuhan",
	"author": "Kanaya Larasati",
	"Jumlah Halaman": "48",
	"Tanggal Terbit": "22 Jul 2019",
	"ISBN": "9786230002502",
	"Bahasa": "Indonesia",
	"Penerbit": "Elex Media Komputindo",
	"Berat": "0.1 kg",
	"Lebar": "20 cm",
	"Panjang": "20 cm"
},
{
	"page": 88,
	"kategori 1": "buku-anak",
	"kategori 2": "anak-anak",
	"book_url": "https://www.gramedia.com/products/halo-balita-sali-saliha-allah-swt-tuhanku-boardbook",
	"title": "Halo Balita Sali Saliha: Allah Swt. Tuhanku (Boardbook)",
	"author": "Beby Haryanti Dewi",
	"Jumlah Halaman": "20.0",
	"Tanggal Terbit": "25 Sep 2019",
	"ISBN": "9786024721626",
	"Bahasa": "Indonesia",
	"Penerbit": "Mizan Media Utama Pt",
	"Berat": "0.347 kg",
	"Lebar": "17.5 cm",
	"Panjang": "17.5 cm"
},
{
	"page": 88,
	"kategori 1": "buku-anak",
	"kategori 2": "anak-anak",
	"book_url": "https://www.gramedia.com/products/45-kisah-teladan-dari-al-quran-dan-hadis",
	"title": "45 Kisah Teladan Dari Al-Qur`An Dan Hadis",
	"author": "Ririn Rahayu Astutiningrum",
	"Jumlah Halaman": "164",
	"Tanggal Terbit": "24 Jun 2019",
	"ISBN": "9786230000348",
	"Bahasa": "Indonesia",
	"Penerbit": "Elex Media Komputindo",
	"Berat": "0.250 kg",
	"Lebar": "19 cm",
	"Panjang": "23 cm"
},
{
	"page": 88,
	"kategori 1": "buku-anak",
	"kategori 2": "anak-anak",
	"book_url": "https://www.gramedia.com/products/asyik-menempel-stiker-benda-sekitar-kita",
	"title": "Asyik Menempel Stiker Benda Sekitar Kita",
	"author": "Senida Anggit",
	"Jumlah Halaman": "28",
	"Tanggal Terbit": "16 Mei 2019",
	"ISBN": "9786021267998",
	"Bahasa": "Indonesia",
	"Penerbit": "Cikal Aksara",
	"Berat": "0.180 kg",
	"Lebar": "19 cm",
	"Panjang": "26 cm"
},
{
	"page": 88,
	"kategori 1": "buku-anak",
	"kategori 2": "anak-anak",
	"book_url": "https://www.gramedia.com/products/33-kisah-princess-muslimah-sejati",
	"title": "33 Kisah Princess Muslimah Sejati",
	"author": "TETHY E & RYU TRI",
	"Jumlah Halaman": "200",
	"Tanggal Terbit": "6 Mei 2019",
	"ISBN": "9786232161740",
	"Bahasa": "Indonesia",
	"Penerbit": "Bhuana Ilmu Populer",
	"Berat": "0.125 kg",
	"Lebar": "18 cm",
	"Panjang": "24 cm"
},
{
	"page": 88,
	"kategori 1": "buku-anak",
	"kategori 2": "anak-anak",
	"book_url": "https://www.gramedia.com/products/seri-my-very-first-word-alat-transportasi",
	"title": "My Very First Words - Alat Transportasi",
	"author": "Usborne",
	"Jumlah Halaman": "7.0",
	"Tanggal Terbit": "29 Apr 2019",
	"ISBN": "9786232160682",
	"Penerbit": "Bhuana Ilmu Populer",
	"Berat": "0.1 kg",
	"Lebar": "15.0 cm",
	"Panjang": "17.0 cm"
},
{
	"page": 88,
	"kategori 1": "buku-anak",
	"kategori 2": "anak-anak",
	"book_url": "https://www.gramedia.com/products/dork-diaries-01-new-cover",
	"title": "Dork Diaries #01 (New Cover)",
	"author": "Russell, Rachel Renee",
	"Jumlah Halaman": "291",
	"Tanggal Terbit": "22 Feb 2016",
	"ISBN": "9781471144011",
	"Bahasa": "Indonesia",
	"Penerbit": "Russell, Rachel Renee",
	"Berat": "0.300 kg",
	"Lebar": "20 cm",
	"Panjang": "13 cm"
},
{
	"page": 88,
	"kategori 1": "buku-anak",
	"kategori 2": "anak-anak",
	"book_url": "https://www.gramedia.com/products/pot-bellied-buddies-cuddly-puppy-bb",
	"title": "Pot Bellied Buddies: Cuddly Puppy (BB)",
	"author": "SMALL WORLD",
	"Jumlah Halaman": "5",
	"Tanggal Terbit": "1 Jan 2019",
	"ISBN": "9781912013005",
	"Bahasa": "Indonesia",
	"Penerbit": "SMALL WORLD",
	"Berat": "0.097 kg",
	"Lebar": "15 cm",
	"Panjang": "15.5 cm"
},
{
	"page": 88,
	"kategori 1": "buku-anak",
	"kategori 2": "anak-anak",
	"book_url": "https://www.gramedia.com/products/balita-ingin-tahu-lautan",
	"title": "Balita Ingin Tahu: Lautan",
	"author": "Fleurus",
	"Jumlah Halaman": "20.0",
	"Tanggal Terbit": "16 Des 2019",
	"ISBN": "9786232166684",
	"Bahasa": "Indonesia",
	"Penerbit": "Bhuana Ilmu Populer",
	"Berat": "0.2 kg",
	"Lebar": "15.0 cm",
	"Panjang": "15.0 cm"
},
{
	"page": 88,
	"kategori 1": "buku-anak",
	"kategori 2": "anak-anak",
	"book_url": "https://www.gramedia.com/products/dc-super-friends-bad-weather-hc",
	"title": "Dc Super Friends : Bad Weather! (Hc)",
	"author": "Frank Berrios",
	"Jumlah Halaman": "24",
	"Tanggal Terbit": "26 Sep 2014",
	"ISBN": "9780385384407",
	"Bahasa": "Indonesia",
	"Penerbit": "Sinar Star Book",
	"Berat": "0.113 kg",
	"Lebar": "19 cm",
	"Panjang": "15 cm"
},
{
	"page": 88,
	"kategori 1": "buku-anak",
	"kategori 2": "anak-anak",
	"book_url": "https://www.gramedia.com/products/manka-flash-card-fruits",
	"title": "Manka Flash Card : Fruits",
	"author": "Pionicon",
	"Jumlah Halaman": "52",
	"Tanggal Terbit": "12 Mar 2018",
	"ISBN": "718120241",
	"Bahasa": "Indonesia",
	"Penerbit": "Elex Media Komputindo",
	"Berat": "0.120 kg",
	"Lebar": "9.5 cm",
	"Panjang": "14 cm"
},
{
	"page": 88,
	"kategori 1": "buku-anak",
	"kategori 2": "anak-anak",
	"book_url": "https://www.gramedia.com/products/seri-kalimat-thayyibah-ayo-ucapkan-alhamdulillah",
	"title": "Seri Kalimat Thayyibah : Ayo Ucapkan Alhamdulillah",
	"author": "Dian Kristiani",
	"Jumlah Halaman": "14",
	"Tanggal Terbit": "20 Mei 2019",
	"ISBN": "9786232161979",
	"Bahasa": "Indonesia",
	"Penerbit": "Bhuana Ilmu Populer",
	"Berat": "0.120 kg",
	"Lebar": "14 cm",
	"Panjang": "18 cm"
},
{
	"page": 88,
	"kategori 1": "buku-anak",
	"kategori 2": "anak-anak",
	"book_url": "https://www.gramedia.com/products/30-cerita-aku-bisa-hidup-sehat-dan-kuat",
	"title": "30 Cerita Aku Bisa Hidup Sehat Dan Kuat",
	"author": "Nancy Ronancy",
	"Jumlah Halaman": "128.0",
	"Tanggal Terbit": "19 Agt 2019",
	"ISBN": "9786230003707",
	"Penerbit": "Elex Media Komputindo",
	"Berat": "0.3 kg",
	"Lebar": "19.0 cm",
	"Panjang": "23.0 cm"
},
{
	"page": 88,
	"kategori 1": "buku-anak",
	"kategori 2": "anak-anak",
	"book_url": "https://www.gramedia.com/products/buku-bolak-balik-nabil-naura-aku-berdoa-sebelum-tidur-b",
	"title": "Buku Bolak-Balik: Nabil & Naura Aku Berdoa Sebelum Tidur & B",
	"author": "Noor H. Dee",
	"Jumlah Halaman": "20.0",
	"Tanggal Terbit": "28 Nov 2019",
	"ISBN": "9786232420076",
	"Bahasa": "Indonesia",
	"Penerbit": "Noura",
	"Berat": "0.36 kg",
	"Lebar": "17.0 cm",
	"Panjang": "17.0 cm"
},
{
	"page": 88,
	"kategori 1": "buku-anak",
	"kategori 2": "anak-anak",
	"book_url": "https://www.gramedia.com/products/poster-dinosaurus",
	"title": "Poster Dinosaurus",
	"author": "m&c!",
	"Jumlah Halaman": "1",
	"Tanggal Terbit": "25 Mar 2019",
	"ISBN": "531980006",
	"Bahasa": "Indonesia",
	"Penerbit": "m&c!",
	"Berat": "0.1 kg",
	"Lebar": "42 cm",
	"Panjang": "59.4 cm"
},
{
	"page": 88,
	"kategori 1": "buku-anak",
	"kategori 2": "anak-anak",
	"book_url": "https://www.gramedia.com/products/serunya-belajar-membaca",
	"title": "Serunya Belajar Membaca",
	"author": "Fajriatun Nurhidayati",
	"Jumlah Halaman": "52.0",
	"Tanggal Terbit": "16 Sep 2019",
	"ISBN": "9786232164826",
	"Penerbit": "Bhuana Ilmu Populer",
	"Berat": "0.15 kg",
	"Lebar": "18.0 cm",
	"Panjang": "24.0 cm"
},
{
	"page": 88,
	"kategori 1": "buku-anak",
	"kategori 2": "anak-anak",
	"book_url": "https://www.gramedia.com/products/muhammad-saw-nabi-yang-berjiwa-kesatria",
	"title": "Muhammad Saw - Nabi Yang Berjiwa Kesatria",
	"author": "Mutiara Aryani",
	"Jumlah Halaman": "32.0",
	"Tanggal Terbit": "28 Okt 2019",
	"ISBN": "9786232166073",
	"Bahasa": "Indonesia",
	"Penerbit": "Bhuana Ilmu Populer",
	"Berat": "0.15 kg",
	"Lebar": "17.0 cm",
	"Panjang": "22.0 cm"
},
{
	"page": 88,
	"kategori 1": "buku-anak",
	"kategori 2": "anak-anak",
	"book_url": "https://www.gramedia.com/products/seri-aku-sayang-binatang-tutu-ingin-bermain",
	"title": "Seri Aku Sayang Binatang : Tutu Ingin Bermain",
	"author": "Wulan Mulya Pratiwi.",
	"Jumlah Halaman": "32.0",
	"Tanggal Terbit": "16 Des 2019",
	"ISBN": "9786024808945",
	"Bahasa": "Indonesia",
	"Penerbit": "m&c!",
	"Berat": "0.12 kg",
	"Lebar": "20.0 cm",
	"Panjang": "24.0 cm"
},
{
	"page": 88,
	"kategori 1": "buku-anak",
	"kategori 2": "anak-anak",
	"book_url": "https://www.gramedia.com/products/baby-shark-baby-shark-si-tudung-merah",
	"title": "Baby Shark - Baby Shark Si Tudung Merah",
	"author": "Pinkfong",
	"Jumlah Halaman": "32",
	"Tanggal Terbit": "12 Agt 2019",
	"ISBN": "9786024806484",
	"Bahasa": "Indonesia",
	"Penerbit": "m&c!",
	"Berat": "0.1 kg",
	"Lebar": "22 cm",
	"Panjang": "23 cm"
},
{
	"page": 88,
	"kategori 1": "buku-anak",
	"kategori 2": "anak-anak",
	"book_url": "https://www.gramedia.com/products/2-in-1-poster-pintar-belajar-wudu-dan-salat",
	"title": "2 in 1 Poster Pintar : Belajar Wudu dan Salat",
	"author": "Team Merchandising",
	"Jumlah Halaman": "1",
	"Tanggal Terbit": "30 Apr 2018",
	"ISBN": "718120673",
	"Bahasa": "Indonesia",
	"Penerbit": "Elex Media Komputindo",
	"Berat": "0.100 kg",
	"Lebar": "37 cm",
	"Panjang": "58 cm"
},
{
	"page": 88,
	"kategori 1": "buku-anak",
	"kategori 2": "anak-anak",
	"book_url": "https://www.gramedia.com/products/buku-aktivitas-aku-cinta-indonesia",
	"title": "Buku Aktivitas Aku Cinta Indonesia",
	"author": "Irene Christin",
	"Jumlah Halaman": "76",
	"Tanggal Terbit": "15 Jul 2019",
	"ISBN": "9786232163126",
	"Bahasa": "Indonesia",
	"Penerbit": "Bhuana Ilmu Populer",
	"Berat": "0.1 kg",
	"Lebar": "18 cm",
	"Panjang": "24 cm"
},
{
	"page": 88,
	"kategori 1": "buku-anak",
	"kategori 2": "anak-anak",
	"book_url": "https://www.gramedia.com/products/seri-aku-jadi-pintar-bebek-mencari-saudaranya",
	"title": "Seri Aku Jadi Pintar : Bebek Mencari Saudaranya",
	"author": "Dian Kristiani",
	"Jumlah Halaman": "32.0",
	"Tanggal Terbit": "16 Des 2019",
	"ISBN": "9786024806217",
	"Bahasa": "Indonesia",
	"Penerbit": "m&c!",
	"Berat": "0.12 kg",
	"Lebar": "24.0 cm",
	"Panjang": "20.0 cm"
},
{
	"page": 88,
	"kategori 1": "buku-anak",
	"kategori 2": "anak-anak",
	"book_url": "https://www.gramedia.com/products/batu-bakar-untuk-makan-siang",
	"title": "Batu Bakar Untuk Makan Siang",
	"author": "Arleen Amidjaja",
	"Jumlah Halaman": "24.0",
	"Tanggal Terbit": "26 Sep 2019",
	"ISBN": "9789792161809",
	"Bahasa": "Indonesia",
	"Penerbit": "Penerbit Kanisius",
	"Berat": "0.138 kg",
	"Lebar": "22.5 cm",
	"Panjang": "22.5 cm"
},
{
	"page": 88,
	"kategori 1": "buku-anak",
	"kategori 2": "anak-anak",
	"book_url": "https://www.gramedia.com/products/opredo-learn-write-2-mandarin-english-indonesian-body-parts-nature",
	"title": "Opredo Learn & Write 2 Mandarin - English - Indonesian: Body Parts & Nature",
	"author": "Tjong Cendrawaty",
	"Jumlah Halaman": "24",
	"Tanggal Terbit": "18 Feb 2019",
	"ISBN": "719120111",
	"Bahasa": "Indonesia",
	"Penerbit": "Elex Media Komputindo",
	"Berat": "0.1 kg",
	"Lebar": "15 cm",
	"Panjang": "15 cm"
},
{
	"page": 88,
	"kategori 1": "buku-anak",
	"kategori 2": "anak-anak",
	"book_url": "https://www.gramedia.com/products/angka-yang-pertama-aku-kenal",
	"title": "Angka Yang Pertama Aku Kenal",
	"author": "Arni KD",
	"Jumlah Halaman": "14",
	"Tanggal Terbit": "29 Jul 2019",
	"ISBN": "9786232162471",
	"Bahasa": "Indonesia",
	"Penerbit": "Bhuana Ilmu Populer",
	"Berat": "0.1 kg",
	"Lebar": "20 cm",
	"Panjang": "20 cm"
},
