{
	"page": 76,
	"kategori 1": "buku-anak",
	"kategori 2": "anak-anak",
	"book_url": "https://www.gramedia.com/products/fabel-34-provinsi-banten-persahabatan-badak-dan-jalak",
	"title": "Fabel 34 Provinsi : Banten - Persahabatan Badak dan Jalak",
	"author": "Dian K.",
	"Jumlah Halaman": "34.0",
	"Tanggal Terbit": "30 Sep 2019",
	"ISBN": "9786232165212",
	"Bahasa": "Indonesia",
	"Penerbit": "Bhuana Ilmu Populer",
	"Berat": "0.15 kg",
	"Lebar": "23.0 cm",
	"Panjang": "23.0 cm"
},
{
	"page": 76,
	"kategori 1": "buku-anak",
	"kategori 2": "anak-anak",
	"book_url": "https://www.gramedia.com/products/opredo-my-board-book-of-animals-counting-animals",
	"title": "Opredo My Board Book Of Animals: Counting Animals",
	"author": "Tim Oopredoo",
	"Jumlah Halaman": "6.0",
	"Tanggal Terbit": "2 Des 2019",
	"ISBN": "9786230009464",
	"Bahasa": "Indonesia",
	"Penerbit": "Elex Media Komputindo",
	"Berat": "0.15 kg",
	"Lebar": "16.0 cm",
	"Panjang": "16.0 cm"
},
{
	"page": 76,
	"kategori 1": "buku-anak",
	"kategori 2": "anak-anak",
	"book_url": "https://www.gramedia.com/products/kumpulan-cerita-unik-dari-dalam-tanah",
	"title": "Kumpulan Cerita Unik Dari Dalam Tanah",
	"author": "Anisa Widiyarti",
	"Jumlah Halaman": "90",
	"Tanggal Terbit": "10 Agt 2018",
	"ISBN": "9786023664665",
	"Bahasa": "Indonesia",
	"Penerbit": "Tiga Serangkai",
	"Berat": "0.130 kg",
	"Lebar": "19 cm",
	"Panjang": "24 cm"
},
{
	"page": 76,
	"kategori 1": "buku-anak",
	"kategori 2": "anak-anak",
	"book_url": "https://www.gramedia.com/products/asyiknya-belajar-bahasa-arab-dan-inggris-makanan-favoritku",
	"title": "Asyiknya Belajar Bahasa Arab dan Inggris: Makanan Favoritku",
	"author": "Mariati Aprilia",
	"Jumlah Halaman": "40",
	"Tanggal Terbit": "8 Jul 2019",
	"ISBN": "9786230001260",
	"Bahasa": "Indonesia",
	"Penerbit": "Elex Media Komputindo",
	"Berat": "0.2 kg",
	"Lebar": "28 cm",
	"Panjang": "21 cm"
},
{
	"page": 76,
	"kategori 1": "buku-anak",
	"kategori 2": "anak-anak",
	"book_url": "https://www.gramedia.com/products/opredo-kartu-3-bahasa-nama-buah-dan-sayur",
	"title": "Opredo Kartu 3 bahasa : Nama Buah dan Sayur",
	"author": "Team Merchandising",
	"Jumlah Halaman": "40",
	"Tanggal Terbit": "25 Mar 2019",
	"ISBN": "719120189",
	"Bahasa": "Indonesia",
	"Penerbit": "Elex Media Komputindo",
	"Berat": "0.110 kg",
	"Lebar": "13 cm",
	"Panjang": "9 cm"
},
{
	"page": 76,
	"kategori 1": "buku-anak",
	"kategori 2": "anak-anak",
	"book_url": "https://www.gramedia.com/products/seri-smart-science-penyu-mau-kemana-kamu",
	"title": "Seri Smart Science : Penyu, Mau Kemana Kamu?",
	"author": "Hwang Bo Yeon",
	"Jumlah Halaman": "52",
	"Tanggal Terbit": "20 Mei 2019",
	"ISBN": "9786232161559",
	"Bahasa": "Indonesia",
	"Penerbit": "Bhuana Ilmu Populer",
	"Berat": "0.280 kg",
	"Lebar": "22 cm",
	"Panjang": "26.7 cm"
},
{
	"page": 76,
	"kategori 1": "buku-anak",
	"kategori 2": "anak-anak",
	"book_url": "https://www.gramedia.com/products/dongeng-anak-jagoan-ubur-ubur-yang-jujur-boardbook",
	"title": "Dongeng Anak Jagoan: Ubur-Ubur Yang Jujur (Boardbook)",
	"author": "Tria Ayu K",
	"Jumlah Halaman": "20.0",
	"Tanggal Terbit": "20 Agt 2019",
	"ISBN": "9786024304294",
	"Penerbit": "Bentang Pustaka",
	"Berat": "0.4 kg",
	"Lebar": "17.0 cm",
	"Panjang": "17.0 cm"
},
{
	"page": 76,
	"kategori 1": "buku-anak",
	"kategori 2": "anak-anak",
	"book_url": "https://www.gramedia.com/products/dongeng-dan-aktivitas-di-kebun-buah-dan-sayur",
	"title": "Dongeng Dan Aktivitas Di Kebun Buah Dan Sayur",
	"author": "May Belle",
	"Jumlah Halaman": "32",
	"Tanggal Terbit": "20 Mei 2019",
	"ISBN": "9786232161719",
	"Bahasa": "Indonesia",
	"Penerbit": "Bhuana Ilmu Populer",
	"Berat": "0.120 kg",
	"Lebar": "18 cm",
	"Panjang": "24 cm"
},
{
	"page": 76,
	"kategori 1": "buku-anak",
	"kategori 2": "anak-anak",
	"book_url": "https://www.gramedia.com/products/ngr-l2-foxes-sc",
	"title": "Ngr L2: Foxes (Sc)",
	"author": "Penguin Us",
	"Jumlah Halaman": "32.0",
	"Tanggal Terbit": "1 Jan 2019",
	"ISBN": "9781426334917",
	"Bahasa": "Indonesia",
	"Penerbit": "Penguin Us",
	"Berat": "0.08 kg",
	"Lebar": "15.2 cm",
	"Panjang": "22.8 cm"
},
{
	"page": 76,
	"kategori 1": "buku-anak",
	"kategori 2": "anak-anak",
	"book_url": "https://www.gramedia.com/products/seri-kimi-dan-kino-belajar-bersyukur",
	"title": "Seri Kimi Dan Kino: Belajar Bersyukur",
	"author": "Watiek Ideo",
	"Jumlah Halaman": "14.0",
	"Tanggal Terbit": "23 Sep 2019",
	"ISBN": "9786230004773",
	"Penerbit": "Elex Media Komputindo",
	"Berat": "0.45 kg",
	"Lebar": "15.0 cm",
	"Panjang": "15.0 cm"
},
{
	"page": 76,
	"kategori 1": "buku-anak",
	"kategori 2": "anak-anak",
	"book_url": "https://www.gramedia.com/products/poster-hewan-liar",
	"title": "Poster Hewan Liar",
	"author": "m&c!",
	"Jumlah Halaman": "1",
	"Tanggal Terbit": "25 Mar 2019",
	"ISBN": "531980004",
	"Bahasa": "Indonesia",
	"Penerbit": "m&c!",
	"Berat": "0.1 kg",
	"Lebar": "42 cm",
	"Panjang": "59.4 cm"
},
{
	"page": 76,
	"kategori 1": "buku-anak",
	"kategori 2": "anak-anak",
	"book_url": "https://www.gramedia.com/products/mata-dan-manusia-laut",
	"title": "Mata Dan Manusia Laut",
	"author": "Okky Madasary",
	"Jumlah Halaman": "232",
	"Tanggal Terbit": "20 Mei 2019",
	"ISBN": "9786020630281",
	"Bahasa": "Indonesia",
	"Penerbit": "Gramedia Pustaka Utama",
	"Berat": "0.160 kg",
	"Lebar": "13.5 cm",
	"Panjang": "20 cm"
},
{
	"page": 76,
	"kategori 1": "buku-anak",
	"kategori 2": "anak-anak",
	"book_url": "https://www.gramedia.com/products/aku-pintar-dan-kreatif-menggali-5-potensi-anak-sejak-dini",
	"title": "Aku Pintar dan Kreatif: Menggali 5 Potensi Anak Sejak Dini",
	"author": "Herry Prasetyo",
	"Jumlah Halaman": "88",
	"Tanggal Terbit": "15 Apr 2019",
	"ISBN": "9786232160774",
	"Bahasa": "Indonesia",
	"Penerbit": "Bhuana Ilmu Populer",
	"Berat": "0.1 kg",
	"Lebar": "18 cm",
	"Panjang": "24 cm"
},
{
	"page": 76,
	"kategori 1": "buku-anak",
	"kategori 2": "anak-anak",
	"book_url": "https://www.gramedia.com/products/teletubbies-gembor-ajaib-boardbook",
	"title": "Teletubbies: Gembor Ajaib *Boardbook",
	"author": "Egmont UK Limited",
	"Jumlah Halaman": "14.0",
	"Tanggal Terbit": "17 Des 2018",
	"ISBN": "9786020387376",
	"Penerbit": "Gramedia Pustaka Utama",
	"Berat": "0.12 kg",
	"Lebar": "14.0 cm",
	"Panjang": "14.0 cm"
},
{
	"page": 76,
	"kategori 1": "buku-anak",
	"kategori 2": "anak-anak",
	"book_url": "https://www.gramedia.com/products/disney-movie-collection-tinker-bell-and-the-legend-of-the-n",
	"title": "Disney Movie Collection: Tinker Bell And The Legend Of The Neverbeast",
	"author": "Disney",
	"Jumlah Halaman": "72",
	"Tanggal Terbit": "29 Jul 2019",
	"ISBN": "9786020631974",
	"Bahasa": "Indonesia",
	"Penerbit": "Gramedia Pustaka Utama",
	"Berat": "0.300 kg",
	"Lebar": "22 cm",
	"Panjang": "28 cm"
},
{
	"page": 76,
	"kategori 1": "buku-anak",
	"kategori 2": "anak-anak",
	"book_url": "https://www.gramedia.com/products/rabbids-5-hidup-merah-jambu",
	"title": "Rabbids 5:Hidup Merah Jambu",
	"author": "Thitaume-pujol",
	"Jumlah Halaman": "0",
	"Tanggal Terbit": "26 Okt 2015",
	"ISBN": "9786022499756",
	"Bahasa": "Indonesia",
	"Penerbit": "Bhuana Ilmu Populer",
	"Berat": "0.3000 kg",
	"Lebar": "0 cm"
},
{
	"page": 76,
	"kategori 1": "buku-anak",
	"kategori 2": "anak-anak",
	"book_url": "https://www.gramedia.com/products/the-farmer-the-fish-cerita-rakyat-nusantara-asal-usul-danau-toba",
	"title": "The Farmer & The Fish, Cerita Rakyat Nusantara Asal-Usul Danau Toba",
	"author": "Andy Bianchi",
	"Jumlah Halaman": "46",
	"Tanggal Terbit": "1 Okt 2017",
	"ISBN": "9789795938866",
	"Penerbit": "Kesaint Blanc Publishing",
	"Berat": "0.2 kg",
	"Lebar": "21 cm",
	"Panjang": "27 cm"
},
{
	"page": 76,
	"kategori 1": "buku-anak",
	"kategori 2": "anak-anak",
	"book_url": "https://www.gramedia.com/products/opredo-board-book-2-ini-1-gajah-dan-panda",
	"title": "Opredo Board book 2 ini 1 : Gajah dan Panda",
	"author": "Fx Sukamto",
	"Jumlah Halaman": "16",
	"Tanggal Terbit": "31 Des 2018",
	"ISBN": "9786020477510",
	"Bahasa": "Indonesia",
	"Penerbit": "Elex Media Komputindo",
	"Berat": "0.1 kg",
	"Lebar": "9 cm",
	"Panjang": "19 cm"
},
{
	"page": 76,
	"kategori 1": "buku-anak",
	"kategori 2": "anak-anak",
	"book_url": "https://www.gramedia.com/products/my-little-pony-tanda-bakat",
	"title": "My Little Pony: Tanda Bakat",
	"author": "Hasbro",
	"Jumlah Halaman": "24",
	"Tanggal Terbit": "12 Agt 2019",
	"ISBN": "9786020627571",
	"Bahasa": "Indonesia",
	"Penerbit": "Gramedia Pustaka Utama",
	"Berat": "0.1 kg",
	"Lebar": "21 cm",
	"Panjang": "28 cm"
},
{
	"page": 76,
	"kategori 1": "buku-anak",
	"kategori 2": "anak-anak",
	"book_url": "https://www.gramedia.com/products/100-filosofi-1",
	"title": "100 Filosofi -1",
	"author": "Daewon C.i.",
	"Jumlah Halaman": "196",
	"Tanggal Terbit": "24 Okt 2014",
	"ISBN": "9786020251868",
	"Bahasa": "Indonesia",
	"Penerbit": "Elex Media Komputindo",
	"Berat": "0.5 kg",
	"Lebar": "15 cm",
	"Panjang": "22 cm"
},
{
	"page": 76,
	"kategori 1": "buku-anak",
	"kategori 2": "anak-anak",
	"book_url": "https://www.gramedia.com/products/qanza-seri-hasan-anisa-hari-pertama-di-madrasah",
	"title": "Qanza - Seri Hasan & Anisa : Hari Pertama Di Madrasah",
	"author": "Yasmeen Rahim",
	"Jumlah Halaman": "20.0",
	"Tanggal Terbit": "26 Agt 2019",
	"ISBN": "9786024807122",
	"Penerbit": "m&c!",
	"Berat": "0.12 kg",
	"Lebar": "17.5 cm",
	"Panjang": "20.0 cm"
},
