{
	"page": 53,
	"kategori 1": "buku-anak",
	"kategori 2": "anak-anak",
	"book_url": "https://www.gramedia.com/products/seri-edukasi-britannica-tumbuhan",
	"title": "Seri Edukasi Britannica: Tumbuhan",
	"author": "Bombom Story",
	"Jumlah Halaman": "176",
	"Tanggal Terbit": "25 Feb 2019",
	"ISBN": "9786024833015",
	"Bahasa": "Indonesia",
	"Penerbit": "Bhuana Ilmu Populer",
	"Berat": "0.250 kg",
	"Lebar": "18 cm",
	"Panjang": "24 cm"
},
{
	"page": 53,
	"kategori 1": "buku-anak",
	"kategori 2": "anak-anak",
	"book_url": "https://www.gramedia.com/products/ensiklopedia-anak-cerdas-olahraga",
	"title": "Ensiklopedia Anak Cerdas: Olahraga",
	"author": "GERALDINE MAINCENT",
	"Jumlah Halaman": "96.0",
	"Tanggal Terbit": "25 Feb 2019",
	"ISBN": "9786024835743",
	"Penerbit": "Bhuana Ilmu Populer",
	"Berat": "0.1 kg",
	"Lebar": "27.5 cm",
	"Panjang": "18.0 cm"
},
{
	"page": 53,
	"kategori 1": "buku-anak",
	"kategori 2": "anak-anak",
	"book_url": "https://www.gramedia.com/products/kartu-pendidikan-balita-angka-bentuk-warna",
	"title": "Kartu Pendidikan Balita Angka, Bentuk & Warna",
	"author": "Naura",
	"Jumlah Halaman": "0.0",
	"Tanggal Terbit": "21 Mei 2019",
	"ISBN": "9786239043902",
	"Penerbit": "Sarang Baca",
	"Berat": "0.26 kg",
	"Lebar": "11.0 cm",
	"Panjang": "15.0 cm"
},
{
	"page": 53,
	"kategori 1": "buku-anak",
	"kategori 2": "anak-anak",
	"book_url": "https://www.gramedia.com/products/ayah-dan-bundaku-jazakumullah-khairan-katsiran",
	"title": "Ayah dan Bundaku, “Jazakumullah Khairan Katsiran”",
	"author": "Miftahul Jannah",
	"Jumlah Halaman": "22.0",
	"Tanggal Terbit": "24 Des 2018",
	"ISBN": "9786020501406",
	"Bahasa": "Indonesia",
	"Penerbit": "Gramedia Widiasarana Indonesia",
	"Berat": "0.237 kg",
	"Lebar": "15.0 cm",
	"Panjang": "15.0 cm"
},
{
	"page": 53,
	"kategori 1": "buku-anak",
	"kategori 2": "anak-anak",
	"book_url": "https://www.gramedia.com/products/aku-pandai-shalat",
	"title": "Aku Pandai Shalat",
	"author": "Aifa Syah",
	"Jumlah Halaman": "70.0",
	"Tanggal Terbit": "28 Agt 2019",
	"ISBN": "9786024075477",
	"Penerbit": "LAKSANA",
	"Berat": "0.12 kg",
	"Lebar": "20.0 cm",
	"Panjang": "27.0 cm"
},
{
	"page": 53,
	"kategori 1": "buku-anak",
	"kategori 2": "anak-anak",
	"book_url": "https://www.gramedia.com/products/sticker-book-buah-sayur",
	"title": "Sticker Book Buah & Sayur",
	"author": "Aryesti Halona",
	"Jumlah Halaman": "None",
	"Tanggal Terbit": "14 Jun 2019",
	"ISBN": "9786025538513",
	"Bahasa": "Indonesia",
	"Penerbit": "Ruang Kata",
	"Berat": "0.1 kg"
},
{
	"page": 53,
	"kategori 1": "buku-anak",
	"kategori 2": "anak-anak",
	"book_url": "https://www.gramedia.com/products/sticker-colour-create-farmyard-mighty-machines-sc",
	"title": "Sticker Colour Create: Farmyard Mighty Machines",
	"author": "Make Beleive",
	"Jumlah Halaman": "48",
	"Tanggal Terbit": "1 Feb 2019",
	"ISBN": "9781788437134",
	"Bahasa": "Indonesia",
	"Penerbit": "Make Believe",
	"Berat": "0.260 kg",
	"Lebar": "28 cm",
	"Panjang": "21.5 cm"
},
{
	"page": 53,
	"kategori 1": "buku-anak",
	"kategori 2": "anak-anak",
	"book_url": "https://www.gramedia.com/products/aku-ingin-cepat-besar",
	"title": "Aku Ingin Cepat Besar",
	"author": "Hong Hong, Da Q",
	"Jumlah Halaman": "32.0",
	"Tanggal Terbit": "19 Agt 2019",
	"ISBN": "9786024806903",
	"Penerbit": "m&c!",
	"Berat": "0.25 kg",
	"Lebar": "28.0 cm",
	"Panjang": "21.0 cm"
},
{
	"page": 53,
	"kategori 1": "buku-anak",
	"kategori 2": "anak-anak",
	"book_url": "https://www.gramedia.com/products/opredo-soft-book-buah-pertamaku",
	"title": "Opredo Soft Book Buah Pertamaku",
	"author": "Tim Oopredoo",
	"Jumlah Halaman": "6.0",
	"Tanggal Terbit": "18 Nov 2019",
	"ISBN": "9786230007385",
	"Bahasa": "Indonesia",
	"Penerbit": "Elex Media Komputindo",
	"Berat": "0.1 kg",
	"Lebar": "15.0 cm",
	"Panjang": "15.0 cm"
},
{
	"page": 53,
	"kategori 1": "buku-anak",
	"kategori 2": "anak-anak",
	"book_url": "https://www.gramedia.com/products/strawberry-shortcake-kelas-baru-strawberry-shortcake",
	"title": "Strawberry Shortcake: Kelas Baru Strawberry Shortcake",
	"author": "Tim Efk",
	"Jumlah Halaman": "16.0",
	"Tanggal Terbit": "10 Okt 2018",
	"ISBN": "9786022526964",
	"Penerbit": "Penerbit Erlangga",
	"Berat": "0.1 kg",
	"Lebar": "21.0 cm",
	"Panjang": "26.0 cm"
},
{
	"page": 53,
	"kategori 1": "buku-anak",
	"kategori 2": "anak-anak",
	"book_url": "https://www.gramedia.com/products/opredo-3-in-1-balita-hebat-pertamaku-1-non-pkp",
	"title": "Opredo 3 In 1 Balita Hebat Pertamaku 1 (Non Pkp)",
	"author": "A. Sitaresmi",
	"Jumlah Halaman": "44",
	"Tanggal Terbit": "5 Agt 2019",
	"ISBN": "9786020498478",
	"Bahasa": "Indonesia",
	"Penerbit": "Elex Media Komputindo",
	"Berat": "0.252 kg",
	"Lebar": "7 cm",
	"Panjang": "7 cm"
},
{
	"page": 53,
	"kategori 1": "buku-anak",
	"kategori 2": "anak-anak",
	"book_url": "https://www.gramedia.com/products/teletubbies-laa-laa-dan-po-boardbook",
	"title": "Teletubbies: Laa-Laa dan Po *Boardbook",
	"author": "Egmont UK Limited",
	"Jumlah Halaman": "14",
	"Tanggal Terbit": "28 Jan 2019",
	"ISBN": "9786020387024",
	"Bahasa": "Indonesia",
	"Penerbit": "Gramedia Pustaka Utama",
	"Berat": "0.1 kg",
	"Lebar": "14 cm",
	"Panjang": "14 cm"
},
{
	"page": 53,
	"kategori 1": "buku-anak",
	"kategori 2": "anak-anak",
	"book_url": "https://www.gramedia.com/products/buku-pertamaku-keluargaku-aku-sayang-kakek-nenek",
	"title": "Buku Pertamaku Keluargaku : Aku Sayang Kakek Nenek",
	"author": "Watiek Ideo & Nindia Maya",
	"Jumlah Halaman": "36",
	"Tanggal Terbit": "22 Jul 2019",
	"ISBN": "9786232163386",
	"Bahasa": "Indonesia",
	"Penerbit": "Bhuana Ilmu Populer",
	"Berat": "0.1 kg",
	"Lebar": "13 cm",
	"Panjang": "19 cm"
},
{
	"page": 53,
	"kategori 1": "buku-anak",
	"kategori 2": "anak-anak",
	"book_url": "https://www.gramedia.com/products/365-fabel-pengantar-tidur",
	"title": "365 Fabel Pengantar Tidur",
	"author": "Hemma",
	"Jumlah Halaman": "192.0",
	"Tanggal Terbit": "16 Des 2019",
	"ISBN": "9786232166943",
	"Bahasa": "Indonesia",
	"Penerbit": "Bhuana Ilmu Populer",
	"Berat": "0.45 kg",
	"Lebar": "21.0 cm",
	"Panjang": "25.0 cm"
},
{
	"page": 53,
	"kategori 1": "buku-anak",
	"kategori 2": "anak-anak",
	"book_url": "https://www.gramedia.com/products/seri-kimi-dan-kino-menghormati-orang-lain",
	"title": "Seri Kimi Dan Kino: Menghormati Orang Lain",
	"author": "Watiek Ideo",
	"Jumlah Halaman": "14.0",
	"Tanggal Terbit": "23 Sep 2019",
	"ISBN": "9786230004742",
	"Penerbit": "Elex Media Komputindo",
	"Berat": "0.45 kg",
	"Lebar": "15.0 cm",
	"Panjang": "15.0 cm"
},
{
	"page": 53,
	"kategori 1": "buku-anak",
	"kategori 2": "anak-anak",
	"book_url": "https://www.gramedia.com/products/menulis-mewarnai-huruf-hijaiyah-paket-buku-hijaiyah-seri",
	"title": "Menulis & Mewarnai Huruf Hijaiyah Paket Buku Hijaiyah (Seri 1, Seri 2, Seri 3)",
	"author": "Kak Elly",
	"Jumlah Halaman": "300.0",
	"Tanggal Terbit": "20 Agt 2023",
	"ISBN": "9786029252712",
	"Penerbit": "Firdauss Pressindo",
	"Berat": "0.215 kg",
	"Lebar": "18.0 cm",
	"Panjang": "24.0 cm"
},
{
	"page": 53,
	"kategori 1": "buku-anak",
	"kategori 2": "anak-anak",
	"book_url": "https://www.gramedia.com/products/story-telling-dongeng-dunia",
	"title": "Story Telling: Dongeng Dunia",
	"author": "Feny Andiani",
	"Jumlah Halaman": "112",
	"Tanggal Terbit": "19 Nov 2017",
	"ISBN": "9786023781645",
	"Penerbit": "Kawah Media",
	"Berat": "0.25 kg",
	"Lebar": "19 cm",
	"Panjang": "26 cm"
},
{
	"page": 53,
	"kategori 1": "buku-anak",
	"kategori 2": "anak-anak",
	"book_url": "https://www.gramedia.com/products/shimmer-shine-dinosaurus-di-halaman-rumah",
	"title": "Shimmer & Shine : Dinosaurus di Halaman Rumah",
	"author": "Nickelodeon",
	"Jumlah Halaman": "24.0",
	"Tanggal Terbit": "6 Jan 2020",
	"ISBN": "9786024808440",
	"Bahasa": "Indonesia",
	"Penerbit": "m&c!",
	"Berat": "0.12 kg",
	"Lebar": "23.0 cm",
	"Panjang": "23.0 cm"
},
{
	"page": 53,
	"kategori 1": "buku-anak",
	"kategori 2": "anak-anak",
	"book_url": "https://www.gramedia.com/products/seri-fun-cican-waktunya-bangun-cican-boardbook",
	"title": "Seri Fun Cican: Waktunya Bangun, Cican! (Boardbook)",
	"author": "Wahyu Aditya Dkk",
	"Jumlah Halaman": "20",
	"Tanggal Terbit": "18 Nov 2018",
	"ISBN": "9786024304157",
	"Bahasa": "Indonesia",
	"Penerbit": "Bentang Pustaka",
	"Berat": "0.12 kg",
	"Lebar": "17 cm",
	"Panjang": "17 cm"
},
{
	"page": 53,
	"kategori 1": "buku-anak",
	"kategori 2": "anak-anak",
	"book_url": "https://www.gramedia.com/products/indonesia-mendunia",
	"title": "Indonesia Mendunia",
	"author": "Ismadi",
	"Jumlah Halaman": "42",
	"Tanggal Terbit": "6 Jun 2018",
	"ISBN": "9789792961737",
	"Bahasa": "Indonesia",
	"Penerbit": "Andi Offset",
	"Berat": "0.120 kg",
	"Lebar": "18 cm",
	"Panjang": "18 cm"
},
{
	"page": 53,
	"kategori 1": "buku-anak",
	"kategori 2": "anak-anak",
	"book_url": "https://www.gramedia.com/products/fantasteenthe-other-psychopath",
	"title": "Fantasteen: The Other Psychopath",
	"author": "Fransisca Intan Devi",
	"Jumlah Halaman": "153",
	"Tanggal Terbit": "14 Mei 2019",
	"ISBN": "9786024208066",
	"Bahasa": "Indonesia",
	"Penerbit": "Dar! Mizan",
	"Berat": "0.140 kg",
	"Lebar": "13.5 cm",
	"Panjang": "20 cm"
},
{
	"page": 53,
	"kategori 1": "buku-anak",
	"kategori 2": "anak-anak",
	"book_url": "https://www.gramedia.com/products/seri-dongeng-3d-nusantara-legenda-pulau-kemaro",
	"title": "Seri Dongeng 3D Nusantara: Legenda Pulau Kemaro",
	"author": "Lilis Hu Dan Lia Sidik",
	"Jumlah Halaman": "56",
	"Tanggal Terbit": "18 Des 2017",
	"ISBN": "9786024552725",
	"Penerbit": "Bhuana Ilmu Populer",
	"Berat": "0.100 kg",
	"Lebar": "20.5 cm",
	"Panjang": "20.5 cm"
},
{
	"page": 53,
	"kategori 1": "buku-anak",
	"kategori 2": "anak-anak",
	"book_url": "https://www.gramedia.com/products/seri-kalimat-thayyibah-ayo-ucapkan-insya-allah",
	"title": "Seri Kalimat Thayyibah : Ayo Ucapkan Insya Allah",
	"author": "Dian Kristiani",
	"Jumlah Halaman": "14",
	"Tanggal Terbit": "17 Jun 2019",
	"ISBN": "9786232162006",
	"Bahasa": "Indonesia",
	"Penerbit": "Bhuana Ilmu Populer",
	"Berat": "0.120 kg",
	"Lebar": "14 cm",
	"Panjang": "18 cm"
},
{
	"page": 53,
	"kategori 1": "buku-anak",
	"kategori 2": "anak-anak",
	"book_url": "https://www.gramedia.com/products/opredo-dot-to-dot-dan-mewarnai-alfabet-pertarungan-seru-di",
	"title": "Opredo Dot To Dot Dan Mewarnai Alfabet : Pertarungan Seru di Luar Angkasa",
	"author": "Animonsta Studio Sdn. Bhd",
	"Jumlah Halaman": "33.0",
	"Tanggal Terbit": "19 Agt 2019",
	"ISBN": "9786020483436",
	"Penerbit": "ELEX MEDIA KOMPUTINDO",
	"Berat": "0.067 kg",
	"Lebar": "21.0 cm",
	"Panjang": "27.0 cm"
},
