{
	"page": 68,
	"kategori 1": "buku-anak",
	"kategori 2": "anak-anak",
	"book_url": "https://www.gramedia.com/products/seri-calistung-membaca-bersama-hiro",
	"title": "Seri Calistung : Membaca Bersama Hiro",
	"author": "Herry Prasetyo",
	"Jumlah Halaman": "40",
	"Tanggal Terbit": "24 Jun 2019",
	"ISBN": "9786232162846",
	"Bahasa": "Indonesia",
	"Penerbit": "Bhuana Ilmu Populer",
	"Berat": "0.1 kg",
	"Lebar": "18 cm",
	"Panjang": "24 cm"
},
{
	"page": 68,
	"kategori 1": "buku-anak",
	"kategori 2": "anak-anak",
	"book_url": "https://www.gramedia.com/products/aladdin-sahabat-seperti-dia-a-friend-like-him",
	"title": "Aladdin: Sahabat Seperti Dia (A Friend Like Him)",
	"author": "Disney",
	"Jumlah Halaman": "40",
	"Tanggal Terbit": "27 Mei 2019",
	"ISBN": "9786020630359",
	"Bahasa": "Indonesia",
	"Penerbit": "Gramedia Pustaka Utama",
	"Berat": "0.250 kg",
	"Lebar": "21 cm",
	"Panjang": "27 cm"
},
{
	"page": 68,
	"kategori 1": "buku-anak",
	"kategori 2": "anak-anak",
	"book_url": "https://www.gramedia.com/products/seri-dongeng-populer-dunia-hadiah-dari-para-dewi",
	"title": "Seri Dongeng Populer Dunia : Hadiah dari Para Dewi",
	"author": "CHOI, BINNA",
	"Jumlah Halaman": "52",
	"Tanggal Terbit": "27 Mei 2019",
	"ISBN": "9786232161870",
	"Bahasa": "Indonesia",
	"Penerbit": "Bhuana Ilmu Populer",
	"Berat": "0.1 kg",
	"Lebar": "18 cm",
	"Panjang": "24 cm"
},
{
	"page": 68,
	"kategori 1": "buku-anak",
	"kategori 2": "anak-anak",
	"book_url": "https://www.gramedia.com/products/dongeng-dan-aktivitas-di-taman-bunga",
	"title": "Dongeng Dan Aktivitas Di Taman Bunga",
	"author": "May Belle",
	"Jumlah Halaman": "32",
	"Tanggal Terbit": "27 Mei 2019",
	"ISBN": "9786232161733",
	"Bahasa": "Indonesia",
	"Penerbit": "Bhuana Ilmu Populer",
	"Berat": "0.1 kg",
	"Lebar": "18 cm",
	"Panjang": "24 cm"
},
{
	"page": 68,
	"kategori 1": "buku-anak",
	"kategori 2": "anak-anak",
	"book_url": "https://www.gramedia.com/products/candy-stories-cewek-healthy-pretty",
	"title": "Candy Stories : Cewek Healthy Pretty",
	"author": "Kaoru",
	"Jumlah Halaman": "156",
	"Tanggal Terbit": "24 Jun 2019",
	"ISBN": "9786232162877",
	"Bahasa": "Indonesia",
	"Penerbit": "Bhuana Ilmu Populer",
	"Berat": "0.124 kg",
	"Lebar": "13.9 cm",
	"Panjang": "20 cm"
},
{
	"page": 68,
	"kategori 1": "buku-anak",
	"kategori 2": "anak-anak",
	"book_url": "https://www.gramedia.com/products/conf-sepatu-sang-raja-dan-dongeng-dongeng-indah-lainnya",
	"title": "Sepatu Sang Raja dan Dongeng-Dongeng Indah Lainnya",
	"author": "Djokolelono",
	"Jumlah Halaman": "96",
	"Tanggal Terbit": "16 Sep 2015",
	"ISBN": "9786020320304",
	"Bahasa": "Indonesia",
	"Penerbit": "Gramedia Pustaka Utama",
	"Berat": "0.1500 kg",
	"Lebar": "16 cm",
	"Panjang": "20.5 cm"
},
{
	"page": 68,
	"kategori 1": "buku-anak",
	"kategori 2": "anak-anak",
	"book_url": "https://www.gramedia.com/products/seri-pengetahuan-anak-sehat-gawat-tulangku-bengkok",
	"title": "Seri Pengetahuan Anak Sehat : Gawat, Tulangku Bengkok",
	"author": "Kim Eun Jung",
	"Jumlah Halaman": "48",
	"Tanggal Terbit": "27 Nov 2017",
	"ISBN": "9786024552428",
	"Penerbit": "Bhuana Ilmu Populer",
	"Berat": "0.100 kg",
	"Lebar": "19.5 cm",
	"Panjang": "21.5 cm"
},
{
	"page": 68,
	"kategori 1": "buku-anak",
	"kategori 2": "anak-anak",
	"book_url": "https://www.gramedia.com/products/apakah-sudah-hampir-natal",
	"title": "Apakah Sudah Hampir Natal?",
	"author": "JOYCE DUNBAR/VICTORIA TURNBULL",
	"Jumlah Halaman": "32.0",
	"Tanggal Terbit": "25 Nov 2019",
	"ISBN": "9786024808815",
	"Bahasa": "Indonesia",
	"Penerbit": "m&c!",
	"Berat": "0.15 kg",
	"Lebar": "21.0 cm",
	"Panjang": "27.0 cm"
},
{
	"page": 68,
	"kategori 1": "buku-anak",
	"kategori 2": "anak-anak",
	"book_url": "https://www.gramedia.com/products/magical-unicorn-mencari-perbedaan",
	"title": "Magical Unicorn: Mencari Perbedaan",
	"author": "Sam Loman",
	"Jumlah Halaman": "96.0",
	"Tanggal Terbit": "13 Jan 2020",
	"ISBN": "9786230011818",
	"Bahasa": "Indonesia",
	"Penerbit": "Elex Media Komputindo",
	"Berat": "0.15 kg",
	"Lebar": "21.0 cm",
	"Panjang": "27.0 cm"
},
{
	"page": 68,
	"kategori 1": "buku-anak",
	"kategori 2": "anak-anak",
	"book_url": "https://www.gramedia.com/products/aktivitas-membaca-dan-menulis-anak-usia-dini",
	"title": "Aktivitas Membaca Dan Menulis Anak Usia Dini",
	"author": "Heru Kurniawan & Dian Wahyu",
	"Jumlah Halaman": "112",
	"Tanggal Terbit": "5 Agt 2019",
	"ISBN": "9786020521534",
	"Bahasa": "Indonesia",
	"Penerbit": "Gramedia Widiasarana Indonesia",
	"Berat": "0.400 kg",
	"Lebar": "27.5 cm",
	"Panjang": "21.5 cm"
},
{
	"page": 68,
	"kategori 1": "buku-anak",
	"kategori 2": "anak-anak",
	"book_url": "https://www.gramedia.com/products/opredo-fugo-stoples-mimpi",
	"title": "Opredo Fugo & Stoples Mimpi",
	"author": "Cyndo Lumempo",
	"Jumlah Halaman": "20.0",
	"Tanggal Terbit": "30 Sep 2019",
	"ISBN": "9786230003318",
	"Bahasa": "Indonesia",
	"Penerbit": "Elex Media Komputindo",
	"Berat": "0.2 kg",
	"Lebar": "17.0 cm",
	"Panjang": "17.5 cm"
},
{
	"page": 68,
	"kategori 1": "buku-anak",
	"kategori 2": "anak-anak",
	"book_url": "https://www.gramedia.com/products/opredo-soft-book-binatang-pertamaku",
	"title": "Opredo Soft Book Binatang Pertamaku",
	"author": "Tim Oopredoo",
	"Jumlah Halaman": "6.0",
	"Tanggal Terbit": "18 Nov 2019",
	"ISBN": "9786230007378",
	"Bahasa": "Indonesia",
	"Penerbit": "Elex Media Komputindo",
	"Berat": "0.1 kg",
	"Lebar": "15.0 cm",
	"Panjang": "15.0 cm"
},
{
	"page": 68,
	"kategori 1": "buku-anak",
	"kategori 2": "anak-anak",
	"book_url": "https://www.gramedia.com/products/seri-dongeng-populer-dunia-tiga-permohonan",
	"title": "Seri Dongeng Populer Dunia: Tiga Permohonan",
	"author": "Kyowon",
	"Jumlah Halaman": "56",
	"Tanggal Terbit": "25 Mar 2019",
	"ISBN": "9786232160590",
	"Bahasa": "Indonesia",
	"Penerbit": "Bhuana Ilmu Populer",
	"Berat": "0.1 kg",
	"Lebar": "21.7 cm",
	"Panjang": "26.7 cm"
},
{
	"page": 68,
	"kategori 1": "buku-anak",
	"kategori 2": "anak-anak",
	"book_url": "https://www.gramedia.com/products/gunung-harta-karun",
	"title": "Gunung Harta Karun",
	"author": "Li Jianrui/Liu Tongxuan",
	"Jumlah Halaman": "32.0",
	"Tanggal Terbit": "2 Sep 2019",
	"ISBN": "9786024806118",
	"Penerbit": "m&c!",
	"Berat": "0.15 kg",
	"Lebar": "28.0 cm",
	"Panjang": "21.0 cm"
},
{
	"page": 68,
	"kategori 1": "buku-anak",
	"kategori 2": "anak-anak",
	"book_url": "https://www.gramedia.com/products/all-aboard-the-airport-train-hc",
	"title": "All Aboard The Airport Train (Hc)",
	"author": "ABRAMS US",
	"Jumlah Halaman": "10.0",
	"Tanggal Terbit": "1 Jan 2019",
	"ISBN": "9781419736780",
	"Bahasa": "Indonesia",
	"Penerbit": "ABRAMS US",
	"Berat": "0.372 kg",
	"Lebar": "28.2 cm",
	"Panjang": "16.4 cm"
},
{
	"page": 68,
	"kategori 1": "buku-anak",
	"kategori 2": "anak-anak",
	"book_url": "https://www.gramedia.com/products/manka-flash-card-animals",
	"title": "Manka Flash Card : Animals",
	"author": "Pionicon",
	"Jumlah Halaman": "52",
	"Tanggal Terbit": "12 Mar 2018",
	"ISBN": "718120240",
	"Bahasa": "Indonesia",
	"Penerbit": "Elex Media Komputindo",
	"Berat": "0.120 kg",
	"Lebar": "9.5 cm",
	"Panjang": "14 cm"
},
{
	"page": 68,
	"kategori 1": "buku-anak",
	"kategori 2": "anak-anak",
	"book_url": "https://www.gramedia.com/products/pot-bellied-buddies-cuddly-elephant-bb",
	"title": "Pot Bellied Buddies: Cuddly Elephant (BB)",
	"author": "SMALL WORLD",
	"Jumlah Halaman": "5",
	"Tanggal Terbit": "1 Jan 2019",
	"ISBN": "9781912013678",
	"Bahasa": "Indonesia",
	"Penerbit": "SMALL WORLD",
	"Berat": "0.097 kg",
	"Lebar": "15 cm",
	"Panjang": "15.5 cm"
},
{
	"page": 68,
	"kategori 1": "buku-anak",
	"kategori 2": "anak-anak",
	"book_url": "https://www.gramedia.com/products/opredo-board-book-islami-anak-pintar-huruf-hijaiah",
	"title": "Opredo Board Book Islami: Anak Pintar Huruf Hijaiah",
	"author": "Tim Oopredoo",
	"Jumlah Halaman": "20.0",
	"Tanggal Terbit": "13 Jan 2020",
	"ISBN": "9786230011863",
	"Bahasa": "Indonesia",
	"Penerbit": "Elex Media Komputindo",
	"Berat": "0.2 kg",
	"Lebar": "16.0 cm",
	"Panjang": "16.5 cm"
},
{
	"page": 68,
	"kategori 1": "buku-anak",
	"kategori 2": "anak-anak",
	"book_url": "https://www.gramedia.com/products/world-ghost-stories-korea",
	"title": "World Ghost Stories Korea",
	"author": "Kim, Hye-ryeon",
	"Jumlah Halaman": "184",
	"Tanggal Terbit": "15 Feb 2016",
	"ISBN": "9786023940820",
	"Bahasa": "Indonesia",
	"Penerbit": "Bhuana Ilmu Populer",
	"Berat": "0.25 kg",
	"Lebar": "17 cm",
	"Panjang": "22 cm"
},
{
	"page": 68,
	"kategori 1": "buku-anak",
	"kategori 2": "anak-anak",
	"book_url": "https://www.gramedia.com/products/rabbids-3-terbalik",
	"title": "Rabbids 3: Terbalik",
	"author": "Thitaume-pujol",
	"Jumlah Halaman": "52",
	"Tanggal Terbit": "19 Okt 2015",
	"ISBN": "9786022499732",
	"Bahasa": "Indonesia",
	"Penerbit": "Bhuana Ilmu Populer",
	"Berat": "0.3000 kg"
},
{
	"page": 68,
	"kategori 1": "buku-anak",
	"kategori 2": "anak-anak",
	"book_url": "https://www.gramedia.com/products/cerdas-menulis-dan-bermian-kata-berkait",
	"title": "Cerdas Menulis dan Bermian Kata Berkait",
	"author": "Herry Prasetyo",
	"Jumlah Halaman": "60",
	"Tanggal Terbit": "30 Okt 2017",
	"ISBN": "9786024552039",
	"Penerbit": "Bhuana Ilmu Populer",
	"Berat": "0.1 kg",
	"Lebar": "18 cm",
	"Panjang": "24 cm"
},
{
	"page": 68,
	"kategori 1": "buku-anak",
	"kategori 2": "anak-anak",
	"book_url": "https://www.gramedia.com/products/disney-frozen-pelukan-hangat",
	"title": "Disney: Frozen - Pelukan Hangat",
	"author": "Disney",
	"Jumlah Halaman": "12",
	"Tanggal Terbit": "19 Sep 2014",
	"ISBN": "9786020308883",
	"Bahasa": "Indonesia",
	"Penerbit": "Gramedia Pustaka Utama",
	"Berat": "0.120 kg",
	"Lebar": "15 cm",
	"Panjang": "23 cm"
},
{
	"page": 68,
	"kategori 1": "buku-anak",
	"kategori 2": "anak-anak",
	"book_url": "https://www.gramedia.com/products/kereta-api-ensiklopedia-cerdas",
	"title": "Kereta Api: Ensiklopedia Cerdas",
	"author": "Amazing Kids",
	"Jumlah Halaman": "100",
	"Tanggal Terbit": "15 Mei 2018",
	"ISBN": "9786025448164",
	"Bahasa": "Indonesia",
	"Penerbit": "C-Klik Media",
	"Berat": "0.130 kg",
	"Lebar": "18 cm",
	"Panjang": "25 cm"
},
