{
	"page": 52,
	"kategori 1": "buku-anak",
	"kategori 2": "anak-anak",
	"book_url": "https://www.gramedia.com/products/komik-next-g-surga-di-telapak-kaki-ibu-rpl",
	"title": "Komik Next G Surga di Telapak Kaki Ibu (Republish)",
	"author": "Aliya Nur Hidayaturrohmah & Nisa, Dkk",
	"Jumlah Halaman": "95",
	"Tanggal Terbit": "22 Apr 2019",
	"ISBN": "9786023676682",
	"Bahasa": "Indonesia",
	"Penerbit": "Curhat Anak Bangsa",
	"Berat": "0.110 kg",
	"Lebar": "14 cm",
	"Panjang": "21 cm"
},
{
	"page": 52,
	"kategori 1": "buku-anak",
	"kategori 2": "anak-anak",
	"book_url": "https://www.gramedia.com/products/menulis-dan-bermain-angka",
	"title": "Menulis Dan Bermain Angka",
	"author": "Riri",
	"Jumlah Halaman": "76",
	"Tanggal Terbit": "12 Agt 2019",
	"ISBN": "9786232163737",
	"Bahasa": "Indonesia",
	"Penerbit": "Bhuana Ilmu Populer",
	"Berat": "0.1 kg",
	"Lebar": "18 cm",
	"Panjang": "24 cm"
},
{
	"page": 52,
	"kategori 1": "buku-anak",
	"kategori 2": "anak-anak",
	"book_url": "https://www.gramedia.com/products/mengapa-kau-menangis",
	"title": "Mengapa Kau Menangis?",
	"author": "Veronica Sri Utami",
	"Jumlah Halaman": "0.0",
	"Tanggal Terbit": "8 Agt 2019",
	"ISBN": "9786022315452",
	"Bahasa": "Indonesia",
	"Penerbit": "BPKGM",
	"Berat": "100.0 kg",
	"Lebar": "21.0 cm",
	"Panjang": "1.0 cm"
},
{
	"page": 52,
	"kategori 1": "buku-anak",
	"kategori 2": "anak-anak",
	"book_url": "https://www.gramedia.com/products/seri-aku-sayang-binatang-cici-ingin-terbang",
	"title": "Seri Aku Sayang Binatang : Cici Ingin Terbang",
	"author": "Wulan Mulya Pratiwi.",
	"Jumlah Halaman": "32.0",
	"Tanggal Terbit": "16 Des 2019",
	"ISBN": "9786024808938",
	"Bahasa": "Indonesia",
	"Penerbit": "m&c!",
	"Berat": "0.12 kg",
	"Lebar": "20.0 cm",
	"Panjang": "24.0 cm"
},
{
	"page": 52,
	"kategori 1": "buku-anak",
	"kategori 2": "anak-anak",
	"book_url": "https://www.gramedia.com/products/ayo-bersikap-baik-dodo-yang-rendah-hati",
	"title": "Ayo Bersikap Baik: Dodo yang Rendah Hati",
	"author": "Watiek Ideo",
	"Jumlah Halaman": "28",
	"Tanggal Terbit": "8 Mar 2019",
	"ISBN": "9786020628110",
	"Bahasa": "Indonesia",
	"Penerbit": "Gramedia Pustaka Utama",
	"Berat": "0.1 kg",
	"Lebar": "15 cm",
	"Panjang": "23 cm"
},
{
	"page": 52,
	"kategori 1": "buku-anak",
	"kategori 2": "anak-anak",
	"book_url": "https://www.gramedia.com/products/allah-maha-besar",
	"title": "Allah Maha Besar",
	"author": "Kiki Dan Tim Redaksi",
	"Jumlah Halaman": "300.0",
	"Tanggal Terbit": "20 Jul 2031",
	"ISBN": "9786021694725",
	"Penerbit": "Al Kautsar Kids",
	"Berat": "0.3 kg",
	"Lebar": "18.0 cm",
	"Panjang": "24.0 cm"
},
{
	"page": 52,
	"kategori 1": "buku-anak",
	"kategori 2": "anak-anak",
	"book_url": "https://www.gramedia.com/products/fun-math-4-berburu-harta-karun",
	"title": "Fun Math 4 : Berburu Harta Karun",
	"author": "May Belle",
	"Jumlah Halaman": "64.0",
	"Tanggal Terbit": "19 Agt 2019",
	"ISBN": "9786232164000",
	"Penerbit": "BHUANA ILMU POPULER",
	"Berat": "0.1 kg",
	"Lebar": "18.0 cm",
	"Panjang": "24.0 cm"
},
{
	"page": 52,
	"kategori 1": "buku-anak",
	"kategori 2": "anak-anak",
	"book_url": "https://www.gramedia.com/products/opredo-smart-arab-coloring-book-50-benda",
	"title": "Opredo Smart Arab Coloring Book: 50 Benda",
	"author": "Tim Oopredoo",
	"Jumlah Halaman": "50.0",
	"Tanggal Terbit": "25 Nov 2019",
	"ISBN": "9786230009839",
	"Bahasa": "Indonesia",
	"Penerbit": "Elex Media Komputindo",
	"Berat": "0.14 kg",
	"Lebar": "14.0 cm",
	"Panjang": "19.0 cm"
},
{
	"page": 52,
	"kategori 1": "buku-anak",
	"kategori 2": "anak-anak",
	"book_url": "https://www.gramedia.com/products/captain-awesome-20-for-president-sc",
	"title": "Captain Awesome #20: For President (Sc)",
	"author": "STAN KIRBY",
	"Jumlah Halaman": "350.0",
	"Tanggal Terbit": "8 Mei 2018",
	"ISBN": "9781534420830",
	"Penerbit": "SIMON AND SCHUSTER US",
	"Berat": "0.115 kg",
	"Lebar": "14.0 cm",
	"Panjang": "19.0 cm"
},
{
	"page": 52,
	"kategori 1": "buku-anak",
	"kategori 2": "anak-anak",
	"book_url": "https://www.gramedia.com/products/my-little-pony-kekuatan-persahabatan-boardbook",
	"title": "My Little Pony: Kekuatan Persahabatan (Boardbook)",
	"author": "Olivia London",
	"Jumlah Halaman": "20.0",
	"Tanggal Terbit": "22 Okt 2019",
	"ISBN": "9786023677603",
	"Bahasa": "Indonesia",
	"Penerbit": "Curhat Anak Bangsa",
	"Berat": "0.3 kg",
	"Lebar": "17.0 cm",
	"Panjang": "17.0 cm"
},
{
	"page": 52,
	"kategori 1": "buku-anak",
	"kategori 2": "anak-anak",
	"book_url": "https://www.gramedia.com/products/opredo-wipe-clean-card-berhitung",
	"title": "Opredo Wipe Clean Card - Berhitung",
	"author": "Tim Oopredoo",
	"Jumlah Halaman": "24",
	"Tanggal Terbit": "20 Mei 2019",
	"ISBN": "719120470",
	"Bahasa": "Indonesia",
	"Penerbit": "Elex Media Komputindo",
	"Berat": "0.130 kg",
	"Lebar": "15 cm",
	"Panjang": "15 cm"
},
{
	"page": 52,
	"kategori 1": "buku-anak",
	"kategori 2": "anak-anak",
	"book_url": "https://www.gramedia.com/products/petualangan-emily-dan-emmet-ajari-aku-membuat-macaroon",
	"title": "Petualangan Emily dan Emmet-Ajari Aku Membuat Macaroon",
	"author": "Arie Komalasari",
	"Jumlah Halaman": "48.0",
	"Tanggal Terbit": "4 Nov 2019",
	"ISBN": "9786230007484",
	"Bahasa": "Indonesia",
	"Penerbit": "Elex Media Komputindo",
	"Berat": "0.15 kg",
	"Lebar": "19.0 cm",
	"Panjang": "19.0 cm"
},
{
	"page": 52,
	"kategori 1": "buku-anak",
	"kategori 2": "anak-anak",
	"book_url": "https://www.gramedia.com/products/buku-praktis-cara-cepat-bisa-baca",
	"title": "Buku Praktis Cara Cepat Bisa Baca",
	"author": "Herry Prasetyo",
	"Jumlah Halaman": "168",
	"Tanggal Terbit": "25 Mar 2019",
	"ISBN": "9786232160385",
	"Bahasa": "Indonesia",
	"Penerbit": "Bhuana Ilmu Populer",
	"Berat": "0.350 kg",
	"Lebar": "20 cm",
	"Panjang": "20 cm"
},
{
	"page": 52,
	"kategori 1": "buku-anak",
	"kategori 2": "anak-anak",
	"book_url": "https://www.gramedia.com/products/simple-and-easy-chinese",
	"title": "Simple And Easy Chinese",
	"author": "Agustian & Kelly Rosalin",
	"Jumlah Halaman": "24",
	"Tanggal Terbit": "4 Des 2017",
	"ISBN": "9786024524197",
	"Bahasa": "Indonesia",
	"Penerbit": "Gramedia Widiasarana Indonesia",
	"Berat": "0.100 kg",
	"Lebar": "18 cm",
	"Panjang": "15 cm"
},
{
	"page": 52,
	"kategori 1": "buku-anak",
	"kategori 2": "anak-anak",
	"book_url": "https://www.gramedia.com/products/seri-dongeng-populer-dunia-anak-katak-bersuara-merdu",
	"title": "Seri Dongeng Populer Dunia : Anak Katak Bersuara Merdu",
	"author": "Lee Hyang Ahn",
	"Jumlah Halaman": "56",
	"Tanggal Terbit": "18 Mar 2019",
	"ISBN": "9786232160194",
	"Bahasa": "Indonesia",
	"Penerbit": "Bhuana Ilmu Populer",
	"Berat": "0.120 kg",
	"Lebar": "24 cm",
	"Panjang": "18 cm"
},
{
	"page": 52,
	"kategori 1": "buku-anak",
	"kategori 2": "anak-anak",
	"book_url": "https://www.gramedia.com/products/qanza-seri-hasan-anisa-idul-fitri-tiba",
	"title": "Qanza - Seri Hasan & Anisa : Idul Fitri Tiba!",
	"author": "Yasmeen Rahim",
	"Jumlah Halaman": "24",
	"Tanggal Terbit": "27 Mei 2019",
	"ISBN": "9786024805579",
	"Bahasa": "Indonesia",
	"Penerbit": "m&c!",
	"Berat": "0.1 kg",
	"Lebar": "20 cm",
	"Panjang": "17.5 cm"
},
{
	"page": 52,
	"kategori 1": "buku-anak",
	"kategori 2": "anak-anak",
	"book_url": "https://www.gramedia.com/products/mix-match-book-binatang-1",
	"title": "Mix & Match Book: Binatang 1",
	"author": "Efik Sukamto",
	"Jumlah Halaman": "14.0",
	"Tanggal Terbit": "4 Nov 2019",
	"ISBN": "9786230000294",
	"Bahasa": "Indonesia",
	"Penerbit": "Elex Media Komputindo",
	"Berat": "0.12 kg",
	"Lebar": "15.0 cm",
	"Panjang": "15.0 cm"
},
{
	"page": 52,
	"kategori 1": "buku-anak",
	"kategori 2": "anak-anak",
	"book_url": "https://www.gramedia.com/products/ada-apa-di-bumi-air",
	"title": "Ada Apa di Bumi? Air",
	"author": "Isabel Thomas & Pau Morgan",
	"Jumlah Halaman": "64.0",
	"Tanggal Terbit": "16 Des 2019",
	"ISBN": "9786020636528",
	"Bahasa": "Indonesia",
	"Penerbit": "Gramedia Pustaka Utama",
	"Berat": "0.12 kg",
	"Lebar": "18.5 cm",
	"Panjang": "24.0 cm"
},
{
	"page": 52,
	"kategori 1": "buku-anak",
	"kategori 2": "anak-anak",
	"book_url": "https://www.gramedia.com/products/qanza-seri-aku-bisa-aku-memakai-hijab-di-mana-saja",
	"title": "QANZA - Seri Aku Bisa : Aku Memakai Hijab di Mana Saja",
	"author": "Yasmin Rahim",
	"Jumlah Halaman": "16.0",
	"Tanggal Terbit": "18 Nov 2019",
	"ISBN": "9786024808488",
	"Bahasa": "Indonesia",
	"Penerbit": "m&c!",
	"Berat": "0.15 kg",
	"Lebar": "20.0 cm",
	"Panjang": "24.0 cm"
},
{
	"page": 52,
	"kategori 1": "buku-anak",
	"kategori 2": "anak-anak",
	"book_url": "https://www.gramedia.com/products/frozen-satu-hari-di-bawah-sinar-matahari-a-day-in-the-sun",
	"title": "Frozen: Satu Hari Di Bawah Sinar Matahari (A Day In The Sun)",
	"author": "Disney",
	"Jumlah Halaman": "17",
	"Tanggal Terbit": "26 Des 2014",
	"ISBN": "9786020310954",
	"Bahasa": "Indonesia",
	"Penerbit": "Gramedia Pustaka Utama",
	"Berat": "0.3000 kg",
	"Lebar": "20 cm",
	"Panjang": "20 cm"
},
{
	"page": 52,
	"kategori 1": "buku-anak",
	"kategori 2": "anak-anak",
	"book_url": "https://www.gramedia.com/products/ensiklopedia-junior-dinosaurus-dan-zaman-prasejarah-1",
	"title": "Ensiklopedia Junior : Dinosaurus Dan Zaman Prasejarah",
	"author": "Emilie",
	"Jumlah Halaman": "None",
	"Tanggal Terbit": "29 Mar 2012",
	"ISBN": "9789790749474",
	"Bahasa": "Indonesia",
	"Penerbit": "Bhuana Ilmu Populer",
	"Berat": "0.150 kg"
},
{
	"page": 52,
	"kategori 1": "buku-anak",
	"kategori 2": "anak-anak",
	"book_url": "https://www.gramedia.com/products/kumpulan-dongeng-kerajaan-edisi-baru",
	"title": "Kumpulan Dongeng Kerajaan (Edisi Baru)",
	"author": "Arleen A.",
	"Jumlah Halaman": "206",
	"Tanggal Terbit": "15 Jan 2018",
	"ISBN": "9786023945023",
	"Bahasa": "Indonesia",
	"Penerbit": "Bhuana Ilmu Populer",
	"Berat": "0.280 kg",
	"Lebar": "24 cm",
	"Panjang": "18 cm"
},
{
	"page": 52,
	"kategori 1": "buku-anak",
	"kategori 2": "anak-anak",
	"book_url": "https://www.gramedia.com/products/opredo-tall-fold-book-colors",
	"title": "Opredo Tall Fold Book : Colors",
	"author": "Tim Oopredoo",
	"Jumlah Halaman": "10.0",
	"Tanggal Terbit": "6 Jan 2020",
	"ISBN": "719121593",
	"Bahasa": "Indonesia",
	"Penerbit": "Elex Media Komputindo",
	"Berat": "0.12 kg",
	"Lebar": "12.0 cm",
	"Panjang": "24.0 cm"
},
