{
	"page": 94,
	"kategori 1": "buku-anak",
	"kategori 2": "anak-anak",
	"book_url": "https://www.gramedia.com/products/wipe-clean-workbook-numbers-1-20-sc",
	"title": "Wipe Clean Workbook: Numbers 1-20",
	"author": "Roger Priddy",
	"Jumlah Halaman": "28",
	"Tanggal Terbit": "6 Agt 2010",
	"ISBN": "9780312508692",
	"Bahasa": "Indonesia",
	"Penerbit": "Priddy Books Us",
	"Berat": "0.32 kg",
	"Lebar": "20 cm",
	"Panjang": "27 cm"
},
{
	"page": 94,
	"kategori 1": "buku-anak",
	"kategori 2": "anak-anak",
	"book_url": "https://www.gramedia.com/products/mewarnai-baju-adat-nusantara",
	"title": "Mewarnai Baju Adat Nusantara",
	"author": "Kak Maria",
	"Jumlah Halaman": "40.0",
	"Tanggal Terbit": "2 Sep 2019",
	"ISBN": "9786023880874",
	"Bahasa": "Indonesia",
	"Penerbit": "Happy Holy Kids",
	"Berat": "0.125 kg",
	"Lebar": "26.0 cm",
	"Panjang": "19.0 cm"
},
{
	"page": 94,
	"kategori 1": "buku-anak",
	"kategori 2": "anak-anak",
	"book_url": "https://www.gramedia.com/products/jangan-suka-sombong",
	"title": "Jangan Suka Sombong",
	"author": "Mulasih Tary",
	"Jumlah Halaman": "48.0",
	"Tanggal Terbit": "26 Agt 2019",
	"ISBN": "9786230003943",
	"Penerbit": "Elex Media Komputindo",
	"Berat": "0.2 kg",
	"Lebar": "19.0 cm",
	"Panjang": "23.0 cm"
},
{
	"page": 94,
	"kategori 1": "buku-anak",
	"kategori 2": "anak-anak",
	"book_url": "https://www.gramedia.com/products/magnus-chase-gods-of-asgard-3-the-ship-of-the-dead-sc",
	"title": "Magnus Chase Gods Of Asgard #3: The Ship Of The Dead",
	"author": "Rick Riordan",
	"Jumlah Halaman": "464",
	"Tanggal Terbit": "2 Apr 2019",
	"ISBN": "9781368024440",
	"Bahasa": "Indonesia",
	"Penerbit": "Hachette Book Us",
	"Berat": "0.31 kg",
	"Lebar": "13 cm",
	"Panjang": "19 cm"
},
{
	"page": 94,
	"kategori 1": "buku-anak",
	"kategori 2": "anak-anak",
	"book_url": "https://www.gramedia.com/products/halo-balitapenuntun-ke-masjid-yuk-boardbook",
	"title": "Halo Balita.Penuntun: Ke Masjid, Yuk! (Boardbook)",
	"author": "Beby Haryanti Dewi",
	"Jumlah Halaman": "20.0",
	"Tanggal Terbit": "17 Des 2019",
	"ISBN": "9786024722098",
	"Bahasa": "Indonesia",
	"Penerbit": "Pelangi Mizan",
	"Berat": "0.341 kg",
	"Lebar": "17.5 cm",
	"Panjang": "17.7 cm"
},
{
	"page": 94,
	"kategori 1": "buku-anak",
	"kategori 2": "anak-anak",
	"book_url": "https://www.gramedia.com/products/wipe-clean-menulis-huruf-besar-huruf-kecil",
	"title": "Wipe Clean - Menulis Huruf Besar & Huruf Kecil",
	"author": "Tim Oopredoo",
	"Jumlah Halaman": "20.0",
	"Tanggal Terbit": "21 Okt 2019",
	"ISBN": "9786020499864",
	"Bahasa": "Indonesia",
	"Penerbit": "Elex Media Komputindo",
	"Berat": "0.2 kg",
	"Lebar": "15.0 cm",
	"Panjang": "17.0 cm"
},
{
	"page": 94,
	"kategori 1": "buku-anak",
	"kategori 2": "anak-anak",
	"book_url": "https://www.gramedia.com/products/buku-pertamaku-mobil",
	"title": "Buku Pertamaku - Mobil",
	"author": "ELEONORA BARSOTTI",
	"Jumlah Halaman": "24.0",
	"Tanggal Terbit": "24 Jun 2019",
	"ISBN": "9786024805913",
	"Penerbit": "m&c!",
	"Berat": "0.2 kg",
	"Lebar": "21.0 cm",
	"Panjang": "27.0 cm"
},
{
	"page": 94,
	"kategori 1": "buku-anak",
	"kategori 2": "anak-anak",
	"book_url": "https://www.gramedia.com/products/jilid-2-dongeng-fabel-dinosaurus",
	"title": "Jilid 2 : Dongeng Fabel Dinosaurus",
	"author": "Mulasih T Dkk",
	"Jumlah Halaman": "124.0",
	"Tanggal Terbit": "25 Sep 2019",
	"ISBN": "9786237046707",
	"Bahasa": "Indonesia",
	"Penerbit": "Solusi Mitra Media Cv/Nusantara Cv",
	"Berat": "0.251 kg",
	"Lebar": "18.0 cm",
	"Panjang": "24.2 cm"
},
{
	"page": 94,
	"kategori 1": "buku-anak",
	"kategori 2": "anak-anak",
	"book_url": "https://www.gramedia.com/products/dot-art-create-beautiful-art-from-lots-of-dots-sc",
	"title": "Dot Art: Create Beautiful Art From Lots Of Dots (Sc)",
	"author": "Thomas Nelson",
	"Jumlah Halaman": "80.0",
	"Tanggal Terbit": "10 Sep 2013",
	"ISBN": "9781782355236",
	"Bahasa": "English",
	"Penerbit": "MAKE BELIEVE IDEAS US",
	"Berat": "0.522 kg",
	"Lebar": "21.3 cm",
	"Panjang": "27.7 cm"
},
{
	"page": 94,
	"kategori 1": "buku-anak",
	"kategori 2": "anak-anak",
	"book_url": "https://www.gramedia.com/products/little-skill-seekers-color-and-shapes-sc",
	"title": "Little Skill Seekers: Color And Shapes",
	"author": "Scholastic",
	"Jumlah Halaman": "48",
	"Tanggal Terbit": "1 Jun 2018",
	"ISBN": "9781338255553",
	"Bahasa": "Indonesia",
	"Penerbit": "Scholastic",
	"Berat": "0.13 kg",
	"Lebar": "20 cm",
	"Panjang": "26 cm"
},
{
	"page": 94,
	"kategori 1": "buku-anak",
	"kategori 2": "anak-anak",
	"book_url": "https://www.gramedia.com/products/seri-cerita-dongeng-dunia-kumpulan-dongeng-negeri-denmark",
	"title": "Seri Cerita Dongeng Dunia: Kumpulan Dongeng Negeri Denmark",
	"author": "Winkanda Satria Putra",
	"Jumlah Halaman": "None",
	"Tanggal Terbit": "19 Feb 2019",
	"ISBN": "9789792968637",
	"Bahasa": "Indonesia",
	"Penerbit": "Andi Offset",
	"Berat": "0.220 kg",
	"Lebar": "19 cm",
	"Panjang": "23 cm"
},
{
	"page": 94,
	"kategori 1": "buku-anak",
	"kategori 2": "anak-anak",
	"book_url": "https://www.gramedia.com/products/baca-warnai-disney-klasik-rapunzel",
	"title": "Baca & Warnai Disney Klasik: Rapunzel",
	"author": "Disney",
	"Jumlah Halaman": "49",
	"Tanggal Terbit": "26 Jan 2015",
	"ISBN": "9786020257327",
	"Bahasa": "Indonesia",
	"Penerbit": "Elex Media Komputindo",
	"Berat": "0.1500 kg",
	"Lebar": "21 cm",
	"Panjang": "27.5 cm"
},
{
	"page": 94,
	"kategori 1": "buku-anak",
	"kategori 2": "anak-anak",
	"book_url": "https://www.gramedia.com/products/opredo-my-first-library-colors-pet-farm-animals-sea-w",
	"title": "Opredo My First Library: Colors, Pet & Farm Animals, Sea & Wild Animal",
	"author": "Tim Oopredoo",
	"Jumlah Halaman": "7",
	"Tanggal Terbit": "13 Mei 2019",
	"ISBN": "9786020498393",
	"Bahasa": "Indonesia",
	"Penerbit": "Elex Media Komputindo",
	"Berat": "0.100 kg",
	"Lebar": "9 cm",
	"Panjang": "27 cm"
},
{
	"page": 94,
	"kategori 1": "buku-anak",
	"kategori 2": "anak-anak",
	"book_url": "https://www.gramedia.com/products/tayo-the-little-bus-mewarnai-yuk-2",
	"title": "Tayo the Little Bus: Mewarnai, Yuk! 2",
	"author": "Iconix / Jang Yeseo",
	"Jumlah Halaman": "16",
	"Tanggal Terbit": "25 Mar 2019",
	"ISBN": "9786020621661",
	"Bahasa": "Indonesia",
	"Penerbit": "Gramedia Pustaka Utama",
	"Berat": "0.120 kg",
	"Lebar": "22 cm",
	"Panjang": "30 cm"
},
{
	"page": 94,
	"kategori 1": "buku-anak",
	"kategori 2": "anak-anak",
	"book_url": "https://www.gramedia.com/products/kafe-ajaib-yang-memasak-impian",
	"title": "Kafe Ajaib Yang Memasak Impian",
	"author": "Suyoung Kim",
	"Jumlah Halaman": "190",
	"Tanggal Terbit": "17 Jun 2019",
	"ISBN": "9786020629964",
	"Bahasa": "Indonesia",
	"Penerbit": "Gramedia Pustaka Utama",
	"Berat": "0.310 kg",
	"Lebar": "15 cm",
	"Panjang": "23 cm"
},
{
	"page": 94,
	"kategori 1": "buku-anak",
	"kategori 2": "anak-anak",
	"book_url": "https://www.gramedia.com/products/unicorn-crossing-phoebe-and-her-unicorn-5",
	"title": "Unicorn Crossing : Phoebe And Her Unicorn #5",
	"author": "Dana Simpson",
	"Jumlah Halaman": "175",
	"Tanggal Terbit": "18 Apr 2019",
	"ISBN": "9781449483579",
	"Bahasa": "Indonesia",
	"Penerbit": "Simon And Schuster Us",
	"Berat": "0.290 kg",
	"Lebar": "15 cm",
	"Panjang": "22 cm"
},
{
	"page": 94,
	"kategori 1": "buku-anak",
	"kategori 2": "anak-anak",
	"book_url": "https://www.gramedia.com/products/opredo-wipe-clean-balita-cerdas-abc",
	"title": "Opredo Wipe Clean Balita Cerdas : Abc",
	"author": "Tim Oopredoo",
	"Jumlah Halaman": "24.0",
	"Tanggal Terbit": "2 Des 2019",
	"ISBN": "9786230008269",
	"Bahasa": "Indonesia",
	"Penerbit": "Elex Media Komputindo",
	"Berat": "0.15 kg",
	"Lebar": "21.0 cm",
	"Panjang": "24.0 cm"
},
{
	"page": 94,
	"kategori 1": "buku-anak",
	"kategori 2": "anak-anak",
	"book_url": "https://www.gramedia.com/products/write-wipe-flash-cards-numbers",
	"title": "Write & Wipe Flash Cards - Numbers",
	"author": "Tim Oopredoo",
	"Jumlah Halaman": "42.0",
	"Tanggal Terbit": "11 Nov 2019",
	"ISBN": "719121484",
	"Bahasa": "Indonesia",
	"Penerbit": "Elex Media Komputindo",
	"Berat": "0.0 kg",
	"Lebar": "0.0 cm",
	"Panjang": "0.0 cm"
},
{
	"page": 94,
	"kategori 1": "buku-anak",
	"kategori 2": "anak-anak",
	"book_url": "https://www.gramedia.com/products/kkpkbeautiful-days-rpl",
	"title": "Kkpk.Beautiful Days Rpl",
	"author": "Nabila Nurkhalisah H (bella)",
	"Jumlah Halaman": "80.0",
	"Tanggal Terbit": "10 Okt 2019",
	"ISBN": "9786024208844",
	"Bahasa": "Indonesia",
	"Penerbit": "Pastel",
	"Berat": "0.1 kg",
	"Lebar": "15.0 cm",
	"Panjang": "21.0 cm"
},
{
	"page": 94,
	"kategori 1": "buku-anak",
	"kategori 2": "anak-anak",
	"book_url": "https://www.gramedia.com/products/poster-buah",
	"title": "Poster Buah",
	"author": "m&c!",
	"Jumlah Halaman": "1",
	"Tanggal Terbit": "25 Mar 2019",
	"ISBN": "531980007",
	"Bahasa": "Indonesia",
	"Penerbit": "m&c!",
	"Berat": "0.1 kg",
	"Lebar": "42 cm",
	"Panjang": "59.4 cm"
},
{
	"page": 94,
	"kategori 1": "buku-anak",
	"kategori 2": "anak-anak",
	"book_url": "https://www.gramedia.com/products/buku-aktivitas-fakta-dinosaurus",
	"title": "Buku Aktivitas Fakta Dinosaurus",
	"author": "William Potter",
	"Jumlah Halaman": "104.0",
	"Tanggal Terbit": "11 Nov 2019",
	"ISBN": "9786020522005",
	"Bahasa": "Indonesia",
	"Penerbit": "Gramedia Widiasarana Indonesia",
	"Berat": "0.25 kg",
	"Lebar": "20.5 cm",
	"Panjang": "27.5 cm"
},
{
	"page": 94,
	"kategori 1": "buku-anak",
	"kategori 2": "anak-anak",
	"book_url": "https://www.gramedia.com/products/seri-ensiklomini-keajaiban-tubuh-mulut-yang-lebar",
	"title": "Seri Ensiklomini Keajaiban Tubuh : Mulut Yang Lebar",
	"author": "Wei Xiaomeng",
	"Jumlah Halaman": "32",
	"Tanggal Terbit": "24 Jun 2019",
	"ISBN": "9786024805890",
	"Bahasa": "Indonesia",
	"Penerbit": "m&c!",
	"Berat": "0.150 kg",
	"Lebar": "18 cm",
	"Panjang": "24 cm"
},
