{
	"page": 34,
	"kategori 1": "buku-anak",
	"kategori 2": "anak-anak",
	"book_url": "https://www.gramedia.com/products/tubuh-manusia-ensiklopedia-cerdas",
	"title": "Tubuh Manusia: Ensiklopedia Cerdas",
	"author": "Amazing Kids",
	"Jumlah Halaman": "100",
	"Tanggal Terbit": "5 Jun 2018",
	"ISBN": "9786025448362",
	"Bahasa": "Indonesia",
	"Penerbit": "C-Klik Media",
	"Berat": "0.1 kg",
	"Lebar": "19 cm",
	"Panjang": "25 cm"
},
{
	"page": 34,
	"kategori 1": "buku-anak",
	"kategori 2": "anak-anak",
	"book_url": "https://www.gramedia.com/products/muhammad-saw-rasulullah-pemimpin-sejati",
	"title": "Muhammad Saw - Rasulullah Pemimpin Sejati",
	"author": "Mutiara Aryani",
	"Jumlah Halaman": "32.0",
	"Tanggal Terbit": "28 Okt 2019",
	"ISBN": "9786232166196",
	"Bahasa": "Indonesia",
	"Penerbit": "Bhuana Ilmu Populer",
	"Berat": "0.15 kg",
	"Lebar": "17.0 cm",
	"Panjang": "22.0 cm"
},
{
	"page": 34,
	"kategori 1": "buku-anak",
	"kategori 2": "anak-anak",
	"book_url": "https://www.gramedia.com/products/pbc-kidz-kebun-anggrek-anggun",
	"title": "PBC KIDZ: Kebun Anggrek Anggun",
	"author": "SHALWA MAULIDYA, DKK",
	"Jumlah Halaman": "92",
	"Tanggal Terbit": "2 Jul 2018",
	"ISBN": "9786024206567",
	"Bahasa": "Indonesia",
	"Penerbit": "Mizan Publishing",
	"Berat": "0.110 kg",
	"Lebar": "14.5 cm",
	"Panjang": "21 cm"
},
{
	"page": 34,
	"kategori 1": "buku-anak",
	"kategori 2": "anak-anak",
	"book_url": "https://www.gramedia.com/products/activity-series-fun-coloring",
	"title": "Activity Series: Fun Coloring",
	"author": "Herdhika Puspitasari",
	"Jumlah Halaman": "32.0",
	"Tanggal Terbit": "15 Des 2018",
	"ISBN": "9786025992223",
	"Penerbit": "C-Klik Media",
	"Berat": "0.185 kg",
	"Lebar": "28.0 cm",
	"Panjang": "20.0 cm"
},
{
	"page": 34,
	"kategori 1": "buku-anak",
	"kategori 2": "anak-anak",
	"book_url": "https://www.gramedia.com/products/aktivitas-ceria-dan-kreatif-2-mazez-dot-to-dot",
	"title": "Aktivitas Ceria dan Kreatif: 2. Mazez & Dot to Dot",
	"author": "KANAYA LARASATI, LT CREW",
	"Jumlah Halaman": "104",
	"Tanggal Terbit": "18 Mar 2019",
	"ISBN": "9786020491011",
	"Bahasa": "Indonesia",
	"Penerbit": "Elex Media Komputindo",
	"Berat": "0.1 kg",
	"Lebar": "21 cm",
	"Panjang": "27 cm"
},
