{
	"page": 58,
	"kategori 1": "buku-anak",
	"kategori 2": "anak-anak",
	"book_url": "https://www.gramedia.com/products/petualangan-peoni-dan-neko-gadis-mawar-dan-permata",
	"title": "Petualangan Peoni dan Neko: Gadis Mawar dan Permata",
	"author": "Renny Yaniar",
	"Jumlah Halaman": "16",
	"Tanggal Terbit": "1 Okt 2018",
	"ISBN": "9786020616384",
	"Bahasa": "Indonesia",
	"Penerbit": "Gramedia Pustaka Utama",
	"Berat": "0.1 kg",
	"Lebar": "20 cm",
	"Panjang": "20 cm"
},
{
	"page": 58,
	"kategori 1": "buku-anak",
	"kategori 2": "anak-anak",
	"book_url": "https://www.gramedia.com/products/frozen-buku-tahunan-2020",
	"title": "Frozen: Buku Tahunan 2020",
	"author": "Disney",
	"Jumlah Halaman": "68.0",
	"Tanggal Terbit": "6 Jan 2020",
	"ISBN": "9786020637044",
	"Bahasa": "Indonesia",
	"Penerbit": "Gramedia Pustaka Utama",
	"Berat": "0.2 kg",
	"Lebar": "21.0 cm",
	"Panjang": "28.0 cm"
},
{
	"page": 58,
	"kategori 1": "buku-anak",
	"kategori 2": "anak-anak",
	"book_url": "https://www.gramedia.com/products/halo-balitapenuntun-sebelum-aku-bepergian-boardbook",
	"title": "Halo Balita.Penuntun: Sebelum Aku Bepergian (Boardbook)",
	"author": "Tim Redaksi Pelangi Mizan",
	"Jumlah Halaman": "100.0",
	"Tanggal Terbit": "5 Agt 2019",
	"ISBN": "9786024721435",
	"Penerbit": "Pelangi Mizan",
	"Berat": "0.38 kg",
	"Lebar": "17.0 cm",
	"Panjang": "17.0 cm"
},
{
	"page": 58,
	"kategori 1": "buku-anak",
	"kategori 2": "anak-anak",
	"book_url": "https://www.gramedia.com/products/orangutan-kecil-yang-bau",
	"title": "Orangutan Kecil Yang Bau",
	"author": "Hisyam Hilmy",
	"Jumlah Halaman": "44.0",
	"Tanggal Terbit": "17 Des 2019",
	"ISBN": "9786024463618",
	"Bahasa": "Indonesia",
	"Penerbit": "Pt Remaja Rosdakarya",
	"Berat": "0.23 kg",
	"Lebar": "21.0 cm",
	"Panjang": "29.0 cm"
},
{
	"page": 58,
	"kategori 1": "buku-anak",
	"kategori 2": "anak-anak",
	"book_url": "https://www.gramedia.com/products/patriot-cilik-markas-rahasia",
	"title": "Patriot Cilik - Markas Rahasia",
	"author": "Iwan Nazif Fajar Natsutomo",
	"Jumlah Halaman": "32.0",
	"Tanggal Terbit": "26 Agt 2019",
	"ISBN": "9786024806828",
	"Penerbit": "m&c!",
	"Berat": "0.15 kg",
	"Lebar": "22.0 cm",
	"Panjang": "23.0 cm"
},
{
	"page": 58,
	"kategori 1": "buku-anak",
	"kategori 2": "anak-anak",
	"book_url": "https://www.gramedia.com/products/komik-next-g-waktu-bersama-mama",
	"title": "Komik Next G: Waktu Bersama Mama",
	"author": "Alexandrina Victoria Najima G., dkk",
	"Jumlah Halaman": "104",
	"Tanggal Terbit": "15 Agt 2018",
	"ISBN": "9786023675432",
	"Bahasa": "Indonesia",
	"Penerbit": "Curhat Anak Bangsa",
	"Berat": "0.230 kg",
	"Lebar": "15 cm",
	"Panjang": "21 cm"
},
{
	"page": 58,
	"kategori 1": "buku-anak",
	"kategori 2": "anak-anak",
	"book_url": "https://www.gramedia.com/products/motorik-halus-paud-garis-dan-bentuk",
	"title": "Motorik Halus PAUD: Garis dan Bentuk",
	"author": "Heru Kurniawan",
	"Jumlah Halaman": "108",
	"Tanggal Terbit": "13 Mei 2019",
	"ISBN": "9786020495927",
	"Bahasa": "Indonesia",
	"Penerbit": "Elex Media Komputindo",
	"Berat": "0.250 kg",
	"Lebar": "21 cm",
	"Panjang": "27 cm"
},
{
	"page": 58,
	"kategori 1": "buku-anak",
	"kategori 2": "anak-anak",
	"book_url": "https://www.gramedia.com/products/aku-bisa-iqra-6",
	"title": "Aku Bisa Iqra 6",
	"author": "K.H.As'ad Humam",
	"Jumlah Halaman": "32.0",
	"Tanggal Terbit": "24 Jun 2019",
	"ISBN": "9786232161351",
	"Bahasa": "Indonesia",
	"Penerbit": "Bhuana Ilmu Populer",
	"Berat": "0.15 kg",
	"Lebar": "18.0 cm",
	"Panjang": "18.0 cm"
},
{
	"page": 58,
	"kategori 1": "buku-anak",
	"kategori 2": "anak-anak",
	"book_url": "https://www.gramedia.com/products/al-jazari-penggagas-teknologi-robot",
	"title": "AL-JAZARI - Penggagas Teknologi Robot",
	"author": "Yoli Hemdi",
	"Jumlah Halaman": "None",
	"Tanggal Terbit": "1 Jan 2019",
	"ISBN": "9786022684459",
	"Bahasa": "Indonesia",
	"Penerbit": "Luxima Metro",
	"Berat": "0.155 kg"
},
{
	"page": 58,
	"kategori 1": "buku-anak",
	"kategori 2": "anak-anak",
	"book_url": "https://www.gramedia.com/products/asyiknya-mengenal-alat-transportasi-mobil",
	"title": "Asyiknya Mengenal Alat Transportasi Mobil",
	"author": "SHINTA APRILIA",
	"Jumlah Halaman": "124.0",
	"Tanggal Terbit": "28 Okt 2019",
	"ISBN": "9786237324737",
	"Bahasa": "Indonesia",
	"Penerbit": "PLAYGROUND",
	"Berat": "0.2 kg",
	"Lebar": "18.0 cm",
	"Panjang": "22.0 cm"
},
{
	"page": 58,
	"kategori 1": "buku-anak",
	"kategori 2": "anak-anak",
	"book_url": "https://www.gramedia.com/products/seri-smart-science-cuaca-dan-kehidupan-saatnya-berkarya",
	"title": "Seri Smart Science : Cuaca Dan Kehidupan - Saatnya Berkarya Wisata",
	"author": "LEE SO REE",
	"Jumlah Halaman": "52",
	"Tanggal Terbit": "29 Jul 2019",
	"ISBN": "9786232163140",
	"Bahasa": "Indonesia",
	"Penerbit": "Bhuana Ilmu Populer",
	"Berat": "0.1 kg",
	"Lebar": "22 cm",
	"Panjang": "26.7 cm"
},
{
	"page": 58,
	"kategori 1": "buku-anak",
	"kategori 2": "anak-anak",
	"book_url": "https://www.gramedia.com/products/tangled-the-series-komik-2",
	"title": "Tangled The Series: Komik 2",
	"author": "Disney",
	"Jumlah Halaman": "72.0",
	"Tanggal Terbit": "7 Okt 2019",
	"ISBN": "9786020633565",
	"Bahasa": "Indonesia",
	"Penerbit": "Pt Gramedia Pustaka Utama",
	"Berat": "0.198 kg",
	"Lebar": "21.1 cm",
	"Panjang": "28.0 cm"
},
{
	"page": 58,
	"kategori 1": "buku-anak",
	"kategori 2": "anak-anak",
	"book_url": "https://www.gramedia.com/products/catatan-si-duckbill-suara-aneh-dari-dasar-laut",
	"title": "Catatan Si Duckbill : Suara Aneh dari Dasar Laut",
	"author": "Ami Hu",
	"Jumlah Halaman": "136",
	"Tanggal Terbit": "11 Mar 2019",
	"ISBN": "9786024803414",
	"Bahasa": "Indonesia",
	"Penerbit": "m&c!",
	"Berat": "0.7 kg",
	"Lebar": "18 cm",
	"Panjang": "24 cm"
},
{
	"page": 58,
	"kategori 1": "buku-anak",
	"kategori 2": "anak-anak",
	"book_url": "https://www.gramedia.com/products/opredo-board-book-wipe-clean-abc",
	"title": "Opredo Board Book Wipe Clean: Abc",
	"author": "Tim Oopredoo",
	"Jumlah Halaman": "10",
	"Tanggal Terbit": "12 Agt 2019",
	"ISBN": "9786230001277",
	"Bahasa": "Indonesia",
	"Penerbit": "Elex Media Komputindo",
	"Berat": "0.150 kg",
	"Lebar": "15 cm",
	"Panjang": "17 cm"
},
{
	"page": 58,
	"kategori 1": "buku-anak",
	"kategori 2": "anak-anak",
	"book_url": "https://www.gramedia.com/products/komik-princess-academy-poni-darurat",
	"title": "Komik Princess Academy: Poni Darurat",
	"author": "Assyifa S. Arum",
	"Jumlah Halaman": "92",
	"Tanggal Terbit": "16 Mei 2019",
	"ISBN": "9786023676880",
	"Bahasa": "Indonesia",
	"Penerbit": "Curhat Anak Bangsa",
	"Berat": "0.150 kg",
	"Lebar": "11 cm",
	"Panjang": "17 cm"
},
{
	"page": 58,
	"kategori 1": "buku-anak",
	"kategori 2": "anak-anak",
	"book_url": "https://www.gramedia.com/products/aku-bisa-iqra-5",
	"title": "Aku Bisa Iqra 5",
	"author": "K.H.As'ad Humam",
	"Jumlah Halaman": "32.0",
	"Tanggal Terbit": "24 Jun 2019",
	"ISBN": "9786232161344",
	"Bahasa": "Indonesia",
	"Penerbit": "Bhuana Ilmu Populer",
	"Berat": "0.15 kg",
	"Lebar": "18.0 cm",
	"Panjang": "18.0 cm"
},
{
	"page": 58,
	"kategori 1": "buku-anak",
	"kategori 2": "anak-anak",
	"book_url": "https://www.gramedia.com/products/bintang-taman-kanak-kanak",
	"title": "Bintang Taman Kanak-kanak",
	"author": "Ratna Wiyandani",
	"Jumlah Halaman": "48",
	"Tanggal Terbit": "28 Mei 2018",
	"ISBN": "9786024555801",
	"Bahasa": "Indonesia",
	"Penerbit": "Bhuana Ilmu Populer",
	"Berat": "0.100 kg",
	"Lebar": "18 cm",
	"Panjang": "24 cm"
},
{
	"page": 58,
	"kategori 1": "buku-anak",
	"kategori 2": "anak-anak",
	"book_url": "https://www.gramedia.com/products/my-little-pony-i-am-rainbow-dash",
	"title": "My Little Pony: I Am Rainbow Dash",
	"author": "Hasbro",
	"Jumlah Halaman": "5",
	"Tanggal Terbit": "21 Jun 2018",
	"ISBN": "9781772384031",
	"Bahasa": "Indonesia",
	"Penerbit": "Novelty Ca",
	"Berat": "0.393 kg",
	"Lebar": "24 cm",
	"Panjang": "20 cm"
},
{
	"page": 58,
	"kategori 1": "buku-anak",
	"kategori 2": "anak-anak",
	"book_url": "https://www.gramedia.com/products/unicorn-creativity-book-sc",
	"title": "Unicorn Creativity Book (Sc)",
	"author": "Emily Stead",
	"Jumlah Halaman": "84.0",
	"Tanggal Terbit": "3 Okt 2019",
	"ISBN": "9781783123841",
	"Bahasa": "English",
	"Penerbit": "Sinar Star Book",
	"Berat": "0.401 kg",
	"Lebar": "23.0 cm",
	"Panjang": "27.0 cm"
},
{
	"page": 58,
	"kategori 1": "buku-anak",
	"kategori 2": "anak-anak",
	"book_url": "https://www.gramedia.com/products/seri-anak-hebat-aku-mau-mandi-sendiri-board-book",
	"title": "Seri Anak Hebat: Aku Mau Mandi Sendiri (Board Book)",
	"author": "Noor H. Dee",
	"Jumlah Halaman": "20",
	"Tanggal Terbit": "30 Okt 2017",
	"ISBN": "9786023853137",
	"Bahasa": "Indonesia",
	"Penerbit": "Noura Publishing",
	"Berat": "0.356 kg",
	"Lebar": "17.5 cm",
	"Panjang": "17.5 cm"
},
{
	"page": 58,
	"kategori 1": "buku-anak",
	"kategori 2": "anak-anak",
	"book_url": "https://www.gramedia.com/products/atlas-boy-adventure-underwater-world",
	"title": "Atlas Boy Adventure : Underwater World",
	"author": "Astrid Sugandi",
	"Jumlah Halaman": "36.0",
	"Tanggal Terbit": "30 Sep 2019",
	"ISBN": "9786020521855",
	"Bahasa": "Indonesia",
	"Penerbit": "Gramedia Widiasarana Indonesia",
	"Berat": "0.15 kg",
	"Lebar": "25.0 cm",
	"Panjang": "22.0 cm"
},
