{
	"page": 92,
	"kategori 1": "buku-anak",
	"kategori 2": "anak-anak",
	"book_url": "https://www.gramedia.com/products/pintar-berhitung-dan-menulis-angka",
	"title": "Pintar Berhitung Dan Menulis Angka",
	"author": "HERU KURNIAWAN DAN TITI ANISATUL LAELY",
	"Jumlah Halaman": "56",
	"Tanggal Terbit": "18 Feb 2019",
	"ISBN": "9786024836009",
	"Bahasa": "Indonesia",
	"Penerbit": "Bhuana Ilmu Populer",
	"Berat": "0.200 kg",
	"Lebar": "18 cm",
	"Panjang": "24 cm"
},
{
	"page": 92,
	"kategori 1": "buku-anak",
	"kategori 2": "anak-anak",
	"book_url": "https://www.gramedia.com/products/akivitas-cerdas-motorik-halus-dan-berhitung",
	"title": "Akivitas Cerdas Motorik Halus Dan Berhitung",
	"author": "Cauzura",
	"Jumlah Halaman": "76.0",
	"Tanggal Terbit": "19 Agt 2019",
	"ISBN": "9786230003752",
	"Penerbit": "Elex Media Komputindo",
	"Berat": "0.2 kg",
	"Lebar": "21.0 cm",
	"Panjang": "27.0 cm"
},
{
	"page": 92,
	"kategori 1": "buku-anak",
	"kategori 2": "anak-anak",
	"book_url": "https://www.gramedia.com/products/my-first-dictionary-1500-words-sc",
	"title": "My First Dictionary 1500 Words",
	"author": "Angela Crawley",
	"Jumlah Halaman": "144",
	"Tanggal Terbit": "12 Mar 2019",
	"ISBN": "9780753474792",
	"Bahasa": "Indonesia",
	"Penerbit": "Kingfisher",
	"Berat": "0.68 kg",
	"Lebar": "20 cm",
	"Panjang": "25 cm"
},
{
	"page": 92,
	"kategori 1": "buku-anak",
	"kategori 2": "anak-anak",
	"book_url": "https://www.gramedia.com/products/cara-mudah-menggambar-doodle-menggunakan-pensil",
	"title": "Cara Mudah Menggambar Doodle Menggunakan Pensil",
	"author": "Gigitz",
	"Jumlah Halaman": "136",
	"Tanggal Terbit": "12 Jul 2017",
	"ISBN": "9786021036594",
	"Bahasa": "Indonesia",
	"Penerbit": "Transmedia",
	"Berat": "0.35 kg",
	"Lebar": "21 cm",
	"Panjang": "28 cm"
},
{
	"page": 92,
	"kategori 1": "buku-anak",
	"kategori 2": "anak-anak",
	"book_url": "https://www.gramedia.com/products/jilid-2-dongeng-fabel-dinosaurus",
	"title": "Jilid 2 : Dongeng Fabel Dinosaurus",
	"author": "Mulasih T Dkk",
	"Jumlah Halaman": "124.0",
	"Tanggal Terbit": "25 Sep 2019",
	"ISBN": "9786237046707",
	"Bahasa": "Indonesia",
	"Penerbit": "Solusi Mitra Media Cv/Nusantara Cv",
	"Berat": "0.251 kg",
	"Lebar": "18.0 cm",
	"Panjang": "24.2 cm"
},
{
	"page": 92,
	"kategori 1": "buku-anak",
	"kategori 2": "anak-anak",
	"book_url": "https://www.gramedia.com/products/klinting-klinting",
	"title": "Klinting! Klinting!",
	"author": "Dian Kristiani",
	"Jumlah Halaman": "24",
	"Tanggal Terbit": "29 Okt 2018",
	"ISBN": "9786024831684",
	"Bahasa": "Indonesia",
	"Penerbit": "Bhuana Ilmu Populer",
	"Berat": "0.120 kg",
	"Lebar": "21 cm",
	"Panjang": "29 cm"
},
{
	"page": 92,
	"kategori 1": "buku-anak",
	"kategori 2": "anak-anak",
	"book_url": "https://www.gramedia.com/products/dot-art-create-beautiful-art-from-lots-of-dots-sc",
	"title": "Dot Art: Create Beautiful Art From Lots Of Dots (Sc)",
	"author": "Thomas Nelson",
	"Jumlah Halaman": "80.0",
	"Tanggal Terbit": "10 Sep 2013",
	"ISBN": "9781782355236",
	"Bahasa": "English",
	"Penerbit": "MAKE BELIEVE IDEAS US",
	"Berat": "0.522 kg",
	"Lebar": "21.3 cm",
	"Panjang": "27.7 cm"
},
{
	"page": 92,
	"kategori 1": "buku-anak",
	"kategori 2": "anak-anak",
	"book_url": "https://www.gramedia.com/products/ujian-persahabatan",
	"title": "Ujian Persahabatan",
	"author": "Rasyid Akbar",
	"Jumlah Halaman": "24",
	"Tanggal Terbit": "24 Jul 2017",
	"ISBN": "9786023411443",
	"Penerbit": "Penerbit Bestari",
	"Berat": "0.95 kg",
	"Lebar": "20.5 cm",
	"Panjang": "20.5 cm"
},
{
	"page": 92,
	"kategori 1": "buku-anak",
	"kategori 2": "anak-anak",
	"book_url": "https://www.gramedia.com/products/opredo-my-first-library-numbers-vegetables-fruits",
	"title": "Opredo My First Library: Numbers, Vegetables, Fruits",
	"author": "Tim Oopredoo",
	"Jumlah Halaman": "7",
	"Tanggal Terbit": "13 Mei 2019",
	"ISBN": "9786020498386",
	"Bahasa": "Indonesia",
	"Penerbit": "Elex Media Komputindo",
	"Berat": "0.100 kg",
	"Lebar": "9 cm",
	"Panjang": "27 cm"
},
{
	"page": 92,
	"kategori 1": "buku-anak",
	"kategori 2": "anak-anak",
	"book_url": "https://www.gramedia.com/products/little-skill-seekers-color-and-shapes-sc",
	"title": "Little Skill Seekers: Color And Shapes",
	"author": "Scholastic",
	"Jumlah Halaman": "48",
	"Tanggal Terbit": "1 Jun 2018",
	"ISBN": "9781338255553",
	"Bahasa": "Indonesia",
	"Penerbit": "Scholastic",
	"Berat": "0.13 kg",
	"Lebar": "20 cm",
	"Panjang": "26 cm"
},
{
	"page": 92,
	"kategori 1": "buku-anak",
	"kategori 2": "anak-anak",
	"book_url": "https://www.gramedia.com/products/seri-cerita-dongeng-dunia-kumpulan-dongeng-negeri-denmark",
	"title": "Seri Cerita Dongeng Dunia: Kumpulan Dongeng Negeri Denmark",
	"author": "Winkanda Satria Putra",
	"Jumlah Halaman": "None",
	"Tanggal Terbit": "19 Feb 2019",
	"ISBN": "9789792968637",
	"Bahasa": "Indonesia",
	"Penerbit": "Andi Offset",
	"Berat": "0.220 kg",
	"Lebar": "19 cm",
	"Panjang": "23 cm"
},
{
	"page": 92,
	"kategori 1": "buku-anak",
	"kategori 2": "anak-anak",
	"book_url": "https://www.gramedia.com/products/baca-warnai-disney-klasik-rapunzel",
	"title": "Baca & Warnai Disney Klasik: Rapunzel",
	"author": "Disney",
	"Jumlah Halaman": "49",
	"Tanggal Terbit": "26 Jan 2015",
	"ISBN": "9786020257327",
	"Bahasa": "Indonesia",
	"Penerbit": "Elex Media Komputindo",
	"Berat": "0.1500 kg",
	"Lebar": "21 cm",
	"Panjang": "27.5 cm"
},
{
	"page": 92,
	"kategori 1": "buku-anak",
	"kategori 2": "anak-anak",
	"book_url": "https://www.gramedia.com/products/opredo-my-first-library-colors-pet-farm-animals-sea-w",
	"title": "Opredo My First Library: Colors, Pet & Farm Animals, Sea & Wild Animal",
	"author": "Tim Oopredoo",
	"Jumlah Halaman": "7",
	"Tanggal Terbit": "13 Mei 2019",
	"ISBN": "9786020498393",
	"Bahasa": "Indonesia",
	"Penerbit": "Elex Media Komputindo",
	"Berat": "0.100 kg",
	"Lebar": "9 cm",
	"Panjang": "27 cm"
},
{
	"page": 92,
	"kategori 1": "buku-anak",
	"kategori 2": "anak-anak",
	"book_url": "https://www.gramedia.com/products/kafe-ajaib-yang-memasak-impian",
	"title": "Kafe Ajaib Yang Memasak Impian",
	"author": "Suyoung Kim",
	"Jumlah Halaman": "190",
	"Tanggal Terbit": "17 Jun 2019",
	"ISBN": "9786020629964",
	"Bahasa": "Indonesia",
	"Penerbit": "Gramedia Pustaka Utama",
	"Berat": "0.310 kg",
	"Lebar": "15 cm",
	"Panjang": "23 cm"
},
{
	"page": 92,
	"kategori 1": "buku-anak",
	"kategori 2": "anak-anak",
	"book_url": "https://www.gramedia.com/products/tayo-the-little-bus-mewarnai-yuk-2",
	"title": "Tayo the Little Bus: Mewarnai, Yuk! 2",
	"author": "Iconix / Jang Yeseo",
	"Jumlah Halaman": "16",
	"Tanggal Terbit": "25 Mar 2019",
	"ISBN": "9786020621661",
	"Bahasa": "Indonesia",
	"Penerbit": "Gramedia Pustaka Utama",
	"Berat": "0.120 kg",
	"Lebar": "22 cm",
	"Panjang": "30 cm"
},
{
	"page": 92,
	"kategori 1": "buku-anak",
	"kategori 2": "anak-anak",
	"book_url": "https://www.gramedia.com/products/pot-bellied-buddies-cuddly-bunny-bb",
	"title": "Pot Bellied Buddies: Cuddly Bunny (BB)",
	"author": "SMALL WORLD",
	"Jumlah Halaman": "5",
	"Tanggal Terbit": "1 Jan 2019",
	"ISBN": "9781912013661",
	"Bahasa": "Indonesia",
	"Penerbit": "SMALL WORLD",
	"Berat": "0.097 kg",
	"Lebar": "15.0 cm",
	"Panjang": "15.5 cm"
},
{
	"page": 92,
	"kategori 1": "buku-anak",
	"kategori 2": "anak-anak",
	"book_url": "https://www.gramedia.com/products/unicorn-crossing-phoebe-and-her-unicorn-5",
	"title": "Unicorn Crossing : Phoebe And Her Unicorn #5",
	"author": "Dana Simpson",
	"Jumlah Halaman": "175",
	"Tanggal Terbit": "18 Apr 2019",
	"ISBN": "9781449483579",
	"Bahasa": "Indonesia",
	"Penerbit": "Simon And Schuster Us",
	"Berat": "0.290 kg",
	"Lebar": "15 cm",
	"Panjang": "22 cm"
},
{
	"page": 92,
	"kategori 1": "buku-anak",
	"kategori 2": "anak-anak",
	"book_url": "https://www.gramedia.com/products/mengenal-empat-alam-yang-dilewati-manusia-rahim-dan-dunia",
	"title": "Mengenal Empat Alam Yang Dilewati Manusia: Rahim Dan Dunia",
	"author": "Ririn Astutiningrum",
	"Jumlah Halaman": "48.0",
	"Tanggal Terbit": "19 Agt 2019",
	"ISBN": "9786230003790",
	"Penerbit": "Elex Media Komputindo",
	"Berat": "0.2 kg",
	"Lebar": "19.0 cm",
	"Panjang": "23.0 cm"
},
{
	"page": 92,
	"kategori 1": "buku-anak",
	"kategori 2": "anak-anak",
	"book_url": "https://www.gramedia.com/products/opredo-wipe-clean-balita-cerdas-abc",
	"title": "Opredo Wipe Clean Balita Cerdas : Abc",
	"author": "Tim Oopredoo",
	"Jumlah Halaman": "24.0",
	"Tanggal Terbit": "2 Des 2019",
	"ISBN": "9786230008269",
	"Bahasa": "Indonesia",
	"Penerbit": "Elex Media Komputindo",
	"Berat": "0.15 kg",
	"Lebar": "21.0 cm",
	"Panjang": "24.0 cm"
},
{
	"page": 92,
	"kategori 1": "buku-anak",
	"kategori 2": "anak-anak",
	"book_url": "https://www.gramedia.com/products/pintar-matematika-untuk-paud",
	"title": "Pintar Matematika Untuk Paud",
	"author": "Riri",
	"Jumlah Halaman": "160.0",
	"Tanggal Terbit": "25 Nov 2019",
	"ISBN": "9786232166585",
	"Bahasa": "Indonesia",
	"Penerbit": "Bhuana Ilmu Populer",
	"Berat": "0.25 kg",
	"Lebar": "18.0 cm",
	"Panjang": "24.0 cm"
},
{
	"page": 92,
	"kategori 1": "buku-anak",
	"kategori 2": "anak-anak",
	"book_url": "https://www.gramedia.com/products/kkpkbeautiful-days-rpl",
	"title": "Kkpk.Beautiful Days Rpl",
	"author": "Nabila Nurkhalisah H (bella)",
	"Jumlah Halaman": "80.0",
	"Tanggal Terbit": "10 Okt 2019",
	"ISBN": "9786024208844",
	"Bahasa": "Indonesia",
	"Penerbit": "Pastel",
	"Berat": "0.1 kg",
	"Lebar": "15.0 cm",
	"Panjang": "21.0 cm"
},
{
	"page": 92,
	"kategori 1": "buku-anak",
	"kategori 2": "anak-anak",
	"book_url": "https://www.gramedia.com/products/write-wipe-flash-cards-numbers",
	"title": "Write & Wipe Flash Cards - Numbers",
	"author": "Tim Oopredoo",
	"Jumlah Halaman": "42.0",
	"Tanggal Terbit": "11 Nov 2019",
	"ISBN": "719121484",
	"Bahasa": "Indonesia",
	"Penerbit": "Elex Media Komputindo",
	"Berat": "0.0 kg",
	"Lebar": "0.0 cm",
	"Panjang": "0.0 cm"
},
{
	"page": 92,
	"kategori 1": "buku-anak",
	"kategori 2": "anak-anak",
	"book_url": "https://www.gramedia.com/products/adi-dan-jurnal-bumi",
	"title": "Adi Dan Jurnal Bumi",
	"author": "Nabila Anwar",
	"Jumlah Halaman": "54.0",
	"Tanggal Terbit": "22 Agt 2019",
	"ISBN": "9786232062306",
	"Bahasa": "Indonesia",
	"Penerbit": "Tiga Serangkai",
	"Berat": "0.1 kg",
	"Lebar": "15.0 cm",
	"Panjang": "23.0 cm"
},
{
	"page": 92,
	"kategori 1": "buku-anak",
	"kategori 2": "anak-anak",
	"book_url": "https://www.gramedia.com/products/poster-buah",
	"title": "Poster Buah",
	"author": "m&c!",
	"Jumlah Halaman": "1",
	"Tanggal Terbit": "25 Mar 2019",
	"ISBN": "531980007",
	"Bahasa": "Indonesia",
	"Penerbit": "m&c!",
	"Berat": "0.1 kg",
	"Lebar": "42 cm",
	"Panjang": "59.4 cm"
},
