{
	"page": 18,
	"kategori 1": "buku-anak",
	"kategori 2": "anak-anak",
	"book_url": "https://www.gramedia.com/products/hugless-douglas-dan-kue-yang-lezat",
	"title": "Hugless Douglas dan Kue yang Lezat",
	"author": "David Melling",
	"Jumlah Halaman": "32",
	"Tanggal Terbit": "26 Feb 2018",
	"ISBN": "9786024288433",
	"Penerbit": "m&c!",
	"Berat": "0.100 kg",
	"Lebar": "23 cm",
	"Panjang": "23 cm"
},
