{
	"page": 80,
	"kategori 1": "buku-anak",
	"kategori 2": "anak-anak",
	"book_url": "https://www.gramedia.com/products/aktivitas-anak-cerdas-dan-kreatif-menjaga-lingkungan",
	"title": "Aktivitas Anak Cerdas dan Kreatif: Menjaga Lingkungan",
	"author": "Arianochi",
	"Jumlah Halaman": "76",
	"Tanggal Terbit": "21 Jan 2019",
	"ISBN": "9786020488806",
	"Bahasa": "Indonesia",
	"Penerbit": "Elex Media Komputindo",
	"Berat": "0.320 kg",
	"Lebar": "27 cm",
	"Panjang": "21 cm"
},
{
	"page": 80,
	"kategori 1": "buku-anak",
	"kategori 2": "anak-anak",
	"book_url": "https://www.gramedia.com/products/kumpulan-cerita-unik-dari-dalam-tanah",
	"title": "Kumpulan Cerita Unik Dari Dalam Tanah",
	"author": "Anisa Widiyarti",
	"Jumlah Halaman": "90",
	"Tanggal Terbit": "10 Agt 2018",
	"ISBN": "9786023664665",
	"Bahasa": "Indonesia",
	"Penerbit": "Tiga Serangkai",
	"Berat": "0.130 kg",
	"Lebar": "19 cm",
	"Panjang": "24 cm"
},
{
	"page": 80,
	"kategori 1": "buku-anak",
	"kategori 2": "anak-anak",
	"book_url": "https://www.gramedia.com/products/qanza-seri-hasan-anisa-cinta-ramadan",
	"title": "Qanza - Seri Hasan & Anisa : Cinta Ramadan",
	"author": "Yasmeen Rahim",
	"Jumlah Halaman": "24",
	"Tanggal Terbit": "27 Mei 2019",
	"ISBN": "9786024805586",
	"Bahasa": "Indonesia",
	"Penerbit": "m&c!",
	"Berat": "0.1 kg",
	"Lebar": "20 cm",
	"Panjang": "17.5 cm"
},
{
	"page": 80,
	"kategori 1": "buku-anak",
	"kategori 2": "anak-anak",
	"book_url": "https://www.gramedia.com/products/2-in-1-poster-pintar-buah-dan-sayur",
	"title": "2 in 1 Poster Pintar: Buah dan Sayur",
	"author": "Team Merchandising",
	"Jumlah Halaman": "2",
	"Tanggal Terbit": "12 Mar 2019",
	"ISBN": "718120317",
	"Bahasa": "Indonesia",
	"Penerbit": "Elex Media Komputindo",
	"Berat": "0.1 kg",
	"Lebar": "37 cm",
	"Panjang": "56 cm"
},
{
	"page": 80,
	"kategori 1": "buku-anak",
	"kategori 2": "anak-anak",
	"book_url": "https://www.gramedia.com/products/opredo-mix-match-book-kue-persahabatan",
	"title": "Opredo Mix & Match Book: Kue Persahabatan",
	"author": "A. Sitaresmi",
	"Jumlah Halaman": "10",
	"Tanggal Terbit": "24 Jun 2019",
	"ISBN": "9786020498089",
	"Bahasa": "Indonesia",
	"Penerbit": "Elex Media Komputindo",
	"Berat": "0.100 kg",
	"Lebar": "16 cm",
	"Panjang": "17 cm"
},
{
	"page": 80,
	"kategori 1": "buku-anak",
	"kategori 2": "anak-anak",
	"book_url": "https://www.gramedia.com/products/disney-movie-collection-snow-white-1",
	"title": "Disney Movie Collection: Snow White",
	"author": "Disney",
	"Jumlah Halaman": "72",
	"Tanggal Terbit": "13 Mei 2019",
	"ISBN": "9786020628912",
	"Bahasa": "Indonesia",
	"Penerbit": "Gramedia Pustaka Utama",
	"Berat": "0.1 kg",
	"Lebar": "22 cm",
	"Panjang": "28 cm"
},
{
	"page": 80,
	"kategori 1": "buku-anak",
	"kategori 2": "anak-anak",
	"book_url": "https://www.gramedia.com/products/opredo-bilingual-board-book-numbers",
	"title": "Opredo Bilingual Board Book - Numbers",
	"author": "Tim Oopredoo",
	"Jumlah Halaman": "8.0",
	"Tanggal Terbit": "20 Mei 2019",
	"ISBN": "9786020497983",
	"Penerbit": "Elex Media Komputindo",
	"Berat": "0.1 kg",
	"Lebar": "7.0 cm",
	"Panjang": "15.0 cm"
},
{
	"page": 80,
	"kategori 1": "buku-anak",
	"kategori 2": "anak-anak",
	"book_url": "https://www.gramedia.com/products/100-words-for-kids-to-read-grade-k-sc",
	"title": "100 Words For Kids To Read Grade K",
	"author": "Scholastic Teacher Resources",
	"Jumlah Halaman": "58",
	"Tanggal Terbit": "1 Sep 2018",
	"ISBN": "9781338323092",
	"Bahasa": "Indonesia",
	"Penerbit": "Scholastic",
	"Berat": "0.2 kg",
	"Lebar": "21 cm",
	"Panjang": "28 cm"
},
{
	"page": 80,
	"kategori 1": "buku-anak",
	"kategori 2": "anak-anak",
	"book_url": "https://www.gramedia.com/products/pot-bellied-buddies-cuddly-piglet-bb",
	"title": "Pot Bellied Buddies: Cuddly Piglet (BB)",
	"author": "SMALL WORLD",
	"Jumlah Halaman": "5",
	"Tanggal Terbit": "1 Jan 2019",
	"ISBN": "9781912013715",
	"Bahasa": "Indonesia",
	"Penerbit": "SMALL WORLD",
	"Berat": "0.097 kg",
	"Lebar": "15 cm",
	"Panjang": "15.5 cm"
},
{
	"page": 80,
	"kategori 1": "buku-anak",
	"kategori 2": "anak-anak",
	"book_url": "https://www.gramedia.com/products/opredo-kartu-alfabet-puzzle-abc-kata-pertama",
	"title": "Opredo Kartu Alfabet: Puzzle Abc Kata Pertama",
	"author": "Tim Oopredoo",
	"Jumlah Halaman": "52.0",
	"Tanggal Terbit": "19 Agt 2019",
	"ISBN": "-",
	"Penerbit": "ELEX MEDIA KOMPUTINDO",
	"Berat": "0.1 kg",
	"Lebar": "8.0 cm",
	"Panjang": "12.0 cm"
},
{
	"page": 80,
	"kategori 1": "buku-anak",
	"kategori 2": "anak-anak",
	"book_url": "https://www.gramedia.com/products/pj-masks-robot-super-romeo",
	"title": "PJ Masks: Robot Super Romeo",
	"author": "Frog Box/ Entertainment One",
	"Jumlah Halaman": "24",
	"Tanggal Terbit": "15 Agt 2018",
	"ISBN": "9786024206543",
	"Bahasa": "Indonesia",
	"Penerbit": "Dar! Mizan",
	"Berat": "0.2 kg",
	"Lebar": "15.5 cm",
	"Panjang": "23.5 cm"
},
{
	"page": 80,
	"kategori 1": "buku-anak",
	"kategori 2": "anak-anak",
	"book_url": "https://www.gramedia.com/products/seri-smart-science-penyu-mau-kemana-kamu",
	"title": "Seri Smart Science : Penyu, Mau Kemana Kamu?",
	"author": "Hwang Bo Yeon",
	"Jumlah Halaman": "52",
	"Tanggal Terbit": "20 Mei 2019",
	"ISBN": "9786232161559",
	"Bahasa": "Indonesia",
	"Penerbit": "Bhuana Ilmu Populer",
	"Berat": "0.280 kg",
	"Lebar": "22 cm",
	"Panjang": "26.7 cm"
},
{
	"page": 80,
	"kategori 1": "buku-anak",
	"kategori 2": "anak-anak",
	"book_url": "https://www.gramedia.com/products/candy-series-sayap-peraih-mimpi",
	"title": "Candy Series: Sayap Peraih Mimpi",
	"author": "Ni Book",
	"Jumlah Halaman": "208",
	"Tanggal Terbit": "13 Jun 2014",
	"ISBN": "9786020243467",
	"Bahasa": "Indonesia",
	"Penerbit": "Elex Media Komputindo",
	"Berat": "0.3000 kg",
	"Lebar": "15 cm",
	"Panjang": "22 cm"
},
{
	"page": 80,
	"kategori 1": "buku-anak",
	"kategori 2": "anak-anak",
	"book_url": "https://www.gramedia.com/products/didi-dodo-future-spy-recipe-for-disaster-sc",
	"title": "Didi Dodo Future Spy: Recipe For Disaster (Sc)",
	"author": "ABRAMS US",
	"Jumlah Halaman": "112.0",
	"Tanggal Terbit": "1 Jan 2019",
	"ISBN": "9781419737060",
	"Bahasa": "Indonesia",
	"Penerbit": "ABRAMS US",
	"Berat": "0.159 kg",
	"Lebar": "20.3 cm",
	"Panjang": "14.7 cm"
},
{
	"page": 80,
	"kategori 1": "buku-anak",
	"kategori 2": "anak-anak",
	"book_url": "https://www.gramedia.com/products/komik-next-g-ke-mana-bunda-republish",
	"title": "Komik Next G: Ke Mana Bunda? (Republish)",
	"author": "Hidayah Widowati & Hendhy, Dkk",
	"Jumlah Halaman": "104",
	"Tanggal Terbit": "28 Jun 2018",
	"ISBN": "9786023675319",
	"Bahasa": "Indonesia",
	"Penerbit": "Curhat Anak Bangsa",
	"Berat": "0.11 kg",
	"Lebar": "14 cm",
	"Panjang": "21 cm"
},
{
	"page": 80,
	"kategori 1": "buku-anak",
	"kategori 2": "anak-anak",
	"book_url": "https://www.gramedia.com/products/mata-dan-manusia-laut",
	"title": "Mata Dan Manusia Laut",
	"author": "Okky Madasary",
	"Jumlah Halaman": "232",
	"Tanggal Terbit": "20 Mei 2019",
	"ISBN": "9786020630281",
	"Bahasa": "Indonesia",
	"Penerbit": "Gramedia Pustaka Utama",
	"Berat": "0.160 kg",
	"Lebar": "13.5 cm",
	"Panjang": "20 cm"
},
{
	"page": 80,
	"kategori 1": "buku-anak",
	"kategori 2": "anak-anak",
	"book_url": "https://www.gramedia.com/products/aku-pintar-dan-kreatif-menggali-5-potensi-anak-sejak-dini",
	"title": "Aku Pintar dan Kreatif: Menggali 5 Potensi Anak Sejak Dini",
	"author": "Herry Prasetyo",
	"Jumlah Halaman": "88",
	"Tanggal Terbit": "15 Apr 2019",
	"ISBN": "9786232160774",
	"Bahasa": "Indonesia",
	"Penerbit": "Bhuana Ilmu Populer",
	"Berat": "0.1 kg",
	"Lebar": "18 cm",
	"Panjang": "24 cm"
},
{
	"page": 80,
	"kategori 1": "buku-anak",
	"kategori 2": "anak-anak",
	"book_url": "https://www.gramedia.com/products/harriet-claire-pekan-raya-natal",
	"title": "Harriet Claire - Pekan Raya Natal",
	"author": "LOUISE PARK, MARLENE MONTERRUBIO",
	"Jumlah Halaman": "96",
	"Tanggal Terbit": "11 Mar 2019",
	"ISBN": "9786024801687",
	"Bahasa": "Indonesia",
	"Penerbit": "m&c!",
	"Berat": "0.1 kg",
	"Lebar": "15 cm",
	"Panjang": "22 cm"
},
{
	"page": 80,
	"kategori 1": "buku-anak",
	"kategori 2": "anak-anak",
	"book_url": "https://www.gramedia.com/products/seri-dongeng-populer-dunia-kisah-petani-yang-menjadi-raja",
	"title": "Seri Dongeng Populer Dunia : Kisah Petani yang Menjadi Raja",
	"author": "Kim Sohyun , Johnny Orban",
	"Jumlah Halaman": "48",
	"Tanggal Terbit": "22 Apr 2019",
	"ISBN": "9786232161160",
	"Bahasa": "Indonesia",
	"Penerbit": "Bhuana Ilmu Populer",
	"Berat": "0.120 kg",
	"Lebar": "18 cm",
	"Panjang": "24 cm"
},
{
	"page": 80,
	"kategori 1": "buku-anak",
	"kategori 2": "anak-anak",
	"book_url": "https://www.gramedia.com/products/seri-kimi-dan-kino-belajar-bersikap-adil",
	"title": "Seri Kimi dan Kino: Belajar Bersikap Adil",
	"author": "Watiek Ideo",
	"Jumlah Halaman": "14.0",
	"Tanggal Terbit": "30 Sep 2019",
	"ISBN": "9786230004988",
	"Bahasa": "Indonesia",
	"Penerbit": "Elex Media Komputindo",
	"Berat": "0.1 kg",
	"Lebar": "15.0 cm",
	"Panjang": "15.0 cm"
},
{
	"page": 80,
	"kategori 1": "buku-anak",
	"kategori 2": "anak-anak",
	"book_url": "https://www.gramedia.com/products/buku-aktivitas-paud-di-hutan",
	"title": "Buku Aktivitas Paud : Di Hutan",
	"author": "Nagiga",
	"Jumlah Halaman": "52.0",
	"Tanggal Terbit": "21 Okt 2019",
	"ISBN": "9786232165878",
	"Bahasa": "Indonesia",
	"Penerbit": "Bhuana Ilmu Populer",
	"Berat": "0.2 kg",
	"Lebar": "18.0 cm",
	"Panjang": "24.0 cm"
},
{
	"page": 80,
	"kategori 1": "buku-anak",
	"kategori 2": "anak-anak",
	"book_url": "https://www.gramedia.com/products/kisah-penuh-kasih-sayang",
	"title": "Kisah Penuh Kasih Sayang",
	"author": "Wulan Mulya Pratiwi.",
	"Jumlah Halaman": "48.0",
	"Tanggal Terbit": "11 Nov 2019",
	"ISBN": "9786230006791",
	"Bahasa": "Indonesia",
	"Penerbit": "Elex Media Komputindo",
	"Berat": "0.15 kg",
	"Lebar": "19.0 cm",
	"Panjang": "23.0 cm"
},
{
	"page": 80,
	"kategori 1": "buku-anak",
	"kategori 2": "anak-anak",
	"book_url": "https://www.gramedia.com/products/rabbids-5-hidup-merah-jambu",
	"title": "Rabbids 5:Hidup Merah Jambu",
	"author": "Thitaume-pujol",
	"Jumlah Halaman": "0",
	"Tanggal Terbit": "26 Okt 2015",
	"ISBN": "9786022499756",
	"Bahasa": "Indonesia",
	"Penerbit": "Bhuana Ilmu Populer",
	"Berat": "0.3000 kg",
	"Lebar": "0 cm"
},
