{
	"page": 45,
	"kategori 1": "buku-anak",
	"kategori 2": "bayi-balita",
	"book_url": "https://www.gramedia.com/products/islam-transformasi-masyarakat-nusantara",
	"title": "Islam & Transformasi Masyarakat Nusantara",
	"author": "Moeflich Hasbullah",
	"Jumlah Halaman": "289",
	"Tanggal Terbit": "1 Sep 2017",
	"ISBN": "9786024221935",
	"Penerbit": "Prenadamedia Group",
	"Berat": "0.35 kg",
	"Lebar": "15 cm",
	"Panjang": "23 cm"
},
{
	"page": 45,
	"kategori 1": "buku-anak",
	"kategori 2": "bayi-balita",
	"book_url": "https://www.gramedia.com/products/seri-anak-cerdas-calistung",
	"title": "Seri Anak Cerdas: Calistung",
	"author": "Diyah P",
	"Jumlah Halaman": "48",
	"Tanggal Terbit": "24 Jan 2019",
	"ISBN": "9786023782437",
	"Bahasa": "Indonesia",
	"Penerbit": "Wahyumedia Wacana",
	"Berat": "0.12 kg"
},
