{
	"page": 12,
	"kategori 1": "buku-anak",
	"kategori 2": "bayi-balita",
	"book_url": "https://www.gramedia.com/products/seri-balita-pintar-warna-bentuk",
	"title": "Seri Balita Pintar : Warna & Bentuk",
	"author": "Ballon Media",
	"Jumlah Halaman": "14",
	"Tanggal Terbit": "6 Feb 2017",
	"ISBN": "9786023944088",
	"Bahasa": "Indonesia",
	"Penerbit": "Bhuana Ilmu Populer",
	"Berat": "0.1000 kg",
	"Lebar": "17 cm"
},
{
	"page": 12,
	"kategori 1": "buku-anak",
	"kategori 2": "bayi-balita",
	"book_url": "https://www.gramedia.com/products/seri-cerita-balita-aku-sayang-ibu-board-book",
	"title": "Seri Cerita Balita: Aku Sayang Ibu (Board Book)",
	"author": "Eka Wardhana",
	"Jumlah Halaman": "20",
	"Tanggal Terbit": "1 Jun 2015",
	"ISBN": "9786022426653",
	"Bahasa": "Indonesia",
	"Penerbit": "Mizan Media Utama",
	"Berat": "0.4000 kg",
	"Lebar": "18 cm"
},
{
	"page": 12,
	"kategori 1": "buku-anak",
	"kategori 2": "bayi-balita",
	"book_url": "https://www.gramedia.com/products/buku-mewarnai-aktivitas-pusaran-warna-color-swirl",
	"title": "Buku Mewarnai & Aktivitas: Pusaran Warna (Color Swirl)",
	"author": "Jess Volinski",
	"Jumlah Halaman": "32",
	"Tanggal Terbit": "6 Mar 2017",
	"ISBN": "9786020338736",
	"Bahasa": "Indonesia",
	"Penerbit": "Gramedia Pustaka Utama",
	"Berat": "0.260 kg",
	"Lebar": "21.6 cm",
	"Panjang": "27.6 cm"
},
