{
	"page": 28,
	"kategori 1": "buku-anak",
	"kategori 2": "bayi-balita",
	"book_url": "https://www.gramedia.com/products/boboiboy-menghafal-99-asmaul-husna",
	"title": "Boboiboy Menghafal 99 Asmaul Husna",
	"author": "Animonsta Studio Sdn. Bhd",
	"Jumlah Halaman": "6",
	"Tanggal Terbit": "6 Jun 2016",
	"ISBN": "9786020287089",
	"Bahasa": "Indonesia",
	"Penerbit": "Elex Media Komputindo",
	"Berat": "0.1000 kg",
	"Lebar": "29 cm"
},
{
	"page": 28,
	"kategori 1": "buku-anak",
	"kategori 2": "bayi-balita",
	"book_url": "https://www.gramedia.com/products/tertib-di-jalan-dong",
	"title": "Tertib Di Jalan, Dong!",
	"author": "Lia Herliana",
	"Jumlah Halaman": "32",
	"Tanggal Terbit": "13 Mar 2018",
	"ISBN": "9786023663996",
	"Bahasa": "Indonesia",
	"Penerbit": "Tiga Serangkai",
	"Berat": "0.10 kg",
	"Lebar": "23 cm",
	"Panjang": "20 cm"
},
{
	"page": 28,
	"kategori 1": "buku-anak",
	"kategori 2": "bayi-balita",
	"book_url": "https://www.gramedia.com/products/asisten-cilik-bunda",
	"title": "Asisten Cilik Bunda",
	"author": "Alby Syafie",
	"Jumlah Halaman": "24",
	"Tanggal Terbit": "16 Okt 2018",
	"ISBN": "9786023665068",
	"Bahasa": "Indonesia",
	"Penerbit": "Tiga Serangkai",
	"Berat": "0.114 kg",
	"Lebar": "19 cm",
	"Panjang": "20 cm"
},
{
	"page": 28,
	"kategori 1": "buku-anak",
	"kategori 2": "bayi-balita",
	"book_url": "https://www.gramedia.com/products/seri-balita-pintar-angka",
	"title": "Seri Balita Pintar : Angka",
	"author": "Ballon Media",
	"Jumlah Halaman": "14",
	"Tanggal Terbit": "6 Feb 2017",
	"ISBN": "9786023944095",
	"Bahasa": "Indonesia",
	"Penerbit": "Bhuana Ilmu Populer",
	"Berat": "0.1000 kg",
	"Lebar": "17 cm"
},
{
	"page": 28,
	"kategori 1": "buku-anak",
	"kategori 2": "bayi-balita",
	"book_url": "https://www.gramedia.com/products/asyiknya-mewarnai-binatang-buah",
	"title": "Asyiknya... Mewarnai Binatang & Buah",
	"author": "Kak Ruby",
	"Jumlah Halaman": "48",
	"Tanggal Terbit": "4 Mar 2019",
	"ISBN": "9786028508476",
	"Bahasa": "Indonesia",
	"Penerbit": "Citra Media Pustaka",
	"Berat": "0.135 kg",
	"Lebar": "18.5 cm",
	"Panjang": "25.5 cm"
},
{
	"page": 28,
	"kategori 1": "buku-anak",
	"kategori 2": "bayi-balita",
	"book_url": "https://www.gramedia.com/products/cepat-pintar-membaca",
	"title": "Cepat Pintar Membaca",
	"author": "P.m Soedarmo",
	"Jumlah Halaman": "64",
	"Tanggal Terbit": "22 Nov 2016",
	"ISBN": "9789790712638",
	"Bahasa": "Indonesia",
	"Penerbit": "Yrama Widya",
	"Berat": "0.1200 kg",
	"Lebar": "17.5 cm"
},
{
	"page": 28,
	"kategori 1": "buku-anak",
	"kategori 2": "bayi-balita",
	"book_url": "https://www.gramedia.com/products/princess-academy-curiga",
	"title": "Princess Academy: Curiga",
	"author": "Citra Mustikawati",
	"Jumlah Halaman": "83",
	"Tanggal Terbit": "24 Jan 2017",
	"ISBN": "9786023672837",
	"Bahasa": "Indonesia",
	"Penerbit": "Mizan Publishing",
	"Berat": "0.10 kg",
	"Lebar": "14 cm",
	"Panjang": "20 cm"
},
{
	"page": 28,
	"kategori 1": "buku-anak",
	"kategori 2": "bayi-balita",
	"book_url": "https://www.gramedia.com/products/sticker-puzzle-finding-dory-adventure-is-brewing",
	"title": "Sticker Puzzle Finding Dory - Adventure Is Brewing",
	"author": "Disney",
	"Jumlah Halaman": "16",
	"Tanggal Terbit": "27 Jun 2016",
	"ISBN": "9786020288666",
	"Bahasa": "Indonesia",
	"Penerbit": "Elex Media Komputindo",
	"Berat": "0.1000 kg",
	"Lebar": "25 cm"
},
{
	"page": 28,
	"kategori 1": "buku-anak",
	"kategori 2": "bayi-balita",
	"book_url": "https://www.gramedia.com/products/dito-bukan-anak-biasa",
	"title": "Dito Bukan Anak Biasa",
	"author": "Wrini Harlindi",
	"Jumlah Halaman": "None",
	"Tanggal Terbit": "26 Mar 2019",
	"ISBN": "9786023668540",
	"Bahasa": "Indonesia",
	"Penerbit": "Tiga Serangkai",
	"Berat": "0.1 kg"
},
{
	"page": 28,
	"kategori 1": "buku-anak",
	"kategori 2": "bayi-balita",
	"book_url": "https://www.gramedia.com/products/aku-pandai-gunting-tempel-dan-mewarnai-tk-b",
	"title": "Aku Pandai Gunting - Tempel Dan Mewarnai TK B",
	"author": "B.Pribadi",
	"Jumlah Halaman": "38",
	"Tanggal Terbit": "18 Apr 2018",
	"ISBN": "9786021097892",
	"Bahasa": "Indonesia",
	"Penerbit": "Buku Pintar Indonesia",
	"Berat": "0.05 kg",
	"Lebar": "21 cm",
	"Panjang": "27 cm"
},
{
	"page": 28,
	"kategori 1": "buku-anak",
	"kategori 2": "bayi-balita",
	"book_url": "https://www.gramedia.com/products/shining-star-binatang-yang-bersinar",
	"title": "Shining Star (Binatang yang Bersinar)",
	"author": "Clara Amanda",
	"Jumlah Halaman": "416",
	"Tanggal Terbit": "25 Jan 2017",
	"ISBN": "9786026154323",
	"Penerbit": "Moka Media",
	"Berat": "0.34 kg",
	"Lebar": "13.5 cm",
	"Panjang": "20 cm"
},
{
	"page": 28,
	"kategori 1": "buku-anak",
	"kategori 2": "bayi-balita",
	"book_url": "https://www.gramedia.com/products/fun-doodle-mainan-tradisional",
	"title": "Fun Doodle : Mainan Tradisional",
	"author": "Aprillia",
	"Jumlah Halaman": "76.0",
	"Tanggal Terbit": "23 Okt 2019",
	"ISBN": "9786025861277",
	"Bahasa": "Indonesia",
	"Penerbit": "Penerbit briliant",
	"Berat": "0.281 kg",
	"Lebar": "21.0 cm",
	"Panjang": "21.0 cm"
},
