{
	"page": 42,
	"kategori 1": "buku-anak",
	"kategori 2": "bayi-balita",
	"book_url": "https://www.gramedia.com/products/101-dongeng-sebelum-tidur",
	"title": "101 Dongeng Sebelum Tidur",
	"author": "Redy Kuswanto",
	"Jumlah Halaman": "172",
	"Tanggal Terbit": "13 Jun 2017",
	"ISBN": "9786024071325",
	"Bahasa": "Indonesia",
	"Penerbit": "Laksana Kidz",
	"Berat": "0.4050 kg",
	"Lebar": "20.5 cm"
},
{
	"page": 42,
	"kategori 1": "buku-anak",
	"kategori 2": "bayi-balita",
	"book_url": "https://www.gramedia.com/products/rahasia-sulap-paman-dino",
	"title": "Rahasia Sulap Paman Dino",
	"author": "Iwok Abqari",
	"Jumlah Halaman": "67",
	"Tanggal Terbit": "26 Mar 2019",
	"ISBN": "9786023665273",
	"Bahasa": "Indonesia",
	"Penerbit": "Tiga Serangkai",
	"Berat": "0.1 kg",
	"Lebar": "19 cm",
	"Panjang": "24 cm"
},
{
	"page": 42,
	"kategori 1": "buku-anak",
	"kategori 2": "bayi-balita",
	"book_url": "https://www.gramedia.com/products/aiueo-asyik-bermain-belajar-membaca-untuk-anak-paud-tk",
	"title": "Aiueo Asyik Bermain & Belajar Membaca Untuk Anak Paud & Tk",
	"author": "Shinta Kusuma",
	"Jumlah Halaman": "152",
	"Tanggal Terbit": "24 Okt 2016",
	"ISBN": "9786027725188",
	"Bahasa": "Indonesia",
	"Penerbit": "Pustaka Diantara",
	"Berat": "1.0000 kg",
	"Lebar": "20.5 cm"
},
{
	"page": 42,
	"kategori 1": "buku-anak",
	"kategori 2": "bayi-balita",
	"book_url": "https://www.gramedia.com/products/mahir-menulis-huruf-dan-angka-untuk-tk",
	"title": "Mahir Menulis Huruf Dan Angka Untuk TK",
	"author": "Diar Salaga",
	"Jumlah Halaman": "50",
	"Tanggal Terbit": "25 Okt 2010",
	"ISBN": "9789797953829",
	"Bahasa": "Indonesia",
	"Penerbit": "Wahyu Media",
	"Berat": "0.1500 kg",
	"Lebar": "28 cm",
	"Panjang": "34 cm"
},
{
	"page": 42,
	"kategori 1": "buku-anak",
	"kategori 2": "bayi-balita",
	"book_url": "https://www.gramedia.com/products/buku-super-lengkap-mesin2-raksasa-hc",
	"title": "Buku Super Lengkap Mesin-mesin Raksasa / HC",
	"author": "Minna Lacey",
	"Jumlah Halaman": "32",
	"Tanggal Terbit": "10 Feb 2016",
	"ISBN": "9786023660414",
	"Bahasa": "Indonesia",
	"Penerbit": "Tiga Ananda",
	"Berat": "0.4500 kg",
	"Lebar": "22 cm"
},
{
	"page": 42,
	"kategori 1": "buku-anak",
	"kategori 2": "bayi-balita",
	"book_url": "https://www.gramedia.com/products/100-first-things-that-go-bb-1",
	"title": "100 First Things That Go (BB)",
	"author": "Dk",
	"Jumlah Halaman": "16",
	"Tanggal Terbit": "12 Feb 2019",
	"ISBN": "9781465479594",
	"Bahasa": "Indonesia",
	"Penerbit": "Dorling Kindersley Us",
	"Berat": "0.770 kg",
	"Lebar": "27 cm",
	"Panjang": "27 cm"
},
{
	"page": 42,
	"kategori 1": "buku-anak",
	"kategori 2": "bayi-balita",
	"book_url": "https://www.gramedia.com/products/si-kecil-pintar-membaca-3a",
	"title": "Si Kecil Pintar Membaca Level 3A",
	"author": "Gantina K Sari",
	"Jumlah Halaman": "64",
	"Tanggal Terbit": "21 Nov 2014",
	"ISBN": "9786022497950",
	"Penerbit": "Bhuana Ilmu Populer",
	"Berat": "0.3000 kg",
	"Lebar": "0 cm",
	"Panjang": "0 cm"
},
{
	"page": 42,
	"kategori 1": "buku-anak",
	"kategori 2": "bayi-balita",
	"book_url": "https://www.gramedia.com/products/move-along-storybook-wish-upon-a-star-bb",
	"title": "Move Along Storybook: Wish Upon A Star",
	"author": "Disney Book Group",
	"Jumlah Halaman": "12",
	"Tanggal Terbit": "12 Mar 2019",
	"ISBN": "9781368028622",
	"Bahasa": "English",
	"Penerbit": "Disney Press",
	"Berat": "0.33 kg",
	"Lebar": "20 cm",
	"Panjang": "24 cm"
},
{
	"page": 42,
	"kategori 1": "buku-anak",
	"kategori 2": "bayi-balita",
	"book_url": "https://www.gramedia.com/products/big-10-activities",
	"title": "Big 10 Activities",
	"author": "Vanny Chrisma W.",
	"Jumlah Halaman": "220",
	"Tanggal Terbit": "12 Sep 2017",
	"ISBN": "9786022970828",
	"Bahasa": "Indonesia",
	"Penerbit": "Idea World Kidz",
	"Berat": "0.585 kg",
	"Lebar": "20.5 cm",
	"Panjang": "28.5 cm"
},
{
	"page": 42,
	"kategori 1": "buku-anak",
	"kategori 2": "bayi-balita",
	"book_url": "https://www.gramedia.com/products/mengenal-bilangan-belajar-bahasa-inggris-bersama-franklin",
	"title": "Mengenal Bilangan: Belajar Bahasa Inggris Bersama Franklin",
	"author": "Kids Can Press Ltd",
	"Jumlah Halaman": "32",
	"Tanggal Terbit": "7 Nov 2016",
	"ISBN": "9789792149401",
	"Bahasa": "Indonesia",
	"Penerbit": "Kanisius",
	"Berat": "0.4000 kg",
	"Lebar": "21 cm"
},
{
	"page": 42,
	"kategori 1": "buku-anak",
	"kategori 2": "bayi-balita",
	"book_url": "https://www.gramedia.com/products/transformer-coloring-book-l-lets-rumble",
	"title": "Transformer Coloring Book L: Let`s Rumble",
	"author": "Hasbro",
	"Jumlah Halaman": "16",
	"Tanggal Terbit": "2 Nov 2017",
	"ISBN": "9786022435341",
	"Bahasa": "English",
	"Penerbit": "Pt. Adinata Melodi Kreasi",
	"Berat": "0.085 kg",
	"Lebar": "28 cm",
	"Panjang": "20.5 cm"
},
{
	"page": 42,
	"kategori 1": "buku-anak",
	"kategori 2": "bayi-balita",
	"book_url": "https://www.gramedia.com/products/pbc-kidz-salsa-benci-selasa",
	"title": "PBC Kidz: Salsa Benci Selasa",
	"author": "Eddy Muryanto Dkk",
	"Jumlah Halaman": "116",
	"Tanggal Terbit": "17 Jul 2017",
	"ISBN": "9786024203085",
	"Bahasa": "Indonesia",
	"Penerbit": "Mizan Publishing",
	"Berat": "0.1700 kg",
	"Lebar": "14.5 cm"
},
{
	"page": 42,
	"kategori 1": "buku-anak",
	"kategori 2": "bayi-balita",
	"book_url": "https://www.gramedia.com/products/dasar-menulis-huruf-besar-dan-huruf-kecil-paud-tk",
	"title": "Dasar-Dasar Menulis Huruf Besar Dan Huruf Kecil Untuk Paud & TK",
	"author": "Heru Kurniawan & Khotibul Iman",
	"Jumlah Halaman": "72",
	"Tanggal Terbit": "24 Jul 2017",
	"ISBN": "9786023948413",
	"Bahasa": "Indonesia",
	"Penerbit": "Bhuana Ilmu Populer",
	"Berat": "0.3000 kg",
	"Lebar": "27 cm"
},
{
	"page": 42,
	"kategori 1": "buku-anak",
	"kategori 2": "bayi-balita",
	"book_url": "https://www.gramedia.com/products/thea-stilton-25thea-stilton-and-the-frozen-fiasco",
	"title": "Geronimo Stilton #25 : Thea Stilton And The Frozen Fiasco",
	"author": "Geronimo Stilton",
	"Jumlah Halaman": "162",
	"Tanggal Terbit": "31 Mar 2017",
	"ISBN": "9781338087864",
	"Bahasa": "English",
	"Penerbit": "Scholastic",
	"Berat": "0.25 kg",
	"Lebar": "13 cm",
	"Panjang": "19 cm"
},
{
	"page": 42,
	"kategori 1": "buku-anak",
	"kategori 2": "bayi-balita",
	"book_url": "https://www.gramedia.com/products/my-first-trilingual-word-cards",
	"title": "My First Trilingual Word Cards",
	"author": "Tim Elex",
	"Jumlah Halaman": "0",
	"Tanggal Terbit": "26 Feb 2018",
	"ISBN": "718120138",
	"Bahasa": "Indonesia",
	"Penerbit": "Elex Media Komputindo",
	"Berat": "0.125 kg",
	"Lebar": "12 cm",
	"Panjang": "18 cm"
},
{
	"page": 42,
	"kategori 1": "buku-anak",
	"kategori 2": "bayi-balita",
	"book_url": "https://www.gramedia.com/products/seri-sahabat-rasul-abu-bakar-yang-penyabar",
	"title": "Seri Sahabat Rasul: Abu Bakar Yang Penyabar",
	"author": "Iwok Abqary",
	"Jumlah Halaman": "20",
	"Tanggal Terbit": "7 Apr 2016",
	"ISBN": "9786022428312",
	"Bahasa": "Indonesia",
	"Penerbit": "Mizan Publishing",
	"Berat": "0.3800 kg",
	"Lebar": "17 cm",
	"Panjang": "17 cm"
},
{
	"page": 42,
	"kategori 1": "buku-anak",
	"kategori 2": "bayi-balita",
	"book_url": "https://www.gramedia.com/products/monster-alam-mengerikan-serangga-dan-laba-laba-besar-berbahaya",
	"title": "Monster Alam Mengerikan: Serangga dan Laba-Laba Besar Berbahaya",
	"author": "Chris Mcnab",
	"Jumlah Halaman": "64",
	"Tanggal Terbit": "12 Nov 2018",
	"ISBN": "9786020485799",
	"Bahasa": "Indonesia",
	"Penerbit": "Elex Media Komputindo",
	"Berat": "0.11 kg",
	"Lebar": "16.5 cm",
	"Panjang": "23 cm"
},
{
	"page": 42,
	"kategori 1": "buku-anak",
	"kategori 2": "bayi-balita",
	"book_url": "https://www.gramedia.com/products/seri-fabel-abi-1-pemula-4-bola-epan-hilang",
	"title": "Seri Fabel Abi 1: Pemula 4+ Bola Epan Hilang",
	"author": "Anee Rahman",
	"Jumlah Halaman": "28",
	"Tanggal Terbit": "5 Sep 2016",
	"ISBN": "9786026227461",
	"Bahasa": "Indonesia",
	"Penerbit": "Bee Media Pustaka",
	"Berat": "0.7200 kg",
	"Lebar": "20 cm"
},
{
	"page": 42,
	"kategori 1": "buku-anak",
	"kategori 2": "bayi-balita",
	"book_url": "https://www.gramedia.com/products/boboiboy-merakit-sirkuit-bola-vol-2",
	"title": "Boboiboy - Merakit Sirkuit Bola Vol 2",
	"author": "Animonsta Studio Sdn. Bhd",
	"Jumlah Halaman": "1",
	"Tanggal Terbit": "6 Jun 2016",
	"ISBN": "9786020284460",
	"Bahasa": "Indonesia",
	"Penerbit": "Elex Media Komputindo",
	"Berat": "0.1000 kg",
	"Lebar": "21 cm"
},
{
	"page": 42,
	"kategori 1": "buku-anak",
	"kategori 2": "bayi-balita",
	"book_url": "https://www.gramedia.com/products/cermin-belajar-akhlak-itu-keren",
	"title": "Cermin!!! Belajar Akhlak Itu Keren",
	"author": "Vinasri W",
	"Jumlah Halaman": "136",
	"Tanggal Terbit": "4 Mar 2016",
	"ISBN": "9786023171873",
	"Bahasa": "Indonesia",
	"Penerbit": "Al-qudwah",
	"Berat": "0.1500 kg",
	"Lebar": "17 cm"
},
