{
	"page": 47,
	"kategori 1": "non-fiksi",
	"kategori 2": "bisnis-ekonomi",
	"book_url": "https://www.gramedia.com/products/unofficial-book-wanna-one",
	"title": "Unofficial Book Wanna One",
	"author": "Dhita Pedhe",
	"Jumlah Halaman": "120",
	"Tanggal Terbit": "18 Sep 2018",
	"ISBN": "9786025406690",
	"Bahasa": "Indonesia",
	"Penerbit": "Romancious",
	"Berat": "0.280 kg",
	"Lebar": "15 cm",
	"Panjang": "23 cm"
},
{
	"page": 47,
	"kategori 1": "non-fiksi",
	"kategori 2": "bisnis-ekonomi",
	"book_url": "https://www.gramedia.com/products/sikencur-edisi-revisi",
	"title": "Sikencur (Edisi Revisi)",
	"author": "Dr. Cris Kuntadi, Se, Mm, Cpa, Ca, Ak",
	"Jumlah Halaman": "256",
	"Tanggal Terbit": "22 Mei 2017",
	"ISBN": "9786020421247",
	"Bahasa": "Indonesia",
	"Penerbit": "Elex Media Komputindo",
	"Berat": "0.3500 kg",
	"Lebar": "14 cm"
},
{
	"page": 47,
	"kategori 1": "non-fiksi",
	"kategori 2": "bisnis-ekonomi",
	"book_url": "https://www.gramedia.com/products/99-bisnis-ibu-rumah-tangga",
	"title": "99 Bisnis Ibu Rumah Tangga",
	"author": "Malahayati",
	"Tanggal Terbit": "9 Okt 2009",
	"ISBN": "9789793927985",
	"Penerbit": "Penebar Plus",
	"Berat": "0.3000 kg",
	"Lebar": "20 cm",
	"Panjang": "0 cm"
},
{
	"page": 47,
	"kategori 1": "non-fiksi",
	"kategori 2": "bisnis-ekonomi",
	"book_url": "https://www.gramedia.com/products/brand-management",
	"title": "Brand Management",
	"author": "Patricia F Nicolino",
	"Tanggal Terbit": "1 Jan 1900",
	"ISBN": "9793464143",
	"Penerbit": "Prenada Media Group",
	"Berat": "0.3000 kg",
	"Lebar": "23 cm",
	"Panjang": "0 cm"
},
{
	"page": 47,
	"kategori 1": "non-fiksi",
	"kategori 2": "bisnis-ekonomi",
	"book_url": "https://www.gramedia.com/products/mahir-akuntansi-dasar-ikhtisar-teori-soal-latihan-solusinya",
	"title": "Mahir Akuntansi Dasar: Ikhtisar Teori, Soal Latihan&Solusinya",
	"author": "Hery",
	"Tanggal Terbit": "19 Agt 2013",
	"Penerbit": "Lembaga Penerbitan Feui",
	"Berat": "0.3000 kg",
	"Lebar": "0 cm",
	"Panjang": "0 cm"
},
{
	"page": 47,
	"kategori 1": "non-fiksi",
	"kategori 2": "bisnis-ekonomi",
	"book_url": "https://www.gramedia.com/products/transformational-leadership",
	"title": "Transformational Leadership",
	"author": "Bahar Agus",
	"Jumlah Halaman": "224",
	"Tanggal Terbit": "16 Mei 2013",
	"ISBN": "9789797695705",
	"Bahasa": "Indonesia",
	"Penerbit": "Rajagrafindo Persada",
	"Berat": "0.30 kg",
	"Lebar": "15.5 cm",
	"Panjang": "23 cm"
},
{
	"page": 47,
	"kategori 1": "non-fiksi",
	"kategori 2": "bisnis-ekonomi",
	"book_url": "https://www.gramedia.com/products/para-penggerak-revolusi",
	"title": "Para Penggerak Revolusi",
	"author": "L. Santoso A.Z.",
	"Jumlah Halaman": "528",
	"Tanggal Terbit": "24 Jul 2017",
	"ISBN": "9786024071240",
	"Bahasa": "Indonesia",
	"Penerbit": "Laksana",
	"Berat": "0.43 kg",
	"Lebar": "14 cm",
	"Panjang": "20 cm"
},
{
	"page": 47,
	"kategori 1": "non-fiksi",
	"kategori 2": "bisnis-ekonomi",
	"book_url": "https://www.gramedia.com/products/akuntansi-syariah",
	"title": "Akuntansi Syariah",
	"author": "Sri Dewi Anggadini",
	"Jumlah Halaman": "131.0",
	"Tanggal Terbit": "6 Nov 2017",
	"ISBN": "9789793784854",
	"Bahasa": "Indonesia",
	"Penerbit": "Rekayasa Sains",
	"Berat": "0.2 kg",
	"Lebar": "16.0 cm",
	"Panjang": "24.0 cm"
},
{
	"page": 47,
	"kategori 1": "non-fiksi",
	"kategori 2": "bisnis-ekonomi",
	"book_url": "https://www.gramedia.com/products/teknik2-audit-internal",
	"title": "Teknik2 Audit Internal",
	"author": "Amin Widjaja Tunggal",
	"Jumlah Halaman": "322",
	"Tanggal Terbit": "4 Agt 2016",
	"ISBN": "9786026281067",
	"Bahasa": "Indonesia",
	"Penerbit": "Harvarindo",
	"Berat": "0.4000 kg",
	"Lebar": "15 cm"
},
{
	"page": 47,
	"kategori 1": "non-fiksi",
	"kategori 2": "bisnis-ekonomi",
	"book_url": "https://www.gramedia.com/products/dont-say-go-but-say-lets-go-apa2-saja-yang-harus-dilakukan-manajer-supervisor-idaman",
	"title": "Dont Say Go But Say Lets Go :Apa-apa Saja yang Harus Dilakukan Manajer & Supervisor Idaman",
	"author": "Keen Achroni",
	"Jumlah Halaman": "294",
	"Tanggal Terbit": "13 Okt 2015",
	"ISBN": "9786027996120",
	"Bahasa": "Indonesia",
	"Penerbit": "Trans Idea Publishing",
	"Berat": "0.2600 kg",
	"Lebar": "13 cm"
},
{
	"page": 47,
	"kategori 1": "non-fiksi",
	"kategori 2": "bisnis-ekonomi",
	"book_url": "https://www.gramedia.com/products/panduan-praktis-amnesti-pajak-indonesia",
	"title": "Panduan Praktis Amnesti Pajak Indonesia",
	"author": "Suharno",
	"Jumlah Halaman": "200",
	"Tanggal Terbit": "15 Sep 2016",
	"ISBN": "9786024121303",
	"Bahasa": "Indonesia",
	"Penerbit": "Penerbit Buku Kompas",
	"Berat": "0.1500 kg",
	"Lebar": "14 cm",
	"Panjang": "21 cm"
},
{
	"page": 47,
	"kategori 1": "non-fiksi",
	"kategori 2": "bisnis-ekonomi",
	"book_url": "https://www.gramedia.com/products/kisah-perjuangan-inspirasi-susi-pudjiastuti",
	"title": "Kisah, Perjuangan, & Inspirasi Susi Pudjiastuti",
	"author": "Achmad Farid",
	"Jumlah Halaman": "254",
	"Tanggal Terbit": "14 Nov 2018",
	"ISBN": "9786025479854",
	"Bahasa": "Indonesia",
	"Penerbit": "Checklist",
	"Berat": "0.350 kg",
	"Lebar": "14 cm",
	"Panjang": "20.5 cm"
},
{
	"page": 47,
	"kategori 1": "non-fiksi",
	"kategori 2": "bisnis-ekonomi",
	"book_url": "https://www.gramedia.com/products/manajemen-pemasaran-4",
	"title": "Manajemen Pemasaran",
	"author": "Prof. Dr. Thamrin Abdullah",
	"Jumlah Halaman": "258",
	"Tanggal Terbit": "21 Jun 2012",
	"ISBN": "9789797694197",
	"Bahasa": "Indonesia",
	"Penerbit": "Rajagrafindo Persada",
	"Berat": "0.35 kg",
	"Lebar": "15.5 cm",
	"Panjang": "23 cm"
},
{
	"page": 47,
	"kategori 1": "non-fiksi",
	"kategori 2": "bisnis-ekonomi",
	"book_url": "https://www.gramedia.com/products/kewirausahaan-technopreneurship-untuk-mahasiswa-ilmu-ilmu-eksakta",
	"title": "Kewirausahaan, Technopreneurship Untuk Mahasiswa Ilmu-Ilmu Eksakta",
	"author": "Bambang Murdaka Eka Jati",
	"Jumlah Halaman": "416",
	"Tanggal Terbit": "12 Jan 2016",
	"ISBN": "9789792951387",
	"Bahasa": "Indonesia",
	"Penerbit": "Andi Offset",
	"Berat": "0.6000 kg",
	"Lebar": "16 cm"
},
{
	"page": 47,
	"kategori 1": "non-fiksi",
	"kategori 2": "bisnis-ekonomi",
	"book_url": "https://www.gramedia.com/products/kerja-bahagia-pensiun-mulia",
	"title": "Kerja Bahagia Pensiun Mulia",
	"author": "Hermi",
	"Jumlah Halaman": "120",
	"Tanggal Terbit": "18 Mar 2016",
	"ISBN": "9786023181445",
	"Bahasa": "Indonesia",
	"Penerbit": "Mitra Wacana Media",
	"Berat": "0.1500 kg",
	"Lebar": "15 cm"
},
{
	"page": 47,
	"kategori 1": "non-fiksi",
	"kategori 2": "bisnis-ekonomi",
	"book_url": "https://www.gramedia.com/products/matematika-ekonomi",
	"title": "Matematika Ekonomi",
	"author": "Muhammad Teguh",
	"Jumlah Halaman": "324.0",
	"Tanggal Terbit": "8 Jul 2014",
	"ISBN": "9789797697273",
	"Bahasa": "Indonesia",
	"Penerbit": "Rajagrafindo",
	"Berat": "0.289 kg",
	"Lebar": "13.5 cm",
	"Panjang": "20.5 cm"
},
{
	"page": 47,
	"kategori 1": "non-fiksi",
	"kategori 2": "bisnis-ekonomi",
	"book_url": "https://www.gramedia.com/products/cashflow-quadrant-panduan-ayah-kaya-menu",
	"title": "Cashflow Quadrant:Panduan Ayah Kaya",
	"author": "Robert T.kiyosaki",
	"Jumlah Halaman": "-",
	"Tanggal Terbit": "3 Jan 2000",
	"ISBN": "9789796559121",
	"Bahasa": "Indonesia",
	"Penerbit": "Gramedia Pustaka Utama",
	"Berat": "0.4280 kg",
	"Lebar": "23 cm",
	"Panjang": "0 cm"
},
{
	"page": 47,
	"kategori 1": "non-fiksi",
	"kategori 2": "bisnis-ekonomi",
	"book_url": "https://www.gramedia.com/products/super-karier",
	"title": "Super Karier",
	"author": "Kristian Hardianto",
	"Jumlah Halaman": "164",
	"Tanggal Terbit": "19 Apr 2016",
	"ISBN": "9786020956312",
	"Bahasa": "Indonesia",
	"Penerbit": "Mic Publishing",
	"Berat": "0.1500 kg",
	"Lebar": "14 cm"
},
{
	"page": 47,
	"kategori 1": "non-fiksi",
	"kategori 2": "bisnis-ekonomi",
	"book_url": "https://www.gramedia.com/products/pengantar-komplet-akuntansi-dan-perpajakan",
	"title": "Pengantar Komplet Akuntansi Dan Perpajakan",
	"author": "INDRA MAHARDIKA PUTRA, S.E., AK., M.AK.",
	"Jumlah Halaman": "476.0",
	"Tanggal Terbit": "10 Okt 2019",
	"ISBN": "9786237324973",
	"Bahasa": "Indonesia",
	"Penerbit": "QUADRANT",
	"Berat": "0.36 kg",
	"Lebar": "14.0 cm",
	"Panjang": "20.2 cm"
},
{
	"page": 47,
	"kategori 1": "non-fiksi",
	"kategori 2": "bisnis-ekonomi",
	"book_url": "https://www.gramedia.com/products/just-copy-their-success-secret",
	"title": "Just Copy Their Success Secret",
	"author": "FIF Group",
	"Jumlah Halaman": "190",
	"Tanggal Terbit": "1 Okt 2017",
	"ISBN": "9786021097557",
	"Penerbit": "Buku Pintar Indonesia",
	"Berat": "0.175 kg",
	"Lebar": "14 cm",
	"Panjang": "20 cm"
},
{
	"page": 47,
	"kategori 1": "non-fiksi",
	"kategori 2": "bisnis-ekonomi",
	"book_url": "https://www.gramedia.com/products/manajemen-pemasaran-dasar-konsep-strategi",
	"title": "Manajemen Pemasaran Dasar Konsep Strategi",
	"author": "Sofjan Assauri",
	"Jumlah Halaman": "450.0",
	"Tanggal Terbit": "18 Mar 2017",
	"ISBN": "200029811",
	"Bahasa": "Indonesia",
	"Penerbit": "Rajagrafindo Persada",
	"Berat": "0.4 kg",
	"Lebar": "13.0 cm",
	"Panjang": "20.0 cm"
},
{
	"page": 47,
	"kategori 1": "non-fiksi",
	"kategori 2": "bisnis-ekonomi",
	"book_url": "https://www.gramedia.com/products/pajak-di-beragam-sektor-usaha",
	"title": "Pajak Di Beragam Sektor Usaha",
	"author": "Irwan Wisanggeni",
	"Jumlah Halaman": "106",
	"Tanggal Terbit": "12 Nov 2015",
	"ISBN": "9789790625020",
	"Bahasa": "Indonesia",
	"Penerbit": "Pt Indeks",
	"Berat": "0.2000 kg",
	"Lebar": "18 cm"
},
{
	"page": 47,
	"kategori 1": "non-fiksi",
	"kategori 2": "bisnis-ekonomi",
	"book_url": "https://www.gramedia.com/products/zara-leola-the-dance-diary",
	"title": "Zara Leola: The Dance Diary",
	"author": "Nurlita Maharani",
	"Jumlah Halaman": "120",
	"Tanggal Terbit": "18 Mar 2019",
	"ISBN": "9786024811143",
	"Bahasa": "Indonesia",
	"Penerbit": "Kepustakaan Populer Gramedia",
	"Berat": "0.2 kg",
	"Lebar": "12 cm",
	"Panjang": "19 cm"
},
{
	"page": 47,
	"kategori 1": "non-fiksi",
	"kategori 2": "bisnis-ekonomi",
	"book_url": "https://www.gramedia.com/products/muhammad-marketing-strategy",
	"title": "Muhammad Marketing Strategy",
	"author": "M. Suyanto",
	"Jumlah Halaman": "400.0",
	"Tanggal Terbit": "8 Nov 2019",
	"ISBN": "9789792965704",
	"Bahasa": "Indonesia",
	"Penerbit": "Andi Offset",
	"Berat": "0.52 kg",
	"Lebar": "16.0 cm",
	"Panjang": "23.0 cm"
},
{
	"page": 47,
	"kategori 1": "non-fiksi",
	"kategori 2": "bisnis-ekonomi",
	"book_url": "https://www.gramedia.com/products/startup-guidebook",
	"title": "Startup Guidebook",
	"author": "Andika Drajat M",
	"Jumlah Halaman": "193",
	"Tanggal Terbit": "1 Okt 2017",
	"ISBN": "9786026673459",
	"Bahasa": "Indonesia",
	"Penerbit": "Quadrant",
	"Berat": "0.15 kg",
	"Lebar": "14 cm",
	"Panjang": "20 cm"
},
{
	"page": 47,
	"kategori 1": "non-fiksi",
	"kategori 2": "bisnis-ekonomi",
	"book_url": "https://www.gramedia.com/products/dasar-dasar-akuntansi-dengan-contoh-sederhana-untuk-gambara",
	"title": "Dasar-Dasar Akuntansi, Dengan Contoh Sederhana Untuk Gambaran Yang Lebih Kongkrit",
	"author": "Drs. Harnanto, M.Soc. Sc., Akuntan",
	"Jumlah Halaman": "262",
	"Tanggal Terbit": "14 Feb 2019",
	"ISBN": "9789792966275",
	"Bahasa": "Indonesia",
	"Penerbit": "Andi Offset",
	"Berat": "0.5 kg",
	"Lebar": "19 cm",
	"Panjang": "25 cm"
},
{
	"page": 47,
	"kategori 1": "non-fiksi",
	"kategori 2": "bisnis-ekonomi",
	"book_url": "https://www.gramedia.com/products/nothing-without-you-wanna-one",
	"title": "Nothing Without You Wanna-One",
	"author": "Aghis Yurita Agmalia",
	"Jumlah Halaman": "100",
	"Tanggal Terbit": "19 Nov 2018",
	"ISBN": "9786020486116",
	"Bahasa": "Indonesia",
	"Penerbit": "Elex Media Komputindo",
	"Berat": "0.16 kg",
	"Lebar": "24 cm",
	"Panjang": "17 cm"
},
{
	"page": 47,
	"kategori 1": "non-fiksi",
	"kategori 2": "bisnis-ekonomi",
	"book_url": "https://www.gramedia.com/products/jadi-kaya-hanya-dengan-modal-10-juta",
	"title": "Jadi Kaya Hanya Dengan Modal 10 Juta",
	"author": "Anjasmara Putra",
	"Jumlah Halaman": "161",
	"Tanggal Terbit": "22 Feb 2018",
	"ISBN": "9786025713095",
	"Bahasa": "Indonesia",
	"Penerbit": "Penerbit Genesis",
	"Berat": "0.2 kg",
	"Lebar": "14 cm",
	"Panjang": "21 cm"
},
{
	"page": 47,
	"kategori 1": "non-fiksi",
	"kategori 2": "bisnis-ekonomi",
	"book_url": "https://www.gramedia.com/products/jihad-ekonomi",
	"title": "Jihad Ekonomi",
	"author": "Muhammad Ali Haji Hashim",
	"Jumlah Halaman": "276",
	"Tanggal Terbit": "23 Des 2017",
	"ISBN": "9789795927808",
	"Bahasa": "Indonesia",
	"Penerbit": "Pustaka Al-Kautsar",
	"Berat": "0.275 kg",
	"Lebar": "14 cm",
	"Panjang": "20 cm"
},
{
	"page": 47,
	"kategori 1": "non-fiksi",
	"kategori 2": "bisnis-ekonomi",
	"book_url": "https://www.gramedia.com/products/panduan-praktis-menyusun-kpikey-performance-indicators",
	"title": "Panduan Praktis Menyusun KPI: Key Performance Indicator",
	"author": "Arini T. Soemohadiwidjojo",
	"Jumlah Halaman": "202",
	"Tanggal Terbit": "4 Agt 2015",
	"ISBN": "9789790132214",
	"Bahasa": "Indonesia",
	"Penerbit": "Ras",
	"Berat": "0.20 kg",
	"Lebar": "15 cm",
	"Panjang": "20 cm"
},
{
	"page": 47,
	"kategori 1": "non-fiksi",
	"kategori 2": "bisnis-ekonomi",
	"book_url": "https://www.gramedia.com/products/manajemen-sumber-daya-manusia-strategis",
	"title": "Manajemen Sumber Daya Manusia Strategis",
	"author": "Saptadi Bagastawa",
	"Jumlah Halaman": "223",
	"Tanggal Terbit": "18 Apr 2018",
	"ISBN": "9786026525666",
	"Bahasa": "Indonesia",
	"Penerbit": "Amara Books",
	"Berat": "0.25 kg",
	"Lebar": "15.5 cm",
	"Panjang": "23 cm"
},
{
	"page": 47,
	"kategori 1": "non-fiksi",
	"kategori 2": "bisnis-ekonomi",
	"book_url": "https://www.gramedia.com/products/komunikasi-pemasaran-kontekstual",
	"title": "Komunikasi Pemasaran Kontekstual",
	"author": "Prof. Dr. H. Suwatno, M.Si",
	"Jumlah Halaman": "None",
	"Tanggal Terbit": "1 Okt 2017",
	"ISBN": "9786027973565",
	"Bahasa": "Indonesia",
	"Penerbit": "Simbiosa Rekatama Media",
	"Berat": "0.250 kg",
	"Panjang": "24 cm"
},
{
	"page": 47,
	"kategori 1": "non-fiksi",
	"kategori 2": "bisnis-ekonomi",
	"book_url": "https://www.gramedia.com/products/kesenjangan-ekonomi",
	"title": "Kesenjangan Ekonomi",
	"author": "Eka Sastra",
	"Jumlah Halaman": "356",
	"Tanggal Terbit": "7 Des 2017",
	"ISBN": "9786027829435",
	"Bahasa": "Indonesia",
	"Penerbit": "Expose Publika",
	"Berat": "0.57 kg",
	"Lebar": "15 cm",
	"Panjang": "23 cm"
},
{
	"page": 47,
	"kategori 1": "non-fiksi",
	"kategori 2": "bisnis-ekonomi",
	"book_url": "https://www.gramedia.com/products/gen-m-generationmuslim-islam-itu-keren",
	"title": "Gen M:#Generationmuslim: Islam Itu Keren",
	"author": "Yuswohady, Iryan Herdiansyah, Dkk",
	"Jumlah Halaman": "308",
	"Tanggal Terbit": "6 Feb 2017",
	"ISBN": "9786022912606",
	"Bahasa": "Indonesia",
	"Penerbit": "Mizan Publishing",
	"Berat": "0.2600 kg",
	"Lebar": "15 cm",
	"Panjang": "18 cm"
},
{
	"page": 47,
	"kategori 1": "non-fiksi",
	"kategori 2": "bisnis-ekonomi",
	"book_url": "https://www.gramedia.com/products/akuntansi-perusahaan-jasa-dagang-0",
	"title": "Akuntansi Perusahaan Jasa&Dagang",
	"author": "Made Ary Meitriana Dkk",
	"Jumlah Halaman": "150",
	"Tanggal Terbit": "9 Jul 2015",
	"ISBN": "9786022623489",
	"Bahasa": "Indonesia",
	"Penerbit": "Graha Ilmu",
	"Berat": "0.4000 kg",
	"Lebar": "30 cm"
},
