{
	"page": 45,
	"kategori 1": "non-fiksi",
	"kategori 2": "bisnis-ekonomi",
	"book_url": "https://www.gramedia.com/products/cara-legal-siasati-pajak",
	"title": "Cara Legal Siasati Pajak",
	"author": "Arles P. Ompusunggu",
	"Jumlah Halaman": "148",
	"Tanggal Terbit": "8 Feb 2011",
	"ISBN": "9786028454056",
	"Bahasa": "Indonesia",
	"Penerbit": "Puspa Swara",
	"Berat": "0.20 kg",
	"Lebar": "15 cm",
	"Panjang": "23 cm"
},
{
	"page": 45,
	"kategori 1": "non-fiksi",
	"kategori 2": "bisnis-ekonomi",
	"book_url": "https://www.gramedia.com/products/trading-vs-investing",
	"title": "Trading vs Investing",
	"author": "Ryan Filbert Wijaya",
	"Jumlah Halaman": "216.0",
	"Tanggal Terbit": "28 Mar 2016",
	"ISBN": "9786020282534",
	"Bahasa": "Indonesia",
	"Penerbit": "Elex Media Komputindo",
	"Berat": "0.25 kg",
	"Lebar": "14.0 cm",
	"Panjang": "21.0 cm"
},
{
	"page": 45,
	"kategori 1": "non-fiksi",
	"kategori 2": "bisnis-ekonomi",
	"book_url": "https://www.gramedia.com/products/between-threatsopportunitiesdiantara",
	"title": "Between Threats & Opportunities: Diantara",
	"author": "Laksamana Muda Tni Aan Kurnia, S.Sos",
	"Jumlah Halaman": "332",
	"Tanggal Terbit": "23 Nov 2017",
	"ISBN": "9786026180124",
	"Penerbit": "Penerbit Petroenergy",
	"Berat": "0.600 kg",
	"Lebar": "23 cm",
	"Panjang": "16.5 cm"
},
{
	"page": 45,
	"kategori 1": "non-fiksi",
	"kategori 2": "bisnis-ekonomi",
	"book_url": "https://www.gramedia.com/products/tanya-jawab-audit-2",
	"title": "Tanya-Jawab Audit 2",
	"author": "Amin Widjaja Tunggal",
	"Jumlah Halaman": "330",
	"Tanggal Terbit": "4 Agt 2016",
	"ISBN": "9786026281104",
	"Bahasa": "Indonesia",
	"Penerbit": "Harvarindo",
	"Berat": "0.4000 kg",
	"Lebar": "15 cm"
},
{
	"page": 45,
	"kategori 1": "non-fiksi",
	"kategori 2": "bisnis-ekonomi",
	"book_url": "https://www.gramedia.com/products/ekonomi-sumber-daya-manusia-dalam-perspektif-indonesia",
	"title": "Ekonomi Sumber Daya Manusia : Dalam Perspektif Indonesia",
	"author": "Nur Feriyanto",
	"Jumlah Halaman": "250",
	"Tanggal Terbit": "16 Apr 2014",
	"ISBN": "9789793532875",
	"Bahasa": "Indonesia",
	"Penerbit": "Upp Stim Ykpn",
	"Berat": "0.40 kg",
	"Lebar": "16 cm",
	"Panjang": "24 cm"
},
{
	"page": 45,
	"kategori 1": "non-fiksi",
	"kategori 2": "bisnis-ekonomi",
	"book_url": "https://www.gramedia.com/products/tetap-kerja-di-hari-libur",
	"title": "Tetap Kerja Di Hari Libur",
	"author": "John Afifi",
	"Jumlah Halaman": "190",
	"Tanggal Terbit": "21 Apr 2017",
	"ISBN": "9786024071431",
	"Bahasa": "Indonesia",
	"Penerbit": "Laksana",
	"Berat": "0.1760 kg",
	"Lebar": "14 cm",
	"Panjang": "21 cm"
},
{
	"page": 45,
	"kategori 1": "non-fiksi",
	"kategori 2": "bisnis-ekonomi",
	"book_url": "https://www.gramedia.com/products/dikejar-pekerjaan-pesanan-dan-penghasilan",
	"title": "Dikejar Pekerjaan, Pesanan, Dan Pengasilan",
	"author": "John Afifi",
	"Jumlah Halaman": "200",
	"Tanggal Terbit": "18 Feb 2019",
	"ISBN": "9786024075125",
	"Bahasa": "Indonesia",
	"Penerbit": "Laksana",
	"Berat": "0.25 kg",
	"Lebar": "14 cm",
	"Panjang": "20 cm"
},
{
	"page": 45,
	"kategori 1": "non-fiksi",
	"kategori 2": "bisnis-ekonomi",
	"book_url": "https://www.gramedia.com/products/kebijakan-dan-strategi-percepatan-pembangunan-daerah-terting",
	"title": "Kebijakan Dan Strategi Percepatan Pembangunan Daerah Tertinggal",
	"author": "Dr. Joonner Rambe, S.E.,M.M",
	"Jumlah Halaman": "430",
	"Tanggal Terbit": "23 Nov 2018",
	"ISBN": "9786023183210",
	"Bahasa": "Indonesia",
	"Penerbit": "Mitra Wacana Media",
	"Berat": "0.68 kg",
	"Lebar": "17 cm",
	"Panjang": "24 cm"
},
{
	"page": 45,
	"kategori 1": "non-fiksi",
	"kategori 2": "bisnis-ekonomi",
	"book_url": "https://www.gramedia.com/products/mozaik-asuransi-indonesia",
	"title": "Mozaik Asuransi Indonesia",
	"author": "Penulis-penulis Kupasi",
	"Jumlah Halaman": "0",
	"Tanggal Terbit": "5 Jun 2015",
	"ISBN": "9786021659441",
	"Bahasa": "Indonesia",
	"Penerbit": "Pustaka Bisnis Indonesia",
	"Berat": "0.2500 kg",
	"Lebar": "14 cm"
},
{
	"page": 45,
	"kategori 1": "non-fiksi",
	"kategori 2": "bisnis-ekonomi",
	"book_url": "https://www.gramedia.com/products/perekonomian-indonesia",
	"title": "Perekonomian Indonesia",
	"author": "Windhu Putra",
	"Jumlah Halaman": "380",
	"Tanggal Terbit": "1 Jan 2018",
	"ISBN": "9786024252434",
	"Bahasa": "Indonesia",
	"Penerbit": "Rajagrafindo Persada",
	"Berat": "0.425 kg",
	"Lebar": "15 cm",
	"Panjang": "23 cm"
},
{
	"page": 45,
	"kategori 1": "non-fiksi",
	"kategori 2": "bisnis-ekonomi",
	"book_url": "https://www.gramedia.com/products/manajemen-sumberdaya-manusia-dalam-organisasi-publik",
	"title": "Manajemen Sumberdaya Manusia dalam Organisasi Publik",
	"author": "Wirman Syafri",
	"Jumlah Halaman": "111",
	"Tanggal Terbit": "1 Jan 2017",
	"ISBN": "9786027058712",
	"Bahasa": "Indonesia",
	"Penerbit": "IPDN Press",
	"Berat": "0.21 kg",
	"Lebar": "17 cm",
	"Panjang": "25 cm"
},
{
	"page": 45,
	"kategori 1": "non-fiksi",
	"kategori 2": "bisnis-ekonomi",
	"book_url": "https://www.gramedia.com/products/tanya-jawab-seputar-audit-operasional",
	"title": "Tanya Jawab Seputar Audit Operasional",
	"author": "Amin Widjaja Tunggal",
	"Jumlah Halaman": "88",
	"Tanggal Terbit": "22 Jan 2016",
	"ISBN": "9786027834910",
	"Bahasa": "Indonesia",
	"Penerbit": "Harvarindo",
	"Berat": "0.1500 kg",
	"Lebar": "15 cm"
},
{
	"page": 45,
	"kategori 1": "non-fiksi",
	"kategori 2": "bisnis-ekonomi",
	"book_url": "https://www.gramedia.com/products/conf-strategi-membangun-bisnis-mandiri",
	"title": "Strategi Membangun Bisnis Mandiri",
	"author": "Didip Diandra",
	"Jumlah Halaman": "146",
	"Tanggal Terbit": "10 Mar 2016",
	"ISBN": "9786020325811",
	"Bahasa": "Indonesia",
	"Penerbit": "Gramedia Pustaka Utama",
	"Berat": "0.2000 kg",
	"Lebar": "14 cm"
},
{
	"page": 45,
	"kategori 1": "non-fiksi",
	"kategori 2": "bisnis-ekonomi",
	"book_url": "https://www.gramedia.com/products/teknik-penyusunan-proposal-proyek",
	"title": "Teknik Penyusunan Proposal Proyek",
	"author": "Yohanes Nangameka",
	"Jumlah Halaman": "316",
	"Tanggal Terbit": "15 Jan 2016",
	"ISBN": "9789792601251",
	"Bahasa": "Indonesia",
	"Penerbit": "Alta Pustaka",
	"Berat": "0.4000 kg",
	"Lebar": "16 cm"
},
{
	"page": 45,
	"kategori 1": "non-fiksi",
	"kategori 2": "bisnis-ekonomi",
	"book_url": "https://www.gramedia.com/products/putih",
	"title": "Putih",
	"author": "L. Ayu Saraswati",
	"Jumlah Halaman": "254",
	"Tanggal Terbit": "12 Jul 2017",
	"ISBN": "9789791260701",
	"Penerbit": "Marjin Kiri",
	"Berat": "0.23 kg",
	"Lebar": "14 cm",
	"Panjang": "20.5 cm"
},
{
	"page": 45,
	"kategori 1": "non-fiksi",
	"kategori 2": "bisnis-ekonomi",
	"book_url": "https://www.gramedia.com/products/akuntansi-biaya-dalam-persepektif-manajerial",
	"title": "Akuntansi Biaya dalam Perspektif Manajerial",
	"author": "Dr. Wiwik Lestari, M.Si.",
	"Jumlah Halaman": "246",
	"Tanggal Terbit": "11 Agt 2017",
	"ISBN": "9786024252007",
	"Penerbit": "Rajagrafindo Persada",
	"Berat": "0.3 kg",
	"Lebar": "16 cm",
	"Panjang": "23 cm"
},
{
	"page": 45,
	"kategori 1": "non-fiksi",
	"kategori 2": "bisnis-ekonomi",
	"book_url": "https://www.gramedia.com/products/rahasia-cepat-menguasai-laporan-keuangan-khusus-untuk-perpajakan-ukm",
	"title": "Rahasia Cepat Menguasai Laporan Keuangan Khusus Untuk Perpajakan & Ukm",
	"author": "Ferra Pujiyanti",
	"Jumlah Halaman": "178",
	"Tanggal Terbit": "3 Nov 2015",
	"ISBN": "9786027911765",
	"Bahasa": "Indonesia",
	"Penerbit": "Lembar Pustaka Indonesia",
	"Berat": "0.2500 kg",
	"Lebar": "15 cm"
},
{
	"page": 45,
	"kategori 1": "non-fiksi",
	"kategori 2": "bisnis-ekonomi",
	"book_url": "https://www.gramedia.com/products/ekonomi-teknik-0",
	"title": "Ekonomi Teknik",
	"author": "Hasan Basri Siregar",
	"Jumlah Halaman": "364",
	"Tanggal Terbit": "7 Agt 2015",
	"ISBN": "9786022624547",
	"Bahasa": "Indonesia",
	"Penerbit": "Graha Ilmu",
	"Berat": "0.5500 kg",
	"Lebar": "16 cm"
},
{
	"page": 45,
	"kategori 1": "non-fiksi",
	"kategori 2": "bisnis-ekonomi",
	"book_url": "https://www.gramedia.com/products/top-50-bisnis-rumahan-super-tajir",
	"title": "Top 50 Bisnis Rumahan Super Tajir",
	"author": "Tim Aksara Plus",
	"Tanggal Terbit": "24 Jan 2014",
	"Penerbit": "Penebar Swadaya",
	"Berat": "0.3000 kg",
	"Lebar": "14 cm",
	"Panjang": "0 cm"
},
{
	"page": 45,
	"kategori 1": "non-fiksi",
	"kategori 2": "bisnis-ekonomi",
	"book_url": "https://www.gramedia.com/products/5-pilar-kepemimpinan-di-abad-21",
	"title": "5 Pilar Kepemimpinan Di Abad 21",
	"author": "Dr.dr.agustinus Johanes Djohan,mm.",
	"Jumlah Halaman": "222",
	"Tanggal Terbit": "18 Agt 2016",
	"ISBN": "9786026931047",
	"Bahasa": "Indonesia",
	"Penerbit": "Media Nusa Creative",
	"Berat": "0.2000 kg",
	"Lebar": "23 cm"
},
{
	"page": 45,
	"kategori 1": "non-fiksi",
	"kategori 2": "bisnis-ekonomi",
	"book_url": "https://www.gramedia.com/products/mompreneursip-50-usaha-ibu-rumah-tangga-zaman-now",
	"title": "Mompreneursip: 50 Usaha Ibu Rumah Tangga Zaman Now",
	"author": "Shinta Kusuma",
	"Jumlah Halaman": "222",
	"Tanggal Terbit": "27 Agt 2018",
	"ISBN": "9786025480508",
	"Bahasa": "Indonesia",
	"Penerbit": "Charissa Publisher",
	"Berat": "0.205 kg",
	"Lebar": "14 cm",
	"Panjang": "20 cm"
},
{
	"page": 45,
	"kategori 1": "non-fiksi",
	"kategori 2": "bisnis-ekonomi",
	"book_url": "https://www.gramedia.com/products/accounting-principles-prinsip2-akuntansi-berbasis-sak-etap-e",
	"title": "Accounting Principles Prinsip-Prinsip Akuntansi Berbasis Sak Etap E",
	"author": "Rizal Effendi",
	"Jumlah Halaman": "249",
	"Tanggal Terbit": "8 Jul 2014",
	"ISBN": "9789797697464",
	"Bahasa": "Indonesia",
	"Penerbit": "Rajawali Pers",
	"Berat": "0.45 kg",
	"Lebar": "19 cm",
	"Panjang": "26 cm"
},
{
	"page": 45,
	"kategori 1": "non-fiksi",
	"kategori 2": "bisnis-ekonomi",
	"book_url": "https://www.gramedia.com/products/step-by-step-in-developing-bsc-based-individual-performance",
	"title": "Step By Step In Developing Bsc-Based Individual Performance",
	"author": "Suwardi Luis",
	"Jumlah Halaman": "155",
	"Tanggal Terbit": "15 Mei 2015",
	"ISBN": "9786020317502",
	"Bahasa": "Indonesia",
	"Penerbit": "Gramedia Pustaka Utama",
	"Berat": "0.15 kg",
	"Lebar": "13 cm",
	"Panjang": "17 cm"
},
{
	"page": 45,
	"kategori 1": "non-fiksi",
	"kategori 2": "bisnis-ekonomi",
	"book_url": "https://www.gramedia.com/products/bts-this-unofficial-book-dedicated-to-army",
	"title": "Bts: This Unofficial Book Dedicated To Army",
	"author": "Youra Kim",
	"Jumlah Halaman": "232.0",
	"Tanggal Terbit": "10 Jan 2020",
	"ISBN": "9786232440012",
	"Bahasa": "Indonesia",
	"Penerbit": "Histeria",
	"Berat": "0.282 kg",
	"Lebar": "16.0 cm",
	"Panjang": "24.0 cm"
},
{
	"page": 45,
	"kategori 1": "non-fiksi",
	"kategori 2": "bisnis-ekonomi",
	"book_url": "https://www.gramedia.com/products/siapa-harus-pergi-siapa-harus-tinggal-strategi-mencegah",
	"title": "Siapa Harus Pergi, Siapa Harus Tinggal",
	"author": "Zahara Tussoleha Rony",
	"Jumlah Halaman": "146",
	"Tanggal Terbit": "31 Jan 2017",
	"ISBN": "9786027382947",
	"Bahasa": "Indonesia",
	"Penerbit": "Buku Kita",
	"Berat": "0.25 kg",
	"Lebar": "14 cm",
	"Panjang": "21 cm"
},
{
	"page": 45,
	"kategori 1": "non-fiksi",
	"kategori 2": "bisnis-ekonomi",
	"book_url": "https://www.gramedia.com/products/panduan-menghitungmelaporkan-pajak-pribadi-bagi-pemilik-npw",
	"title": "Panduan Menghitung dan Melaporkan Pajak Pribadi Bagi Pemilik Npwp",
	"author": "Etty Muyassaroh, S.E.",
	"Jumlah Halaman": "124",
	"Tanggal Terbit": "26 Feb 2014",
	"ISBN": "9789793411385",
	"Bahasa": "Indonesia",
	"Penerbit": "Pustaka Yustisia",
	"Berat": "0.14 kg",
	"Lebar": "14 cm",
	"Panjang": "20.5 cm"
},
{
	"page": 45,
	"kategori 1": "non-fiksi",
	"kategori 2": "bisnis-ekonomi",
	"book_url": "https://www.gramedia.com/products/manajemen-strategi-buku-seri-manajemen",
	"title": "Manajemen Strategi : Buku Seri Manajemen",
	"author": "Setiawan",
	"Jumlah Halaman": "127",
	"Tanggal Terbit": "1 Jan 2008",
	"ISBN": "9789798140723",
	"Bahasa": "Indonesia",
	"Penerbit": "Feui",
	"Berat": "0.1500 kg",
	"Lebar": "15 cm",
	"Panjang": "0 cm"
},
{
	"page": 45,
	"kategori 1": "non-fiksi",
	"kategori 2": "bisnis-ekonomi",
	"book_url": "https://www.gramedia.com/products/be-a-direct-selling-superstar",
	"title": "Be A Direct Selling Superstar",
	"author": "Mary Christensen",
	"Tanggal Terbit": "7 Jan 2015",
	"ISBN": "XXX",
	"Penerbit": "Mic",
	"Berat": "0.3000 kg",
	"Lebar": "0 cm",
	"Panjang": "0 cm"
},
{
	"page": 45,
	"kategori 1": "non-fiksi",
	"kategori 2": "bisnis-ekonomi",
	"book_url": "https://www.gramedia.com/products/mimpi-dan-jalan-tiongkok-menuju-kejayaan",
	"title": "Mimpi Dan Jalan Tiongkok Menuju Kejayaan",
	"author": "Zhou Tianyong",
	"Jumlah Halaman": "224",
	"Tanggal Terbit": "7 Jun 2019",
	"ISBN": "9786024337476",
	"Bahasa": "Indonesia",
	"Penerbit": "Yayasan Pustaka Obor Indonesia",
	"Berat": "0.30 kg",
	"Lebar": "15 cm",
	"Panjang": "21 cm"
},
{
	"page": 45,
	"kategori 1": "non-fiksi",
	"kategori 2": "bisnis-ekonomi",
	"book_url": "https://www.gramedia.com/products/panduan-menyusun-key-performance-indicator",
	"title": "Panduan Menyusun Key Performance Indicator",
	"author": "Fajar Nuraini Df",
	"Jumlah Halaman": "194",
	"Tanggal Terbit": "1 Jan 2001",
	"ISBN": "9786026380500",
	"Bahasa": "Indonesia",
	"Penerbit": "Quadrant",
	"Berat": "0.20 kg",
	"Lebar": "14 cm",
	"Panjang": "20 cm"
},
{
	"page": 45,
	"kategori 1": "non-fiksi",
	"kategori 2": "bisnis-ekonomi",
	"book_url": "https://www.gramedia.com/products/closing-5-keterampilan-keberhasilan-penjualan",
	"title": "Closing : 5 Keterampilan Keberhasilan Penjualan",
	"author": "Craig Christensen",
	"Jumlah Halaman": "112",
	"Tanggal Terbit": "8 Des 2015",
	"ISBN": "9786026872005",
	"Bahasa": "Indonesia",
	"Penerbit": "Dunamis Publishing",
	"Berat": "0.1500 kg",
	"Lebar": "15 cm"
},
{
	"page": 45,
	"kategori 1": "non-fiksi",
	"kategori 2": "bisnis-ekonomi",
	"book_url": "https://www.gramedia.com/products/nissa-sabyan-pelantun-shalawat-yang-mendunia",
	"title": "Nissa Sabyan Pelantun Shalawat yang Mendunia",
	"author": "Caramel Kukiato",
	"Jumlah Halaman": "174",
	"Tanggal Terbit": "30 Okt 2018",
	"ISBN": "9786025849336",
	"Bahasa": "Indonesia",
	"Penerbit": "Buku Pintar Indonesia",
	"Berat": "0.240 kg",
	"Lebar": "14 cm",
	"Panjang": "20 cm"
},
{
	"page": 45,
	"kategori 1": "non-fiksi",
	"kategori 2": "bisnis-ekonomi",
	"book_url": "https://www.gramedia.com/products/teknik2-pencegahan-kecurangan-karyawan-manajemen",
	"title": "Teknik-teknik Pencegahan Kecurangan Karyawan & Manajemen",
	"author": "Amin Widjaja Tunggal",
	"Jumlah Halaman": "152",
	"Tanggal Terbit": "24 Mar 2016",
	"ISBN": "9786027834972",
	"Bahasa": "Indonesia",
	"Penerbit": "Harvarindo",
	"Berat": "0.1900 kg",
	"Lebar": "15 cm"
},
{
	"page": 45,
	"kategori 1": "non-fiksi",
	"kategori 2": "bisnis-ekonomi",
	"book_url": "https://www.gramedia.com/products/yes-i-can-serve",
	"title": "Yes! I Can Serve",
	"author": "Yuliana Agung",
	"Jumlah Halaman": "266",
	"Tanggal Terbit": "6 Jan 2012",
	"ISBN": "9786029735345",
	"Penerbit": "Info Cahaya Hero",
	"Berat": "0.3000 kg",
	"Lebar": "24 cm",
	"Panjang": "0 cm"
},
{
	"page": 45,
	"kategori 1": "non-fiksi",
	"kategori 2": "bisnis-ekonomi",
	"book_url": "https://www.gramedia.com/products/sistem-informasi-akuntansi-konsep-penerapan",
	"title": "Sistem Informasi Akuntansi: Konsep&Penerapan",
	"author": "Tmbooks",
	"Jumlah Halaman": "220",
	"Tanggal Terbit": "8 Jun 2015",
	"ISBN": "9789792951776",
	"Bahasa": "Indonesia",
	"Penerbit": "Andi Publisher",
	"Berat": "0.4000 kg",
	"Lebar": "19 cm"
},
{
	"page": 45,
	"kategori 1": "non-fiksi",
	"kategori 2": "bisnis-ekonomi",
	"book_url": "https://www.gramedia.com/products/pengantar-manajemen-3-in-1-untuk-mahasiswaumum",
	"title": "Pengantar Manajemen (3 In 1) Untuk Mahasiswa&Umum",
	"author": "Andru Feriyanto Dkk",
	"Jumlah Halaman": "181",
	"Tanggal Terbit": "26 Jan 2015",
	"ISBN": "9786027056916",
	"Bahasa": "Indonesia",
	"Penerbit": "Media Tera",
	"Berat": "0.300 kg",
	"Lebar": "23 cm",
	"Panjang": "15 cm"
},
