{
	"page": 82,
	"kategori 1": "non-fiksi",
	"kategori 2": "bisnis-ekonomi",
	"book_url": "https://www.gramedia.com/products/100-startup-the",
	"title": "$100 Startup,The",
	"author": "Chris Guillebeau",
	"Jumlah Halaman": "360",
	"Tanggal Terbit": "9 Feb 2015",
	"ISBN": "9786020313214",
	"Bahasa": "Indonesia",
	"Penerbit": "Gramedia Pustaka Utama",
	"Berat": "0.3850 kg",
	"Lebar": "14 cm"
},
{
	"page": 82,
	"kategori 1": "non-fiksi",
	"kategori 2": "bisnis-ekonomi",
	"book_url": "https://www.gramedia.com/products/strategi-kaya-membuka-bisnis-travel",
	"title": "Strategi Kaya Membuka Bisnis Travel",
	"author": "Imas Nuraida",
	"Jumlah Halaman": "176",
	"Tanggal Terbit": "25 Jan 2016",
	"ISBN": "9786027318908",
	"Bahasa": "Indonesia",
	"Penerbit": "Zavara",
	"Berat": "0.2000 kg",
	"Lebar": "14 cm"
},
{
	"page": 82,
	"kategori 1": "non-fiksi",
	"kategori 2": "bisnis-ekonomi",
	"book_url": "https://www.gramedia.com/products/analisis-ekonometrika-data-panel-ed-2",
	"title": "Analisis Ekonometrika Data Panel Edisi 2",
	"author": "Mahyus Ekananda",
	"Jumlah Halaman": "438",
	"Tanggal Terbit": "10 Nov 2014",
	"ISBN": "9786023181568",
	"Bahasa": "Indonesia",
	"Penerbit": "Mitra Wacana Media",
	"Berat": "0.8000 kg",
	"Lebar": "19 cm"
},
{
	"page": 82,
	"kategori 1": "non-fiksi",
	"kategori 2": "bisnis-ekonomi",
	"book_url": "https://www.gramedia.com/products/beyond-me-unleashing-technopreneurship-potential",
	"title": "Beyond Me: Unleashing Technopreneurship Potential",
	"author": "Alfred Boediman",
	"Jumlah Halaman": "160",
	"Tanggal Terbit": "8 Mar 2016",
	"ISBN": "9789795937746",
	"Bahasa": "Indonesia",
	"Penerbit": "Kesaint Blanc",
	"Berat": "0.3400 kg",
	"Lebar": "15 cm"
},
{
	"page": 82,
	"kategori 1": "non-fiksi",
	"kategori 2": "bisnis-ekonomi",
	"book_url": "https://www.gramedia.com/products/akuntansi-keuangan-menengah-berbasis-psak-ed-2-buku-1",
	"title": "Akuntansi Keuangan Menengah Berbasis Psak Ed 2 Buku 1",
	"author": "Dwi Martani Dkk",
	"Jumlah Halaman": "396",
	"Tanggal Terbit": "5 Mar 2015",
	"ISBN": "9789790616486",
	"Bahasa": "Indonesia",
	"Penerbit": "Salemba Empat",
	"Berat": "0.6000 kg",
	"Lebar": "17 cm"
},
{
	"page": 82,
	"kategori 1": "non-fiksi",
	"kategori 2": "bisnis-ekonomi",
	"book_url": "https://www.gramedia.com/products/metodologi-penelitian-bisnis-untuk-akuntansi-dan-manajemen",
	"title": "Metodologi Penelitian Bisnis untuk Akuntansi dan Manajemen",
	"author": "Nur Indriantoro",
	"Jumlah Halaman": "274",
	"Tanggal Terbit": "4 Sep 2018",
	"ISBN": "9789792966848",
	"Bahasa": "Indonesia",
	"Penerbit": "Andi Publisher",
	"Berat": "0.52 kg",
	"Lebar": "19 cm",
	"Panjang": "26 cm"
},
{
	"page": 82,
	"kategori 1": "non-fiksi",
	"kategori 2": "bisnis-ekonomi",
	"book_url": "https://www.gramedia.com/products/akuntansi-keuangan-daerah-berbasis-akrual-ed-2",
	"title": "Akuntansi Keuangan Daerah Berbasis Akrual Ed 2",
	"author": "Dwi Ratmono & Mahfud Sholihin",
	"Jumlah Halaman": "364.0",
	"Tanggal Terbit": "5 Apr 2017",
	"ISBN": "9786021286418",
	"Bahasa": "Indonesia",
	"Penerbit": "Upp Stim Ykpn",
	"Berat": "0.5 kg",
	"Lebar": "18.0 cm",
	"Panjang": "21.0 cm"
},
{
	"page": 82,
	"kategori 1": "non-fiksi",
	"kategori 2": "bisnis-ekonomi",
	"book_url": "https://www.gramedia.com/products/sistem-angkutan-udara",
	"title": "Sistem Angkutan Udara",
	"author": "Ig P Mastra",
	"Jumlah Halaman": "86",
	"Tanggal Terbit": "9 Nov 2016",
	"ISBN": "9786023182107",
	"Bahasa": "Indonesia",
	"Penerbit": "Mitra Wacana Media",
	"Berat": "0.1500 kg",
	"Lebar": "14 cm",
	"Panjang": "21 cm"
},
{
	"page": 82,
	"kategori 1": "non-fiksi",
	"kategori 2": "bisnis-ekonomi",
	"book_url": "https://www.gramedia.com/products/komunikasi-lintas-budaya-edisi-revisi",
	"title": "Komunikasi Lintas Budaya Edisi Revisi",
	"author": "Deddy Mulyana",
	"Jumlah Halaman": "556",
	"Tanggal Terbit": "7 Mar 2016",
	"ISBN": "9789796926145",
	"Bahasa": "Indonesia",
	"Penerbit": "Remaja Rosdakarya",
	"Berat": "0.8000 kg",
	"Lebar": "16 cm"
},
{
	"page": 82,
	"kategori 1": "non-fiksi",
	"kategori 2": "bisnis-ekonomi",
	"book_url": "https://www.gramedia.com/products/sistem-informasi-akuntansi",
	"title": "Sistem Informasi Akuntansi",
	"author": "Mardi",
	"Jumlah Halaman": "None",
	"Tanggal Terbit": "18 Feb 2011",
	"ISBN": "9789794505953",
	"Bahasa": "Indonesia",
	"Penerbit": "Ghalia Indonesia",
	"Berat": "0.5 kg",
	"Lebar": "17 cm",
	"Panjang": "25 cm"
},
{
	"page": 82,
	"kategori 1": "non-fiksi",
	"kategori 2": "bisnis-ekonomi",
	"book_url": "https://www.gramedia.com/products/buku-pintar-tenis",
	"title": "Buku Pintar Tenis",
	"author": "M.Asriady Mulyono",
	"Jumlah Halaman": "80",
	"Tanggal Terbit": "2 Jan 2017",
	"ISBN": "9786026409157",
	"Bahasa": "Indonesia",
	"Penerbit": "Hifest",
	"Berat": "0.112 kg",
	"Lebar": "15 cm",
	"Panjang": "23 cm"
},
{
	"page": 82,
	"kategori 1": "non-fiksi",
	"kategori 2": "bisnis-ekonomi",
	"book_url": "https://www.gramedia.com/products/dasar-dasar-organisasi",
	"title": "Dasar-Dasar Organisasi",
	"author": "Sutarto",
	"Jumlah Halaman": "452",
	"Tanggal Terbit": "1 Jan 2008",
	"ISBN": "9789794202754",
	"Bahasa": "Indonesia",
	"Penerbit": "Gadjah Mada University Press",
	"Berat": "0.46 kg",
	"Lebar": "15 cm",
	"Panjang": "21 cm"
},
{
	"page": 82,
	"kategori 1": "non-fiksi",
	"kategori 2": "bisnis-ekonomi",
	"book_url": "https://www.gramedia.com/products/solusi-sukses-e-faktur",
	"title": "Solusi Sukses E-Faktur",
	"author": "Andi Hardi & Sjafardamsah",
	"Jumlah Halaman": "166.0",
	"Tanggal Terbit": "1 Apr 2017",
	"ISBN": "9786023182138",
	"Bahasa": "Indonesia",
	"Penerbit": "Mitra Wacana Media",
	"Berat": "0.5 kg",
	"Lebar": "17.0 cm",
	"Panjang": "24.0 cm"
},
{
	"page": 82,
	"kategori 1": "non-fiksi",
	"kategori 2": "bisnis-ekonomi",
	"book_url": "https://www.gramedia.com/products/pengantar-ekonometrik",
	"title": "Pengantar Ekonometrik",
	"author": "Saludin",
	"Jumlah Halaman": "268",
	"Tanggal Terbit": "2 Jun 2017",
	"ISBN": "9786023182244",
	"Bahasa": "Indonesia",
	"Penerbit": "Mitra Wacana Media",
	"Berat": "0.45 kg",
	"Lebar": "17 cm",
	"Panjang": "24 cm"
},
{
	"page": 82,
	"kategori 1": "non-fiksi",
	"kategori 2": "bisnis-ekonomi",
	"book_url": "https://www.gramedia.com/products/pengantar-ilmu-kepemimpinan",
	"title": "Pengantar Ilmu Kepemimpinan",
	"author": "Irham Fahmi",
	"Jumlah Halaman": "294",
	"Tanggal Terbit": "5 Okt 2018",
	"ISBN": "9786024255848",
	"Bahasa": "Indonesia",
	"Penerbit": "Rajagrafindo Persada",
	"Berat": "0.6 kg",
	"Lebar": "15 cm",
	"Panjang": "23 cm"
},
{
	"page": 82,
	"kategori 1": "non-fiksi",
	"kategori 2": "bisnis-ekonomi",
	"book_url": "https://www.gramedia.com/products/analisis-laporan-keuangan-pemerintah-daerah-1",
	"title": "Analisis Laporan Keuangan Pemerintah Daerah",
	"author": "Mahmudi",
	"Jumlah Halaman": "0",
	"Tanggal Terbit": "26 Apr 2019",
	"ISBN": "9786021286760",
	"Bahasa": "Indonesia",
	"Penerbit": "Upp Stim Ykpn",
	"Berat": "1 kg",
	"Lebar": "0.0 cm",
	"Panjang": "0.0 cm"
},
{
	"page": 82,
	"kategori 1": "non-fiksi",
	"kategori 2": "bisnis-ekonomi",
	"book_url": "https://www.gramedia.com/products/breakthrough",
	"title": "Breakthrough",
	"author": "Muhammad Assad",
	"Jumlah Halaman": "304.0",
	"Tanggal Terbit": "6 Mar 2017",
	"ISBN": "9786020400839",
	"Penerbit": "Elex Media Komputindo",
	"Berat": "0.4 kg",
	"Lebar": "14.0 cm",
	"Panjang": "21.0 cm"
},
{
	"page": 82,
	"kategori 1": "non-fiksi",
	"kategori 2": "bisnis-ekonomi",
	"book_url": "https://www.gramedia.com/products/sistem-informasi-akuntansi-ugm",
	"title": "Sistem Informasi Akuntansi (UGM)",
	"author": "Faiz Zamzami",
	"Jumlah Halaman": "268",
	"Tanggal Terbit": "15 Jun 2016",
	"ISBN": "9786023860609",
	"Bahasa": "Indonesia",
	"Penerbit": "Gadjah Mada University Press",
	"Berat": "0.37 kg",
	"Lebar": "15.5 cm",
	"Panjang": "23 cm"
},
{
	"page": 82,
	"kategori 1": "non-fiksi",
	"kategori 2": "bisnis-ekonomi",
	"book_url": "https://www.gramedia.com/products/21-rahasia-penjual-penghasil-jutaan-dolar-menguak-rahasia-su",
	"title": "21 Rahasia Penjual Penghasil Jutaan Dolar",
	"author": "Stephen J. Harvill",
	"Jumlah Halaman": "320.0",
	"Tanggal Terbit": "27 Mei 2019",
	"ISBN": "9786020499239",
	"Penerbit": "Elex Media Komputindo",
	"Berat": "0.4 kg",
	"Lebar": "21.0 cm",
	"Panjang": "14.0 cm"
},
{
	"page": 82,
	"kategori 1": "non-fiksi",
	"kategori 2": "bisnis-ekonomi",
	"book_url": "https://www.gramedia.com/products/chris-voss-never-split-the-difference-mmsc",
	"title": "Chris Voss: Never Split The Difference",
	"author": "Chris Voss",
	"Jumlah Halaman": "288",
	"Tanggal Terbit": "5 Jun 2018",
	"ISBN": "9780062872302",
	"Bahasa": "Indonesia",
	"Penerbit": "Sinar Star Book",
	"Berat": "0.14 kg",
	"Lebar": "10 cm",
	"Panjang": "15 cm"
},
{
	"page": 82,
	"kategori 1": "non-fiksi",
	"kategori 2": "bisnis-ekonomi",
	"book_url": "https://www.gramedia.com/products/komunikasi-bisnis-ed-09-jilid-01",
	"title": "Komunikasi Bisnis Edisi 09 Jilid 01",
	"author": "Courtland L Bovee & John V Thill",
	"Jumlah Halaman": "None",
	"Tanggal Terbit": "22 Agt 2013",
	"ISBN": "9789790623989",
	"Bahasa": "Indonesia",
	"Penerbit": "Penerbit Indeks",
	"Berat": "0.3000 kg",
	"Lebar": "0 cm",
	"Panjang": "0 cm"
},
{
	"page": 82,
	"kategori 1": "non-fiksi",
	"kategori 2": "bisnis-ekonomi",
	"book_url": "https://www.gramedia.com/products/conf-panduan-praktis-hukum-properti",
	"title": "Panduan Praktis Hukum Properti",
	"author": "Eddy M. Leks",
	"Jumlah Halaman": "276",
	"Tanggal Terbit": "15 Sep 2016",
	"ISBN": "9786020333120",
	"Bahasa": "Indonesia",
	"Penerbit": "Gramedia Pustaka Utama",
	"Berat": "0.3500 kg",
	"Lebar": "14 cm",
	"Panjang": "21 cm"
},
{
	"page": 82,
	"kategori 1": "non-fiksi",
	"kategori 2": "bisnis-ekonomi",
	"book_url": "https://www.gramedia.com/products/digital-business-valuation",
	"title": "Digital Business Valuation",
	"author": "EDI WITJARA",
	"Jumlah Halaman": "0",
	"Tanggal Terbit": "8 Apr 2019",
	"ISBN": "9786025834349",
	"Bahasa": "Indonesia",
	"Penerbit": "Rayyana Komunikasindo",
	"Berat": "0.300 kg",
	"Lebar": "15 cm",
	"Panjang": "23 cm"
},
{
	"page": 82,
	"kategori 1": "non-fiksi",
	"kategori 2": "bisnis-ekonomi",
	"book_url": "https://www.gramedia.com/products/funnel-for-entrepreneur",
	"title": "Funnel For Entrepreneur",
	"author": "MC. OETAMI PRASADJANINGSIH",
	"Jumlah Halaman": "206.0",
	"Tanggal Terbit": "26 Nov 2019",
	"ISBN": "9786020711096",
	"Bahasa": "Indonesia",
	"Penerbit": "PT. TOSCA JAYA INDONESIA (DRA. MC. OETAMI PRASADJANINGSIH)",
	"Berat": "0.188 kg",
	"Lebar": "14.2 cm",
	"Panjang": "21.0 cm"
},
{
	"page": 82,
	"kategori 1": "non-fiksi",
	"kategori 2": "bisnis-ekonomi",
	"book_url": "https://www.gramedia.com/products/kebijakan-formulasi-sistem-pertanggungjawaban-pidana-korpora",
	"title": "Kebijakan Formulasi Sistem Pertanggungjawaban Pidana Korporasi",
	"author": "Prof.Dr.H.Dwidja Priyatno,S.H.,M.H.,Sp.N",
	"Jumlah Halaman": "600",
	"Tanggal Terbit": "13 Nov 2017",
	"ISBN": "9789790077539",
	"Bahasa": "Indonesia",
	"Penerbit": "Sinar Grafika",
	"Berat": "0.65 kg",
	"Lebar": "15 cm",
	"Panjang": "23 cm"
},
{
	"page": 82,
	"kategori 1": "non-fiksi",
	"kategori 2": "bisnis-ekonomi",
	"book_url": "https://www.gramedia.com/products/jejak-sukses-jack-ma",
	"title": "Jejak Sukses Jack Ma",
	"author": "Ms Ardison",
	"Jumlah Halaman": "148",
	"Tanggal Terbit": "10 Apr 2017",
	"ISBN": "9786021527139",
	"Bahasa": "Indonesia",
	"Penerbit": "Ecosystem Publishing",
	"Berat": "0.1350 kg",
	"Lebar": "13 cm",
	"Panjang": "20 cm"
},
{
	"page": 82,
	"kategori 1": "non-fiksi",
	"kategori 2": "bisnis-ekonomi",
	"book_url": "https://www.gramedia.com/products/teori-praktik-pertambangan-indonesia",
	"title": "Teori&Praktik Pertambangan Indonesia",
	"author": "Nandang S",
	"Tanggal Terbit": "3 Sep 2013",
	"Penerbit": "Pustaka Yustisia",
	"Berat": "0.3000 kg",
	"Lebar": "0 cm",
	"Panjang": "0 cm"
},
{
	"page": 82,
	"kategori 1": "non-fiksi",
	"kategori 2": "bisnis-ekonomi",
	"book_url": "https://www.gramedia.com/products/statepreneur-kiat-transformasi-ceo-bumn",
	"title": "Statepreneur Kiat Transformasi Ceo Bumn",
	"author": "Tim Gagas Bisnis",
	"Jumlah Halaman": "212",
	"Tanggal Terbit": "4 Agt 2016",
	"ISBN": "9786021265178",
	"Bahasa": "Indonesia",
	"Penerbit": "Gagas Bisnis",
	"Berat": "0.25 kg",
	"Lebar": "15 cm",
	"Panjang": "23 cm"
},
{
	"page": 82,
	"kategori 1": "non-fiksi",
	"kategori 2": "bisnis-ekonomi",
	"book_url": "https://www.gramedia.com/products/free-trade-zone-menuju-kawasan-ekonomi-khusus-di-batam-bintan-dan-karimun",
	"title": "Free Trade Zone: Menuju Kawasan Ekonomi Khusus Di Batam, Bintan Dan Karimun",
	"author": "Ady Muzwardy",
	"Jumlah Halaman": "132",
	"Tanggal Terbit": "12 Mar 2018",
	"ISBN": "9786025019371",
	"Bahasa": "Indonesia",
	"Penerbit": "Expert",
	"Berat": "0.270 kg",
	"Lebar": "17.5 cm",
	"Panjang": "25 cm"
},
{
	"page": 82,
	"kategori 1": "non-fiksi",
	"kategori 2": "bisnis-ekonomi",
	"book_url": "https://www.gramedia.com/products/kewirausahaan-membentuk-dan-mengembangkan-unit-bisnis-handal-dan-mapan",
	"title": "Kewirausahaan: Membentuk dan Mengembangkan Unit Bisnis Handal dan Mapan",
	"author": "Dr. R. Agus Trihatmoko, S.E., M.B.A., M.M.",
	"Jumlah Halaman": "270",
	"Tanggal Terbit": "19 Des 2017",
	"ISBN": "9786021286517",
	"Bahasa": "Indonesia",
	"Penerbit": "Upp Stim Ykpn",
	"Berat": "0.46 kg",
	"Lebar": "16.5 cm",
	"Panjang": "24 cm"
},
{
	"page": 82,
	"kategori 1": "non-fiksi",
	"kategori 2": "bisnis-ekonomi",
	"book_url": "https://www.gramedia.com/products/teori-ekonomi-makro-edisi-3",
	"title": "Teori Ekonomi Makro Edisi 3",
	"author": "Abdul Halim",
	"Jumlah Halaman": "204.0",
	"Tanggal Terbit": "15 Des 2019",
	"ISBN": "9786023183418",
	"Bahasa": "Indonesia",
	"Penerbit": "Mitra Wacana Media",
	"Berat": "0.34 kg",
	"Lebar": "16.5 cm",
	"Panjang": "23.0 cm"
},
{
	"page": 82,
	"kategori 1": "non-fiksi",
	"kategori 2": "bisnis-ekonomi",
	"book_url": "https://www.gramedia.com/products/manajemen-bandar-udara-radio-navigasi-penerbangan",
	"title": "Manajemen Bandar Udara: Radio Navigasi Penerbangan",
	"author": "Djoko Warsito",
	"Jumlah Halaman": "168.0",
	"Tanggal Terbit": "29 Okt 2019",
	"ISBN": "9786024867164",
	"Bahasa": "Indonesia",
	"Penerbit": "Penerbit Erlangga",
	"Berat": "0.119 kg",
	"Lebar": "15.5 cm",
	"Panjang": "24.0 cm"
},
{
	"page": 82,
	"kategori 1": "non-fiksi",
	"kategori 2": "bisnis-ekonomi",
	"book_url": "https://www.gramedia.com/products/etika-dan-akuntabilitas-profesi-akuntan-publik",
	"title": "Etika Dan Akuntabilitas Profesi Akuntan Publik",
	"author": "DR. DJUNI FARHAN, S.E., M.SI.",
	"Jumlah Halaman": "108.0",
	"Tanggal Terbit": "1 Jul 2019",
	"ISBN": "9786025192777",
	"Bahasa": "Indonesia",
	"Penerbit": "EMPAT DUA",
	"Berat": "0.148 kg",
	"Lebar": "14.0 cm",
	"Panjang": "20.0 cm"
},
{
	"page": 82,
	"kategori 1": "non-fiksi",
	"kategori 2": "bisnis-ekonomi",
	"book_url": "https://www.gramedia.com/products/jalan-lurus-reformasi-sdm-polri",
	"title": "Jalan Lurus Reformasi Sdm Polri",
	"author": "Nurcholis Ma Basyari",
	"Jumlah Halaman": "280.0",
	"Tanggal Terbit": "26 Sep 2019",
	"ISBN": "9786239027520",
	"Bahasa": "Indonesia",
	"Penerbit": "Suka Buku. Pt",
	"Berat": "0.249 kg",
	"Lebar": "14.5 cm",
	"Panjang": "20.5 cm"
},
{
	"page": 82,
	"kategori 1": "non-fiksi",
	"kategori 2": "bisnis-ekonomi",
	"book_url": "https://www.gramedia.com/products/buku-saku-praktik-klinik-keperawatan-e2",
	"title": "Buku Saku Praktik Klinik Keperawatan (E2)",
	"author": "ARIS N. RAMDHANI, DKK",
	"Jumlah Halaman": "340.0",
	"Tanggal Terbit": "20 Agt 2019",
	"ISBN": "9786026450241",
	"Bahasa": "Indonesia",
	"Penerbit": "Penerbit Salemba Medika",
	"Berat": "0.3 kg",
	"Lebar": "15.0 cm",
	"Panjang": "10.0 cm"
},
{
	"page": 82,
	"kategori 1": "non-fiksi",
	"kategori 2": "bisnis-ekonomi",
	"book_url": "https://www.gramedia.com/products/matematika-ekonomi-dan-bisnis-e4-bk-1",
	"title": "Matematika Ekonomi Dan Bisnis (E4) Bk 1",
	"author": "JOSEP BK",
	"Jumlah Halaman": "0.0",
	"Tanggal Terbit": "8 Sep 2019",
	"ISBN": "9789790618183",
	"Bahasa": "Indonesia",
	"Penerbit": "SALEMBA EMPAT",
	"Berat": "846.0 kg",
	"Lebar": "0.0 cm",
	"Panjang": "0.0 cm"
},
{
	"page": 82,
	"kategori 1": "non-fiksi",
	"kategori 2": "bisnis-ekonomi",
	"book_url": "https://www.gramedia.com/products/mengelola-keuangan-pribadi",
	"title": "Mengelola Keuangan Pribadi",
	"author": "FARAH MARGARETTA",
	"Jumlah Halaman": "244.0",
	"Tanggal Terbit": "8 Sep 2019",
	"ISBN": "9789790617834",
	"Bahasa": "Indonesia",
	"Penerbit": "Salemba Empat",
	"Berat": "0.4 kg",
	"Lebar": "23.0 cm",
	"Panjang": "15.0 cm"
},
{
	"page": 82,
	"kategori 1": "non-fiksi",
	"kategori 2": "bisnis-ekonomi",
	"book_url": "https://www.gramedia.com/products/sistem-informasi-manajemen-6",
	"title": "Sistem Informasi Manajemen",
	"author": "HAMDI AGUSTIN",
	"Jumlah Halaman": "208.0",
	"Tanggal Terbit": "1 Agt 2019",
	"ISBN": "9786024258764",
	"Bahasa": "Indonesia",
	"Penerbit": "Rajagrafindo Persada",
	"Berat": "0.242 kg",
	"Lebar": "15.0 cm",
	"Panjang": "23.0 cm"
},
