{
	"page": 65,
	"kategori 1": "non-fiksi",
	"kategori 2": "bisnis-ekonomi",
	"book_url": "https://www.gramedia.com/products/bayar-pajak-lebih-murah-cd-menghitung-pajak",
	"title": "Bayar Pajak Lebih Murah + Cd Menghitung Pajak",
	"author": "Ai Nur Bayinah",
	"Jumlah Halaman": "174",
	"Tanggal Terbit": "3 Mei 2015",
	"ISBN": "9789790652347",
	"Bahasa": "Indonesia",
	"Penerbit": "Visimedia",
	"Berat": "0.2 kg",
	"Lebar": "14 cm",
	"Panjang": "21 cm"
},
{
	"page": 65,
	"kategori 1": "non-fiksi",
	"kategori 2": "bisnis-ekonomi",
	"book_url": "https://www.gramedia.com/products/culturepreneurship-membangkitkan-budaya-kewirausahaan-bangsa",
	"title": "Culturepreneurship: Membangkitkan Budaya Kewirausahaan Bangsa",
	"author": "Rambat Lupiyoadi Dkk",
	"Jumlah Halaman": "144",
	"Tanggal Terbit": "1 Sep 2016",
	"ISBN": "9786023181810",
	"Bahasa": "Indonesia",
	"Penerbit": "Mitra Wacana",
	"Berat": "0.3000 kg",
	"Lebar": "17 cm"
},
{
	"page": 65,
	"kategori 1": "non-fiksi",
	"kategori 2": "bisnis-ekonomi",
	"book_url": "https://www.gramedia.com/products/ppn-pada-sektor-industri-khusus",
	"title": "PPN Pada Sektor Industri Khusus",
	"author": "IRWAN WISANGGENI,SE.,M.SI.,BKP",
	"Jumlah Halaman": "238",
	"Tanggal Terbit": "19 Nov 2018",
	"ISBN": "9786023183678",
	"Bahasa": "Indonesia",
	"Penerbit": "Mitra Wacana Media",
	"Berat": "0.34 kg",
	"Lebar": "16 cm",
	"Panjang": "24 cm"
},
{
	"page": 65,
	"kategori 1": "non-fiksi",
	"kategori 2": "bisnis-ekonomi",
	"book_url": "https://www.gramedia.com/products/hr-plan-strategy",
	"title": "HR Plan & Strategy",
	"author": "Herwan Abdul Muhy",
	"Jumlah Halaman": "200",
	"Tanggal Terbit": "18 Mei 2016",
	"ISBN": "9789790132283",
	"Bahasa": "Indonesia",
	"Penerbit": "Raih Asa Sukses",
	"Berat": "0.2000 kg",
	"Lebar": "14 cm",
	"Panjang": "21 cm"
},
{
	"page": 65,
	"kategori 1": "non-fiksi",
	"kategori 2": "bisnis-ekonomi",
	"book_url": "https://www.gramedia.com/products/akuntansi-manajemen-pendekatan-praktis-ed-4",
	"title": "Akuntansi Manajemen : Pendekatan Praktis Ed 4",
	"author": "Dewi Utari . Dkk",
	"Jumlah Halaman": "380",
	"Tanggal Terbit": "11 Agt 2016",
	"ISBN": "9786023181773",
	"Bahasa": "Indonesia",
	"Penerbit": "Mitra Wacana Media",
	"Berat": "0.7000 kg",
	"Lebar": "19 cm",
	"Panjang": "27 cm"
},
{
	"page": 65,
	"kategori 1": "non-fiksi",
	"kategori 2": "bisnis-ekonomi",
	"book_url": "https://www.gramedia.com/products/masalah-kontemporer-perekonomian-nasional-dan-daerah",
	"title": "Masalah Kontemporer Perekonomian Nasional Dan Daerah",
	"author": "Carunia Mulya Firdausy",
	"Jumlah Halaman": "178",
	"Tanggal Terbit": "5 Apr 2019",
	"ISBN": "9786024337032",
	"Bahasa": "Indonesia",
	"Penerbit": "Yayasan Pustaka Obor Indonesia",
	"Berat": "0.2 kg",
	"Lebar": "15 cm",
	"Panjang": "23 cm"
},
{
	"page": 65,
	"kategori 1": "non-fiksi",
	"kategori 2": "bisnis-ekonomi",
	"book_url": "https://www.gramedia.com/products/unmarketing",
	"title": "Unmarketing",
	"author": "Scott Stratten",
	"Jumlah Halaman": "320",
	"Tanggal Terbit": "11 Apr 2016",
	"ISBN": "9786020283913",
	"Bahasa": "Indonesia",
	"Penerbit": "Elex Media Komputindo",
	"Berat": "0.3200 kg",
	"Lebar": "14 cm"
},
{
	"page": 65,
	"kategori 1": "non-fiksi",
	"kategori 2": "bisnis-ekonomi",
	"book_url": "https://www.gramedia.com/products/how-to-sell-your-art-online",
	"title": "How To Sell Your Art Online",
	"author": "Cory Huff",
	"Jumlah Halaman": "196",
	"Tanggal Terbit": "31 Mar 2017",
	"ISBN": "9786022913757",
	"Bahasa": "Indonesia",
	"Penerbit": "Bentang Pustaka",
	"Berat": "0.2700 kg",
	"Lebar": "15 cm"
},
{
	"page": 65,
	"kategori 1": "non-fiksi",
	"kategori 2": "bisnis-ekonomi",
	"book_url": "https://www.gramedia.com/products/reformasi-birokrasi-publik-di-indonesia",
	"title": "Reformasi Birokrasi Publik Di Indonesia",
	"author": "Agus Dwiyanto",
	"Jumlah Halaman": "280.0",
	"Tanggal Terbit": "1 Jan 2006",
	"ISBN": "9799794206125",
	"Bahasa": "Indonesia",
	"Penerbit": "Gadjah Mada",
	"Berat": "0.438 kg",
	"Lebar": "16.0 cm",
	"Panjang": "23.5 cm"
},
{
	"page": 65,
	"kategori 1": "non-fiksi",
	"kategori 2": "bisnis-ekonomi",
	"book_url": "https://www.gramedia.com/products/ekonomika-otonomi-daerah-ed-2",
	"title": "Ekonomika Otonomi Daerah Ed 2",
	"author": "Rudy Badrudin",
	"Jumlah Halaman": "242",
	"Tanggal Terbit": "12 Apr 2017",
	"ISBN": "9786021286395",
	"Bahasa": "Indonesia",
	"Penerbit": "Upp Stim Ykpn",
	"Berat": "0.3700 kg",
	"Lebar": "15 cm"
},
{
	"page": 65,
	"kategori 1": "non-fiksi",
	"kategori 2": "bisnis-ekonomi",
	"book_url": "https://www.gramedia.com/products/membangun-kembali-kejayaan-industri-gula-indonesia",
	"title": "Membangun Kembali Kejayaan Industri Gula Indonesia",
	"author": "Dr. Ir. Rachmat Pambudy, MS",
	"Jumlah Halaman": "None",
	"Tanggal Terbit": "10 Jul 2018",
	"ISBN": "9786025006517",
	"Bahasa": "Indonesia",
	"Penerbit": "Idemedia Pustaka Utama",
	"Berat": "0.350 kg"
},
{
	"page": 65,
	"kategori 1": "non-fiksi",
	"kategori 2": "bisnis-ekonomi",
	"book_url": "https://www.gramedia.com/products/kpop-zaman-jigeum-wanna-one",
	"title": "Kpop Zaman Jigeum : Wanna One",
	"author": "Meme_Wannaone @Meme.Produce101",
	"Jumlah Halaman": "200",
	"Tanggal Terbit": "1 Mei 2018",
	"ISBN": "9786025406447",
	"Bahasa": "Indonesia",
	"Penerbit": "Cahaya Duabelas Semesta",
	"Berat": "0.25 kg",
	"Lebar": "15 cm",
	"Panjang": "23 cm"
},
{
	"page": 65,
	"kategori 1": "non-fiksi",
	"kategori 2": "bisnis-ekonomi",
	"book_url": "https://www.gramedia.com/products/power-of-service-the",
	"title": "The Power Of Service",
	"author": "Hendrik Ronald",
	"Jumlah Halaman": "None",
	"Tanggal Terbit": "25 Okt 2013",
	"ISBN": "9789792292510",
	"Bahasa": "Indonesia",
	"Penerbit": "Gramedia Pustaka Utama",
	"Berat": "0.3000 kg",
	"Lebar": "15 cm",
	"Panjang": "23 cm"
},
{
	"page": 65,
	"kategori 1": "non-fiksi",
	"kategori 2": "bisnis-ekonomi",
	"book_url": "https://www.gramedia.com/products/dasar-dasar-manajemen-teori-defenisi-dan-konsep",
	"title": "Dasar-Dasar Manajemen, Teori, Defenisi Dan Konsep",
	"author": "Karyoto",
	"Jumlah Halaman": "148",
	"Tanggal Terbit": "7 Mar 2016",
	"ISBN": "9789792953480",
	"Bahasa": "Indonesia",
	"Penerbit": "Andi Offset",
	"Berat": "0.2500 kg",
	"Lebar": "16 cm"
},
{
	"page": 65,
	"kategori 1": "non-fiksi",
	"kategori 2": "bisnis-ekonomi",
	"book_url": "https://www.gramedia.com/products/pajak-internasional-ed-2-beserta-contoh-aplikasinya",
	"title": "Pajak Internasional Ed 2 : Beserta Contoh Aplikasinya",
	"author": "Anang Mury Kurniawan",
	"Jumlah Halaman": "270",
	"Tanggal Terbit": "7 Des 2015",
	"ISBN": "9789794506950",
	"Bahasa": "Indonesia",
	"Penerbit": "Ghalia Indonesia",
	"Berat": "0.4000 kg",
	"Lebar": "16 cm"
},
{
	"page": 65,
	"kategori 1": "non-fiksi",
	"kategori 2": "bisnis-ekonomi",
	"book_url": "https://www.gramedia.com/products/contagious-rahasia-di-balik-produk-dan-gagasan-yang-populer",
	"title": "Contagious: Rahasia Di Balik Produk Dan Gagasan Yang Populer",
	"author": "Jonah Berger",
	"Jumlah Halaman": "308",
	"Tanggal Terbit": "22 Jul 2019",
	"ISBN": "9786020307664",
	"Bahasa": "Indonesia",
	"Penerbit": "Gramedia Pustaka Utama",
	"Berat": "0.400 kg",
	"Lebar": "14 cm",
	"Panjang": "21 cm"
},
{
	"page": 65,
	"kategori 1": "non-fiksi",
	"kategori 2": "bisnis-ekonomi",
	"book_url": "https://www.gramedia.com/products/manajemen-perkantoran-modern-1",
	"title": "Manajemen Perkantoran Modern",
	"author": "Prof. Dr. Hj. Sedarmayanti, M.Pd., Apu.",
	"Jumlah Halaman": "351",
	"Tanggal Terbit": "27 Okt 2017",
	"ISBN": "9789795384632",
	"Bahasa": "Indonesia",
	"Penerbit": "Mandar Maju",
	"Berat": "0.35 kg",
	"Lebar": "14 cm",
	"Panjang": "20 cm"
},
{
	"page": 65,
	"kategori 1": "non-fiksi",
	"kategori 2": "bisnis-ekonomi",
	"book_url": "https://www.gramedia.com/products/45-soft-skills-kepemimpinan-praktik-untuk-meraih-keunggula",
	"title": "45 Soft Skills Kepemimpinan ( Praktik Untuk Meraih Keunggula Personal dan Profesional)",
	"author": "KASWAN,M.M",
	"Jumlah Halaman": "558.0",
	"Tanggal Terbit": "15 Jul 2019",
	"ISBN": "9789790767478",
	"Bahasa": "Indonesia",
	"Penerbit": "Pustka Setia",
	"Berat": "0.65 kg",
	"Lebar": "16.0 cm",
	"Panjang": "24.0 cm"
},
{
	"page": 65,
	"kategori 1": "non-fiksi",
	"kategori 2": "bisnis-ekonomi",
	"book_url": "https://www.gramedia.com/products/budgeting-ed-2-perencanaan-kerja-pengkoordinasian-kerja",
	"title": "Budgeting Ed 2: Perencanaan Kerja Pengkoordinasian Kerja",
	"author": "Drs. M. Munandar",
	"Jumlah Halaman": "350.0",
	"Tanggal Terbit": "7 Okt 2019",
	"ISBN": "200145638",
	"Bahasa": "Indonesia",
	"Penerbit": "Bpfe",
	"Berat": "0.445 kg",
	"Lebar": "0.0 cm",
	"Panjang": "0.0 cm"
},
{
	"page": 65,
	"kategori 1": "non-fiksi",
	"kategori 2": "bisnis-ekonomi",
	"book_url": "https://www.gramedia.com/products/analisis-laporan-keuangan-sebagai-dasar-pengambil-keputusan",
	"title": "Analisis Laporan Keuangan, Sebagai Dasar Pengambil Keputusan",
	"author": "Prof. Dr. Sukmawati Sukamulja",
	"Jumlah Halaman": "336.0",
	"Tanggal Terbit": "29 Agt 2019",
	"ISBN": "9786230101632",
	"Bahasa": "Indonesia",
	"Penerbit": "Andi Offset",
	"Berat": "0.437 kg",
	"Lebar": "23.0 cm",
	"Panjang": "16.0 cm"
},
{
	"page": 65,
	"kategori 1": "non-fiksi",
	"kategori 2": "bisnis-ekonomi",
	"book_url": "https://www.gramedia.com/products/xi-im-here-for-you-unofficial-book",
	"title": "Xi; Im Here For You (Unofficial Book)",
	"author": "Adelynn & Adoora",
	"Jumlah Halaman": "172.0",
	"Tanggal Terbit": "7 Jan 2020",
	"ISBN": "9786024077181",
	"Bahasa": "Indonesia",
	"Penerbit": "Laksana",
	"Berat": "0.168 kg",
	"Lebar": "14.0 cm",
	"Panjang": "20.0 cm"
},
{
	"page": 65,
	"kategori 1": "non-fiksi",
	"kategori 2": "bisnis-ekonomi",
	"book_url": "https://www.gramedia.com/products/dasar-dasar-perekonomian-indonesia",
	"title": "Dasar-Dasar Perekonomian Indonesia",
	"author": "Irham Fahmi",
	"Jumlah Halaman": "308.0",
	"Tanggal Terbit": "21 Agt 2019",
	"ISBN": "9786024258726",
	"Bahasa": "Indonesia",
	"Penerbit": "Rajagrafindo Persada",
	"Berat": "0.348 kg",
	"Lebar": "15.0 cm",
	"Panjang": "23.0 cm"
},
{
	"page": 65,
	"kategori 1": "non-fiksi",
	"kategori 2": "bisnis-ekonomi",
	"book_url": "https://www.gramedia.com/products/lets-fly-high-know-x1-better-like-a-flash",
	"title": "Let`s FLY HIGH! Know X1 Better Like a FLASH!",
	"author": "Coppa Magz",
	"Jumlah Halaman": "102.0",
	"Tanggal Terbit": "30 Sep 2019",
	"ISBN": "9786230007170",
	"Bahasa": "Indonesia",
	"Penerbit": "Elex Media Komputindo",
	"Berat": "0.25 kg",
	"Lebar": "17.0 cm",
	"Panjang": "24.0 cm"
},
{
	"page": 65,
	"kategori 1": "non-fiksi",
	"kategori 2": "bisnis-ekonomi",
	"book_url": "https://www.gramedia.com/products/manajemen-pelayanan-publik-5",
	"title": "Manajemen Pelayanan Publik",
	"author": "Zaenal Mukarom",
	"Jumlah Halaman": "242.0",
	"Tanggal Terbit": "9 Sep 2019",
	"ISBN": "9789790765207",
	"Bahasa": "Indonesia",
	"Penerbit": "Cv Pustaka Setia",
	"Berat": "0.3 kg",
	"Lebar": "15.0 cm",
	"Panjang": "23.0 cm"
},
{
	"page": 65,
	"kategori 1": "non-fiksi",
	"kategori 2": "bisnis-ekonomi",
	"book_url": "https://www.gramedia.com/products/manajemen-jasaparadigma-jasa-modern-dalam-industri-jasa",
	"title": "Manajemen Jasa:Paradigma Jasa Modern Dalam Industri Jasa",
	"author": "CHRISTINA WHIDYA UTAMI, DKK",
	"Jumlah Halaman": "254.0",
	"Tanggal Terbit": "12 Nov 2019",
	"ISBN": "9789790618886",
	"Bahasa": "Indonesia",
	"Penerbit": "SALEMBA EMPAT",
	"Berat": "0.8 kg",
	"Lebar": "19.0 cm",
	"Panjang": "26.0 cm"
},
{
	"page": 65,
	"kategori 1": "non-fiksi",
	"kategori 2": "bisnis-ekonomi",
	"book_url": "https://www.gramedia.com/products/pengantar-akuntansi-1-belajar-mudah-akuntansi",
	"title": "Pengantar Akuntansi 1 Belajar Mudah Akuntansi",
	"author": "Yuniar wati",
	"Jumlah Halaman": "234.0",
	"Tanggal Terbit": "8 Nov 2019",
	"ISBN": "9786023590605",
	"Bahasa": "Indonesia",
	"Penerbit": "Pustaka Mandiri",
	"Berat": "0.248 kg",
	"Lebar": "15.8 cm",
	"Panjang": "22.8 cm"
},
{
	"page": 65,
	"kategori 1": "non-fiksi",
	"kategori 2": "bisnis-ekonomi",
	"book_url": "https://www.gramedia.com/products/langkah2-efektif-menyusun-sop",
	"title": "Langkah - Langkah Efektif Menyusun SOP",
	"author": "Arnina P Dkk",
	"Jumlah Halaman": "164",
	"Tanggal Terbit": "10 Okt 2016",
	"ISBN": "9786026475008",
	"Bahasa": "Indonesia",
	"Penerbit": "Huta Media",
	"Berat": "0.2000 kg",
	"Lebar": "14 cm",
	"Panjang": "19 cm"
},
{
	"page": 65,
	"kategori 1": "non-fiksi",
	"kategori 2": "bisnis-ekonomi",
	"book_url": "https://www.gramedia.com/products/pension-ready-pension-happy",
	"title": "Pension Ready, Pension Happy",
	"author": "Prita Ghozie",
	"Jumlah Halaman": "216",
	"Tanggal Terbit": "31 Des 2018",
	"ISBN": "9786020621784",
	"Bahasa": "Indonesia",
	"Penerbit": "Gramedia Pustaka Utama",
	"Berat": "0.300 kg",
	"Lebar": "21 cm",
	"Panjang": "15 cm"
},
{
	"page": 65,
	"kategori 1": "non-fiksi",
	"kategori 2": "bisnis-ekonomi",
	"book_url": "https://www.gramedia.com/products/an-illustrated-biography-george-soros",
	"title": "An Illustrated Biography: George Soros",
	"author": "Kaoru Kurotani",
	"Jumlah Halaman": "192.0",
	"Tanggal Terbit": "7 Okt 2019",
	"ISBN": "9789792728804",
	"Bahasa": "Indonesia",
	"Penerbit": "Elex Media Komputindo",
	"Berat": "0.29 kg",
	"Lebar": "14.0 cm",
	"Panjang": "21.0 cm"
},
{
	"page": 65,
	"kategori 1": "non-fiksi",
	"kategori 2": "bisnis-ekonomi",
	"book_url": "https://www.gramedia.com/products/mudah-memahami-dan-mengimplementasikan-ekonomi-makro-diserta",
	"title": "Mudah Memahami Dan Mengimplementasikan Ekonomi Makro Diserta",
	"author": "Handy Ariwibowo, Alexander Wirapraja Dan Iman Wijoyo",
	"Jumlah Halaman": "240.0",
	"Tanggal Terbit": "11 Okt 2019",
	"ISBN": "9786230100772",
	"Bahasa": "Indonesia",
	"Penerbit": "Andi Offset",
	"Berat": "0.312 kg",
	"Lebar": "16.0 cm",
	"Panjang": "23.0 cm"
},
{
	"page": 65,
	"kategori 1": "non-fiksi",
	"kategori 2": "bisnis-ekonomi",
	"book_url": "https://www.gramedia.com/products/kajian-literatur-dan-arah-topik-riset-ke-depan",
	"title": "Kajian Literatur Dan Arah Topik Riset Ke Depan",
	"author": "Jogiyanto",
	"Jumlah Halaman": "384.0",
	"Tanggal Terbit": "17 Okt 2019",
	"ISBN": "9786230102271",
	"Bahasa": "Indonesia",
	"Penerbit": "Andi Offset",
	"Berat": "0.576 kg",
	"Lebar": "19.0 cm",
	"Panjang": "23.0 cm"
},
{
	"page": 65,
	"kategori 1": "non-fiksi",
	"kategori 2": "bisnis-ekonomi",
	"book_url": "https://www.gramedia.com/products/bisnis-ala-milenial",
	"title": "Bisnis Ala Milenial",
	"author": "Salsabiela",
	"Jumlah Halaman": "111.0",
	"Tanggal Terbit": "10 Okt 2019",
	"ISBN": "9786025992858",
	"Bahasa": "Indonesia",
	"Penerbit": "C-Klik Media",
	"Berat": "0.158 kg",
	"Lebar": "14.0 cm",
	"Panjang": "20.0 cm"
},
{
	"page": 65,
	"kategori 1": "non-fiksi",
	"kategori 2": "bisnis-ekonomi",
	"book_url": "https://www.gramedia.com/products/perubahan-dan-pengembangan-organisasi",
	"title": "PERUBAHAN DAN PENGEMBANGAN ORGANISASI",
	"author": "Kaswan",
	"Jumlah Halaman": "496.0",
	"Tanggal Terbit": "1 Jan 2019",
	"ISBN": "9786023749959",
	"Bahasa": "Indonesia",
	"Penerbit": "YRAMA WIDYA",
	"Berat": "0.626 kg",
	"Lebar": "25.0 cm",
	"Panjang": "17.6 cm"
},
{
	"page": 65,
	"kategori 1": "non-fiksi",
	"kategori 2": "bisnis-ekonomi",
	"book_url": "https://www.gramedia.com/products/menakar-kesetaraan-hak-dan-kewajiban-perpajakan-di-indonesia",
	"title": "Menakar Kesetaraan Hak dan Kewajiban Perpajakan di Indonesia Seri 2",
	"author": "NURYADI MULYODIWARNO",
	"Jumlah Halaman": "392.0",
	"Tanggal Terbit": "15 Sep 2019",
	"ISBN": "9786024253332",
	"Bahasa": "Indonesia",
	"Penerbit": "Rajagrafindo Persada, Pt",
	"Berat": "0.496 kg",
	"Lebar": "15.5 cm",
	"Panjang": "23.0 cm"
},
{
	"page": 65,
	"kategori 1": "non-fiksi",
	"kategori 2": "bisnis-ekonomi",
	"book_url": "https://www.gramedia.com/products/pengantar-ekonomi-mikro-dan-makro-edisi-revisi",
	"title": "Pengantar Ekonomi Mikro Dan Makro Edisi Revisi",
	"author": "Paulus Kurniawan & Made Kembar Sri Budhi",
	"Jumlah Halaman": "212",
	"Tanggal Terbit": "20 Feb 2019",
	"ISBN": "9789792970258",
	"Bahasa": "Indonesia",
	"Penerbit": "Andi Offset",
	"Berat": "0.480 kg",
	"Lebar": "20 cm",
	"Panjang": "28 cm"
},
