{
	"page": 30,
	"kategori 1": "buku-anak",
	"book_url": "https://www.gramedia.com/products/my-dear-sister-kkpk",
	"title": "KKPK: My Dear Sister",
	"author": "Tania Rafli",
	"Jumlah Halaman": "111",
	"Tanggal Terbit": "1 Okt 2017",
	"ISBN": "9786024202606",
	"Bahasa": "Indonesia",
	"Penerbit": "Mizan Publishing",
	"Berat": "0.13 kg",
	"Lebar": "14 cm",
	"Panjang": "21 cm"
},
{
	"page": 30,
	"kategori 1": "buku-anak",
	"book_url": "https://www.gramedia.com/products/aisyah-sofia-libur-sekolah",
	"title": "Aisyah Sofia - Libur Sekolah",
	"author": "Saridah Hamid / Reja",
	"Jumlah Halaman": "152",
	"Tanggal Terbit": "19 Jun 2017",
	"ISBN": "9786024284886",
	"Bahasa": "Indonesia",
	"Penerbit": "m&c!",
	"Berat": "0.4500 kg",
	"Lebar": "15 cm"
},
{
	"page": 30,
	"kategori 1": "buku-anak",
	"book_url": "https://www.gramedia.com/products/princess-academy-opera-dongeng-sari-bulan",
	"title": "Princess Academy Opera Dongeng : Sari Bulan",
	"author": "Oyasujiwo",
	"Jumlah Halaman": "24",
	"Tanggal Terbit": "18 Jul 2016",
	"ISBN": "9786023671625",
	"Bahasa": "Indonesia",
	"Penerbit": "Mizan",
	"Berat": "0.2500 kg",
	"Lebar": "21 cm"
},
{
	"page": 30,
	"kategori 1": "buku-anak",
	"book_url": "https://www.gramedia.com/products/sdmi-kliv-drilling-soal-tema-6-cita-citaku-hots",
	"title": "Sd/Mi Kl.Iv Drilling Soal Tema 6 Cita-Citaku Hots",
	"author": "Tim Kompas Ilmu",
	"Jumlah Halaman": "128.0",
	"Tanggal Terbit": "11 Nov 2019",
	"ISBN": "9786023434626",
	"Bahasa": "Indonesia",
	"Penerbit": "KOMPAS ILMU",
	"Berat": "0.207 kg",
	"Lebar": "18.8 cm",
	"Panjang": "26.6 cm"
},
{
	"page": 30,
	"kategori 1": "buku-anak",
	"book_url": "https://www.gramedia.com/products/ayo-bersikap-baik-beka-yang-ramah",
	"title": "Ayo Bersikap Baik: Beka yang Ramah",
	"author": "Watiek Ideo",
	"Jumlah Halaman": "28",
	"Tanggal Terbit": "8 Mar 2019",
	"ISBN": "9786020628134",
	"Bahasa": "Indonesia",
	"Penerbit": "Gramedia Pustaka Utama",
	"Berat": "0.1 kg",
	"Lebar": "15 cm",
	"Panjang": "23 cm"
},
{
	"page": 30,
	"kategori 1": "buku-anak",
	"book_url": "https://www.gramedia.com/products/science-quiz-experimen-aksi-reaksi",
	"title": "Science Quiz: Experimen Aksi Reaksi",
	"author": "Glsongi (via Carrot Korean Agency)",
	"Jumlah Halaman": "184",
	"Tanggal Terbit": "16 Nov 2015",
	"ISBN": "9786020276397",
	"Bahasa": "Indonesia",
	"Penerbit": "Elex Media Komputindo",
	"Berat": "0.3500 kg",
	"Lebar": "15 cm"
},
{
	"page": 30,
	"kategori 1": "buku-anak",
	"book_url": "https://www.gramedia.com/products/my-ex-boyfriend-retry-1",
	"title": "My Ex- Boyfriend Retry 1",
	"author": "En Hanaya",
	"Jumlah Halaman": "192",
	"Tanggal Terbit": "22 Agt 2016",
	"ISBN": "9786023950454",
	"Bahasa": "Indonesia",
	"Penerbit": "Tiga Lancar",
	"Berat": "0.1000 kg",
	"Lebar": "11.5 cm",
	"Panjang": "17.5 cm"
},
{
	"page": 30,
	"kategori 1": "buku-anak",
	"book_url": "https://www.gramedia.com/products/relife-2",
	"title": "Relife 2",
	"author": "Yayoiso",
	"Jumlah Halaman": "192",
	"Tanggal Terbit": "13 Feb 2017",
	"ISBN": "9786028750929",
	"Bahasa": "Indonesia",
	"Penerbit": "Eaststar Adhi Citra",
	"Berat": "0.15 kg",
	"Lebar": "13 cm",
	"Panjang": "18 cm"
},
{
	"page": 30,
	"kategori 1": "buku-anak",
	"book_url": "https://www.gramedia.com/products/dongeng-rakyat-nusantara-terpopuler-sepanjang-masa",
	"title": "Dongeng Rakyat Nusantara Terpopuler Sepanjang Masa",
	"author": "Eyang Winarno G. N",
	"Jumlah Halaman": "160",
	"Tanggal Terbit": "4 Mar 2016",
	"ISBN": "9786023171842",
	"Bahasa": "Indonesia",
	"Penerbit": "Visi Mandiri",
	"Berat": "0.1500 kg",
	"Lebar": "17 cm"
},
{
	"page": 30,
	"kategori 1": "buku-anak",
	"book_url": "https://www.gramedia.com/products/perfect-world-04",
	"title": "Perfect World 04",
	"author": "Rie Aruga",
	"Jumlah Halaman": "168",
	"Tanggal Terbit": "7 Mar 2018",
	"ISBN": "9786024287696",
	"Bahasa": "Indonesia",
	"Penerbit": "m&c!",
	"Berat": "0.117 kg",
	"Lebar": "11.4 cm",
	"Panjang": "17.2 cm"
},
{
	"page": 30,
	"kategori 1": "buku-anak",
	"book_url": "https://www.gramedia.com/products/sofia-the-first-kutukan-putri-ivy",
	"title": "Sofia The First: Kutukan Putri Ivy",
	"author": "Disney",
	"Jumlah Halaman": "36",
	"Tanggal Terbit": "28 Nov 2014",
	"ISBN": "9786020311050",
	"Bahasa": "Indonesia",
	"Penerbit": "Gramedia Pustaka Utama",
	"Berat": "0.150 kg",
	"Lebar": "20 cm",
	"Panjang": "25 cm"
},
{
	"page": 30,
	"kategori 1": "buku-anak",
	"book_url": "https://www.gramedia.com/products/fantasteen-scary-soul-eater",
	"title": "Fantasteen Scary:Soul Eater",
	"author": "Arghi Asy-syira",
	"Jumlah Halaman": "176",
	"Tanggal Terbit": "18 Jul 2016",
	"ISBN": "9786024200862",
	"Bahasa": "Indonesia",
	"Penerbit": "Mizan",
	"Berat": "0.1400 kg",
	"Lebar": "19.5 cm"
},
{
	"page": 30,
	"kategori 1": "buku-anak",
	"book_url": "https://www.gramedia.com/products/inn-of-the-lost-things-02-lc",
	"title": "LC: Inn of The Lost Things 02",
	"author": "Hozumi",
	"Jumlah Halaman": "192",
	"Tanggal Terbit": "8 Mar 2017",
	"ISBN": "9786020401430",
	"Bahasa": "Indonesia",
	"Penerbit": "Elex Media Komputindo",
	"Berat": "0.1300 kg",
	"Lebar": "12 cm"
},
{
	"page": 30,
	"kategori 1": "buku-anak",
	"book_url": "https://www.gramedia.com/products/fantasteenghost-dormitory-in-nagasaki",
	"title": "Fantasteen Ghost Domitori In Nagasaki",
	"author": "Fida Husna",
	"Jumlah Halaman": "144",
	"Tanggal Terbit": "9 Okt 2018",
	"ISBN": "9786024206581",
	"Bahasa": "Indonesia",
	"Penerbit": "Mizan Publishing",
	"Berat": "0.120 kg",
	"Lebar": "13 cm",
	"Panjang": "19 cm"
},
{
	"page": 30,
	"kategori 1": "buku-anak",
	"book_url": "https://www.gramedia.com/products/conan-movie-sunflowers-of-inferno-first",
	"title": "Conan Movie : Sunflowers of Inferno First",
	"author": "Aoyama Gosho",
	"Jumlah Halaman": "216",
	"Tanggal Terbit": "7 Jun 2017",
	"ISBN": "9786020425375",
	"Bahasa": "Indonesia",
	"Penerbit": "Elex Media Komputindo",
	"Berat": "0.1300 kg",
	"Lebar": "12 cm"
},
{
	"page": 30,
	"kategori 1": "buku-anak",
	"book_url": "https://www.gramedia.com/products/shaman-king-31",
	"title": "Shaman King 31",
	"author": "Hiroyuki Takei",
	"Jumlah Halaman": "192",
	"Tanggal Terbit": "2 Jan 2018",
	"ISBN": "9789792310597",
	"Penerbit": "m&c!",
	"Berat": "0.120 kg",
	"Lebar": "11.4 cm",
	"Panjang": "17.6 cm"
},
{
	"page": 30,
	"kategori 1": "buku-anak",
	"book_url": "https://www.gramedia.com/products/alkitab-wayang-perjanjian-baru",
	"title": "Alkitab Wayang: Perjanjian Baru",
	"author": "Boen Boen",
	"Jumlah Halaman": "97",
	"Tanggal Terbit": "23 Mar 2018",
	"ISBN": "9786022314639",
	"Bahasa": "Bilingual",
	"Penerbit": "Bpk Gunung Mulia",
	"Berat": "0.3 kg",
	"Lebar": "21 cm",
	"Panjang": "21 cm"
},
{
	"page": 30,
	"kategori 1": "buku-anak",
	"book_url": "https://www.gramedia.com/products/princess-academy-toilet-jeritan",
	"title": "Princess Academy: Toilet Jeritan",
	"author": "Assyifa S. Arum",
	"Jumlah Halaman": "83",
	"Tanggal Terbit": "12 Feb 2017",
	"ISBN": "9786023673537",
	"Bahasa": "Indonesia",
	"Penerbit": "Muffin Graphics",
	"Berat": "0.10 kg",
	"Lebar": "14 cm",
	"Panjang": "20 cm"
},
{
	"page": 30,
	"kategori 1": "buku-anak",
	"book_url": "https://www.gramedia.com/products/kutukan-beringin-tua-komik-fantasteen-29",
	"title": "Kutukan Beringin Tua : Komik Fantasteen #29",
	"author": "Ahsanul Marom Dkk",
	"Jumlah Halaman": "120",
	"Tanggal Terbit": "15 Okt 2015",
	"ISBN": "9786022428404",
	"Bahasa": "Indonesia",
	"Penerbit": "Mizan Media Utama",
	"Berat": "0.1000 kg",
	"Lebar": "13 cm"
},
{
	"page": 30,
	"kategori 1": "buku-anak",
	"book_url": "https://www.gramedia.com/products/the-miracle-power-of-love-05-tamat",
	"title": "The Miracle Power of Love 05 - tamat",
	"author": "Yoko Maki",
	"Jumlah Halaman": "200",
	"Tanggal Terbit": "3 Mei 2017",
	"ISBN": "9786024283506",
	"Bahasa": "Indonesia",
	"Penerbit": "m&c!",
	"Berat": "0.1300 kg",
	"Lebar": "11.2 cm"
},
{
	"page": 30,
	"kategori 1": "buku-anak",
	"book_url": "https://www.gramedia.com/products/jenderal-islam-paling-berpengaruh-sepanjang-sejarah",
	"title": "Jenderal Islam Paling Berpengaruh Sepanjang Sejarah",
	"author": "Nabawiyah Mahmud",
	"Jumlah Halaman": "205",
	"Tanggal Terbit": "11 Agt 2017",
	"ISBN": "9789791093477",
	"Penerbit": "Al-wafi Publishing",
	"Berat": "0.23 kg",
	"Lebar": "14 cm",
	"Panjang": "20.5 cm"
},
{
	"page": 30,
	"kategori 1": "buku-anak",
	"book_url": "https://www.gramedia.com/products/k-fantasteen-45-jurit-malam",
	"title": "K. Fantasteen#45:Jurit Malam",
	"author": "Tansah Sinawang S, Dianara, Dkk",
	"Jumlah Halaman": "111",
	"Tanggal Terbit": "21 Mar 2017",
	"ISBN": "9786024203566",
	"Bahasa": "Indonesia",
	"Penerbit": "Mizan Publishing",
	"Berat": "0.1000 kg",
	"Lebar": "13 cm"
},
{
	"page": 30,
	"kategori 1": "buku-anak",
	"book_url": "https://www.gramedia.com/products/lhm-vengeance-continous-24",
	"title": "Long Hu Men The Vengeance Continues 24",
	"author": "Tony Wong",
	"Jumlah Halaman": "184",
	"Tanggal Terbit": "14 Sep 2016",
	"ISBN": "9786023399543",
	"Bahasa": "Indonesia",
	"Penerbit": "m&c!",
	"Berat": "0.2000 kg",
	"Lebar": "17 cm",
	"Panjang": "24.5 cm"
},
{
	"page": 30,
	"kategori 1": "buku-anak",
	"book_url": "https://www.gramedia.com/products/kkpk-the-five-smart-girls-new",
	"title": "Kkpk.The Five Smart Girls-New",
	"author": "Najma Alya Jasmine",
	"Jumlah Halaman": "112",
	"Tanggal Terbit": "21 Apr 2016",
	"ISBN": "9786022429067",
	"Bahasa": "Indonesia",
	"Penerbit": "Mizan",
	"Berat": "0.1400 kg",
	"Lebar": "14 cm"
},
{
	"page": 30,
	"kategori 1": "buku-anak",
	"book_url": "https://www.gramedia.com/products/happy-son-and-smart-dad-sepuluh-telur-ajaib",
	"title": "Happy Son and Smart Dad: Sepuluh Telur Ajaib",
	"author": "Zheng chun huaa",
	"Jumlah Halaman": "132",
	"Tanggal Terbit": "10 Sep 2018",
	"ISBN": "9786024830786",
	"Bahasa": "Indonesia",
	"Penerbit": "Bhuana Ilmu Populer",
	"Berat": "0.2 kg",
	"Lebar": "17 cm",
	"Panjang": "22 cm"
},
{
	"page": 30,
	"kategori 1": "buku-anak",
	"book_url": "https://www.gramedia.com/products/seri-kalimat-thayyibah-ayo-ucapkan-assalamualaikum",
	"title": "Seri Kalimat Thayyibah : Ayo Ucapkan Assalamu'Alaikum",
	"author": "Dian Kristiani",
	"Jumlah Halaman": "14",
	"Tanggal Terbit": "20 Mei 2019",
	"ISBN": "9786232161962",
	"Bahasa": "Indonesia",
	"Penerbit": "Bhuana Ilmu Populer",
	"Berat": "0.120 kg",
	"Lebar": "14 cm",
	"Panjang": "18 cm"
},
{
	"page": 30,
	"kategori 1": "buku-anak",
	"book_url": "https://www.gramedia.com/products/misteri-aldira-komik-fantasteen-30",
	"title": "Misteri Aldira : Komik Fantasteen #30",
	"author": "Ditta Hakha Soleha Dkk",
	"Jumlah Halaman": "108",
	"Tanggal Terbit": "15 Okt 2015",
	"ISBN": "9786022428411",
	"Bahasa": "Indonesia",
	"Penerbit": "Mizan Media Utama",
	"Berat": "0.1000 kg",
	"Lebar": "13 cm"
},
{
	"page": 30,
	"kategori 1": "buku-anak",
	"book_url": "https://www.gramedia.com/products/sket-dance-17",
	"title": "Sket Dance 17",
	"author": "Kenta Shinohara",
	"Jumlah Halaman": "192",
	"Tanggal Terbit": "1 Nov 2017",
	"ISBN": "9786020445731",
	"Penerbit": "Elex Media Komputindo",
	"Berat": "0.125 kg",
	"Lebar": "11.4 cm",
	"Panjang": "17.2 cm"
},
{
	"page": 30,
	"kategori 1": "buku-anak",
	"book_url": "https://www.gramedia.com/products/sgc-survival-game-club-1",
	"title": "SGC! Survival Game Club 1",
	"author": "Hidekichi Matsumoto",
	"Jumlah Halaman": "168",
	"Tanggal Terbit": "31 Jan 2018",
	"ISBN": "9786020454115",
	"Penerbit": "Elex Media Komputindo",
	"Berat": "0.115 kg",
	"Lebar": "11.4 cm",
	"Panjang": "17.2 cm"
},
{
	"page": 30,
	"kategori 1": "buku-anak",
	"book_url": "https://www.gramedia.com/products/lc-fight-ippo-113",
	"title": "LC: Fight Ippo 113",
	"author": "Joji Morikawa",
	"Jumlah Halaman": "192",
	"Tanggal Terbit": "27 Des 2017",
	"ISBN": "9786020451220",
	"Penerbit": "Elex Media Komputindo",
	"Berat": "0.120 kg",
	"Lebar": "13 cm",
	"Panjang": "18 cm"
},
{
	"page": 30,
	"kategori 1": "buku-anak",
	"book_url": "https://www.gramedia.com/products/hatchimals-hatch-friends-forever-sc",
	"title": "Hatchimals Hatch Friends Forever!",
	"author": "Penguin Young Readers Licenses",
	"Jumlah Halaman": "16",
	"Tanggal Terbit": "28 Jan 2019",
	"ISBN": "9781524790721",
	"Bahasa": "English",
	"Penerbit": "Penguin Random House",
	"Berat": "0.12 kg",
	"Lebar": "22 cm",
	"Panjang": "28 cm"
},
{
	"page": 30,
	"kategori 1": "buku-anak",
	"book_url": "https://www.gramedia.com/products/love-is-the-devil-vol-6",
	"title": "Love is The Devil Vol. 6",
	"author": "Pedoro Toriumi",
	"Jumlah Halaman": "160",
	"Tanggal Terbit": "8 Jan 2018",
	"ISBN": "9786020452760",
	"Penerbit": "Elex Media Komputindo",
	"Berat": "0.115 kg",
	"Lebar": "11.4 cm",
	"Panjang": "17.2 cm"
},
{
	"page": 30,
	"kategori 1": "buku-anak",
	"book_url": "https://www.gramedia.com/products/love-warship-vol-5",
	"title": "Love & Warship Vol. 5",
	"author": "Keiko Nishi",
	"Jumlah Halaman": "160",
	"Tanggal Terbit": "14 Mar 2018",
	"ISBN": "9786020456072",
	"Bahasa": "Indonesia",
	"Penerbit": "Elex Media Komputindo",
	"Berat": "0.118 kg",
	"Lebar": "11.4 cm",
	"Panjang": "17.2 cm"
},
{
	"page": 30,
	"kategori 1": "buku-anak",
	"book_url": "https://www.gramedia.com/products/our-magical-love-03-tamat",
	"title": "Our Magical Love 03 - Tamat",
	"author": "Yuka Shibano",
	"Jumlah Halaman": "192",
	"Tanggal Terbit": "15 Feb 2017",
	"ISBN": "9786024282745",
	"Penerbit": "m&c!",
	"Berat": "0.1280 kg",
	"Lebar": "11.4 cm"
},
{
	"page": 30,
	"kategori 1": "buku-anak",
	"book_url": "https://www.gramedia.com/products/aikatsu-fanbook-stage-01",
	"title": "Aikatsu Fanbook Stage 01",
	"author": "m&c!",
	"Jumlah Halaman": "32",
	"Tanggal Terbit": "3 Agt 2016",
	"ISBN": "9786024280529",
	"Bahasa": "Indonesia",
	"Penerbit": "Bandai/dentsu/shogakukan Asia",
	"Berat": "0.1000 kg",
	"Lebar": "17 cm"
},
{
	"page": 30,
	"kategori 1": "buku-anak",
	"book_url": "https://www.gramedia.com/products/ping-pong-drive-2",
	"title": "Ping - Pong Drive 2",
	"author": "Haruyuki Yoshida",
	"Jumlah Halaman": "160",
	"Tanggal Terbit": "4 Apr 2018",
	"ISBN": "9786020457451",
	"Bahasa": "Indonesia",
	"Penerbit": "Elex Media Komputindo",
	"Berat": "0.115 kg",
	"Lebar": "11.4 cm",
	"Panjang": "17.2 cm"
},
{
	"page": 30,
	"kategori 1": "buku-anak",
	"book_url": "https://www.gramedia.com/products/shonen-fight-vol-4",
	"title": "Shonen Fight Vol 4",
	"author": "Mukhlis Nur",
	"Jumlah Halaman": "288",
	"Tanggal Terbit": "26 Agt 2015",
	"ISBN": "9786027262942",
	"Bahasa": "Indonesia",
	"Penerbit": "Pt Fajar Waka Semesta",
	"Berat": "0.3000 kg",
	"Lebar": "15 cm"
},
{
	"page": 30,
	"kategori 1": "buku-anak",
	"book_url": "https://www.gramedia.com/products/bip-belajar-cepat-baca-tanpa-mengeja-bersama-lingkungan-se",
	"title": "Bip - Belajar Cepat Baca Tanpa Mengeja Bersama Lingkungan Sekitar",
	"author": "Graecia & Bunda Lani",
	"Jumlah Halaman": "57",
	"Tanggal Terbit": "22 Jan 2018",
	"ISBN": "9786024553265",
	"Bahasa": "Indonesia",
	"Penerbit": "Bhuana Ilmu Populer",
	"Berat": "0.100 kg",
	"Lebar": "21 cm",
	"Panjang": "27 cm"
},
{
	"page": 30,
	"kategori 1": "buku-anak",
	"book_url": "https://www.gramedia.com/products/lola-the-loading-lama-girl",
	"title": "Lola the Loading Lama Girl",
	"author": "Dian Kristiani",
	"Jumlah Halaman": "172",
	"Tanggal Terbit": "27 Nov 2017",
	"ISBN": "9786024552503",
	"Penerbit": "Bhuana Ilmu Populer",
	"Berat": "0.100 kg",
	"Lebar": "13 cm",
	"Panjang": "19 cm"
},
{
	"page": 30,
	"kategori 1": "buku-anak",
	"book_url": "https://www.gramedia.com/products/yorick",
	"title": "Yorick",
	"author": "Kirana Kejora",
	"Jumlah Halaman": "336",
	"Tanggal Terbit": "12 Nov 2018",
	"ISBN": "9786025288302",
	"Bahasa": "Indonesia",
	"Penerbit": "Nevsky Prospektif Indonesia",
	"Berat": "0.44 kg",
	"Lebar": "13 cm",
	"Panjang": "21 cm"
},
{
	"page": 30,
	"kategori 1": "buku-anak",
	"book_url": "https://www.gramedia.com/products/aku-pintar-tajwid-untuk-muslim-cilik",
	"title": "Aku Pintar Tajwid Untuk Muslim Cilik",
	"author": "Kak Megah",
	"Jumlah Halaman": "88",
	"Tanggal Terbit": "29 Mar 2018",
	"ISBN": "9786025479328",
	"Bahasa": "Indonesia",
	"Penerbit": "Checklist",
	"Berat": "0.20 kg",
	"Lebar": "18 cm",
	"Panjang": "24 cm"
},
{
	"page": 30,
	"kategori 1": "buku-anak",
	"book_url": "https://www.gramedia.com/products/re-on-comics-vol-17",
	"title": "Re : On Comics Vol 17",
	"author": "Chris Lie",
	"Jumlah Halaman": "176",
	"Tanggal Terbit": "17 Nov 2015",
	"ISBN": "9786020892078",
	"Bahasa": "Indonesia",
	"Penerbit": "Wahana Inspirasi Nusantara",
	"Berat": "0.3000 kg",
	"Lebar": "18 cm",
	"Panjang": "25 cm"
},
{
	"page": 30,
	"kategori 1": "buku-anak",
	"book_url": "https://www.gramedia.com/products/sahabat-sejati-new-kkpk",
	"title": "Sahabat Sejati-New : Kkpk",
	"author": "Arin",
	"Jumlah Halaman": "116",
	"Tanggal Terbit": "16 Mei 2016",
	"ISBN": "9786022429623",
	"Bahasa": "Indonesia",
	"Penerbit": "Mizan Publishing",
	"Berat": "0.15 kg",
	"Lebar": "14 cm",
	"Panjang": "21 cm"
},
{
	"page": 30,
	"kategori 1": "buku-anak",
	"book_url": "https://www.gramedia.com/products/captain-tsubasa-premium-10",
	"title": "Captain Tsubasa (Premium) 10",
	"author": "Yoichi Takahasi",
	"Jumlah Halaman": "346",
	"Tanggal Terbit": "18 Jan 2017",
	"ISBN": "9786020299600",
	"Bahasa": "Indonesia",
	"Penerbit": "Elex Media Komputindo",
	"Berat": "0.1300 kg",
	"Lebar": "11.4 cm"
},
{
	"page": 30,
	"kategori 1": "buku-anak",
	"book_url": "https://www.gramedia.com/products/kisah-teladan-para-sahabiyah-nabi",
	"title": "Kisah Teladan Para Sahabiyah Nabi",
	"author": "Ana Widyastuti, M.pd",
	"Jumlah Halaman": "120",
	"Tanggal Terbit": "8 Jul 2019",
	"ISBN": "9786230001437",
	"Bahasa": "Indonesia",
	"Penerbit": "Elex Media Komputindo",
	"Berat": "0.230 kg",
	"Lebar": "19 cm",
	"Panjang": "23 cm"
},
{
	"page": 30,
	"kategori 1": "buku-anak",
	"book_url": "https://www.gramedia.com/products/claymore-24",
	"title": "Claymore 24",
	"author": "Norihiro Yagi",
	"Jumlah Halaman": "200",
	"Tanggal Terbit": "20 Jun 2017",
	"ISBN": "9786020401249",
	"Bahasa": "Indonesia",
	"Penerbit": "Elex Media Komputindo",
	"Berat": "0.1300 kg",
	"Lebar": "11.4 cm"
},
{
	"page": 30,
	"kategori 1": "buku-anak",
	"book_url": "https://www.gramedia.com/products/25-beautiful-friendship-kkpk",
	"title": "25 Beautiful Friendship : KKPK",
	"author": "Annisa Zhahrotushama Balqis",
	"Jumlah Halaman": "111",
	"Tanggal Terbit": "29 Sep 2017",
	"ISBN": "9786024204846",
	"Bahasa": "Indonesia",
	"Penerbit": "Mizan Media Utama",
	"Berat": "0.13 kg",
	"Lebar": "14 cm",
	"Panjang": "21 cm"
},
{
	"page": 30,
	"kategori 1": "buku-anak",
	"book_url": "https://www.gramedia.com/products/seri-smart-science-masak-apa-saat-berkemah",
	"title": "Seri Smart Science: Masak Apa Saat Berkemah?",
	"author": "Shin Youn Ok",
	"Jumlah Halaman": "52",
	"Tanggal Terbit": "1 Apr 2019",
	"ISBN": "9786232160170",
	"Bahasa": "Indonesia",
	"Penerbit": "Bhuana Ilmu Populer",
	"Berat": "0.1 kg",
	"Lebar": "22 cm",
	"Panjang": "26.7 cm"
},
{
	"page": 30,
	"kategori 1": "buku-anak",
	"book_url": "https://www.gramedia.com/products/undergroun-dogs-2",
	"title": "Undergroun` Dogs 2",
	"author": "Kuromaru",
	"Jumlah Halaman": "232",
	"Tanggal Terbit": "17 Mei 2017",
	"ISBN": "9786020413662",
	"Bahasa": "Indonesia",
	"Penerbit": "Elex Media Komputindo",
	"Berat": "0.1310 kg",
	"Lebar": "11.4 cm"
},
{
	"page": 30,
	"kategori 1": "buku-anak",
	"book_url": "https://www.gramedia.com/products/barakamon-vol-12",
	"title": "Barakamon Vol. 12",
	"author": "Satsuki Yoshino",
	"Jumlah Halaman": "196",
	"Tanggal Terbit": "2 Nov 2016",
	"ISBN": "9786020286044",
	"Bahasa": "Indonesia",
	"Penerbit": "Elex Media Komputindo",
	"Berat": "0.1300 kg",
	"Lebar": "11.4 cm"
},
{
	"page": 30,
	"kategori 1": "buku-anak",
	"book_url": "https://www.gramedia.com/products/jejak-misterius-kkpk",
	"title": "Jejak Misterius :Kkpk",
	"author": "Archea",
	"Jumlah Halaman": "92",
	"Tanggal Terbit": "27 Jul 2015",
	"ISBN": "9786022426820",
	"Bahasa": "Indonesia",
	"Penerbit": "Mizan",
	"Berat": "0.1500 kg",
	"Lebar": "14 cm"
},
{
	"page": 30,
	"kategori 1": "buku-anak",
	"book_url": "https://www.gramedia.com/products/kkpk-class-nomik-16-rujak-pemersatu",
	"title": "KKPK Class Nomik #16: Rujak Pemersatu",
	"author": "Rasyiqa Annisa Thohira",
	"Jumlah Halaman": "76",
	"Tanggal Terbit": "28 Sep 2017",
	"ISBN": "9786024204099",
	"Bahasa": "Indonesia",
	"Penerbit": "Mizan Publishing",
	"Berat": "0.08 kg",
	"Lebar": "14.5 cm",
	"Panjang": "21 cm"
},
{
	"page": 30,
	"kategori 1": "buku-anak",
	"book_url": "https://www.gramedia.com/products/seven-deadly-sins-15",
	"title": "Seven Deadly Sins 15",
	"author": "Nakaba Suzuki",
	"Jumlah Halaman": "192",
	"Tanggal Terbit": "11 Okt 2017",
	"ISBN": "9786020445007",
	"Bahasa": "Indonesia",
	"Penerbit": "Elex Media Komputindo",
	"Berat": "0.1300 kg",
	"Lebar": "11.4 cm"
},
{
	"page": 30,
	"kategori 1": "buku-anak",
	"book_url": "https://www.gramedia.com/products/transportasi-my-favorite-dot-to-dot",
	"title": "Transportasi: My Favorite Dot To Dot",
	"author": "Kak Caca",
	"Jumlah Halaman": "64",
	"Tanggal Terbit": "22 Okt 2018",
	"ISBN": "9786025480515",
	"Bahasa": "Indonesia",
	"Penerbit": "Charissa Publisher",
	"Berat": "0.2 kg",
	"Lebar": "18 cm",
	"Panjang": "24 cm"
},
{
	"page": 30,
	"kategori 1": "buku-anak",
	"book_url": "https://www.gramedia.com/products/dragon-ball-vol-12",
	"title": "Dragon Ball Vol. 12",
	"author": "Akira Toriyama",
	"Jumlah Halaman": "192",
	"Tanggal Terbit": "12 Apr 2017",
	"ISBN": "9786020413013",
	"Bahasa": "Indonesia",
	"Penerbit": "Elex Media Komputindo",
	"Berat": "0.1270 kg",
	"Lebar": "11.4 cm"
},
{
	"page": 30,
	"kategori 1": "buku-anak",
	"book_url": "https://www.gramedia.com/products/kkpkmy-sweet-dream-new",
	"title": "KKPK My Sweet Dream - New",
	"author": "Yunda",
	"Jumlah Halaman": "103",
	"Tanggal Terbit": "13 Feb 2018",
	"ISBN": "9786024205584",
	"Bahasa": "Indonesia",
	"Penerbit": "Mizan Publishing",
	"Berat": "0.125 kg",
	"Lebar": "14.5 cm",
	"Panjang": "21 cm"
},
{
	"page": 30,
	"kategori 1": "buku-anak",
	"book_url": "https://www.gramedia.com/products/seri-pengetahuan-anak-sehat-ayo-gerakan-badanmu",
	"title": "Seri Pengetahuan Anak Sehat : Ayo Gerakan Badanmu!",
	"author": "Kim Eun Jung",
	"Jumlah Halaman": "48",
	"Tanggal Terbit": "27 Nov 2017",
	"ISBN": "9786024552442",
	"Penerbit": "Bhuana Ilmu Populer",
	"Berat": "0.100 kg",
	"Lebar": "19.5 cm",
	"Panjang": "21.5 cm"
},
{
	"page": 30,
	"kategori 1": "buku-anak",
	"book_url": "https://www.gramedia.com/products/kkpkmenari-di-pelangi-new",
	"title": "Kecil-Kecil Punya Karya Menari Di Pelangi - New",
	"author": "Ayunda Nisa Chaira",
	"Jumlah Halaman": "118",
	"Tanggal Terbit": "2 Mei 2017",
	"ISBN": "9786024204211",
	"Bahasa": "Indonesia",
	"Penerbit": "Mizan Publishing",
	"Berat": "0.15 kg",
	"Lebar": "14 cm",
	"Panjang": "20 cm"
},
{
	"page": 30,
	"kategori 1": "buku-anak",
	"book_url": "https://www.gramedia.com/products/dieser-man",
	"title": "Dieser Man",
	"author": "Rincelina Tamba",
	"Jumlah Halaman": "484",
	"Tanggal Terbit": "12 Jul 2017",
	"ISBN": "9786026657510",
	"Penerbit": "Aria Media",
	"Berat": "0.32 kg",
	"Lebar": "13 cm",
	"Panjang": "19 cm"
},
{
	"page": 30,
	"kategori 1": "buku-anak",
	"book_url": "https://www.gramedia.com/products/dongeng-nusantara-favorit-batu-belah",
	"title": "Dongeng Nusantara Favorit : Batu Belah",
	"author": "Fajriatun Nur",
	"Jumlah Halaman": "34",
	"Tanggal Terbit": "13 Nov 2018",
	"ISBN": "9786021267851",
	"Bahasa": "Bilingual",
	"Penerbit": "Cikal Aksara",
	"Berat": "0.120 kg",
	"Lebar": "19 cm",
	"Panjang": "24 cm"
},
{
	"page": 30,
	"kategori 1": "buku-anak",
	"book_url": "https://www.gramedia.com/products/kkpk-chika-chiko",
	"title": "KKPK Chika & Chiko",
	"author": "Ukasyah Ammar Robbani",
	"Jumlah Halaman": "88",
	"Tanggal Terbit": "14 Jan 2019",
	"ISBN": "9786024207366",
	"Bahasa": "Indonesia",
	"Penerbit": "Mizan Publishing",
	"Berat": "0.20 kg",
	"Lebar": "14 cm",
	"Panjang": "21 cm"
},
{
	"page": 30,
	"kategori 1": "buku-anak",
	"book_url": "https://www.gramedia.com/products/attack-on-titan-07-lc",
	"title": "Attack On Titan 07: LC",
	"author": "Hajime Isaya",
	"Tanggal Terbit": "14 Feb 2014",
	"Bahasa": "Indonesia",
	"Penerbit": "Elex Media Komputindo",
	"Berat": "0.1500 kg",
	"Lebar": "11 cm"
},
{
	"page": 30,
	"kategori 1": "buku-anak",
	"book_url": "https://www.gramedia.com/products/vs-sugarless-3l",
	"title": "Vs Sugarless 3L",
	"author": "Kazumi Kazui",
	"Jumlah Halaman": "192",
	"Tanggal Terbit": "20 Mei 2016",
	"ISBN": "9786023950362",
	"Bahasa": "Indonesia",
	"Penerbit": "Tiga Lancar",
	"Berat": "0.1000 kg",
	"Lebar": "12 cm"
},
{
	"page": 30,
	"kategori 1": "buku-anak",
	"book_url": "https://www.gramedia.com/products/kungfu-boy-legends-15",
	"title": "Kungfu Boy Legends 15",
	"author": "Takeshi Maekawa",
	"Tanggal Terbit": "6 Jul 2014",
	"Penerbit": "Elex Media Komputindo",
	"Berat": "0.1000 kg",
	"Lebar": "12 cm",
	"Panjang": "0 cm"
},
{
	"page": 30,
	"kategori 1": "buku-anak",
	"book_url": "https://www.gramedia.com/products/ten-ten-english-words-easy-so-pasti",
	"title": "Ten Ten : English Words? Easy? So Pasti!",
	"author": "Hwang Eun Young",
	"Jumlah Halaman": "204",
	"Tanggal Terbit": "1 Agt 2016",
	"ISBN": "9786020290928",
	"Bahasa": "Indonesia",
	"Penerbit": "Elex Media Komputindo",
	"Berat": "0.200 kg",
	"Lebar": "15 cm",
	"Panjang": "22 cm"
},
{
	"page": 30,
	"kategori 1": "buku-anak",
	"book_url": "https://www.gramedia.com/products/lc-giant-killing-40",
	"title": "LC: Giant Killing 40",
	"author": "Masaya Tsunamoto, Tsujitomo",
	"Jumlah Halaman": "232",
	"Tanggal Terbit": "26 Jul 2017",
	"ISBN": "9786020427577",
	"Bahasa": "Indonesia",
	"Penerbit": "Elex Media Komputindo",
	"Berat": "0.1320 kg",
	"Lebar": "13 cm"
},
{
	"page": 30,
	"kategori 1": "buku-anak",
	"book_url": "https://www.gramedia.com/products/love-warship-vol-6",
	"title": "Love & Warship Vol. 6",
	"author": "Keiko Nishi",
	"Jumlah Halaman": "160",
	"Tanggal Terbit": "16 Apr 2018",
	"ISBN": "9786020458144",
	"Bahasa": "Indonesia",
	"Penerbit": "Elex Media Komputindo",
	"Berat": "0.115 kg",
	"Lebar": "11 cm",
	"Panjang": "17 cm"
},
{
	"page": 30,
	"kategori 1": "buku-anak",
	"book_url": "https://www.gramedia.com/products/fantasteenphobia",
	"title": "Fantasteen Phobia",
	"author": "Sherina Salsabila",
	"Jumlah Halaman": "144",
	"Tanggal Terbit": "28 Feb 2019",
	"ISBN": "9786024207687",
	"Bahasa": "Indonesia",
	"Penerbit": "Pastel Books",
	"Berat": "0.12 kg",
	"Lebar": "14 cm",
	"Panjang": "20 cm"
},
{
	"page": 30,
	"kategori 1": "buku-anak",
	"book_url": "https://www.gramedia.com/products/kasih-sayang-nabi-muhammad-saw",
	"title": "Kasih Sayang Nabi Muhammad Saw",
	"author": "Muhammad Yasir, Lc.",
	"Jumlah Halaman": "138",
	"Tanggal Terbit": "20 Mar 2018",
	"ISBN": "9786021694558",
	"Bahasa": "Indonesia",
	"Penerbit": "Pustaka Al-Kautsar",
	"Berat": "0.31 kg",
	"Lebar": "20 cm",
	"Panjang": "25 cm"
},
{
	"page": 30,
	"kategori 1": "buku-anak",
	"book_url": "https://www.gramedia.com/products/assassination-classroom-07",
	"title": "Assassination Classroom 07",
	"author": "Yusei Matsui",
	"Jumlah Halaman": "208",
	"Tanggal Terbit": "13 Apr 2016",
	"ISBN": "9786020283210",
	"Bahasa": "Indonesia",
	"Penerbit": "Elex Media Komputindo",
	"Berat": "0.1000 kg",
	"Lebar": "11 cm"
},
{
	"page": 30,
	"kategori 1": "buku-anak",
	"book_url": "https://www.gramedia.com/products/seri-fais-keledai-hidup-lagi-setelah-mati-seratus-tahun",
	"title": "Seri Fais : Keledai Hidup Lagi Setelah Mati Seratus Tahun",
	"author": "Yoli Hemdi",
	"Jumlah Halaman": "35",
	"Tanggal Terbit": "22 Mar 2018",
	"ISBN": "9786022681946",
	"Bahasa": "Indonesia",
	"Penerbit": "Luxima Metro Media",
	"Berat": "0.10 kg",
	"Lebar": "19 cm",
	"Panjang": "19 cm"
},
{
	"page": 30,
	"kategori 1": "buku-anak",
	"book_url": "https://www.gramedia.com/products/fantasteen-scary-jangan-becermin-malam-ini",
	"title": "Fantasteen Scary:Jangan Becermin Malam Ini",
	"author": "Nurlailan Syahara",
	"Jumlah Halaman": "147",
	"Tanggal Terbit": "7 Sep 2016",
	"ISBN": "9786024201562",
	"Bahasa": "Indonesia",
	"Penerbit": "Mizan Publishing",
	"Berat": "0.15 kg",
	"Lebar": "13 cm",
	"Panjang": "19 cm"
},
{
	"page": 30,
	"kategori 1": "buku-anak",
	"book_url": "https://www.gramedia.com/products/gnosis-march-1",
	"title": "Gnosis March 1",
	"author": "Koichiro Hoshino",
	"Jumlah Halaman": "192",
	"Tanggal Terbit": "7 Jun 2017",
	"ISBN": "9786020425337",
	"Bahasa": "Indonesia",
	"Penerbit": "Elex Media Komputindo",
	"Berat": "0.1300 kg",
	"Lebar": "11.4 cm"
},
{
	"page": 30,
	"kategori 1": "buku-anak",
	"book_url": "https://www.gramedia.com/products/ensiklopedia-golongan-darah-0",
	"title": "Ensiklopedia Golongan Darah 0",
	"author": "Kim Jieun",
	"Jumlah Halaman": "190",
	"Tanggal Terbit": "25 Jul 2016",
	"ISBN": "9786023942220",
	"Bahasa": "Indonesia",
	"Penerbit": "Bhuana Ilmu Populer",
	"Berat": "0.2000 kg",
	"Lebar": "17 cm"
},
{
	"page": 30,
	"kategori 1": "buku-anak",
	"book_url": "https://www.gramedia.com/products/science-quiz-fisika-kimia",
	"title": "Science Quiz - Fisika & Kimia",
	"author": "Park Gyeong-eun",
	"Jumlah Halaman": "200",
	"Tanggal Terbit": "18 Jan 2016",
	"ISBN": "9786020279527",
	"Bahasa": "Indonesia",
	"Penerbit": "Elex Media Komputindo",
	"Berat": "0.4000 kg",
	"Lebar": "15 cm"
},
{
	"page": 30,
	"kategori 1": "buku-anak",
	"book_url": "https://www.gramedia.com/products/25-kisah-nabi-dan-rasul",
	"title": "25 Kisah Nabi Dan Rasul",
	"author": "Aan Wulandari Usman",
	"Jumlah Halaman": "148",
	"Tanggal Terbit": "12 Feb 2018",
	"ISBN": "9786024301378",
	"Bahasa": "Indonesia",
	"Penerbit": "Bentang Pustaka",
	"Berat": "0.305 kg",
	"Lebar": "19 cm",
	"Panjang": "24 cm"
},
{
	"page": 30,
	"kategori 1": "buku-anak",
	"book_url": "https://www.gramedia.com/products/the-orphan-train-vol8-perpisahan",
	"title": "The Orphan Train Vol. 8: Perpisahan",
	"author": "Bamboo Media",
	"Jumlah Halaman": "48",
	"Tanggal Terbit": "4 Jun 2018",
	"ISBN": "9786024556525",
	"Bahasa": "Indonesia",
	"Penerbit": "Bhuana Ilmu Populer",
	"Berat": "0.15 kg",
	"Lebar": "18 cm",
	"Panjang": "24 cm"
},
{
	"page": 30,
	"kategori 1": "buku-anak",
	"book_url": "https://www.gramedia.com/products/captain-alice-08-lc",
	"title": "LC: Captain Alice 08",
	"author": "Yuzo Takada",
	"Jumlah Halaman": "232",
	"Tanggal Terbit": "30 Nov 2016",
	"ISBN": "9786020297217",
	"Bahasa": "Indonesia",
	"Penerbit": "Elex Media Komputindo",
	"Berat": "0.1200 kg",
	"Lebar": "13 cm",
	"Panjang": "18 cm"
},
{
	"page": 30,
	"kategori 1": "buku-anak",
	"book_url": "https://www.gramedia.com/products/kkpk-three-happy-girls",
	"title": "Kkpk : Three Happy Girls",
	"author": "Oryza Sativa A ( Oca )",
	"Jumlah Halaman": "112",
	"Tanggal Terbit": "6 Jan 2016",
	"ISBN": "9786022426592",
	"Bahasa": "Indonesia",
	"Penerbit": "Mizan",
	"Berat": "0.1500 kg",
	"Lebar": "15 cm"
},
{
	"page": 30,
	"kategori 1": "buku-anak",
	"book_url": "https://www.gramedia.com/products/warudoll-02",
	"title": "Warudoll 02",
	"author": "Hitotsuki Yamada",
	"Jumlah Halaman": "168",
	"Tanggal Terbit": "18 Jan 2017",
	"ISBN": "9786020299808",
	"Bahasa": "Indonesia",
	"Penerbit": "Elex Media Komputindo",
	"Berat": "0.1200 kg",
	"Lebar": "11.4 cm"
},
{
	"page": 30,
	"kategori 1": "buku-anak",
	"book_url": "https://www.gramedia.com/products/fairy-tail-51",
	"title": "Fairy Tail 51",
	"author": "Hiro Mashima",
	"Jumlah Halaman": "192",
	"Tanggal Terbit": "24 Jan 2018",
	"ISBN": "9786020452739",
	"Penerbit": "Elex Media Komputindo",
	"Berat": "0.120 kg",
	"Lebar": "11.4 cm",
	"Panjang": "17.2 cm"
},
{
	"page": 30,
	"kategori 1": "buku-anak",
	"book_url": "https://www.gramedia.com/products/pandora-fantasteen",
	"title": "Pandora : Fantasteen",
	"author": "Utari Rachma Siwi, Dkk",
	"Jumlah Halaman": "184",
	"Tanggal Terbit": "11 Agt 2016",
	"ISBN": "9786024200848",
	"Bahasa": "Indonesia",
	"Penerbit": "Mizan",
	"Berat": "0.1400 kg",
	"Lebar": "13.5 cm"
},
{
	"page": 30,
	"kategori 1": "buku-anak",
	"book_url": "https://www.gramedia.com/products/kecil-kecil-punya-karya-my-fav-sister",
	"title": "Kecil-Kecil Punya Karya : My Fav Sister",
	"author": "Naura Maharani Adawiya Syafril",
	"Jumlah Halaman": "112",
	"Tanggal Terbit": "11 Apr 2017",
	"ISBN": "9786024203740",
	"Bahasa": "Indonesia",
	"Penerbit": "Mizan Media Utama",
	"Berat": "0.15 kg",
	"Lebar": "14.5 cm",
	"Panjang": "21 cm"
},
{
	"page": 30,
	"kategori 1": "buku-anak",
	"book_url": "https://www.gramedia.com/products/maurene-goo-i-believe-in-a-thing-called-love-sc",
	"title": "Maurene Goo: I Believe In A Thing Called Love",
	"author": "Maurene Goo",
	"Jumlah Halaman": "352",
	"Tanggal Terbit": "8 Mei 2018",
	"ISBN": "9781250158413",
	"Bahasa": "English",
	"Penerbit": "Square Fish",
	"Berat": "0.29 kg",
	"Lebar": "14 cm",
	"Panjang": "21 cm"
},
{
	"page": 30,
	"kategori 1": "buku-anak",
	"book_url": "https://www.gramedia.com/products/dongeng-dunia-binatang-nusantara-komodo-ingin-ke-pesta",
	"title": "Dongeng Dunia Binatang Nusantara: Komodo Ingin Ke Pesta",
	"author": "Imelda Naomi",
	"Jumlah Halaman": "45",
	"Tanggal Terbit": "20 Mar 2018",
	"ISBN": "9786026633705",
	"Bahasa": "Indonesia",
	"Penerbit": "Mizan Publishing",
	"Berat": "0.35 kg",
	"Lebar": "21.5 cm",
	"Panjang": "21.5 cm"
},
{
	"page": 30,
	"kategori 1": "buku-anak",
	"book_url": "https://www.gramedia.com/products/muhammad-nabiku",
	"title": "Muhammad Nabiku",
	"author": "Aminah Ummu Tazkiya",
	"Jumlah Halaman": "156",
	"Tanggal Terbit": "10 Jul 2017",
	"ISBN": "9786029183955",
	"Bahasa": "Indonesia",
	"Penerbit": "Pustaka Imam Asy Syafi`I",
	"Berat": "0.45 kg",
	"Lebar": "20 cm",
	"Panjang": "22 cm"
},
{
	"page": 30,
	"kategori 1": "buku-anak",
	"book_url": "https://www.gramedia.com/products/next-g-happy-al-quran",
	"title": "NEXT G HAPPY AL-QURAN",
	"author": "Dinda Nurul Amalia & Saffa, Dkk",
	"Jumlah Halaman": "104",
	"Tanggal Terbit": "9 Des 2016",
	"ISBN": "9786023672684",
	"Bahasa": "Indonesia",
	"Penerbit": "Mizan",
	"Berat": "0.1000 kg",
	"Lebar": "14.5 cm"
},
{
	"page": 30,
	"kategori 1": "buku-anak",
	"book_url": "https://www.gramedia.com/products/seven-deadly-sins-18",
	"title": "Seven Deadly Sins 18",
	"author": "Nakaba Suzuki",
	"Jumlah Halaman": "192",
	"Tanggal Terbit": "18 Apr 2018",
	"ISBN": "9786020457536",
	"Bahasa": "Indonesia",
	"Penerbit": "Elex Media Komputindo",
	"Berat": "0.125 kg",
	"Lebar": "11 cm",
	"Panjang": "17 cm"
},
{
	"page": 30,
	"kategori 1": "buku-anak",
	"book_url": "https://www.gramedia.com/products/fantasteen-55-zashiki-warashi",
	"title": "Fantasteen #55: Zashiki Warashi",
	"author": "Nabila Octavia, dkk.",
	"Jumlah Halaman": "104",
	"Tanggal Terbit": "2 Des 2017",
	"ISBN": "9786024205256",
	"Penerbit": "Dar! Mizan",
	"Berat": "0.09 kg",
	"Lebar": "19 cm",
	"Panjang": "19 cm"
},
{
	"page": 30,
	"kategori 1": "buku-anak",
	"book_url": "https://www.gramedia.com/products/chocolate-magic-bittersweet",
	"title": "Chocolate Magic - Bittersweet",
	"author": "Mizuho Rino",
	"Jumlah Halaman": "0",
	"Tanggal Terbit": "2 Jan 2012",
	"ISBN": "9786022104544",
	"Penerbit": "Elex Media Komputindo",
	"Berat": "0.1000 kg",
	"Lebar": "11 cm",
	"Panjang": "0 cm"
},
{
	"page": 30,
	"kategori 1": "buku-anak",
	"book_url": "https://www.gramedia.com/products/garudayana-saga-5",
	"title": "Garudayana Saga 5",
	"author": "Is Yuniarto",
	"Jumlah Halaman": "132",
	"Tanggal Terbit": "26 Sep 2016",
	"ISBN": "9786027662414",
	"Bahasa": "Indonesia",
	"Penerbit": "Mizan Publishing",
	"Berat": "0.15 kg",
	"Lebar": "13 cm",
	"Panjang": "19 cm"
},
{
	"page": 30,
	"kategori 1": "buku-anak",
	"book_url": "https://www.gramedia.com/products/4-ever-friends-new-kkpk",
	"title": "Kkpk : 4 Ever Friends-New",
	"author": "Alya Nabila",
	"Jumlah Halaman": "120",
	"Tanggal Terbit": "25 Jul 2016",
	"ISBN": "9786024201166",
	"Bahasa": "Indonesia",
	"Penerbit": "Mizan",
	"Berat": "0.1400 kg",
	"Lebar": "21 cm"
},
{
	"page": 30,
	"kategori 1": "buku-anak",
	"book_url": "https://www.gramedia.com/products/skill-sharpeners-pre-k-spell-write-sc",
	"title": "Skill Sharpeners Pre (K) : Spell & Write",
	"author": "Evan Moor",
	"Jumlah Halaman": "143",
	"Tanggal Terbit": "1 Jun 2005",
	"ISBN": "9781596730434",
	"Bahasa": "English",
	"Penerbit": "Sinar Star Book",
	"Berat": "0.30 kg",
	"Lebar": "21 cm",
	"Panjang": "28 cm"
},
{
	"page": 30,
	"kategori 1": "buku-anak",
	"book_url": "https://www.gramedia.com/products/kkpkpetualangan-si-kembar",
	"title": "KKPK Petualangan Si Kembar",
	"author": "Fida Zalfa Latifah Y (fafa)",
	"Jumlah Halaman": "88",
	"Tanggal Terbit": "10 Des 2018",
	"ISBN": "9786024207168",
	"Bahasa": "Indonesia",
	"Penerbit": "Mizan Publishing",
	"Berat": "0.140 kg",
	"Lebar": "14 cm",
	"Panjang": "20 cm"
},
{
	"page": 30,
	"kategori 1": "buku-anak",
	"book_url": "https://www.gramedia.com/products/scratch-and-see-secret-message-cards",
	"title": "Scratch And See: Secret Message Cards",
	"author": "Make Believe Ideas",
	"Jumlah Halaman": "None",
	"Tanggal Terbit": "1 Jan 2015",
	"ISBN": "9781783934577",
	"Bahasa": "English",
	"Penerbit": "Make Believe Ideas",
	"Berat": "0.2 kg",
	"Lebar": "16 cm",
	"Panjang": "21 cm"
},
{
	"page": 30,
	"kategori 1": "buku-anak",
	"book_url": "https://www.gramedia.com/products/hijrah-aleya",
	"title": "Hijrah Aleya",
	"author": "Zata Yumni Adania T.I",
	"Jumlah Halaman": "None",
	"Tanggal Terbit": "1 Feb 2019",
	"ISBN": "9786024950859",
	"Bahasa": "Indonesia",
	"Penerbit": "Indiva Media Kreasi",
	"Berat": "0.17 kg",
	"Lebar": "14 cm",
	"Panjang": "21 cm"
},
{
	"page": 30,
	"kategori 1": "buku-anak",
	"book_url": "https://www.gramedia.com/products/my-first-book-mengenal-hewan-ternak",
	"title": "My First Book : Mengenal Hewan Ternak",
	"author": "Team Merchandising",
	"Jumlah Halaman": "5",
	"Tanggal Terbit": "2 Jan 2018",
	"ISBN": "9786020447278",
	"Bahasa": "Indonesia",
	"Penerbit": "Elex Media Komputindo",
	"Berat": "0.200 kg",
	"Lebar": "16 cm",
	"Panjang": "15.5 cm"
},
{
	"page": 30,
	"kategori 1": "buku-anak",
	"book_url": "https://www.gramedia.com/products/aikatsu-fanbook-lesson-03",
	"title": "Aikatsu! Fanbook Lesson 03",
	"author": "m&c!",
	"Jumlah Halaman": "32",
	"Tanggal Terbit": "27 Jan 2016",
	"ISBN": "9786023397051",
	"Bahasa": "Indonesia",
	"Penerbit": "m&c!",
	"Berat": "0.1500 kg",
	"Lebar": "17 cm"
},
{
	"page": 30,
	"kategori 1": "buku-anak",
	"book_url": "https://www.gramedia.com/products/kkpk-next-g-mukena-untuk-ibu-new",
	"title": "Kkpk.Next G Mukena Untuk Ibu-New",
	"author": "Shafwah Nadhirah Syifa & Puri, Dkk",
	"Jumlah Halaman": "104",
	"Tanggal Terbit": "18 Mei 2016",
	"ISBN": "9786023671915",
	"Bahasa": "Indonesia",
	"Penerbit": "Mizan",
	"Berat": "0.1000 kg",
	"Lebar": "14 cm"
},
{
	"page": 30,
	"kategori 1": "buku-anak",
	"book_url": "https://www.gramedia.com/products/tts-cari-temu-kata-333",
	"title": "TTS Cari Temu Kata 333",
	"author": "Studio Rito",
	"Jumlah Halaman": "124",
	"Tanggal Terbit": "10 Des 2017",
	"ISBN": "9789799335609",
	"Bahasa": "Indonesia",
	"Penerbit": "Studio Rito",
	"Berat": "0.15 kg",
	"Lebar": "15 cm",
	"Panjang": "24 cm"
},
{
	"page": 30,
	"kategori 1": "buku-anak",
	"book_url": "https://www.gramedia.com/products/seri-fun-cican-ketika-cican-malu-boardbook",
	"title": "Seri Fun Cican: Ketika Cican Malu (BB)",
	"author": "Wahyu Aditya",
	"Jumlah Halaman": "20.0",
	"Tanggal Terbit": "8 Jan 2019",
	"ISBN": "9786024304416",
	"Penerbit": "Bentang Pustaka",
	"Berat": "0.38 kg",
	"Lebar": "18.0 cm",
	"Panjang": "18.0 cm"
},
{
	"page": 30,
	"kategori 1": "buku-anak",
	"book_url": "https://www.gramedia.com/products/barbie-kamu-bisa-menjadi-ilmuwan-you-can-be-a-scientist",
	"title": "Barbie: Kamu Bisa Menjadi Ilmuwan ( You Can Be a Scientist )",
	"author": "Mattel",
	"Jumlah Halaman": "32",
	"Tanggal Terbit": "12 Mar 2018",
	"ISBN": "9786020381954",
	"Bahasa": "Indonesia",
	"Penerbit": "Gramedia Pustaka Utama",
	"Berat": "0.100 kg",
	"Lebar": "20 cm",
	"Panjang": "20 cm"
},
{
	"page": 30,
	"kategori 1": "buku-anak",
	"book_url": "https://www.gramedia.com/products/seri-keluarga-super-irit-14-1001-cara-menjadi-kaya",
	"title": "Seri Keluarga Super Irit 14 : 1001 Cara Menjadi Kaya",
	"author": "Kwon Chan-ho",
	"Jumlah Halaman": "200",
	"Tanggal Terbit": "6 Feb 2017",
	"ISBN": "9786023944620",
	"Bahasa": "Indonesia",
	"Penerbit": "Bhuana Ilmu Populer",
	"Berat": "0.2800 kg",
	"Lebar": "18 cm",
	"Panjang": "24 cm"
},
{
	"page": 30,
	"kategori 1": "buku-anak",
	"book_url": "https://www.gramedia.com/products/seri-cerita-rakyat-34-provinsi-legenda-putri-duyung",
	"title": "Seri Cerita Rakyat 34 Provinsi : Legenda Putri Duyung",
	"author": "Dian K",
	"Jumlah Halaman": "32",
	"Tanggal Terbit": "25 Apr 2017",
	"ISBN": "9786023946495",
	"Bahasa": "Indonesia",
	"Penerbit": "Bhuana Ilmu Populer",
	"Berat": "0.1000 kg",
	"Lebar": "20 cm"
},
{
	"page": 30,
	"kategori 1": "buku-anak",
	"book_url": "https://www.gramedia.com/products/ayo-mengenal-bentuk-huruf-hijaiyah",
	"title": "Ayo Mengenal Bentuk Huruf Hijaiyah",
	"author": "Arif Sirojul M",
	"Jumlah Halaman": "44.0",
	"Tanggal Terbit": "4 Okt 2019",
	"ISBN": "9786237046851",
	"Bahasa": "Indonesia",
	"Penerbit": "Checklist",
	"Berat": "0.113 kg",
	"Lebar": "18.0 cm",
	"Panjang": "24.0 cm"
},
{
	"page": 30,
	"kategori 1": "buku-anak",
	"book_url": "https://www.gramedia.com/products/satwa-langka-pegunungan-gurun-dan-kutub",
	"title": "Satwa Langka Pegunungan, Gurun, Dan Kutub",
	"author": "CARAMEL TEAM",
	"Jumlah Halaman": "90.0",
	"Tanggal Terbit": "20 Okt 2019",
	"ISBN": "9786023208630",
	"Bahasa": "Indonesia",
	"Penerbit": "Tiga Serangkai",
	"Berat": "0.274 kg",
	"Lebar": "21.5 cm",
	"Panjang": "27.5 cm"
},
{
	"page": 30,
	"kategori 1": "buku-anak",
	"book_url": "https://www.gramedia.com/products/die-cut-book-where-shall-we-go-bb",
	"title": "Die Cut Book: Where Shall We Go?",
	"author": "Simon Abbott",
	"Jumlah Halaman": "14",
	"Tanggal Terbit": "1 Jan 2016",
	"ISBN": "9781783738571",
	"Bahasa": "English",
	"Penerbit": "North Parade Publishing",
	"Berat": "0.25 kg",
	"Lebar": "18 cm",
	"Panjang": "18 cm"
},
{
	"page": 30,
	"kategori 1": "buku-anak",
	"book_url": "https://www.gramedia.com/products/daur-hidup-kupu-kupu-new",
	"title": "Daur Hidup Kupu-Kupu New",
	"author": "W Falisha Yumna",
	"Jumlah Halaman": "24.0",
	"Tanggal Terbit": "5 Jan 2020",
	"ISBN": "9786232062702",
	"Bahasa": "Indonesia",
	"Penerbit": "Tiga Serangkai",
	"Berat": "0.075 kg",
	"Lebar": "20.0 cm",
	"Panjang": "25.5 cm"
},
{
	"page": 30,
	"kategori 1": "buku-anak",
	"book_url": "https://www.gramedia.com/products/inspektur-cilik-2-jejak-gigi",
	"title": "Inspektur Cilik 2 : Jejak Gigi",
	"author": "Esra Avgoren",
	"Jumlah Halaman": "112.0",
	"Tanggal Terbit": "18 Nov 2019",
	"ISBN": "9786024770549",
	"Bahasa": "Indonesia",
	"Penerbit": "Kesaint Blanc Pt",
	"Berat": "0.121 kg",
	"Lebar": "14.0 cm",
	"Panjang": "20.0 cm"
},
{
	"page": 30,
	"kategori 1": "buku-anak",
	"book_url": "https://www.gramedia.com/products/meghan-sparkle-and-the-royal-baby-sc",
	"title": "Meghan Sparkle And The Royal Baby (Sc)",
	"author": "Make Believe Ideas",
	"Jumlah Halaman": "32.0",
	"Tanggal Terbit": "1 Agt 2019",
	"ISBN": "9781789470253",
	"Bahasa": "English",
	"Penerbit": "MAKE BELIEVE IDEAS",
	"Berat": "0.206 kg",
	"Lebar": "26.8 cm",
	"Panjang": "26.8 cm"
},
{
	"page": 30,
	"kategori 1": "buku-anak",
	"book_url": "https://www.gramedia.com/products/om-wid-bos-kelapa-sawit-cerita-wirausaha-mandiri",
	"title": "Om Wid : Bos Kelapa Sawit : Cerita Wirausaha Mandiri",
	"author": "Bambang Joko Susilo",
	"Jumlah Halaman": "23.0",
	"Tanggal Terbit": "27 Agt 2019",
	"ISBN": "9786029473551",
	"Bahasa": "Indonesia",
	"Penerbit": "Bee Media",
	"Berat": "0.12 kg",
	"Lebar": "15.0 cm",
	"Panjang": "21.0 cm"
},
{
	"page": 30,
	"kategori 1": "buku-anak",
	"book_url": "https://www.gramedia.com/products/transformers-deadly-trap-sc",
	"title": "Transformers: Deadly Trap",
	"author": "John Sazaklis",
	"Jumlah Halaman": "160",
	"Tanggal Terbit": "8 Agt 2019",
	"ISBN": "9781408344965",
	"Bahasa": "English",
	"Penerbit": "Orchard Books",
	"Berat": "0.13 kg",
	"Lebar": "13 cm",
	"Panjang": "20 cm"
},
{
	"page": 30,
	"kategori 1": "buku-anak",
	"book_url": "https://www.gramedia.com/products/dk-readers-p4-story-of-the-x-men-sc",
	"title": "Dk Readers P4: Story Of The X-Men",
	"author": "Dk",
	"Jumlah Halaman": "48",
	"Tanggal Terbit": "1 Jan 2019",
	"ISBN": "9780751327038",
	"Bahasa": "Indonesia",
	"Penerbit": "Mitra Pelita Internusa",
	"Berat": "0.14 kg",
	"Lebar": "12 cm",
	"Panjang": "22 cm"
},
{
	"page": 30,
	"kategori 1": "buku-anak",
	"book_url": "https://www.gramedia.com/products/ngr-animal-architects-sc",
	"title": "NGK: Animal Architects",
	"author": "National Geographic",
	"Jumlah Halaman": "48",
	"Tanggal Terbit": "1 Jan 2019",
	"ISBN": "9781426333279",
	"Bahasa": "Indonesia",
	"Penerbit": "Mitra Pelita Internusa",
	"Berat": "1.0 kg",
	"Lebar": "15 cm",
	"Panjang": "22 cm"
},
{
	"page": 30,
	"kategori 1": "buku-anak",
	"book_url": "https://www.gramedia.com/products/big-steps-can-you-say-please-hc",
	"title": "Big Steps: Can You Say Please?",
	"author": "Campbell Books",
	"Jumlah Halaman": "10",
	"Tanggal Terbit": "1 Agt 2019",
	"ISBN": "9781529004045",
	"Bahasa": "English",
	"Penerbit": "Campbell Books",
	"Berat": "0.27 kg",
	"Lebar": "19.5 cm",
	"Panjang": "20 cm"
},
{
	"page": 30,
	"kategori 1": "buku-anak",
	"book_url": "https://www.gramedia.com/products/kamus-pengetahuan-sosial-bergambar-untuk-pelajar-sd",
	"title": "Kamus Pengetahuan Sosial Bergambar Untuk Pelajar Sd",
	"author": "Indah Nurdiana",
	"Jumlah Halaman": "100.0",
	"Tanggal Terbit": "22 Agt 2019",
	"ISBN": "9786232062153",
	"Bahasa": "Indonesia",
	"Penerbit": "Tiga Serangkai",
	"Berat": "0.25 kg",
	"Lebar": "17.5 cm",
	"Panjang": "25.0 cm"
},
{
	"page": 30,
	"kategori 1": "buku-anak",
	"book_url": "https://www.gramedia.com/products/halo-balita-penuntun-hijaiah-boardbook",
	"title": "Halo Balita Penuntun: Hijaiah (Boardbook)",
	"author": "Wiwien Widyawanti",
	"Jumlah Halaman": "20.0",
	"Tanggal Terbit": "10 Okt 2019",
	"ISBN": "9786024721633",
	"Bahasa": "Indonesia",
	"Penerbit": "Pelangi Mizan",
	"Berat": "0.348 kg",
	"Lebar": "17.5 cm",
	"Panjang": "17.5 cm"
},
{
	"page": 30,
	"kategori 1": "buku-anak",
	"book_url": "https://www.gramedia.com/products/mistery-book-g",
	"title": "Mistery Book G",
	"author": "",
	"Jumlah Halaman": "0.0",
	"Tanggal Terbit": "10 Nov 2019",
	"ISBN": "MisteryBookG",
	"Bahasa": "Indonesia",
	"Penerbit": "Gramedia Pustaka Utama",
	"Berat": "0.5 kg",
	"Lebar": "17.0 cm",
	"Panjang": "24.0 cm"
},
{
	"page": 30,
	"kategori 1": "buku-anak",
	"book_url": "https://www.gramedia.com/products/abridged-classic-series-robin-hood",
	"title": "Abridged Classic Series: Robin Hood",
	"author": "Stewart Ross",
	"Jumlah Halaman": "72.0",
	"Tanggal Terbit": "21 Okt 2019",
	"ISBN": "9786024812720",
	"Bahasa": "Indonesia",
	"Penerbit": "Kepustakaan Populer Gramedia",
	"Berat": "0.176 kg",
	"Lebar": "13.5 cm",
	"Panjang": "19.0 cm"
},
{
	"page": 30,
	"kategori 1": "buku-anak",
	"book_url": "https://www.gramedia.com/products/thats-not-my-koala-bb",
	"title": "Thats Not My Koala (Bb)",
	"author": "Fiona Watt",
	"Jumlah Halaman": "10.0",
	"Tanggal Terbit": "10 Okt 2019",
	"ISBN": "9781474945561",
	"Bahasa": "English",
	"Penerbit": "Sinar Star Book",
	"Berat": "0.268 kg",
	"Lebar": "16.0 cm",
	"Panjang": "16.0 cm"
},
