{
	"page": 37,
	"kategori 1": "buku-anak",
	"book_url": "https://www.gramedia.com/products/conf-fairy-tail-08",
	"title": "Fairy Tail 08",
	"author": "Kodansha - Hiro Mashima",
	"Jumlah Halaman": "200",
	"Tanggal Terbit": "3 Des 2014",
	"ISBN": "978979278453",
	"Penerbit": "Elex Media Komputindo",
	"Berat": "0.11 kg",
	"Lebar": "11.0 cm",
	"Panjang": "17.0 cm"
},
{
	"page": 37,
	"kategori 1": "buku-anak",
	"book_url": "https://www.gramedia.com/products/conf-fairy-tail-12",
	"title": "Fairy Tail 12",
	"author": "Kodansha - Hiro Mashima",
	"Jumlah Halaman": "208",
	"Tanggal Terbit": "3 Des 2014",
	"ISBN": "978602001764",
	"Penerbit": "Elex Media Komputindo",
	"Berat": "0.12 kg",
	"Lebar": "11.36 cm",
	"Panjang": "17.25 cm"
},
{
	"page": 37,
	"kategori 1": "buku-anak",
	"book_url": "https://www.gramedia.com/products/200-fakta-penting-sebelum-dinosaurus",
	"title": "200+ Fakta Penting: Sebelum Dinosaurus",
	"author": "Carl Mehling",
	"Jumlah Halaman": "48",
	"Tanggal Terbit": "22 Mei 2015",
	"ISBN": "9786020265766",
	"Bahasa": "Indonesia",
	"Penerbit": "Elex Media Komputindo",
	"Berat": "0.15 kg",
	"Lebar": "21 cm",
	"Panjang": "27 cm"
},
{
	"page": 37,
	"kategori 1": "buku-anak",
	"book_url": "https://www.gramedia.com/products/sofia-the-first-istana-apung-the-floating-palace",
	"title": "Sofia The First: Istana Apung (The Floating Palace)",
	"author": "Disney",
	"Jumlah Halaman": "108",
	"Tanggal Terbit": "1 Feb 2014",
	"ISBN": "9786020301228",
	"Bahasa": "Indonesia",
	"Penerbit": "Gramedia Pustaka Utama",
	"Berat": "0.150 kg",
	"Lebar": "20 cm",
	"Panjang": "25 cm"
},
{
	"page": 37,
	"kategori 1": "buku-anak",
	"book_url": "https://www.gramedia.com/products/3d-coloring-disney-toy-story-1",
	"title": "3D Coloring Disney - Toy Story 1",
	"author": "Disney",
	"Jumlah Halaman": "40",
	"Tanggal Terbit": "4 Feb 2015",
	"ISBN": "9786020260334",
	"Bahasa": "Indonesia",
	"Penerbit": "Elex Media Komputindo",
	"Berat": "0.150 kg",
	"Lebar": "21.5 cm",
	"Panjang": "27.5 cm"
},
{
	"page": 37,
	"kategori 1": "buku-anak",
	"book_url": "https://www.gramedia.com/products/barbie-sayang-kuda",
	"title": "Barbie Sayang Kuda",
	"author": "Mattel",
	"Jumlah Halaman": "56",
	"Tanggal Terbit": "8 Agt 2014",
	"ISBN": "9786020307442",
	"Bahasa": "Indonesia",
	"Penerbit": "Gramedia Pustaka Utama",
	"Berat": "0.10 kg",
	"Lebar": "20 cm",
	"Panjang": "27 cm"
},
{
	"page": 37,
	"kategori 1": "buku-anak",
	"book_url": "https://www.gramedia.com/products/puzzle-medium-coco-land-of-the-dead",
	"title": "Puzzle Medium Coco Land Of The Dead",
	"author": "Disney",
	"Jumlah Halaman": "1",
	"Tanggal Terbit": "30 Apr 2018",
	"ISBN": "718120486",
	"Bahasa": "Indonesia",
	"Penerbit": "Elex Media Komputindo",
	"Berat": "0.3 kg",
	"Lebar": "21 cm",
	"Panjang": "28 cm"
},
{
	"page": 37,
	"kategori 1": "buku-anak",
	"book_url": "https://www.gramedia.com/products/tall-book-mix-match-playful-animals",
	"title": "Tall Book Mix & Match: Playful Animals",
	"author": "Team Merchandising",
	"Jumlah Halaman": "6",
	"Tanggal Terbit": "4 Jun 2018",
	"ISBN": "9786020460444",
	"Bahasa": "Indonesia",
	"Penerbit": "Elex Media Komputindo",
	"Berat": "0.2 kg",
	"Lebar": "9 cm",
	"Panjang": "27 cm"
},
{
	"page": 37,
	"kategori 1": "buku-anak",
	"book_url": "https://www.gramedia.com/products/seri-aktivitas-ceria-dan-kreatif-dinosaurus",
	"title": "Seri Aktivitas Ceria Dan Kreatif: Dinosaurus",
	"author": "Kiki Sulistiyani",
	"Jumlah Halaman": "32",
	"Tanggal Terbit": "8 Jan 2018",
	"ISBN": "9786020449272",
	"Penerbit": "Elex Media Komputindo",
	"Berat": "0.100 kg",
	"Lebar": "21 cm",
	"Panjang": "27 cm"
},
{
	"page": 37,
	"kategori 1": "buku-anak",
	"book_url": "https://www.gramedia.com/products/20-anak-hebat-zaman-nabi-muhammad",
	"title": "20 Anak Hebat Zaman Nabi Muhammad",
	"author": "Muhamad Yasir, Lc",
	"Jumlah Halaman": "64",
	"Tanggal Terbit": "30 Jul 2016",
	"ISBN": "9786020332086",
	"Bahasa": "Indonesia",
	"Penerbit": "Gramedia Pustaka Utama",
	"Berat": "0.20 kg",
	"Lebar": "17 cm",
	"Panjang": "24 cm"
},
{
	"page": 37,
	"kategori 1": "buku-anak",
	"book_url": "https://www.gramedia.com/products/domini-card-pairing-fruits",
	"title": "Domini Card: Pairing Fruits",
	"author": "Sinta",
	"Jumlah Halaman": "72",
	"Tanggal Terbit": "22 Jan 2018",
	"ISBN": "9786020451510",
	"Penerbit": "Elex Media Komputindo",
	"Berat": "0.100 kg",
	"Lebar": "6 cm",
	"Panjang": "12 cm"
},
{
	"page": 37,
	"kategori 1": "buku-anak",
	"book_url": "https://www.gramedia.com/products/poster-frozen-color",
	"title": "Poster Frozen - Color",
	"author": "Disney",
	"Jumlah Halaman": "None",
	"Tanggal Terbit": "17 Nov 2014",
	"ISBN": "9786020252872",
	"Bahasa": "Indonesia",
	"Penerbit": "Elex Media Komputindo",
	"Berat": "0.03 kg",
	"Lebar": "30 cm",
	"Panjang": "43 cm"
},
{
	"page": 37,
	"kategori 1": "buku-anak",
	"book_url": "https://www.gramedia.com/products/salin-warna-disney-klasik-snow-white-yang-rupawan",
	"title": "Salin Warna Disney Klasik: Snow White Yang Rupawan",
	"author": "Disney",
	"Jumlah Halaman": "32",
	"Tanggal Terbit": "13 Feb 2015",
	"ISBN": "9786020258140",
	"Bahasa": "Indonesia",
	"Penerbit": "Elex Media Komputindo",
	"Berat": "0.1 kg",
	"Lebar": "215 cm",
	"Panjang": "27.5 cm"
},
{
	"page": 37,
	"kategori 1": "buku-anak",
	"book_url": "https://www.gramedia.com/products/hari-pertama-sekolah-maafkan-nanu-ya",
	"title": "Hari Pertama Sekolah: Maafkan Nanu. Ya",
	"author": "Naning Chandra",
	"Jumlah Halaman": "0",
	"Tanggal Terbit": "2 Jun 2015",
	"ISBN": "9786022498377",
	"Penerbit": "Bhuana Ilmu Populer",
	"Berat": "0 kg",
	"Lebar": "0 cm",
	"Panjang": "1 cm"
},
{
	"page": 37,
	"kategori 1": "buku-anak",
	"book_url": "https://www.gramedia.com/products/smart-kidz-cerita-sains-keajaiban-antariksa",
	"title": "Smart Kidz Cerita Sains Keajaiban Antariksa",
	"author": "Ana Falesthein T.A.",
	"Jumlah Halaman": "112",
	"Tanggal Terbit": "29 Jan 2018",
	"ISBN": "9786025081064",
	"Bahasa": "Indonesia",
	"Penerbit": "Penerbit Bintang Kelas",
	"Berat": "0.205 kg",
	"Lebar": "21 cm",
	"Panjang": "27.5 cm"
},
{
	"page": 37,
	"kategori 1": "buku-anak",
	"book_url": "https://www.gramedia.com/products/domini-card-pairing-animals",
	"title": "Domini Card: Pairing Animals",
	"author": "Sinta",
	"Jumlah Halaman": "72",
	"Tanggal Terbit": "22 Jan 2018",
	"ISBN": "9786020451527",
	"Penerbit": "Elex Media Komputindo",
	"Berat": "0.100 kg",
	"Lebar": "6 cm",
	"Panjang": "12 cm"
},
{
	"page": 37,
	"kategori 1": "buku-anak",
	"book_url": "https://www.gramedia.com/products/fairydise-ceria-membaca-aiueo",
	"title": "Fairydise. Ceria Membaca AIUEO",
	"author": "Marcella Simon",
	"Jumlah Halaman": "124",
	"Tanggal Terbit": "4 Jun 2018",
	"ISBN": "9786020460468",
	"Bahasa": "Indonesia",
	"Penerbit": "Elex Media Komputindo",
	"Berat": "0.120 kg",
	"Lebar": "21 cm",
	"Panjang": "27 cm"
},
{
	"page": 37,
	"kategori 1": "buku-anak",
	"book_url": "https://www.gramedia.com/products/puzzle-medium-gob-and-friends-03",
	"title": "Puzzle Medium Gob And Friends - 03",
	"author": "Hompimpa Animation",
	"Jumlah Halaman": "None",
	"Tanggal Terbit": "18 Sep 2017",
	"ISBN": "717121257",
	"Bahasa": "Indonesia",
	"Penerbit": "Elex Media Komputindo",
	"Berat": "0.130 kg",
	"Lebar": "21 cm",
	"Panjang": "28 cm"
},
{
	"page": 37,
	"kategori 1": "buku-anak",
	"book_url": "https://www.gramedia.com/products/buku-aktivitas-belanja-di-pasar",
	"title": "Buku Aktivitas: Belanja di Pasar",
	"author": "OSKARINA",
	"Jumlah Halaman": "24",
	"Tanggal Terbit": "14 Mei 2018",
	"ISBN": "9786024554651",
	"Bahasa": "Indonesia",
	"Penerbit": "Bhuana Ilmu Populer",
	"Berat": "0.11 kg",
	"Lebar": "18 cm",
	"Panjang": "24 cm"
},
{
	"page": 37,
	"kategori 1": "buku-anak",
	"book_url": "https://www.gramedia.com/products/board-book-mini-library-abc-123",
	"title": "Board Book Mini Library : ABC 123",
	"author": "Team Merchandising",
	"Jumlah Halaman": "24",
	"Tanggal Terbit": "28 Mei 2018",
	"ISBN": "9786020459554",
	"Bahasa": "Indonesia",
	"Penerbit": "Elex Media Komputindo",
	"Berat": "0.15 kg",
	"Lebar": "19 cm",
	"Panjang": "20.7 cm"
},
{
	"page": 37,
	"kategori 1": "buku-anak",
	"book_url": "https://www.gramedia.com/products/cerita-bawah-laut",
	"title": "Cerita Bawah Laut",
	"author": "Cucu Nurhasanah",
	"Jumlah Halaman": "112",
	"Tanggal Terbit": "11 Des 2017",
	"ISBN": "9786024287047",
	"Penerbit": "m&c!",
	"Berat": "0.180 kg",
	"Lebar": "20 cm",
	"Panjang": "24 cm"
},
{
	"page": 37,
	"kategori 1": "buku-anak",
	"book_url": "https://www.gramedia.com/products/komik-kkpk-next-g-candy-no",
	"title": "Komik Kkpk.Next G Candy, No",
	"author": "Hana Mardhiyah & Indha, Dkk",
	"Jumlah Halaman": "104",
	"Tanggal Terbit": "6 Jan 2016",
	"ISBN": "9786023671175",
	"Bahasa": "Indonesia",
	"Penerbit": "Mizan",
	"Berat": "0.1000 kg",
	"Lebar": "15 cm"
},
{
	"page": 37,
	"kategori 1": "buku-anak",
	"book_url": "https://www.gramedia.com/products/komik-kkpk-next-g-tomboi-jadi-feminin",
	"title": "Komik KKPK Next G: Tomboi Jadi Feminin",
	"author": "Salsabila Lailathia Dkk",
	"Jumlah Halaman": "104",
	"Tanggal Terbit": "2 Feb 2015",
	"ISBN": "9786021128824",
	"Bahasa": "Indonesia",
	"Penerbit": "Mizan Publishing",
	"Berat": "0.2000 kg",
	"Lebar": "14 cm"
},
{
	"page": 37,
	"kategori 1": "buku-anak",
	"book_url": "https://www.gramedia.com/products/akhlak-bocah-muslim-katakan-ya",
	"title": "Akhlak Bocah Muslim: Katakan Ya!",
	"author": "Bambang Trim",
	"Jumlah Halaman": "48",
	"Tanggal Terbit": "5 Jun 2015",
	"ISBN": "9786027817838",
	"Bahasa": "Indonesia",
	"Penerbit": "Salamadani",
	"Berat": "0.1200 kg",
	"Lebar": "19 cm"
},
{
	"page": 37,
	"kategori 1": "buku-anak",
	"book_url": "https://www.gramedia.com/products/hipo-si-hiu-yang-baik-hati-9-kisah-penuh-hikmah-lainnya",
	"title": "Hipo Si Hiu Yang Baik Hati + 9 Kisah Penuh Hikmah Lainnya",
	"author": "Fasila Hanum",
	"Jumlah Halaman": "96",
	"Tanggal Terbit": "8 Jun 2015",
	"ISBN": "9786022501978",
	"Bahasa": "Indonesia",
	"Penerbit": "Gema Insani",
	"Berat": "0.3000 kg",
	"Lebar": "21 cm"
},
{
	"page": 37,
	"kategori 1": "buku-anak",
	"book_url": "https://www.gramedia.com/products/teens-kindness",
	"title": "Teens - Kindness",
	"author": "Lie Kim Siong",
	"Jumlah Halaman": "190",
	"Tanggal Terbit": "29 Jun 2015",
	"ISBN": "9786020268316",
	"Bahasa": "Indonesia",
	"Penerbit": "Elex Media Komputindo",
	"Berat": "0.2370 kg",
	"Lebar": "15 cm",
	"Panjang": "23 cm"
},
{
	"page": 37,
	"kategori 1": "buku-anak",
	"book_url": "https://www.gramedia.com/products/good-personality-series-friends-forever",
	"title": "Good Personality Series: Friends Forever",
	"author": "Ryu Byoung-min",
	"Jumlah Halaman": "184",
	"Tanggal Terbit": "29 Mei 2017",
	"ISBN": "9786020421087",
	"Bahasa": "Indonesia",
	"Penerbit": "Elex Media Komputindo",
	"Berat": "0.5000 kg",
	"Lebar": "15 cm"
},
{
	"page": 37,
	"kategori 1": "buku-anak",
	"book_url": "https://www.gramedia.com/products/akhlak-bocah-muslim-katakan-maaf",
	"title": "Akhlak Bocah Muslim: Katakan Maaf!",
	"author": "Bambang Trim",
	"Jumlah Halaman": "48",
	"Tanggal Terbit": "5 Jun 2015",
	"ISBN": "9786027817791",
	"Bahasa": "Indonesia",
	"Penerbit": "Salamadani",
	"Berat": "0.1200 kg",
	"Lebar": "19 cm"
},
{
	"page": 37,
	"kategori 1": "buku-anak",
	"book_url": "https://www.gramedia.com/products/komik-ghost-school-days-garage-sale",
	"title": "Komik Ghost School Days: Garage Sale",
	"author": "Assyifa S. Arum, Dkk",
	"Jumlah Halaman": "92",
	"Tanggal Terbit": "20 Jan 2016",
	"ISBN": "9786023671151",
	"Bahasa": "Indonesia",
	"Penerbit": "Mizan",
	"Berat": "0.1000 kg",
	"Lebar": "21 cm"
},
{
	"page": 37,
	"kategori 1": "buku-anak",
	"book_url": "https://www.gramedia.com/products/nabi-muhammad-idolaku-seri-belajar-islam-sejak-usia-dini-1",
	"title": "Nabi Muhammad Idolaku: Seri Belajar Islam Sejak Usia Dini 1",
	"author": "Nurul Ihsan",
	"Jumlah Halaman": "30",
	"Tanggal Terbit": "28 Mei 2015",
	"ISBN": "9786022681076",
	"Bahasa": "Indonesia",
	"Penerbit": "Luxima",
	"Berat": "0.2000 kg",
	"Lebar": "19 cm"
},
{
	"page": 37,
	"kategori 1": "buku-anak",
	"book_url": "https://www.gramedia.com/products/seri-tokoh-dunia-wright-bersaudara-terbit-ulang",
	"title": "Seri Tokoh Dunia: Wright Bersaudara (Terbit Ulang)",
	"author": "Newton Publishing",
	"Jumlah Halaman": "-",
	"Tanggal Terbit": "9 Feb 2015",
	"ISBN": "9786020258119",
	"Bahasa": "Indonesia",
	"Penerbit": "Elex Media Komputindo",
	"Berat": "0.2500 kg",
	"Lebar": "14 cm"
},
{
	"page": 37,
	"kategori 1": "buku-anak",
	"book_url": "https://www.gramedia.com/products/saike-s-repeated-days-04",
	"title": "Saike`s Repeated Days 04",
	"author": "Fukuchi Tsubasa",
	"Jumlah Halaman": "208",
	"Tanggal Terbit": "12 Apr 2017",
	"ISBN": "9786020413068",
	"Bahasa": "Indonesia",
	"Penerbit": "Elex Media Komputindo",
	"Berat": "0.1300 kg",
	"Lebar": "11.4 cm"
},
{
	"page": 37,
	"kategori 1": "buku-anak",
	"book_url": "https://www.gramedia.com/products/shi-heilong-ii-vol-9",
	"title": "Shi Heilong Ii Vol. 9",
	"author": "Tony Wong",
	"Jumlah Halaman": "96",
	"Tanggal Terbit": "25 Mei 2016",
	"ISBN": "9786023398638",
	"Bahasa": "Indonesia",
	"Penerbit": "m&c!",
	"Berat": "0.1000 kg",
	"Lebar": "11 cm"
},
{
	"page": 37,
	"kategori 1": "buku-anak",
	"book_url": "https://www.gramedia.com/products/kecil-kecil-punya-karya-my-lovely-parents-new",
	"title": "Kecil-Kecil Punya Karya : My Lovely Parents-New",
	"author": "Ahdra Tsaqofa Hidayat",
	"Jumlah Halaman": "108",
	"Tanggal Terbit": "12 Apr 2016",
	"ISBN": "9786022429340",
	"Penerbit": "Mizan",
	"Berat": "0.1200 kg",
	"Lebar": "14 cm"
},
{
	"page": 37,
	"kategori 1": "buku-anak",
	"book_url": "https://www.gramedia.com/products/herbalis-cilik",
	"title": "Herbalis Cilik",
	"author": "Santi Yuliantini",
	"Jumlah Halaman": "40",
	"Tanggal Terbit": "19 Feb 2016",
	"ISBN": "9786023661138",
	"Bahasa": "Indonesia",
	"Penerbit": "Tiga Ananda",
	"Berat": "0.1500 kg",
	"Lebar": "19 cm"
},
{
	"page": 37,
	"kategori 1": "buku-anak",
	"book_url": "https://www.gramedia.com/products/tokoh-perjuangan-dunia-george-washington-che-guavara",
	"title": "Tokoh Perjuangan Dunia: George Washington & Che Guavara",
	"author": "Dwi Suputra, Sahanjaya",
	"Jumlah Halaman": "32",
	"Tanggal Terbit": "24 Jul 2017",
	"ISBN": "9786020436401",
	"Bahasa": "Indonesia",
	"Penerbit": "Elex Media Komputindo",
	"Berat": "0.1000 kg",
	"Lebar": "18 cm"
},
{
	"page": 37,
	"kategori 1": "buku-anak",
	"book_url": "https://www.gramedia.com/products/barbie-wow-keren-buku-mewarnai",
	"title": "Barbie: Wow, Keren! -Buku Mewarnai",
	"author": "Mattel",
	"Jumlah Halaman": "32",
	"Tanggal Terbit": "19 Jul 2013",
	"ISBN": "9789792297713",
	"Penerbit": "Gramedia Pustaka Utama",
	"Berat": "0.3000 kg",
	"Lebar": "27 cm",
	"Panjang": "0 cm"
},
{
	"page": 37,
	"kategori 1": "buku-anak",
	"book_url": "https://www.gramedia.com/products/keteladanan-25-nabi-rasul-dalam-kisah-penuh-hikmah",
	"title": "Keteladanan 25 Nabi & Rasul Dalam Kisah Penuh Hikmah",
	"author": "Dian K & Tethy E",
	"Jumlah Halaman": "256",
	"Tanggal Terbit": "13 Des 2016",
	"ISBN": "9786023943784",
	"Bahasa": "Indonesia",
	"Penerbit": "Bhuana Ilmu Populer",
	"Berat": "0.2900 kg",
	"Lebar": "18 cm"
},
{
	"page": 37,
	"kategori 1": "buku-anak",
	"book_url": "https://www.gramedia.com/products/petualangan-kapten-kolor-ket-cetak-ulang-id-baru",
	"title": "Petualangan Kapten Kolor - Cetak Ulang",
	"author": "Dav Pilkey",
	"Jumlah Halaman": "128",
	"Tanggal Terbit": "19 Jun 2017",
	"ISBN": "9786020356716",
	"Bahasa": "Indonesia",
	"Penerbit": "Gramedia Pustaka Utama",
	"Berat": "0.1800 kg",
	"Lebar": "14 cm"
},
{
	"page": 37,
	"kategori 1": "buku-anak",
	"book_url": "https://www.gramedia.com/products/bangun-datar-bangun-ruang-0",
	"title": "Bangun Datar & Bangun Ruang",
	"author": "Dewi Djuwita",
	"Jumlah Halaman": "62",
	"Tanggal Terbit": "23 Sep 2015",
	"ISBN": "9789796925469",
	"Bahasa": "Indonesia",
	"Penerbit": "Remaja Rosdakarya",
	"Berat": "0.2100 kg",
	"Lebar": "32 cm"
},
{
	"page": 37,
	"kategori 1": "buku-anak",
	"book_url": "https://www.gramedia.com/products/belajar-matematika-cars",
	"title": "Belajar Matematika Cars",
	"author": "Disney",
	"Jumlah Halaman": "64",
	"Tanggal Terbit": "7 Sep 2015",
	"ISBN": "9786020271996",
	"Bahasa": "Indonesia",
	"Penerbit": "Elex Media Komputindo",
	"Berat": "0.1640 kg",
	"Lebar": "22 cm"
},
{
	"page": 37,
	"kategori 1": "buku-anak",
	"book_url": "https://www.gramedia.com/products/kapten-kolor-dan-serangan-toilet-cerewet-ket-cetak-ulang-i",
	"title": "Kapten Kolor Dan Serangan Toilet Cerewet - Cetak Ulang",
	"author": "Dav Pilkey",
	"Jumlah Halaman": "144",
	"Tanggal Terbit": "19 Jun 2017",
	"ISBN": "9786020356778",
	"Bahasa": "Indonesia",
	"Penerbit": "Gramedia Pustaka Utama",
	"Berat": "0.2000 kg",
	"Lebar": "14 cm"
},
{
	"page": 37,
	"kategori 1": "buku-anak",
	"book_url": "https://www.gramedia.com/products/kumpulan-dongeng-khas-dari-negeri-jerman",
	"title": "Kumpulan Dongeng Khas Dari Negeri Jerman",
	"author": "Annisaa T Kusumadewi",
	"Jumlah Halaman": "152",
	"Tanggal Terbit": "2 Okt 2015",
	"ISBN": "9786022559153",
	"Bahasa": "Indonesia",
	"Penerbit": "Saufa Kids",
	"Berat": "0.9119 kg",
	"Lebar": "31 cm"
},
{
	"page": 37,
	"kategori 1": "buku-anak",
	"book_url": "https://www.gramedia.com/products/52-aktivitas-untuk-meluaskan-wawasan-anak",
	"title": "52 Aktivitas Untuk Meluaskan Wawasan Anak",
	"author": "Kusumastuti",
	"Tanggal Terbit": "31 Jul 2012",
	"Penerbit": "Bhuana Ilmu Populer",
	"Berat": "0.3000 kg",
	"Lebar": "0 cm",
	"Panjang": "0 cm"
},
{
	"page": 37,
	"kategori 1": "buku-anak",
	"book_url": "https://www.gramedia.com/products/fantasteen-ghost-dormitory-in-den-haag",
	"title": "Fantasteen Ghost Dormitory In Den Haag",
	"author": "Melsah Elmania",
	"Jumlah Halaman": "148",
	"Tanggal Terbit": "24 Agt 2015",
	"ISBN": "9786022427797",
	"Bahasa": "Indonesia",
	"Penerbit": "Mizan",
	"Berat": "0.1500 kg",
	"Lebar": "13 cm"
},
{
	"page": 37,
	"kategori 1": "buku-anak",
	"book_url": "https://www.gramedia.com/products/robot-is-my-friend",
	"title": "Robot, is My Friend",
	"author": "Jully Tjindrawan",
	"Jumlah Halaman": "192",
	"Tanggal Terbit": "21 Des 2015",
	"ISBN": "9786020277684",
	"Bahasa": "Indonesia",
	"Penerbit": "Elex Media Komputindo",
	"Berat": "0.3500 kg",
	"Lebar": "15 cm"
},
{
	"page": 37,
	"kategori 1": "buku-anak",
	"book_url": "https://www.gramedia.com/products/ensiklopedia-sains-1-hewan-dan-kehidupan-untuk-anak-anak",
	"title": "Ensiklopedia Sains 1 :Hewan Dan Kehidupan Untuk Anak Anak",
	"author": "Tim Pelangi",
	"Jumlah Halaman": "0",
	"Tanggal Terbit": "18 Agt 2015",
	"ISBN": "9786021627426",
	"Bahasa": "Indonesia",
	"Penerbit": "Pelangi",
	"Berat": "0.9119 kg",
	"Lebar": "0 cm"
},
{
	"page": 37,
	"kategori 1": "buku-anak",
	"book_url": "https://www.gramedia.com/products/conf-lc-airgear-19",
	"title": "LC: Airgear 19",
	"author": "Kodansha - Oh!great",
	"Jumlah Halaman": "204",
	"Tanggal Terbit": "29 Okt 2014",
	"ISBN": "978979279461",
	"Penerbit": "Elex Media Komputindo",
	"Berat": "0.13 kg",
	"Lebar": "12.0 cm",
	"Panjang": "18.0 cm"
},
{
	"page": 37,
	"kategori 1": "buku-anak",
	"book_url": "https://www.gramedia.com/products/boboiboy-galaxy-sticker-creative-monster-cattus",
	"title": "Boboiboy Galaxy Sticker Creative : Monster Cattus",
	"author": "Animonsta Studio Sdn. Bhd",
	"Jumlah Halaman": "16",
	"Tanggal Terbit": "19 Jun 2017",
	"ISBN": "9786020427713",
	"Bahasa": "Indonesia",
	"Penerbit": "Elex Media Komputindo",
	"Berat": "0.2000 kg",
	"Lebar": "22.5 cm"
},
{
	"page": 37,
	"kategori 1": "buku-anak",
	"book_url": "https://www.gramedia.com/products/kisah-nyata-masa-kicil-para-nabi",
	"title": "Kisah Nyata Masa Kicil Para Nabi",
	"author": "Siti Alfiyah",
	"Jumlah Halaman": "156",
	"Tanggal Terbit": "2 Okt 2015",
	"ISBN": "9786022559146",
	"Bahasa": "Indonesia",
	"Penerbit": "Saufa Kids",
	"Berat": "0.9119 kg",
	"Lebar": "31 cm"
},
{
	"page": 37,
	"kategori 1": "buku-anak",
	"book_url": "https://www.gramedia.com/products/the-never-girls-10-melacak-jejak",
	"title": "The Never Girls#10: Melacak Jejak",
	"author": "Disney",
	"Jumlah Halaman": "116",
	"Tanggal Terbit": "17 Jul 2017",
	"ISBN": "9786020356891",
	"Bahasa": "Indonesia",
	"Penerbit": "Gramedia Pustaka Utama",
	"Berat": "0.1200 kg",
	"Lebar": "13.5 cm"
},
{
	"page": 37,
	"kategori 1": "buku-anak",
	"book_url": "https://www.gramedia.com/products/conf-lc-airgear-15",
	"title": "LC: Airgear 15",
	"author": "",
	"Jumlah Halaman": "212",
	"Tanggal Terbit": "16 Okt 2014",
	"ISBN": "978979278328",
	"Penerbit": "Elex Media Komputindo",
	"Berat": "0.14 kg",
	"Lebar": "12.0 cm",
	"Panjang": "18.0 cm"
},
{
	"page": 37,
	"kategori 1": "buku-anak",
	"book_url": "https://www.gramedia.com/products/jangan-takut-kkpk",
	"title": "Jangan Takut :Kkpk",
	"author": "Nasywa Salma",
	"Jumlah Halaman": "104",
	"Tanggal Terbit": "22 Sep 2015",
	"ISBN": "9786023670710",
	"Bahasa": "Indonesia",
	"Penerbit": "Mizan Publishing",
	"Berat": "0.1000 kg",
	"Lebar": "25 cm"
},
{
	"page": 37,
	"kategori 1": "buku-anak",
	"book_url": "https://www.gramedia.com/products/kimi-ni-todoke-from-me-to-you-24",
	"title": "Kimi Ni Todoke: From Me To You 24",
	"author": "Karuho Shiina",
	"Jumlah Halaman": "176",
	"Tanggal Terbit": "20 Jun 2017",
	"ISBN": "9786020431321",
	"Bahasa": "Indonesia",
	"Penerbit": "Elex Media Komputindo",
	"Berat": "0.1250 kg",
	"Lebar": "11.4 cm"
},
{
	"page": 37,
	"kategori 1": "buku-anak",
	"book_url": "https://www.gramedia.com/products/tanguy-laverdure-bahaya-di-mururoa-lc",
	"title": "Tanguy & Laverdure - Bahaya Di Mururoa: Lc",
	"author": "Charlier - Jije",
	"Jumlah Halaman": "48",
	"Tanggal Terbit": "11 Mei 2016",
	"ISBN": "9786020284323",
	"Bahasa": "Indonesia",
	"Penerbit": "Elex Media Komputindo",
	"Berat": "0.1000 kg",
	"Lebar": "18 cm"
},
{
	"page": 37,
	"kategori 1": "buku-anak",
	"book_url": "https://www.gramedia.com/products/kapten-kolor-dan-amukan-wanita-supercapit-cetak-ulang",
	"title": "Kapten Kolor Dan Amukan Wanita Supercapit Yang Sangat Jahat - Cetak Ulang",
	"author": "Dav Pilkey",
	"Jumlah Halaman": "176",
	"Tanggal Terbit": "19 Jun 2017",
	"ISBN": "9786020356532",
	"Bahasa": "Indonesia",
	"Penerbit": "Gramedia Pustaka Utama",
	"Berat": "0.3000 kg",
	"Lebar": "14 cm"
},
{
	"page": 37,
	"kategori 1": "buku-anak",
	"book_url": "https://www.gramedia.com/products/whisker-haven-piknik-di-udara-kisah-kisah-lain",
	"title": "Whisker Haven: High Flying Tea & Other Stories (Piknik Di Udara & Kisah-Kisah Lain)",
	"author": "Disney",
	"Jumlah Halaman": "160",
	"Tanggal Terbit": "16 Okt 2017",
	"ISBN": "9786020377421",
	"Penerbit": "Gramedia Pustaka Utama",
	"Berat": "0.4000 kg",
	"Lebar": "21 cm",
	"Panjang": "28 cm"
},
{
	"page": 37,
	"kategori 1": "buku-anak",
	"book_url": "https://www.gramedia.com/products/boboiboy-galaxy-sticker-creative-kekuatan-power-sphera",
	"title": "Boboiboy Galaxy Sticker Creative : Kekuatan Power Sphera",
	"author": "Animonsta Studio Sdn. Bhd",
	"Jumlah Halaman": "16",
	"Tanggal Terbit": "19 Jun 2017",
	"ISBN": "9786020427706",
	"Bahasa": "Indonesia",
	"Penerbit": "Elex Media Komputindo",
	"Berat": "0.2000 kg",
	"Lebar": "22.5 cm"
},
{
	"page": 37,
	"kategori 1": "buku-anak",
	"book_url": "https://www.gramedia.com/products/kenapa-harus-iri",
	"title": "Kenapa Harus Iri",
	"author": "Purwandi Darsiyan",
	"Jumlah Halaman": "104",
	"Tanggal Terbit": "23 Sep 2015",
	"ISBN": "9786021614730",
	"Bahasa": "Indonesia",
	"Penerbit": "Indiva Media Kreasi",
	"Berat": "0.9119 kg",
	"Lebar": "24 cm"
},
{
	"page": 37,
	"kategori 1": "buku-anak",
	"book_url": "https://www.gramedia.com/products/maryam-putri-yang-baik-hati",
	"title": "Maryam Putri Yang Baik Hati",
	"author": "Novi Anggraheni",
	"Jumlah Halaman": "128",
	"Tanggal Terbit": "23 Mar 2016",
	"ISBN": "9786021614891",
	"Bahasa": "Indonesia",
	"Penerbit": "Indiva Media Kreasi",
	"Berat": "0.1300 kg",
	"Lebar": "14 cm"
},
{
	"page": 37,
	"kategori 1": "buku-anak",
	"book_url": "https://www.gramedia.com/products/kimi-ni-todoke-from-me-to-you-23",
	"title": "Kimi Ni Todoke: From Me To You 23",
	"author": "Karuho Shiina",
	"Jumlah Halaman": "184",
	"Tanggal Terbit": "3 Mei 2017",
	"ISBN": "9786020418544",
	"Bahasa": "Indonesia",
	"Penerbit": "Elex Media Komputindo",
	"Berat": "0.1750 kg",
	"Lebar": "11.4 cm"
},
{
	"page": 37,
	"kategori 1": "buku-anak",
	"book_url": "https://www.gramedia.com/products/wonderful-science-iron-besi",
	"title": "Wonderful Science: Iron - Besi",
	"author": "Sigongsa",
	"Jumlah Halaman": "176",
	"Tanggal Terbit": "19 Jun 2017",
	"ISBN": "9786020403564",
	"Bahasa": "Indonesia",
	"Penerbit": "Elex Media Komputindo",
	"Berat": "0.4500 kg",
	"Lebar": "15 cm"
},
{
	"page": 37,
	"kategori 1": "buku-anak",
	"book_url": "https://www.gramedia.com/products/mewarnai-untuk-usia-dini-3",
	"title": "Mewarnai Untuk Usia Dini 3",
	"author": "Herry P",
	"Jumlah Halaman": "0",
	"Tanggal Terbit": "24 Sep 2010",
	"ISBN": "9789790743014",
	"Penerbit": "Bhuana Ilmu Populer",
	"Berat": "0.1000 kg",
	"Lebar": "16 cm",
	"Panjang": "0 cm"
},
{
	"page": 37,
	"kategori 1": "buku-anak",
	"book_url": "https://www.gramedia.com/products/panduan-penting-untuk-cars-3-the-essential-guide",
	"title": "Panduan Penting Untuk Cars 3 (The Essential Guide)",
	"author": "Disney",
	"Jumlah Halaman": "0",
	"Tanggal Terbit": "25 Sep 2017",
	"ISBN": "9786020376585",
	"Penerbit": "Gramedia Pustaka Utama",
	"Berat": "0.1000 kg",
	"Lebar": "0 cm"
},
{
	"page": 37,
	"kategori 1": "buku-anak",
	"book_url": "https://www.gramedia.com/products/conf-aoba-bicycle-shop-10",
	"title": "Aoba Bicycle Shop 10",
	"author": "Shonen-gahosha / Gaku Miyao",
	"Tanggal Terbit": "3 Des 2015",
	"ISBN": "9786020203997",
	"Penerbit": "Elex Media Komputindo",
	"Berat": "0.1500 kg"
},
{
	"page": 37,
	"kategori 1": "buku-anak",
	"book_url": "https://www.gramedia.com/products/conf-lc-airgear-24",
	"title": "LC: Airgear 24",
	"author": "Kodansha - Oh!great",
	"Jumlah Halaman": "212",
	"Tanggal Terbit": "29 Okt 2014",
	"ISBN": "978602001273",
	"Penerbit": "Elex Media Komputindo",
	"Berat": "0.14 kg",
	"Lebar": "12.0 cm",
	"Panjang": "18.0 cm"
},
{
	"page": 37,
	"kategori 1": "buku-anak",
	"book_url": "https://www.gramedia.com/products/captain-america-the-winter-soldier",
	"title": "Captain America : The Winter Soldier",
	"author": "Disney Books",
	"Tanggal Terbit": "20 Feb 2014",
	"Penerbit": "No Publisher",
	"Berat": "0.3000 kg",
	"Lebar": "0 cm",
	"Panjang": "0 cm"
},
{
	"page": 37,
	"kategori 1": "buku-anak",
	"book_url": "https://www.gramedia.com/products/gua-gema",
	"title": "Gua Gema",
	"author": "Santoso S. Buwono",
	"Jumlah Halaman": "38",
	"Tanggal Terbit": "2 Okt 2015",
	"ISBN": "9786027688490",
	"Bahasa": "Indonesia",
	"Penerbit": "Libri",
	"Berat": "0.1700 kg",
	"Lebar": "28 cm"
},
{
	"page": 37,
	"kategori 1": "buku-anak",
	"book_url": "https://www.gramedia.com/products/easy-diy-recycled-crafts-berkreasi-dengan-amplop-paper-bag",
	"title": "Easy Diy Recycled Crafts : Berkreasi Dengan Amplop & Paper Bag",
	"author": "Yuichi Kimura,etsuyoshi Miyamoto",
	"Jumlah Halaman": "80",
	"Tanggal Terbit": "18 Jul 2016",
	"ISBN": "9786020288376",
	"Bahasa": "Indonesia",
	"Penerbit": "Elex Media Komputindo",
	"Berat": "0.1500 kg",
	"Lebar": "21 cm"
},
{
	"page": 37,
	"kategori 1": "buku-anak",
	"book_url": "https://www.gramedia.com/products/setiap-hari-bisa-menghafal-dzikir-doa",
	"title": "Setiap Hari Bisa Menghafal Dzikir&Doa",
	"author": "Ummu Zahirah",
	"Jumlah Halaman": "108",
	"Tanggal Terbit": "15 Mei 2015",
	"ISBN": "9786023720095",
	"Bahasa": "Indonesia",
	"Penerbit": "Adibintang",
	"Berat": "0.3000 kg",
	"Lebar": "17 cm"
},
{
	"page": 37,
	"kategori 1": "buku-anak",
	"book_url": "https://www.gramedia.com/products/girl-s-encyclopedia-beautiful-mind",
	"title": "Girl`S Encyclopedia: Beautiful Mind",
	"author": "Glsongi (via Carrot Korean Agency)",
	"Jumlah Halaman": "180",
	"Tanggal Terbit": "22 Agt 2016",
	"ISBN": "9786020291574",
	"Bahasa": "Indonesia",
	"Penerbit": "Elex Media Komputindo",
	"Berat": "0.2500 kg",
	"Lebar": "15 cm"
},
{
	"page": 37,
	"kategori 1": "buku-anak",
	"book_url": "https://www.gramedia.com/products/for-teen-yes-jadi-teen-pede-no-jadi-teen-gak-pede",
	"title": "For Teen: Yes Jadi Teen Pede No Jadi Teen Gak Pede",
	"author": "Kim Hyun Soo",
	"Jumlah Halaman": "204",
	"Tanggal Terbit": "9 Des 2011",
	"ISBN": "9786020016153",
	"Bahasa": "Indonesia",
	"Penerbit": "Elex Media Komputindo",
	"Berat": "0.420 kg",
	"Lebar": "13 cm",
	"Panjang": "18 cm"
},
{
	"page": 37,
	"kategori 1": "buku-anak",
	"book_url": "https://www.gramedia.com/products/juz-amma-for-kids-untuk-sd-mi-smp-mts",
	"title": "Juz Amma For Kids Untuk Sd/Mi & Smp/Mts",
	"author": "Tim Keira Publishing",
	"Jumlah Halaman": "142",
	"Tanggal Terbit": "21 Mei 2015",
	"ISBN": "9786021361467",
	"Bahasa": "Indonesia",
	"Penerbit": "Keira Publishing",
	"Berat": "0.4000 kg",
	"Lebar": "21 cm"
},
{
	"page": 37,
	"kategori 1": "buku-anak",
	"book_url": "https://www.gramedia.com/products/sticker-creative-disney-princess-ready-to-sparkle",
	"title": "Sticker Creative Disney Princess: Ready to Sparkle",
	"author": "Disney",
	"Jumlah Halaman": "12",
	"Tanggal Terbit": "3 Jan 2017",
	"ISBN": "9786020298313",
	"Bahasa": "Indonesia",
	"Penerbit": "Elex Media Komputindo",
	"Berat": "0.1000 kg",
	"Lebar": "25 cm"
},
{
	"page": 37,
	"kategori 1": "buku-anak",
	"book_url": "https://www.gramedia.com/products/science-adventure-s-child-vs-monster-sains-vol-4",
	"title": "Science Adventure - S-Child Vs Monster Sains Vol 4",
	"author": "Chunjae Education",
	"Jumlah Halaman": "170",
	"Tanggal Terbit": "28 Sep 2015",
	"ISBN": "9786020273426",
	"Bahasa": "Indonesia",
	"Penerbit": "Elex Media Komputindo",
	"Berat": "0.3000 kg",
	"Lebar": "15 cm"
},
{
	"page": 37,
	"kategori 1": "buku-anak",
	"book_url": "https://www.gramedia.com/products/candy-no-kkpk-next-g",
	"title": "Candy ? No ! : Kkpk.Next G",
	"author": "Hana Mardhiyah & Indha, Dkk",
	"Jumlah Halaman": "104",
	"Tanggal Terbit": "30 Mei 2016",
	"ISBN": "9786023671984",
	"Bahasa": "Indonesia",
	"Penerbit": "Mizan",
	"Berat": "0.1000 kg",
	"Lebar": "14 cm"
},
{
	"page": 37,
	"kategori 1": "buku-anak",
	"book_url": "https://www.gramedia.com/products/pod-bear-bear-2",
	"title": "Bear Bear #2",
	"author": "Junko Ike",
	"Jumlah Halaman": "191",
	"Tanggal Terbit": "14 Nov 2014",
	"ISBN": "978602266817",
	"Penerbit": "m&c!",
	"Berat": "0.11 kg",
	"Lebar": "11.2 cm",
	"Panjang": "17.6 cm"
},
{
	"page": 37,
	"kategori 1": "buku-anak",
	"book_url": "https://www.gramedia.com/products/conf-dear-boys-act-iii-07",
	"title": "Dear Boys Act III 07",
	"author": "",
	"Jumlah Halaman": "192",
	"Tanggal Terbit": "16 Sep 2014",
	"ISBN": "978602001659",
	"Penerbit": "Elex Media Komputindo",
	"Berat": "0.12 kg",
	"Lebar": "11.5 cm",
	"Panjang": "17.5 cm"
},
{
	"page": 37,
	"kategori 1": "buku-anak",
	"book_url": "https://www.gramedia.com/products/taman-besar-di-depan-rumah",
	"title": "Taman Besar di Depan Rumah",
	"author": "Renny Yaniar",
	"Jumlah Halaman": "16",
	"Tanggal Terbit": "25 Apr 2017",
	"ISBN": "9786020346342",
	"Bahasa": "Indonesia",
	"Penerbit": "Gramedia Pustaka Utama",
	"Berat": "0.1000 kg",
	"Lebar": "20 cm"
},
{
	"page": 37,
	"kategori 1": "buku-anak",
	"book_url": "https://www.gramedia.com/products/para-hakim-israel",
	"title": "Para Hakim Israel",
	"author": "Ratih Maharani",
	"Jumlah Halaman": "46",
	"Tanggal Terbit": "20 Mei 2015",
	"ISBN": "9789792945997",
	"Bahasa": "Indonesia",
	"Penerbit": "Andi Offset",
	"Berat": "0.2000 kg",
	"Lebar": "20 cm"
},
{
	"page": 37,
	"kategori 1": "buku-anak",
	"book_url": "https://www.gramedia.com/products/aktivitas-cerdas-untuk-tk-tokoh-idola",
	"title": "Aktivitas Cerdas Untuk Tk : Tokoh Idola",
	"author": "Yusuf Kristianto",
	"Jumlah Halaman": "50",
	"Tanggal Terbit": "18 Mei 2015",
	"ISBN": "9789792941593",
	"Bahasa": "Indonesia",
	"Penerbit": "Andi Offset",
	"Berat": "0.2000 kg",
	"Lebar": "20 cm"
},
{
	"page": 37,
	"kategori 1": "buku-anak",
	"book_url": "https://www.gramedia.com/products/berkenalan-dengan-para-tokoh-perjanjian-baru",
	"title": "Berkenalan Dengan Para Tokoh Perjanjian Baru",
	"author": "Catherine Mackemzie",
	"Jumlah Halaman": "48",
	"Tanggal Terbit": "11 Nov 2015",
	"ISBN": "9786021625200",
	"Bahasa": "Indonesia",
	"Penerbit": "Gloria Usaha Mulia",
	"Berat": "0.1000 kg",
	"Lebar": "19 cm"
},
{
	"page": 37,
	"kategori 1": "buku-anak",
	"book_url": "https://www.gramedia.com/products/juiceme-sport-is-fun-kkpk",
	"title": "Juiceme : Sport Is Fun (Kkpk)",
	"author": "Raissa,natysa Dkk",
	"Jumlah Halaman": "124",
	"Tanggal Terbit": "8 Jul 2015",
	"ISBN": "9786022426394",
	"Bahasa": "Indonesia",
	"Penerbit": "Mizan Publishing",
	"Berat": "0.2000 kg",
	"Lebar": "14 cm"
},
{
	"page": 37,
	"kategori 1": "buku-anak",
	"book_url": "https://www.gramedia.com/products/yu-gi-oh-premium-17",
	"title": "Yu-Gi-Oh (Premium) 17",
	"author": "Kazuki Takahashi",
	"Jumlah Halaman": "352",
	"Tanggal Terbit": "17 Mei 2017",
	"ISBN": "9786020411712",
	"Bahasa": "Indonesia",
	"Penerbit": "Elex Media Komputindo",
	"Berat": "0.1350 kg",
	"Lebar": "11.4 cm"
},
{
	"page": 37,
	"kategori 1": "buku-anak",
	"book_url": "https://www.gramedia.com/products/puzzle-medium-spider-man-01",
	"title": "Puzzle Medium - Spider-Man 01",
	"author": "Disney - Marvel",
	"Jumlah Halaman": "2",
	"Tanggal Terbit": "20 Jun 2016",
	"ISBN": "XXX",
	"Bahasa": "Indonesia",
	"Penerbit": "Elex Media Komputindo",
	"Berat": "0.1000 kg",
	"Lebar": "21 cm"
},
{
	"page": 37,
	"kategori 1": "buku-anak",
	"book_url": "https://www.gramedia.com/products/buku-cerdas-anak-pintar-1-jam-lancar-menulis-alfabet-1",
	"title": "Buku Cerdas Anak Pintar: 1 Jam Lancar Menulis Alfabet",
	"author": "Ferra Aqira",
	"Jumlah Halaman": "46",
	"Tanggal Terbit": "25 Mei 2015",
	"ISBN": "9786023040742",
	"Bahasa": "Indonesia",
	"Penerbit": "Lembar Pustaka",
	"Berat": "0.2000 kg",
	"Lebar": "21 cm"
},
{
	"page": 37,
	"kategori 1": "buku-anak",
	"book_url": "https://www.gramedia.com/products/hei-aw-kreek",
	"title": "Hei, Aw Kreek!",
	"author": "Nabila Anwar",
	"Jumlah Halaman": "36",
	"Tanggal Terbit": "28 Agt 2015",
	"ISBN": "9786023660599",
	"Bahasa": "Indonesia",
	"Penerbit": "Tiga Ananda",
	"Berat": "0.1000 kg",
	"Lebar": "23 cm"
},
{
	"page": 37,
	"kategori 1": "buku-anak",
	"book_url": "https://www.gramedia.com/products/marvel-avengers-assemble-sticker-puzzle-3",
	"title": "Marvel Avengers Assemble Sticker Puzzle 3",
	"author": "Disney - Marvel",
	"Jumlah Halaman": "16",
	"Tanggal Terbit": "12 Jun 2015",
	"ISBN": "9786020256795",
	"Bahasa": "Indonesia",
	"Penerbit": "Elex Media Komputindo",
	"Berat": "0.3000 kg",
	"Lebar": "22.5 cm"
},
{
	"page": 37,
	"kategori 1": "buku-anak",
	"book_url": "https://www.gramedia.com/products/spooky-stories-misteri-lukisan-isabell",
	"title": "Spooky Stories: Misteri Lukisan Isabell",
	"author": "Ayunda Nurul Afifatur Rizqiyah",
	"Jumlah Halaman": "150",
	"Tanggal Terbit": "27 Mei 2015",
	"ISBN": "9786020989556",
	"Bahasa": "Indonesia",
	"Penerbit": "Noura Publishing",
	"Berat": "0.2000 kg",
	"Lebar": "14 cm"
},
{
	"page": 37,
	"kategori 1": "buku-anak",
	"book_url": "https://www.gramedia.com/products/anak-cerdas-berhitung-usia-5-6-thn-seri-4-sahabat",
	"title": "Anak Cerdas Berhitung Usia 5-6 Thn : Seri 4 Sahabat",
	"author": "Heryanto",
	"Jumlah Halaman": "64",
	"Tanggal Terbit": "22 Mei 2015",
	"ISBN": "9786022524434",
	"Bahasa": "Indonesia",
	"Penerbit": "Erlangga",
	"Berat": "0.3000 kg",
	"Lebar": "19.5 cm"
},
{
	"page": 37,
	"kategori 1": "buku-anak",
	"book_url": "https://www.gramedia.com/products/psychometrer-06-lc",
	"title": "Psychometrer 06: Lc",
	"author": "Yuma Ando/masashi Asaki",
	"Jumlah Halaman": "200",
	"Tanggal Terbit": "7 Okt 2015",
	"ISBN": "9786020273747",
	"Bahasa": "Indonesia",
	"Penerbit": "Elex Media Komputindo",
	"Berat": "0.2000 kg",
	"Lebar": "13 cm"
},
{
	"page": 37,
	"kategori 1": "buku-anak",
	"book_url": "https://www.gramedia.com/products/woof-kapten-tim-yang-egois",
	"title": "Woof Kapten Tim Yang Egois",
	"author": "Harpreet Kaur",
	"Jumlah Halaman": "16",
	"Tanggal Terbit": "12 Okt 2015",
	"ISBN": "9786023395255",
	"Bahasa": "Indonesia",
	"Penerbit": "Quixot Publications",
	"Berat": "0.2000 kg",
	"Lebar": "20 cm"
},
{
	"page": 37,
	"kategori 1": "buku-anak",
	"book_url": "https://www.gramedia.com/products/kumpulan-cerita-asal-usul-vol-1",
	"title": "Kumpulan Cerita Asal Usul Vol. 1",
	"author": "Tim Elex",
	"Jumlah Halaman": "96",
	"Tanggal Terbit": "3 Jan 2017",
	"ISBN": "9786020297910",
	"Bahasa": "Indonesia",
	"Penerbit": "Elex Media Komputindo",
	"Berat": "0.2000 kg",
	"Lebar": "17 cm"
},
{
	"page": 37,
	"kategori 1": "buku-anak",
	"book_url": "https://www.gramedia.com/products/teman-tapi-musuh-new-kkpk",
	"title": "Teman Tapi Musuh-New : Kkpk",
	"author": "Fina",
	"Jumlah Halaman": "112",
	"Tanggal Terbit": "16 Mei 2016",
	"ISBN": "9786024200015",
	"Bahasa": "Indonesia",
	"Penerbit": "Mizan Media Utama",
	"Berat": "0.1000 kg",
	"Lebar": "14 cm"
},
{
	"page": 37,
	"kategori 1": "buku-anak",
	"book_url": "https://www.gramedia.com/products/aktivitas-finding-dory-perkalian",
	"title": "Aktivitas Finding Dory: Perkalian",
	"author": "Disney",
	"Jumlah Halaman": "32",
	"Tanggal Terbit": "9 Jan 2017",
	"ISBN": "9786020299372",
	"Bahasa": "Indonesia",
	"Penerbit": "Elex Media Komputindo",
	"Berat": "0.1000 kg",
	"Lebar": "21 cm"
},
{
	"page": 37,
	"kategori 1": "buku-anak",
	"book_url": "https://www.gramedia.com/products/belajar-ceria-aktivitas-mewarnai-3-5-th-dc",
	"title": "Belajar Ceria Aktivitas&Mewarnai 3-5 Th: Dc",
	"author": "Tim Dahara Ceria",
	"Jumlah Halaman": "24",
	"Tanggal Terbit": "7 Jul 2015",
	"ISBN": "9789795018292",
	"Bahasa": "Indonesia",
	"Penerbit": "Dahara Ceria",
	"Berat": "0.2000 kg",
	"Lebar": "20 cm"
},
{
	"page": 37,
	"kategori 1": "buku-anak",
	"book_url": "https://www.gramedia.com/products/rare-angon-balinese-folktales-their-translation",
	"title": "Rare Angon Balinese Folktales & Their Translation",
	"author": "Made Taro",
	"Jumlah Halaman": "132",
	"Tanggal Terbit": "17 Sep 2015",
	"ISBN": "9786027599208",
	"Bahasa": "Indonesia",
	"Penerbit": "Ud Prama Media",
	"Berat": "0.2100 kg",
	"Lebar": "24 cm"
},
{
	"page": 37,
	"kategori 1": "buku-anak",
	"book_url": "https://www.gramedia.com/products/odong2-dongeng-domba-serigala",
	"title": "Odong2 Dongeng: Domba&Serigala",
	"author": "Iput & Oyas",
	"Jumlah Halaman": "20",
	"Tanggal Terbit": "18 Mei 2015",
	"ISBN": "9786020989723",
	"Bahasa": "Indonesia",
	"Penerbit": "Noura",
	"Berat": "0.4000 kg",
	"Lebar": "18 cm"
},
{
	"page": 37,
	"kategori 1": "buku-anak",
	"book_url": "https://www.gramedia.com/products/kamus-bergambar-mandarin",
	"title": "Kamus Bergambar Mandarin",
	"author": "Merinawati",
	"Jumlah Halaman": "110",
	"Tanggal Terbit": "5 Jun 2015",
	"ISBN": "9786020266985",
	"Bahasa": "Indonesia",
	"Penerbit": "Elex Media Komputindo",
	"Berat": "0.2480 kg",
	"Lebar": "21 cm"
},
{
	"page": 37,
	"kategori 1": "buku-anak",
	"book_url": "https://www.gramedia.com/products/my-stickers-and-coloring-book-1",
	"title": "My Stickers And Coloring Book 1",
	"author": "Alfnomic",
	"Jumlah Halaman": "48",
	"Tanggal Terbit": "6 Feb 2017",
	"ISBN": "9786023944323",
	"Bahasa": "Indonesia",
	"Penerbit": "Bhuana Ilmu Populer",
	"Berat": "0.1500 kg",
	"Lebar": "21 cm"
},
{
	"page": 37,
	"kategori 1": "buku-anak",
	"book_url": "https://www.gramedia.com/products/mushibugyo-04",
	"title": "Mushibugyo 04",
	"author": "Hiroshi Fukuda",
	"Jumlah Halaman": "200",
	"Tanggal Terbit": "6 Jan 2016",
	"ISBN": "9786020278209",
	"Bahasa": "Indonesia",
	"Penerbit": "Elex Media Komputindo",
	"Berat": "0.1000 kg",
	"Lebar": "11.4 cm"
},
{
	"page": 37,
	"kategori 1": "buku-anak",
	"book_url": "https://www.gramedia.com/products/sejarah-sains-3-abad-pertengahan-renaisans",
	"title": "Sejarah Sains#3: Abad Pertengahan Renaisans",
	"author": "Jung Hae-yong",
	"Jumlah Halaman": "208",
	"Tanggal Terbit": "30 Nov 2015",
	"ISBN": "9786020323572",
	"Bahasa": "Indonesia",
	"Penerbit": "Gramedia Pustaka Utama",
	"Berat": "0.4000 kg",
	"Lebar": "17.5 cm"
},
{
	"page": 37,
	"kategori 1": "buku-anak",
	"book_url": "https://www.gramedia.com/products/board-book-seri-bermain-bersama-cowi-sapi-yang-baik-hati",
	"title": "Board book Buka Tutup Seri Bermain Bersama Cowi sapi yang baik hati",
	"author": "Tim Elex",
	"Jumlah Halaman": "10.0",
	"Tanggal Terbit": "12 Jun 2017",
	"ISBN": "9786020411989",
	"Bahasa": "Indonesia",
	"Penerbit": "Elex Media Komputindo",
	"Berat": "0.2 kg",
	"Lebar": "13.5 cm",
	"Panjang": "20.0 cm"
},
{
	"page": 37,
	"kategori 1": "buku-anak",
	"book_url": "https://www.gramedia.com/products/motorik-halus-dot-to-dot-mewarnai-cars-1",
	"title": "Motorik Halus Dot To Dot & Mewarnai Cars 1",
	"author": "Disney",
	"Jumlah Halaman": "32",
	"Tanggal Terbit": "3 Nov 2014",
	"ISBN": "9786020252490",
	"Penerbit": "Elex Media Komputindo",
	"Berat": "0.1500 kg",
	"Lebar": "22 cm",
	"Panjang": "0 cm"
},
{
	"page": 37,
	"kategori 1": "buku-anak",
	"book_url": "https://www.gramedia.com/products/roro-ramuan-rahasia",
	"title": "Roro : Ramuan Rahasia",
	"author": "Fayanna Ailisha Davianny",
	"Jumlah Halaman": "104",
	"Tanggal Terbit": "17 Jun 2015",
	"ISBN": "9786023670352",
	"Bahasa": "Indonesia",
	"Penerbit": "Mizan Media Utama",
	"Berat": "0.2000 kg",
	"Lebar": "14 cm"
},
{
	"page": 37,
	"kategori 1": "buku-anak",
	"book_url": "https://www.gramedia.com/products/i-love-you-baby-07",
	"title": "I Love You, Baby 07",
	"author": "Yoko Maki",
	"Jumlah Halaman": "192",
	"Tanggal Terbit": "6 Jan 2016",
	"ISBN": "9786020278735",
	"Bahasa": "Indonesia",
	"Penerbit": "Elex Media Komputindo",
	"Berat": "0.1000 kg",
	"Lebar": "11.4 cm"
},
{
	"page": 37,
	"kategori 1": "buku-anak",
	"book_url": "https://www.gramedia.com/products/tematik-tk-binatang-dvd",
	"title": "Tematik Tk - Binatang + Dvd",
	"author": "Tim Eldi",
	"Jumlah Halaman": "4",
	"Tanggal Terbit": "21 Des 2015",
	"ISBN": "9786020277042",
	"Bahasa": "Indonesia",
	"Penerbit": "Elex Media Komputindo",
	"Berat": "0.2500 kg",
	"Lebar": "21 cm"
},
{
	"page": 37,
	"kategori 1": "buku-anak",
	"book_url": "https://www.gramedia.com/products/mystrerious-market-kkjd",
	"title": "Mystrerious Market : Kkjd",
	"author": "Rafid",
	"Jumlah Halaman": "112",
	"Tanggal Terbit": "26 Okt 2015",
	"ISBN": "9786022427858",
	"Bahasa": "Indonesia",
	"Penerbit": "Dar! Mizan",
	"Berat": "0.1500 kg",
	"Lebar": "15 cm"
},
{
	"page": 37,
	"kategori 1": "buku-anak",
	"book_url": "https://www.gramedia.com/products/13-cerita-aneh-bin-ajaib-monster-dan-makhluk-jahat",
	"title": "13 Cerita Aneh Bin Ajaib : Monster Dan Makhluk Jahat",
	"author": "Claire Renau",
	"Tanggal Terbit": "30 Jun 2013",
	"ISBN": "9786022492597",
	"Penerbit": "No Publisher",
	"Berat": "0.3000 kg"
},
{
	"page": 37,
	"kategori 1": "buku-anak",
	"book_url": "https://www.gramedia.com/products/hot-blooded-girl-01-terbit-ulang",
	"title": "Hot Blooded Girl 01 (Terbit Ulang)",
	"author": "Hwang Mi Ree",
	"Jumlah Halaman": "168",
	"Tanggal Terbit": "13 Jan 2016",
	"ISBN": "9786020279039",
	"Bahasa": "Indonesia",
	"Penerbit": "Elex Media Komputindo",
	"Berat": "0.1000 kg",
	"Lebar": "11.4 cm",
	"Panjang": "17.2 cm"
},
{
	"page": 37,
	"kategori 1": "buku-anak",
	"book_url": "https://www.gramedia.com/products/seri-agen-polisi-insiden-skateboard",
	"title": "Seri Agen Polisi: Insiden Skateboard",
	"author": "Raoul Cauvin",
	"Tanggal Terbit": "8 Feb 2010",
	"ISBN": "9789790741515",
	"Penerbit": "Bhuana Ilmu Populer",
	"Berat": "0.3000 kg",
	"Lebar": "22 cm",
	"Panjang": "0 cm"
},
{
	"page": 37,
	"kategori 1": "buku-anak",
	"book_url": "https://www.gramedia.com/products/rosario-vampire-04-lc",
	"title": "Rosario Vampire 04: Lc",
	"author": "Akihisa Ikeda",
	"Jumlah Halaman": "198",
	"Tanggal Terbit": "11 Nov 2015",
	"ISBN": "9786020275666",
	"Bahasa": "Indonesia",
	"Penerbit": "Elex Media Komputindo",
	"Berat": "0.1000 kg",
	"Lebar": "12 cm"
},
{
	"page": 37,
	"kategori 1": "buku-anak",
	"book_url": "https://www.gramedia.com/products/navi-runa-04",
	"title": "Navi Runa 04",
	"author": "Michiyo Kikuta,miyoko Ikeda",
	"Jumlah Halaman": "176",
	"Tanggal Terbit": "12 Apr 2017",
	"ISBN": "9786020412887",
	"Bahasa": "Indonesia",
	"Penerbit": "Elex Media Komputindo",
	"Berat": "0.1270 kg",
	"Lebar": "11.4 cm"
},
{
	"page": 37,
	"kategori 1": "buku-anak",
	"book_url": "https://www.gramedia.com/products/bos-for-kids-henri-nestle",
	"title": "Bos For Kids: Henri Nestle",
	"author": "G. Wu",
	"Jumlah Halaman": "0",
	"Tanggal Terbit": "16 Feb 2015",
	"ISBN": "9786020312835",
	"Bahasa": "Indonesia",
	"Penerbit": "Gramedia Pustaka Utama",
	"Berat": "0.3000 kg",
	"Lebar": "20 cm"
},
{
	"page": 37,
	"kategori 1": "buku-anak",
	"book_url": "https://www.gramedia.com/products/seri-zona-prasejarah-tyrannosaurus-rex",
	"title": "Seri Zona Prasejarah : Tyrannosaurus Rex",
	"author": "Gerry Bailey",
	"Jumlah Halaman": "32",
	"Tanggal Terbit": "24 Nov 2011",
	"ISBN": "9789790748422",
	"Penerbit": "Bhuana Ilmu Populer",
	"Berat": "0.1500 kg",
	"Lebar": "27 cm",
	"Panjang": "0 cm"
},
{
	"page": 37,
	"kategori 1": "buku-anak",
	"book_url": "https://www.gramedia.com/products/macam-macam-pesawat-supersonik",
	"title": "Macam-Macam Pesawat Supersonik",
	"author": "Muh Faisal",
	"Jumlah Halaman": "24",
	"Tanggal Terbit": "12 Apr 2016",
	"ISBN": "9789792675665",
	"Bahasa": "Indonesia",
	"Penerbit": "Solusi Distribusi",
	"Berat": "0.1300 kg",
	"Lebar": "23 cm"
},
{
	"page": 37,
	"kategori 1": "buku-anak",
	"book_url": "https://www.gramedia.com/products/give-yourself-membuat-duniamu-lebih-baik",
	"title": "Give Yourself - Membuat Duniamu Lebih Baik",
	"author": "Anthony Dio Martin",
	"Jumlah Halaman": "184",
	"Tanggal Terbit": "12 Jun 2017",
	"ISBN": "9786020421582",
	"Bahasa": "Indonesia",
	"Penerbit": "Elex Media Komputindo",
	"Berat": "0.5300 kg",
	"Lebar": "15 cm"
},
{
	"page": 37,
	"kategori 1": "buku-anak",
	"book_url": "https://www.gramedia.com/products/seri-numbers-of-life-1-pohon-keluarga",
	"title": "Seri Numbers Of Life 1 : Pohon Keluarga",
	"author": "Nuria Roca",
	"Tanggal Terbit": "4 Jan 2010",
	"ISBN": "9789790741133",
	"Penerbit": "Bhuana Ilmu Populer",
	"Berat": "0.3000 kg",
	"Lebar": "24 cm",
	"Panjang": "0 cm"
},
{
	"page": 37,
	"kategori 1": "buku-anak",
	"book_url": "https://www.gramedia.com/products/steven-sterk-boneka-voodoo-lc",
	"title": "Lc: Steven Sterk-Boneka Voodoo",
	"author": "Peyo",
	"Jumlah Halaman": "48",
	"Tanggal Terbit": "28 Sep 2016",
	"ISBN": "9786020292434",
	"Penerbit": "Elex Media Komputindo",
	"Berat": "0.1000 kg",
	"Lebar": "18 cm"
},
{
	"page": 37,
	"kategori 1": "buku-anak",
	"book_url": "https://www.gramedia.com/products/wipe-clean-card-balita-genius-123",
	"title": "Wipe Clean Card : Balita Genius - 123",
	"author": "Sita",
	"Jumlah Halaman": "60",
	"Tanggal Terbit": "25 Jan 2016",
	"ISBN": "9786020279107",
	"Bahasa": "Indonesia",
	"Penerbit": "Elex Media Komputindo",
	"Berat": "0.3000 kg",
	"Lebar": "21.5 cm"
},
