{
	"page": 32,
	"kategori 1": "buku-anak",
	"book_url": "https://www.gramedia.com/products/pertunjukan-wayang-kulit",
	"title": "Pertunjukan Wayang Kulit",
	"author": "Anita Widiyarti",
	"Jumlah Halaman": "54.0",
	"Tanggal Terbit": "19 Agt 2019",
	"ISBN": "9786232062146",
	"Bahasa": "Indonesia",
	"Penerbit": "Tiga Serangkai",
	"Berat": "0.3 kg",
	"Lebar": "21.0 cm",
	"Panjang": "14.0 cm"
},
{
	"page": 32,
	"kategori 1": "buku-anak",
	"book_url": "https://www.gramedia.com/products/smart-big-book-365-aktivitas-anak-paud",
	"title": "Smart Big Book; 365 Aktivitas Anak Paud",
	"author": "Fitri Nurul Aulia",
	"Jumlah Halaman": "228.0",
	"Tanggal Terbit": "19 Sep 2019",
	"ISBN": "9786239073732",
	"Bahasa": "Indonesia",
	"Penerbit": "Kawah Media Pustaka Pt",
	"Berat": "0.552 kg",
	"Lebar": "21.1 cm",
	"Panjang": "27.0 cm"
},
{
	"page": 32,
	"kategori 1": "buku-anak",
	"book_url": "https://www.gramedia.com/products/seri-kimi-dan-kino-belajar-berbagi",
	"title": "Seri Kimi Dan Kino: Belajar Berbagi",
	"author": "Watiek Ideo dan Veronica Winata",
	"Jumlah Halaman": "14.0",
	"Tanggal Terbit": "23 Sep 2019",
	"ISBN": "9786230004766",
	"Penerbit": "ELEX MEDIA KOMPUTINDO",
	"Berat": "0.45 kg",
	"Lebar": "15.0 cm",
	"Panjang": "15.0 cm"
},
{
	"page": 32,
	"kategori 1": "buku-anak",
	"book_url": "https://www.gramedia.com/products/my-first-words-hc",
	"title": "My First Words (Hc)",
	"author": "Brown Watson",
	"Jumlah Halaman": "10.0",
	"Tanggal Terbit": "11 Des 2019",
	"ISBN": "9780709726319",
	"Bahasa": "English",
	"Penerbit": "BROWN WATSON",
	"Berat": "0.377 kg",
	"Lebar": "18.2 cm",
	"Panjang": "24.6 cm"
},
{
	"page": 32,
	"kategori 1": "buku-anak",
	"book_url": "https://www.gramedia.com/products/star-stylist-puffy-stickers-hc",
	"title": "Star Stylist: Puffy Stickers (Hc)",
	"author": "Thomas Nelson",
	"Jumlah Halaman": "2.0",
	"Tanggal Terbit": "9 Feb 2016",
	"ISBN": "9781785981593",
	"Bahasa": "English",
	"Penerbit": "MAKE BELIEVE IDEAS US",
	"Berat": "0.271 kg",
	"Lebar": "13.3 cm",
	"Panjang": "20.6 cm"
},
{
	"page": 32,
	"kategori 1": "buku-anak",
	"book_url": "https://www.gramedia.com/products/kisah-mahadahsyat-25-nabi-rasul",
	"title": "Kisah Mahadahsyat 25 Nabi & Rasul",
	"author": "Tristanti Wahyuni",
	"Jumlah Halaman": "0.0",
	"Tanggal Terbit": "8 Jul 2019",
	"ISBN": "9786025921186",
	"Penerbit": "MEDIA FIRDAUS",
	"Berat": "0.2 kg",
	"Lebar": "18.0 cm",
	"Panjang": "26.0 cm"
},
{
	"page": 32,
	"kategori 1": "buku-anak",
	"book_url": "https://www.gramedia.com/products/stories-for-four-year-olds",
	"title": "Stories For Four-Year-Olds",
	"author": "PAULA KNIGHT",
	"Jumlah Halaman": "96.0",
	"Tanggal Terbit": "1 Jan 2018",
	"ISBN": "9781488914416",
	"Bahasa": "English",
	"Penerbit": "HINKLER",
	"Berat": "0.553 kg",
	"Lebar": "23.0 cm",
	"Panjang": "26.0 cm"
},
{
	"page": 32,
	"kategori 1": "buku-anak",
	"book_url": "https://www.gramedia.com/products/ngr-l3-archaeologist-sc",
	"title": "Ngr L3: Archaeologist (Sc)",
	"author": "Penguin Us",
	"Jumlah Halaman": "48.0",
	"Tanggal Terbit": "1 Jan 2019",
	"ISBN": "9781426335112",
	"Bahasa": "Indonesia",
	"Penerbit": "Penguin Us",
	"Berat": "0.12 kg",
	"Lebar": "22.8 cm",
	"Panjang": "15.2 cm"
},
{
	"page": 32,
	"kategori 1": "buku-anak",
	"book_url": "https://www.gramedia.com/products/bella-belajar-sopan-santun-dan-9-cerita-pendidikan-karakter",
	"title": "Bella Belajar Sopan Santun Dan 9 Cerita Pendidikan Karakter",
	"author": "DEWI CHERANO",
	"Jumlah Halaman": "124.0",
	"Tanggal Terbit": "21 Okt 2019",
	"ISBN": "9786232165922",
	"Bahasa": "Indonesia",
	"Penerbit": "Bhuana Ilmu Populer",
	"Berat": "0.2 kg",
	"Lebar": "18.0 cm",
	"Panjang": "24.0 cm"
},
{
	"page": 32,
	"kategori 1": "buku-anak",
	"book_url": "https://www.gramedia.com/products/my-magical-mermaid-400-stickers-sc",
	"title": "My Magical Mermaid 400 Stickers",
	"author": "Campbell Books",
	"Jumlah Halaman": "30",
	"Tanggal Terbit": "1 Agt 2019",
	"ISBN": "9781529013337",
	"Bahasa": "English",
	"Penerbit": "Pan MacMillan",
	"Berat": "0.24 kg",
	"Lebar": "24 cm",
	"Panjang": "30 cm"
},
{
	"page": 32,
	"kategori 1": "buku-anak",
	"book_url": "https://www.gramedia.com/products/just-us-over-100-quizzes-hc",
	"title": "Just Us: Over 100 Quizzes (Hc)",
	"author": "MAKE BELIEVE IDEAS LTD",
	"Jumlah Halaman": "80.0",
	"Tanggal Terbit": "4 Sep 2018",
	"ISBN": "9781788434621",
	"Bahasa": "English",
	"Penerbit": "MAKE BELIEVE IDEAS US",
	"Berat": "0.243 kg",
	"Lebar": "16.5 cm",
	"Panjang": "21.5 cm"
},
{
	"page": 32,
	"kategori 1": "buku-anak",
	"book_url": "https://www.gramedia.com/products/dongeng-dan-aktivitas-di-taman-bermain",
	"title": "Dongeng Dan Aktivitas Di Taman Bermain",
	"author": "May Belle",
	"Jumlah Halaman": "32",
	"Tanggal Terbit": "20 Mei 2019",
	"ISBN": "9786232161726",
	"Bahasa": "Indonesia",
	"Penerbit": "Bhuana Ilmu Populer",
	"Berat": "0.120 kg",
	"Lebar": "18 cm",
	"Panjang": "24 cm"
},
{
	"page": 32,
	"kategori 1": "buku-anak",
	"book_url": "https://www.gramedia.com/products/kkpkperjalanan-putri-qely",
	"title": "KKPK Perjalanan Putri Qely",
	"author": "Amatulla Hayfa",
	"Jumlah Halaman": "95",
	"Tanggal Terbit": "30 Jan 2019",
	"ISBN": "9786024207434",
	"Bahasa": "Indonesia",
	"Penerbit": "Mizan Publishing",
	"Berat": "0.136 kg",
	"Lebar": "14 cm",
	"Panjang": "21 cm"
},
{
	"page": 32,
	"kategori 1": "buku-anak",
	"book_url": "https://www.gramedia.com/products/kkpkcamera-rolling-action",
	"title": "KKPK Reguler: Camera, Rolling, Action!",
	"author": "Nida An Khafiyya Al Hadyie",
	"Jumlah Halaman": "84",
	"Tanggal Terbit": "4 Feb 2019",
	"ISBN": "9786024207427",
	"Bahasa": "Indonesia",
	"Penerbit": "Dar! Mizan",
	"Berat": "0.1 kg"
},
{
	"page": 32,
	"kategori 1": "buku-anak",
	"book_url": "https://www.gramedia.com/products/seri-aktivitas-bermain-bongkar-pasang-saat-berbelanja",
	"title": "Seri Aktivitas Bermain Bongkar Pasang : Saat Berbelanja",
	"author": "Syarifah Tika Irmasari",
	"Jumlah Halaman": "20.0",
	"Tanggal Terbit": "13 Jan 2020",
	"ISBN": "9786232167377",
	"Bahasa": "Indonesia",
	"Penerbit": "Bhuana Ilmu Populer",
	"Berat": "0.15 kg",
	"Lebar": "18.0 cm",
	"Panjang": "24.0 cm"
},
{
	"page": 32,
	"kategori 1": "buku-anak",
	"book_url": "https://www.gramedia.com/products/buku-aktivitas-paud-ayo-tamasya",
	"title": "Buku Aktivitas Paud : Ayo Tamasya",
	"author": "Nagiga",
	"Jumlah Halaman": "44.0",
	"Tanggal Terbit": "21 Okt 2019",
	"ISBN": "9786232165854",
	"Bahasa": "Indonesia",
	"Penerbit": "Bhuana Ilmu Populer",
	"Berat": "0.15 kg",
	"Lebar": "18.0 cm",
	"Panjang": "24.0 cm"
},
{
	"page": 32,
	"kategori 1": "buku-anak",
	"book_url": "https://www.gramedia.com/products/ensiklopedia-anak-hebat-hewan-2019",
	"title": "Ensiklopedia Anak Hebat : Hewan (2019)",
	"author": "IROOM",
	"Jumlah Halaman": "188.0",
	"Tanggal Terbit": "16 Sep 2019",
	"ISBN": "9786232164796",
	"Penerbit": "Bhuana Ilmu Populer",
	"Berat": "0.3 kg",
	"Lebar": "17.0 cm",
	"Panjang": "22.0 cm"
},
{
	"page": 32,
	"kategori 1": "buku-anak",
	"book_url": "https://www.gramedia.com/products/one-piece-48",
	"title": "One Piece 48",
	"author": "Eichiro Oda",
	"Jumlah Halaman": "231",
	"Tanggal Terbit": "1 Jan 2008",
	"ISBN": "9789792720778",
	"Bahasa": "Indonesia",
	"Penerbit": "Elex Media Komputindo",
	"Berat": "0.145 kg",
	"Lebar": "11 cm",
	"Panjang": "17 cm"
},
{
	"page": 32,
	"kategori 1": "buku-anak",
	"book_url": "https://www.gramedia.com/products/super-lengkap-calistung-stiker",
	"title": "Super Lengkap Calistung + Stiker",
	"author": "Yusup Somadinata",
	"Jumlah Halaman": "240",
	"Tanggal Terbit": "25 Apr 2017",
	"ISBN": "9786020413464",
	"Bahasa": "Indonesia",
	"Penerbit": "Elex Media Komputindo",
	"Berat": "0.6000 kg",
	"Lebar": "21 cm"
},
{
	"page": 32,
	"kategori 1": "buku-anak",
	"book_url": "https://www.gramedia.com/products/opredo-sticker-puzzle-wild-tame-animals",
	"title": "Opredo Sticker Puzzle - Wild & Tame Animals",
	"author": "Tim Oopredoo",
	"Jumlah Halaman": "16",
	"Tanggal Terbit": "8 Jul 2019",
	"ISBN": "9786230001079",
	"Bahasa": "Indonesia",
	"Penerbit": "Elex Media Komputindo",
	"Berat": "0.100 kg",
	"Lebar": "21 cm",
	"Panjang": "29.7 cm"
},
{
	"page": 32,
	"kategori 1": "buku-anak",
	"book_url": "https://www.gramedia.com/products/birrul-walidain",
	"title": "Birrul Walidain",
	"author": "Wahyu Annisa",
	"Jumlah Halaman": "77.0",
	"Tanggal Terbit": "1 Agt 2019",
	"ISBN": "9786021694770",
	"Bahasa": "Indonesia",
	"Penerbit": "Al Kautsar Kids",
	"Berat": "0.3 kg",
	"Lebar": "20.0 cm",
	"Panjang": "25.0 cm"
},
{
	"page": 32,
	"kategori 1": "buku-anak",
	"book_url": "https://www.gramedia.com/products/naruto-46",
	"title": "Naruto 46",
	"author": "Masashi Kishimoto",
	"Jumlah Halaman": "191",
	"Tanggal Terbit": "17 Okt 2009",
	"ISBN": "9789792759839",
	"Bahasa": "Indonesia",
	"Penerbit": "Elex Media Komputindo",
	"Berat": "0.140 kg",
	"Lebar": "11 cm",
	"Panjang": "17 cm"
},
{
	"page": 32,
	"kategori 1": "buku-anak",
	"book_url": "https://www.gramedia.com/products/ensiklopedia-balita-cerdas-peternakan",
	"title": "Ensiklopedia Balita Cerdas: Peternakan",
	"author": "Larousse",
	"Jumlah Halaman": "24.0",
	"Tanggal Terbit": "13 Jan 2020",
	"ISBN": "9786232167308",
	"Bahasa": "Indonesia",
	"Penerbit": "Bhuana Ilmu Populer",
	"Berat": "0.25 kg",
	"Lebar": "20.5 cm",
	"Panjang": "19.0 cm"
},
{
	"page": 32,
	"kategori 1": "buku-anak",
	"book_url": "https://www.gramedia.com/products/smurf-gargamel-jatuh-cinta-lc",
	"title": "LC: Smurf - Gargamel Jatuh Cinta",
	"author": "Peyo",
	"Jumlah Halaman": "None",
	"Tanggal Terbit": "4 Feb 2015",
	"ISBN": "9786020256955",
	"Bahasa": "Indonesia",
	"Penerbit": "Elex Media Komputindo",
	"Berat": "0.3000 kg",
	"Lebar": "18 cm",
	"Panjang": "24 cm"
},
{
	"page": 32,
	"kategori 1": "buku-anak",
	"book_url": "https://www.gramedia.com/products/fun-smart-origami-binatang",
	"title": "Fun & Smart Origami: Binatang",
	"author": "Kanaya Larasati",
	"Jumlah Halaman": "48",
	"Tanggal Terbit": "22 Jul 2019",
	"ISBN": "9786230002496",
	"Bahasa": "Indonesia",
	"Penerbit": "Elex Media Komputindo",
	"Berat": "0.1 kg",
	"Lebar": "20 cm",
	"Panjang": "20 cm"
},
{
	"page": 32,
	"kategori 1": "buku-anak",
	"book_url": "https://www.gramedia.com/products/buku-aktivitas-amazing-peta",
	"title": "Buku Aktivitas Amazing ! : Peta",
	"author": "Anna Brett",
	"Jumlah Halaman": "96.0",
	"Tanggal Terbit": "9 Des 2019",
	"ISBN": "9786020522296",
	"Bahasa": "Indonesia",
	"Penerbit": "Gramedia Widiasarana Indonesia",
	"Berat": "0.2 kg",
	"Lebar": "23.0 cm",
	"Panjang": "25.0 cm"
},
{
	"page": 32,
	"kategori 1": "buku-anak",
	"book_url": "https://www.gramedia.com/products/one-piece-63",
	"title": "One Piece 63",
	"author": "Eiichiro Oda",
	"Jumlah Halaman": "231.0",
	"Tanggal Terbit": "7 Sep 2012",
	"ISBN": "9786020032771",
	"Bahasa": "Indonesia",
	"Penerbit": "Elex Media Komputindo",
	"Berat": "0.145 kg",
	"Lebar": "11.0 cm",
	"Panjang": "17.0 cm"
},
{
	"page": 32,
	"kategori 1": "buku-anak",
	"book_url": "https://www.gramedia.com/products/komik-kkpk-macaron-day",
	"title": "Komik Kkpk : Macaron Day",
	"author": "RHAFI NADHIR Dkk",
	"Jumlah Halaman": "88.0",
	"Tanggal Terbit": "14 Jan 2020",
	"ISBN": "9786024209995",
	"Bahasa": "Indonesia",
	"Penerbit": "Pastel",
	"Berat": "0.09 kg",
	"Lebar": "14.5 cm",
	"Panjang": "20.8 cm"
},
{
	"page": 32,
	"kategori 1": "buku-anak",
	"book_url": "https://www.gramedia.com/products/kkpk-kid-detectives",
	"title": "Kkpk: Kid Detectives",
	"author": "Maulidya Fitriana",
	"Jumlah Halaman": "84.0",
	"Tanggal Terbit": "14 Jan 2020",
	"ISBN": "9786024209964",
	"Bahasa": "Indonesia",
	"Penerbit": "Pastel",
	"Berat": "0.11 kg",
	"Lebar": "14.0 cm",
	"Panjang": "21.0 cm"
},
{
	"page": 32,
	"kategori 1": "buku-anak",
	"book_url": "https://www.gramedia.com/products/anak-anak-kota-lama",
	"title": "Anak-anak Kota Lama",
	"author": "Renny Yaniar",
	"Jumlah Halaman": "76.0",
	"Tanggal Terbit": "6 Jan 2020",
	"ISBN": "9786020636931",
	"Bahasa": "Indonesia",
	"Penerbit": "Gramedia Pustaka Utama",
	"Berat": "0.3 kg",
	"Lebar": "20.0 cm",
	"Panjang": "20.0 cm"
},
{
	"page": 32,
	"kategori 1": "buku-anak",
	"book_url": "https://www.gramedia.com/products/why-numbers-math-angka-matematika",
	"title": "Why? Numbers & Math (Angka&Matematika)",
	"author": "Jo Yeong Seo",
	"Jumlah Halaman": "192",
	"Tanggal Terbit": "21 Feb 2014",
	"ISBN": "9786020232720",
	"Penerbit": "Elex Media Komputindo",
	"Berat": "0.3000 kg"
},
{
	"page": 32,
	"kategori 1": "buku-anak",
	"book_url": "https://www.gramedia.com/products/7-hari-sukses-pintar-membaca-aiueo-dan-suku-kata",
	"title": "7 Hari Sukses Pintar Membaca AIUEO dan Suku Kata",
	"author": "Bunda Anin",
	"Jumlah Halaman": "112.0",
	"Tanggal Terbit": "18 Nov 2019",
	"ISBN": "9786020522142",
	"Bahasa": "Indonesia",
	"Penerbit": "Gramedia Widiasarana Indonesia",
	"Berat": "0.2 kg",
	"Lebar": "20.5 cm",
	"Panjang": "27.5 cm"
},
{
	"page": 32,
	"kategori 1": "buku-anak",
	"book_url": "https://www.gramedia.com/products/menulis-tegak-bersambung-bersama-hiro",
	"title": "Menulis Tegak Bersambung Bersama Hiro",
	"author": "Herry Prasetyo",
	"Jumlah Halaman": "48",
	"Tanggal Terbit": "29 Apr 2019",
	"ISBN": "9786232160828",
	"Bahasa": "Indonesia",
	"Penerbit": "Bhuana Ilmu Populer",
	"Berat": "0.120 kg",
	"Lebar": "18 cm",
	"Panjang": "24 cm"
},
{
	"page": 32,
	"kategori 1": "buku-anak",
	"book_url": "https://www.gramedia.com/products/why-series-the-universe-alam-semesta",
	"title": "Why Series: The Universe - Alam Semesta",
	"author": "Kwang Woong Lee",
	"Jumlah Halaman": "120.0",
	"Tanggal Terbit": "1 Jan 2009",
	"ISBN": "9789792745412",
	"Bahasa": "Indonesia",
	"Penerbit": "Elex Media Komputindo",
	"Berat": "0.2 kg",
	"Lebar": "18.0 cm",
	"Panjang": "23.0 cm"
},
{
	"page": 32,
	"kategori 1": "buku-anak",
	"book_url": "https://www.gramedia.com/products/seri-cerita-rakyat-34-provinsi-buaya-sakti",
	"title": "Seri Cerita Rakyat 34 Provinsi : Buaya Sakti",
	"author": "Dian K",
	"Jumlah Halaman": "32",
	"Tanggal Terbit": "25 Apr 2017",
	"ISBN": "9786023946631",
	"Bahasa": "Indonesia",
	"Penerbit": "Bhuana Ilmu Populer",
	"Berat": "0.1000 kg",
	"Lebar": "20 cm"
},
{
	"page": 32,
	"kategori 1": "buku-anak",
	"book_url": "https://www.gramedia.com/products/petualangan-pohon-kelana-ajaib-negeri-ulang-tahun-a-faraway-tree-adventure-the-land-of-birthdays",
	"title": "Petualangan Pohon Kelana Ajaib: Negeri Ulang Tahun (A Faraway Tree Adventure: The Land of Birthdays)",
	"author": "Enid Blyton",
	"Jumlah Halaman": "80",
	"Tanggal Terbit": "18 Feb 2019",
	"ISBN": "9786020398372",
	"Bahasa": "Indonesia",
	"Penerbit": "Gramedia Pustaka Utama",
	"Berat": "0.2 kg",
	"Lebar": "13.5 cm",
	"Panjang": "20 cm"
},
{
	"page": 32,
	"kategori 1": "buku-anak",
	"book_url": "https://www.gramedia.com/products/robocar-poli-gruduk-gruduk-gempa",
	"title": "Robocar Poli: Gruduk, Gruduk! Gempa!",
	"author": "Roi Visual",
	"Jumlah Halaman": "32",
	"Tanggal Terbit": "22 Apr 2019",
	"ISBN": "9786024803513",
	"Bahasa": "Indonesia",
	"Penerbit": "m&c!",
	"Berat": "0.1 kg",
	"Lebar": "24 cm",
	"Panjang": "20 cm"
},
{
	"page": 32,
	"kategori 1": "buku-anak",
	"book_url": "https://www.gramedia.com/products/my-big-sister-is-a-princess",
	"title": "My Big Sister is A Princess",
	"author": "Haruka Ikeda",
	"Jumlah Halaman": "184",
	"Tanggal Terbit": "27 Des 2017",
	"ISBN": "9786024286439",
	"Penerbit": "m&c!",
	"Berat": "0.110 kg",
	"Lebar": "11.4 cm",
	"Panjang": "17.2 cm"
},
{
	"page": 32,
	"kategori 1": "buku-anak",
	"book_url": "https://www.gramedia.com/products/magical-killer-tune-01",
	"title": "Magical Killer Tune 01",
	"author": "Kirishima Rila",
	"Jumlah Halaman": "176.0",
	"Tanggal Terbit": "29 Agt 2018",
	"ISBN": "9786024800406",
	"Bahasa": "Indonesia",
	"Penerbit": "m&c!",
	"Berat": "0.12 kg",
	"Lebar": "11.4 cm",
	"Panjang": "17.2 cm"
},
{
	"page": 32,
	"kategori 1": "buku-anak",
	"book_url": "https://www.gramedia.com/products/lc-attack-on-titan-junior-high-school-7",
	"title": "LC: Attack on Titan - Junior High School 7",
	"author": "Hajime Isayama",
	"Jumlah Halaman": "168",
	"Tanggal Terbit": "31 Mei 2017",
	"ISBN": "9786020421117",
	"Bahasa": "Indonesia",
	"Penerbit": "Elex Media Komputindo",
	"Berat": "0.1250 kg",
	"Lebar": "11 cm"
},
{
	"page": 32,
	"kategori 1": "buku-anak",
	"book_url": "https://www.gramedia.com/products/kkpk-jebakan-alunan-musik",
	"title": "Kkpk: Jebakan Alunan Musik",
	"author": "Alyaa Maulida",
	"Jumlah Halaman": "84.0",
	"Tanggal Terbit": "14 Jan 2020",
	"ISBN": "9786024209957",
	"Bahasa": "Indonesia",
	"Penerbit": "Pastel",
	"Berat": "0.14 kg",
	"Lebar": "14.0 cm",
	"Panjang": "21.0 cm"
},
{
	"page": 32,
	"kategori 1": "buku-anak",
	"book_url": "https://www.gramedia.com/products/disney-movie-collection-bambi",
	"title": "Disney Movie Collection: Bambi",
	"author": "Disney",
	"Jumlah Halaman": "72.0",
	"Tanggal Terbit": "9 Sep 2019",
	"ISBN": "9786020632247",
	"Penerbit": "Gramedia Pustaka Utama",
	"Berat": "0.25 kg",
	"Lebar": "22.0 cm",
	"Panjang": "28.0 cm"
},
{
	"page": 32,
	"kategori 1": "buku-anak",
	"book_url": "https://www.gramedia.com/products/kkpk-deluxeroxy-roxy",
	"title": "Kkpk Deluxe Roxy! Roxy!",
	"author": "Ghizadhia Amira Putri (Amira)",
	"Jumlah Halaman": "204",
	"Tanggal Terbit": "3 Jul 2019",
	"ISBN": "9786024208264",
	"Bahasa": "Indonesia",
	"Penerbit": "Mizan Media Utama",
	"Berat": "0.18 kg",
	"Lebar": "15 cm",
	"Panjang": "21 cm"
},
{
	"page": 32,
	"kategori 1": "buku-anak",
	"book_url": "https://www.gramedia.com/products/shimmer-and-shine-asyiknya-mewarnai",
	"title": "Shimmer and Shine : Asyiknya Mewarnai",
	"author": "Nickelodeon",
	"Jumlah Halaman": "16",
	"Tanggal Terbit": "11 Feb 2019",
	"ISBN": "9786024803575",
	"Bahasa": "Indonesia",
	"Penerbit": "m&c!",
	"Berat": "0.210 kg",
	"Lebar": "27 cm",
	"Panjang": "21 cm"
},
{
	"page": 32,
	"kategori 1": "buku-anak",
	"book_url": "https://www.gramedia.com/products/aku-anak-pemberani-percaya-diri-mandiri",
	"title": "Aku Anak Pemberani Percaya Diri & Mandiri",
	"author": "Dewi Cendika",
	"Jumlah Halaman": "384.0",
	"Tanggal Terbit": "1 Okt 2019",
	"ISBN": "9786239044596",
	"Bahasa": "Indonesia",
	"Penerbit": "KANAK",
	"Berat": "0.45 kg",
	"Lebar": "17.0 cm",
	"Panjang": "17.0 cm"
},
{
	"page": 32,
	"kategori 1": "buku-anak",
	"book_url": "https://www.gramedia.com/products/mengenal-allah-mencintai-islam-a-to-z",
	"title": "Mengenal Allah Mencintai Islam A To Z",
	"author": "Ryu Tri",
	"Jumlah Halaman": "72.0",
	"Tanggal Terbit": "3 Sep 2019",
	"ISBN": "9786022506478",
	"Bahasa": "Indonesia",
	"Penerbit": "Gema Insani",
	"Berat": "0.315 kg",
	"Lebar": "20.0 cm",
	"Panjang": "21.0 cm"
},
{
	"page": 32,
	"kategori 1": "buku-anak",
	"book_url": "https://www.gramedia.com/products/40-cerita-sains-dalam-al-quran-dan-hadits",
	"title": "40 Cerita Sains Dalam Al Qur`An Dan Hadits",
	"author": "TETHY EZOKANZO,AGUNG LAWE",
	"Jumlah Halaman": "128.0",
	"Tanggal Terbit": "18 Nov 2019",
	"ISBN": "9786230006449",
	"Bahasa": "Indonesia",
	"Penerbit": "Elex Media Komputindo",
	"Berat": "0.23 kg",
	"Lebar": "19.0 cm",
	"Panjang": "23.0 cm"
},
{
	"page": 32,
	"kategori 1": "buku-anak",
	"book_url": "https://www.gramedia.com/products/say-hello-to-black-jack-13-tamat",
	"title": "Say Hello to Black Jack 13 - tamat",
	"author": "Syuho Sato",
	"Jumlah Halaman": "208",
	"Tanggal Terbit": "6 Jun 2018",
	"ISBN": "9786024288945",
	"Bahasa": "Indonesia",
	"Penerbit": "m&c!",
	"Berat": "0.130 kg",
	"Lebar": "13 cm",
	"Panjang": "18 cm"
},
{
	"page": 32,
	"kategori 1": "buku-anak",
	"book_url": "https://www.gramedia.com/products/ensiklopedia-4d-dinosaurus",
	"title": "Ensiklopedia 4D: Dinosaurus",
	"author": "Devar Entertainment",
	"Jumlah Halaman": "84.0",
	"Tanggal Terbit": "28 Okt 2019",
	"ISBN": "9786020629506",
	"Bahasa": "Indonesia",
	"Penerbit": "Gramedia Pustaka Utama",
	"Berat": "0.22 kg",
	"Lebar": "21.0 cm",
	"Panjang": "28.5 cm"
},
{
	"page": 32,
	"kategori 1": "buku-anak",
	"book_url": "https://www.gramedia.com/products/fantasteeninfected",
	"title": "Fantasteen Infected",
	"author": "Sabina Rachelia",
	"Jumlah Halaman": "160",
	"Tanggal Terbit": "6 Agt 2019",
	"ISBN": "9786024208462",
	"Bahasa": "Indonesia",
	"Penerbit": "Mizan Media Utama",
	"Berat": "0.16 kg",
	"Lebar": "0.0 cm",
	"Panjang": "0 cm"
},
{
	"page": 32,
	"kategori 1": "buku-anak",
	"book_url": "https://www.gramedia.com/products/super-lengkap-calistung-paud-tk-2019",
	"title": "Super Lengkap Calistung Paud & Tk 2019",
	"author": "Yusup Somadinata",
	"Jumlah Halaman": "120.0",
	"Tanggal Terbit": "23 Sep 2019",
	"ISBN": "9786230006081",
	"Penerbit": "Elex Media Komputindo",
	"Berat": "0.45 kg",
	"Lebar": "18.0 cm",
	"Panjang": "24.0 cm"
},
{
	"page": 32,
	"kategori 1": "buku-anak",
	"book_url": "https://www.gramedia.com/products/smart-big-book-365-aktiivitas-anak-tk",
	"title": "Smart Big Book; 365 Aktiivitas Anak Tk",
	"author": "Fitri Nurul Aulia",
	"Jumlah Halaman": "184.0",
	"Tanggal Terbit": "19 Sep 2019",
	"ISBN": "9786239073749",
	"Bahasa": "Indonesia",
	"Penerbit": "Kawah Media Pustaka Pt",
	"Berat": "0.451 kg",
	"Lebar": "21.0 cm",
	"Panjang": "27.0 cm"
},
{
	"page": 32,
	"kategori 1": "buku-anak",
	"book_url": "https://www.gramedia.com/products/fabel-34-provinsi-maluku-nuri-raja-belajar-terbang",
	"title": "Fabel 34 Provinsi : Maluku - Nuri Raja Belajar Terbang",
	"author": "Dian Kristiani",
	"Jumlah Halaman": "32.0",
	"Tanggal Terbit": "18 Nov 2019",
	"ISBN": "9786232166486",
	"Bahasa": "Indonesia",
	"Penerbit": "Bhuana Ilmu Populer",
	"Berat": "0.15 kg",
	"Lebar": "20.0 cm",
	"Panjang": "20.0 cm"
},
{
	"page": 32,
	"kategori 1": "buku-anak",
	"book_url": "https://www.gramedia.com/products/confessions",
	"title": "Confessions",
	"author": "Minato Kanae",
	"Jumlah Halaman": "304",
	"Tanggal Terbit": "2 Agt 2019",
	"ISBN": "9786025385889",
	"Bahasa": "Indonesia",
	"Penerbit": "Buku Kita",
	"Berat": "0.22 kg",
	"Lebar": "13 cm",
	"Panjang": "19 cm"
},
{
	"page": 32,
	"kategori 1": "buku-anak",
	"book_url": "https://www.gramedia.com/products/kisah-hidup-nabi-muhammad-saw-jujurnya-nabi-muhammad-saw",
	"title": "Kisah Hidup Nabi Muhammad Saw: Jujurnya Nabi Muhammad Saw",
	"author": "Wiwien Widyawanti",
	"Jumlah Halaman": "20",
	"Tanggal Terbit": "19 Jun 2019",
	"ISBN": "9786024721312",
	"Bahasa": "Indonesia",
	"Penerbit": "Mizan Media Utama",
	"Berat": "0.36 kg",
	"Lebar": "17 cm",
	"Panjang": "17 cm"
},
{
	"page": 32,
	"kategori 1": "buku-anak",
	"book_url": "https://www.gramedia.com/products/tanya-jawab-seru-tentang-lautan",
	"title": "Tanya Jawab Seru Tentang Lautan",
	"author": "Miles Kelly",
	"Jumlah Halaman": "32.0",
	"Tanggal Terbit": "16 Mar 2020",
	"ISBN": "9786232168855",
	"Bahasa": "Indonesia",
	"Penerbit": "Bhuana Ilmu Populer",
	"Berat": "0.18 kg",
	"Lebar": "18.0 cm",
	"Panjang": "24.0 cm"
},
{
	"page": 32,
	"kategori 1": "buku-anak",
	"book_url": "https://www.gramedia.com/products/aku-bisa-iqra-4",
	"title": "Aku Bisa Iqra 4",
	"author": "K.H.As'ad Humam",
	"Jumlah Halaman": "32.0",
	"Tanggal Terbit": "24 Jun 2019",
	"ISBN": "9786232161337",
	"Bahasa": "Indonesia",
	"Penerbit": "Bhuana Ilmu Populer",
	"Berat": "0.15 kg",
	"Lebar": "18.0 cm",
	"Panjang": "18.0 cm"
},
{
	"page": 32,
	"kategori 1": "buku-anak",
	"book_url": "https://www.gramedia.com/products/buah-buahan-for-kids-menggunting-menempel-mewarnai",
	"title": "Buah-Buahan For Kids: Menggunting, Menempel & Mewarnai",
	"author": "HENNY NURFIANA",
	"Jumlah Halaman": "70",
	"Tanggal Terbit": "13 Feb 2019",
	"ISBN": "9786237046172",
	"Bahasa": "Indonesia",
	"Penerbit": "Cheklist",
	"Berat": "0.185 kg",
	"Lebar": "18 cm",
	"Panjang": "26 cm"
},
{
	"page": 32,
	"kategori 1": "buku-anak",
	"book_url": "https://www.gramedia.com/products/seri-fun-cican-cican-taman-ria-segitiga-boardbook",
	"title": "Seri Fun Cican: Cican & Taman Ria Segitiga",
	"author": "Ina Inong",
	"Jumlah Halaman": "20",
	"Tanggal Terbit": "1 Agt 2019",
	"ISBN": "9786024305284",
	"Bahasa": "Indonesia",
	"Penerbit": "Bentang Pustaka",
	"Berat": "0.38 kg",
	"Lebar": "17 cm",
	"Panjang": "17 cm"
},
{
	"page": 32,
	"kategori 1": "buku-anak",
	"book_url": "https://www.gramedia.com/products/kkpkthe-little-model",
	"title": "KKPK:The Little Model",
	"author": "Ruth Karyono",
	"Jumlah Halaman": "88.0",
	"Tanggal Terbit": "4 Des 2019",
	"ISBN": "9786024209810",
	"Bahasa": "Indonesia",
	"Penerbit": "Mizan Media Utama",
	"Berat": "0.092 kg",
	"Lebar": "14.5 cm",
	"Panjang": "20.5 cm"
},
{
	"page": 32,
	"kategori 1": "buku-anak",
	"book_url": "https://www.gramedia.com/products/super-lengkap-calistung-paud-2019",
	"title": "Super Lengkap Calistung Paud 2019",
	"author": "Yusup Somadinata",
	"Jumlah Halaman": "120.0",
	"Tanggal Terbit": "23 Sep 2019",
	"ISBN": "9786230006296",
	"Penerbit": "Elex Media Komputindo",
	"Berat": "0.45 kg",
	"Lebar": "18.0 cm",
	"Panjang": "24.0 cm"
},
{
	"page": 32,
	"kategori 1": "buku-anak",
	"book_url": "https://www.gramedia.com/products/opredo-flash-card-gogo-dino-abc",
	"title": "Opredo Flash Card Gogo Dino: Abc",
	"author": "Lotta Animation",
	"Jumlah Halaman": "25.0",
	"Tanggal Terbit": "30 Mar 2020",
	"ISBN": "720120444",
	"Bahasa": "Indonesia",
	"Penerbit": "Elex Media Komputindo",
	"Berat": "0.15 kg",
	"Lebar": "10.0 cm",
	"Panjang": "10.0 cm"
},
{
	"page": 32,
	"kategori 1": "buku-anak",
	"book_url": "https://www.gramedia.com/products/opredo-poster-2-in-1-gogo-dino-alphabet-and-numbers",
	"title": "Opredo Poster 2 In 1 Gogo Dino: Alphabet And Numbers",
	"author": "Lotta Animation",
	"Jumlah Halaman": "2.0",
	"Tanggal Terbit": "30 Mar 2020",
	"ISBN": "720120440",
	"Bahasa": "Indonesia",
	"Penerbit": "Elex Media Komputindo",
	"Berat": "0.15 kg",
	"Lebar": "37.0 cm",
	"Panjang": "58.0 cm"
},
{
	"page": 32,
	"kategori 1": "buku-anak",
	"book_url": "https://www.gramedia.com/products/my-little-pony-pony-tales-2",
	"title": "My Little Pony: Pony Tales 2",
	"author": "My Little Pony",
	"Jumlah Halaman": "76.0",
	"Tanggal Terbit": "16 Des 2019",
	"ISBN": "9786020636450",
	"Bahasa": "Indonesia",
	"Penerbit": "Gramedia Pustaka Utama",
	"Berat": "0.2 kg",
	"Lebar": "20.0 cm",
	"Panjang": "29.0 cm"
},
{
	"page": 32,
	"kategori 1": "buku-anak",
	"book_url": "https://www.gramedia.com/products/buku-labirin-jelajah-dunia",
	"title": "Buku Labirin Jelajah Dunia",
	"author": "ANNA BRETT & EILIDH MULDOON",
	"Jumlah Halaman": "96.0",
	"Tanggal Terbit": "25 Nov 2019",
	"ISBN": "9786020522203",
	"Bahasa": "Indonesia",
	"Penerbit": "GRAMEDIA WIDIASARANA INDONESIA",
	"Berat": "0.25 kg",
	"Lebar": "23.0 cm",
	"Panjang": "25.0 cm"
},
{
	"page": 32,
	"kategori 1": "buku-anak",
	"book_url": "https://www.gramedia.com/products/kumpulan-cerita-anak-muslim-hebat",
	"title": "Kumpulan Cerita Anak Muslim Hebat",
	"author": "Avan Fathurrahman",
	"Jumlah Halaman": "124.0",
	"Tanggal Terbit": "28 Okt 2019",
	"ISBN": "9786232165656",
	"Bahasa": "Indonesia",
	"Penerbit": "Bhuana Ilmu Populer",
	"Berat": "0.25 kg",
	"Lebar": "18.0 cm",
	"Panjang": "24.0 cm"
},
{
	"page": 32,
	"kategori 1": "buku-anak",
	"book_url": "https://www.gramedia.com/products/kumpulan-dongeng-bijak-untuk-anak",
	"title": "Kumpulan Dongeng Bijak Untuk Anak",
	"author": "Arleen A.",
	"Jumlah Halaman": "204.0",
	"Tanggal Terbit": "28 Okt 2019",
	"ISBN": "9786232165755",
	"Bahasa": "Indonesia",
	"Penerbit": "Bhuana Ilmu Populer",
	"Berat": "0.28 kg",
	"Lebar": "18.0 cm",
	"Panjang": "24.0 cm"
},
{
	"page": 32,
	"kategori 1": "buku-anak",
	"book_url": "https://www.gramedia.com/products/fantasteenknock-knock-whos-there-deluxe",
	"title": "Fantasteen Knock! Knock! Whos There? Deluxe",
	"author": "Esa Khairina",
	"Jumlah Halaman": "308",
	"Tanggal Terbit": "24 Mei 2019",
	"ISBN": "9786024208042",
	"Bahasa": "Indonesia",
	"Penerbit": "Mizan Media Utama",
	"Berat": "0.24 kg",
	"Lebar": "13 cm",
	"Panjang": "19 cm"
},
{
	"page": 32,
	"kategori 1": "buku-anak",
	"book_url": "https://www.gramedia.com/products/doraemon-34-terbit-ulang",
	"title": "Doraemon 34 (Terbit Ulang)",
	"author": "Fujiko F. Fujio",
	"Tanggal Terbit": "26 Mei 2014",
	"ISBN": "9786020241821",
	"Bahasa": "Indonesia",
	"Penerbit": "Elex Media Komputindo",
	"Berat": "0.1000 kg",
	"Lebar": "11 cm",
	"Panjang": "0 cm"
},
{
	"page": 32,
	"kategori 1": "buku-anak",
	"book_url": "https://www.gramedia.com/products/young-adult-bad-girl-series3-your-evil-stepsister",
	"title": "Young Adult: Bad Girl Series#3: Your Evil Stepsister",
	"author": "Dadan Erlangga",
	"Jumlah Halaman": "272",
	"Tanggal Terbit": "8 Jan 2018",
	"ISBN": "9786020378671",
	"Penerbit": "Gramedia Pustaka Utama",
	"Berat": "0.160 kg",
	"Lebar": "13.5 cm",
	"Panjang": "20 cm"
},
{
	"page": 32,
	"kategori 1": "buku-anak",
	"book_url": "https://www.gramedia.com/products/teenlit-twinwar-ket-juara-1-gramedia-writing-project",
	"title": "Teenlit: Twinwar (Ket: Juara 1 Gramedia Writing Project)",
	"author": "Dwipatra",
	"Jumlah Halaman": "296",
	"Tanggal Terbit": "4 Des 2017",
	"ISBN": "9786020376790",
	"Penerbit": "Gramedia Pustaka Utama",
	"Berat": "0.200 kg",
	"Lebar": "13.5 cm",
	"Panjang": "20 cm"
},
{
	"page": 32,
	"kategori 1": "buku-anak",
	"book_url": "https://www.gramedia.com/products/kisses-to-remember",
	"title": "Kisses to Remember",
	"author": "",
	"Jumlah Halaman": "360",
	"Tanggal Terbit": "20 Feb 2017",
	"ISBN": "9786024282875",
	"Bahasa": "Indonesia",
	"Penerbit": "m&c!",
	"Berat": "0.2100 kg",
	"Lebar": "13.2 cm"
},
{
	"page": 32,
	"kategori 1": "buku-anak",
	"book_url": "https://www.gramedia.com/products/seri-fun-cican-nyam-ketika-cican-makan-boardbook",
	"title": "Seri Fun Cican: Nyam! Ketika Cican Makan",
	"author": "Wahyu Aditya Dkk",
	"Jumlah Halaman": "0",
	"Tanggal Terbit": "2 Jul 2019",
	"ISBN": "9786024304799",
	"Bahasa": "Indonesia",
	"Penerbit": "Mizan Media Utama",
	"Berat": "0.38 kg",
	"Lebar": "0.0 cm",
	"Panjang": "0.0 cm"
},
{
	"page": 32,
	"kategori 1": "buku-anak",
	"book_url": "https://www.gramedia.com/products/seri-fantasi-luar-angkasa-cican-ke-bulan-bersama-astronaut",
	"title": "Seri Fantasi Luar Angkasa: Cican Ke Bulan Bersama Astronaut",
	"author": "Wahyu Aditya Dkk",
	"Jumlah Halaman": "20",
	"Tanggal Terbit": "21 Mei 2019",
	"ISBN": "9786024304768",
	"Bahasa": "Indonesia",
	"Penerbit": "Mizan Media Utama",
	"Berat": "0.38 kg",
	"Lebar": "17 cm",
	"Panjang": "17 cm"
},
{
	"page": 32,
	"kategori 1": "buku-anak",
	"book_url": "https://www.gramedia.com/products/komik-next-g-unforgettable-behel-rpl-2-1",
	"title": "Komik Next G Unforgettable Behel Rpl 2",
	"author": "Fayanna Ailisha D, Dkk",
	"Jumlah Halaman": "100.0",
	"Tanggal Terbit": "21 Nov 2019",
	"ISBN": "9786023677948",
	"Bahasa": "Indonesia",
	"Penerbit": "Curhat Anak Bangsa",
	"Berat": "0.15 kg",
	"Lebar": "14.5 cm",
	"Panjang": "21.0 cm"
},
{
	"page": 32,
	"kategori 1": "buku-anak",
	"book_url": "https://www.gramedia.com/products/kariage-kun-42-terbit-ulang",
	"title": "Kariage Kun 42 (Terbit Ulang)",
	"author": "Masashi Ueda",
	"Jumlah Halaman": "136",
	"Tanggal Terbit": "6 Sep 2017",
	"ISBN": "9786020442228",
	"Bahasa": "Indonesia",
	"Penerbit": "Elex Media Komputindo",
	"Berat": "0.1200 kg",
	"Lebar": "11.4 cm"
},
{
	"page": 32,
	"kategori 1": "buku-anak",
	"book_url": "https://www.gramedia.com/products/tanya-jawab-seru-tentang-tata-surya",
	"title": "Tanya Jawab Seru Tentang Tata Surya",
	"author": "Miles Kelly",
	"Jumlah Halaman": "32.0",
	"Tanggal Terbit": "28 Okt 2019",
	"ISBN": "9786232166189",
	"Bahasa": "Indonesia",
	"Penerbit": "Bhuana Ilmu Populer",
	"Berat": "0.15 kg",
	"Lebar": "18.0 cm",
	"Panjang": "24.0 cm"
},
{
	"page": 32,
	"kategori 1": "buku-anak",
	"book_url": "https://www.gramedia.com/products/opredo-babys-first-touch-feel-book-feeling",
	"title": "Opredo Baby`s First Touch & Feel Book: Feeling",
	"author": "Anisa Azalia",
	"Jumlah Halaman": "6.0",
	"Tanggal Terbit": "6 Apr 2020",
	"ISBN": "9786230014949",
	"Bahasa": "Indonesia",
	"Penerbit": "Elex Media Komputindo",
	"Berat": "0.15 kg",
	"Lebar": "16.0 cm",
	"Panjang": "16.0 cm"
},
{
	"page": 32,
	"kategori 1": "buku-anak",
	"book_url": "https://www.gramedia.com/products/baby-sees-ulang-tahun",
	"title": "Baby Sees : Ulang Tahun",
	"author": "PICTHALL AND GUNZI",
	"Jumlah Halaman": "12.0",
	"Tanggal Terbit": "6 Apr 2020",
	"ISBN": "9786230300769",
	"Bahasa": "Indonesia",
	"Penerbit": "m&c!",
	"Berat": "0.15 kg",
	"Lebar": "16.0 cm",
	"Panjang": "16.0 cm"
},
{
	"page": 32,
	"kategori 1": "buku-anak",
	"book_url": "https://www.gramedia.com/products/baby-sees-selamat-tidur",
	"title": "Baby Sees : Selamat Tidur",
	"author": "PICTHALL AND GUNZI",
	"Jumlah Halaman": "12.0",
	"Tanggal Terbit": "6 Apr 2020",
	"ISBN": "9786230300479",
	"Bahasa": "Indonesia",
	"Penerbit": "m&c!",
	"Berat": "0.15 kg",
	"Lebar": "16.0 cm",
	"Panjang": "16.0 cm"
},
{
	"page": 32,
	"kategori 1": "buku-anak",
	"book_url": "https://www.gramedia.com/products/25-dongeng-klasik-dunia",
	"title": "25 Dongeng Klasik Dunia",
	"author": "Klara Valerei",
	"Tanggal Terbit": "5 Mei 2017",
	"ISBN": "9786020412511",
	"Penerbit": "Elex Media Komputindo"
},
