{
	"page": 21,
	"kategori 1": "buku-anak",
	"book_url": "https://www.gramedia.com/products/tebak-kata-ceria",
	"title": "Tebak Kata Ceria",
	"author": "Dea Shamara",
	"Jumlah Halaman": "34",
	"Tanggal Terbit": "16 Feb 2016",
	"ISBN": "9789795018407",
	"Bahasa": "Indonesia",
	"Penerbit": "Dahara Prize",
	"Berat": "0.1000 kg",
	"Lebar": "20 cm"
},
{
	"page": 21,
	"kategori 1": "buku-anak",
	"book_url": "https://www.gramedia.com/products/katie-kazoo-3-awas-bayi-jenius",
	"title": "Katie Kazoo 3: Awas, Bayi Jenius!",
	"author": "Nancy Krulik",
	"Jumlah Halaman": "80",
	"Tanggal Terbit": "19 Sep 2014",
	"ISBN": "9789799107688",
	"Bahasa": "Indonesia",
	"Penerbit": "Kepustakaan Populer Gramedia",
	"Berat": "0.150 kg",
	"Lebar": "13 cm",
	"Panjang": "19.5 cm"
},
{
	"page": 21,
	"kategori 1": "buku-anak",
	"book_url": "https://www.gramedia.com/products/princess-luna-jojo-let-s-learn-english-1",
	"title": "Princess Luna & Jojo: Let's Learn English 1",
	"author": "Ferdinanda Sri Tjondro Utami",
	"Jumlah Halaman": "48",
	"Tanggal Terbit": "13 Feb 2017",
	"ISBN": "9786023758302",
	"Bahasa": "Indonesia",
	"Penerbit": "Gramedia Widiasarana Indonesia",
	"Berat": "0.1500 kg",
	"Lebar": "19 cm"
},
{
	"page": 21,
	"kategori 1": "buku-anak",
	"book_url": "https://www.gramedia.com/products/nakayoshi-10-th-2014",
	"title": "Nakayoshi 10 Th. 2014",
	"author": "Natsumi Ando,yamada Daisy,haruhi Seta",
	"Tanggal Terbit": "20 Okt 2014",
	"ISBN": "XXX",
	"Bahasa": "Indonesia",
	"Penerbit": "Elex Media Komputindo",
	"Berat": "0.3000 kg",
	"Panjang": "0 cm"
},
{
	"page": 21,
	"kategori 1": "buku-anak",
	"book_url": "https://www.gramedia.com/products/magic-chinese-character-series-amazon",
	"title": "Magic Chinese Character Series - Amazon",
	"author": "Son Yeong Un",
	"Jumlah Halaman": "168",
	"Tanggal Terbit": "10 Jan 2014",
	"ISBN": "9786020230313",
	"Bahasa": "Indonesia",
	"Penerbit": "Elex Media Komputindo",
	"Berat": "0.3000 kg",
	"Lebar": "15 cm"
},
{
	"page": 21,
	"kategori 1": "buku-anak",
	"book_url": "https://www.gramedia.com/products/menggambar-mewarnai-paud",
	"title": "Menggambar & Mewarnai : Paud",
	"author": "Ermina Krismarsanti",
	"Jumlah Halaman": "24",
	"Tanggal Terbit": "2 Mei 2016",
	"ISBN": "9789792821222",
	"Bahasa": "Indonesia",
	"Penerbit": "Intan Pariwara",
	"Berat": "0.1000 kg",
	"Lebar": "21 cm"
},
{
	"page": 21,
	"kategori 1": "buku-anak",
	"book_url": "https://www.gramedia.com/products/benua-afrika-seri-keliling-dunia-bersama-profesor-trevo",
	"title": "Benua Afrika : Seri Keliling Dunia Bersama Profesor Trevo",
	"author": "Tethy Ezokanzo",
	"Jumlah Halaman": "108",
	"Tanggal Terbit": "25 Sep 2015",
	"ISBN": "9786027652804",
	"Bahasa": "Indonesia",
	"Penerbit": "Lentera Hati",
	"Berat": "0.2100 kg",
	"Lebar": "25 cm"
},
{
	"page": 21,
	"kategori 1": "buku-anak",
	"book_url": "https://www.gramedia.com/products/dongeng-sebelum-tidur-1",
	"title": "Dongeng Sebelum Tidur 1",
	"author": "Dini W. Tamam",
	"Jumlah Halaman": "134",
	"Tanggal Terbit": "19 Jun 2017",
	"ISBN": "9786020356952",
	"Bahasa": "Indonesia",
	"Penerbit": "Gramedia Pustaka Utama",
	"Berat": "0.2500 kg",
	"Lebar": "17 cm",
	"Panjang": "24 cm"
},
{
	"page": 21,
	"kategori 1": "buku-anak",
	"book_url": "https://www.gramedia.com/products/si-bolang-3-7-cerita-dari-negeri-naga-purba",
	"title": "Si Bolang 3: 7 Cerita Dari Negeri Naga Purba",
	"author": "Veronica. W",
	"Jumlah Halaman": "144",
	"Tanggal Terbit": "18 Apr 2016",
	"ISBN": "9786026208279",
	"Bahasa": "Indonesia",
	"Penerbit": "Kepustakaan Populer Gramedia",
	"Berat": "0.2500 kg",
	"Lebar": "18 cm"
},
{
	"page": 21,
	"kategori 1": "buku-anak",
	"book_url": "https://www.gramedia.com/products/pandai-membaca-tk-b",
	"title": "Pandai Membaca Tk B",
	"author": "M. Jachinta Lucy, Spd",
	"Jumlah Halaman": "48",
	"Tanggal Terbit": "30 Mar 2015",
	"ISBN": "9786020261669",
	"Bahasa": "Indonesia",
	"Penerbit": "Elex Media Komputindo",
	"Berat": "0.1500 kg",
	"Lebar": "21 cm"
},
{
	"page": 21,
	"kategori 1": "buku-anak",
	"book_url": "https://www.gramedia.com/products/conf-lc-airgear-21",
	"title": "LC: Airgear 21",
	"author": "Kodansha - Oh!great",
	"Jumlah Halaman": "212",
	"Tanggal Terbit": "29 Okt 2014",
	"ISBN": "978979279650",
	"Penerbit": "Elex Media Komputindo",
	"Berat": "0.14 kg",
	"Lebar": "12.0 cm",
	"Panjang": "18.0 cm"
},
{
	"page": 21,
	"kategori 1": "buku-anak",
	"book_url": "https://www.gramedia.com/products/conf-lc-airgear-23",
	"title": "LC: Airgear 23",
	"author": "Kodansha - Oh!great",
	"Jumlah Halaman": "204",
	"Tanggal Terbit": "29 Okt 2014",
	"ISBN": "978602000482",
	"Penerbit": "Elex Media Komputindo",
	"Berat": "0.13 kg",
	"Lebar": "12.0 cm",
	"Panjang": "18.0 cm"
},
{
	"page": 21,
	"kategori 1": "buku-anak",
	"book_url": "https://www.gramedia.com/products/ramayana-perang-di-alengka-sirnanya-angkara-murka",
	"title": "Ramayana : Perang Di Alengka Sirnanya Angkara Murka",
	"author": "Setiawan G Sasongko",
	"Jumlah Halaman": "32",
	"Tanggal Terbit": "18 Agt 2015",
	"ISBN": "9786021627556",
	"Bahasa": "Indonesia",
	"Penerbit": "Pelangi",
	"Berat": "0.2000 kg",
	"Lebar": "23 cm"
},
{
	"page": 21,
	"kategori 1": "buku-anak",
	"book_url": "https://www.gramedia.com/products/flash-card-with-ar-transportasi-hewan-dinosaurus",
	"title": "Flash Card with AR: Transportasi, Hewan, Dinosaurus",
	"author": "Adam Daniel Kawilarang",
	"Jumlah Halaman": "48",
	"Tanggal Terbit": "20 Apr 2016",
	"ISBN": "9786020282831",
	"Bahasa": "Indonesia",
	"Penerbit": "Elex Media Komputindo",
	"Berat": "0.1000 kg",
	"Lebar": "14 cm"
},
{
	"page": 21,
	"kategori 1": "buku-anak",
	"book_url": "https://www.gramedia.com/products/big-book-boboiboy-cerdas-bahasa-inggris-mandarin-anak-seri-a",
	"title": "Big Book Boboiboy: Cerdas Bahasa Inggris Mandarin Anak Seri A",
	"author": "Animonsta Studio Sdn. Bhd",
	"Jumlah Halaman": "12",
	"Tanggal Terbit": "22 Agt 2016",
	"ISBN": "9786020290164",
	"Bahasa": "Indonesia",
	"Penerbit": "Elex Media Komputindo",
	"Berat": "0.1000 kg",
	"Lebar": "29.7 cm"
},
{
	"page": 21,
	"kategori 1": "buku-anak",
	"book_url": "https://www.gramedia.com/products/oresama-teacher-07",
	"title": "Oresama Teacher 07",
	"author": "Tsubaki Izumi",
	"Jumlah Halaman": "192",
	"Tanggal Terbit": "2 Sep 2015",
	"ISBN": "9786023394623",
	"Bahasa": "Indonesia",
	"Penerbit": "Hakusensha",
	"Berat": "0.1000 kg",
	"Lebar": "11 cm"
},
{
	"page": 21,
	"kategori 1": "buku-anak",
	"book_url": "https://www.gramedia.com/products/doraemon-movie-nobita-pasukan-robot",
	"title": "Doraemon Movie: Nobita & Pasukan Robot",
	"author": "Fujiko F. Fujio",
	"Jumlah Halaman": "256",
	"Tanggal Terbit": "28 Jun 2013",
	"ISBN": "9786020213378",
	"Penerbit": "Elex Media Komputindo",
	"Berat": "0.1000 kg",
	"Lebar": "12 cm",
	"Panjang": "0 cm"
},
{
	"page": 21,
	"kategori 1": "buku-anak",
	"book_url": "https://www.gramedia.com/products/13-cerita-aneh-bin-ajaib-natal-dan-sinterklas",
	"title": "13 Cerita Aneh Bin Ajaib : Natal Dan Sinterklas",
	"author": "Claire Renaud",
	"Tanggal Terbit": "30 Sep 2013",
	"Penerbit": "Bhuana Ilmu Populer",
	"Berat": "0.3000 kg",
	"Lebar": "0 cm",
	"Panjang": "0 cm"
},
{
	"page": 21,
	"kategori 1": "buku-anak",
	"book_url": "https://www.gramedia.com/products/ini-dia-si-paling-badung",
	"title": "Ini Dia Si Paling Badung",
	"author": "Enid Blyton",
	"Jumlah Halaman": "96",
	"Tanggal Terbit": "17 Jul 2017",
	"ISBN": "9789792280333",
	"Bahasa": "Indonesia",
	"Penerbit": "Gramedia Pustaka Utama",
	"Berat": "0.1000 kg",
	"Lebar": "11 cm"
},
{
	"page": 21,
	"kategori 1": "buku-anak",
	"book_url": "https://www.gramedia.com/products/fantasteen-scary-dark-journey",
	"title": "Fantasteen Scary : Dark Journey",
	"author": "Salsa Putri Salsadzwana",
	"Jumlah Halaman": "164",
	"Tanggal Terbit": "19 Agt 2015",
	"ISBN": "9786022427537",
	"Bahasa": "Indonesia",
	"Penerbit": "Mizan Media Utama",
	"Berat": "0.2000 kg",
	"Lebar": "13 cm"
},
{
	"page": 21,
	"kategori 1": "buku-anak",
	"book_url": "https://www.gramedia.com/products/seri-serba-tahu-dunia-yuk-berpetualang-seru-dengan-kendaraan-tercepat-terunik-di-dunia",
	"title": "Seri Serba Tahu Dunia : Yuk, Berpetualang Seru Dengan Kendaraan Tercepat & Terunik Di Dunia",
	"author": "Nurcholis",
	"Jumlah Halaman": "32",
	"Tanggal Terbit": "26 Nov 2015",
	"ISBN": "9786023001767",
	"Bahasa": "Indonesia",
	"Penerbit": "Solusi Distribusi",
	"Berat": "0.2000 kg",
	"Lebar": "20 cm"
},
{
	"page": 21,
	"kategori 1": "buku-anak",
	"book_url": "https://www.gramedia.com/products/science-eksplorasi-bumi",
	"title": "Science-Eksplorasi Bumi",
	"author": "Jo Yeong Kyung",
	"Jumlah Halaman": "176",
	"Tanggal Terbit": "9 Mar 2013",
	"ISBN": "9786020207568",
	"Bahasa": "Indonesia",
	"Penerbit": "Elex Media Komputindo",
	"Berat": "0.4500 kg",
	"Lebar": "22 cm",
	"Panjang": "0 cm"
},
{
	"page": 21,
	"kategori 1": "buku-anak",
	"book_url": "https://www.gramedia.com/products/and-pair-1",
	"title": "And Pair 1",
	"author": "Yusuke Hori,gouta Yamanaka",
	"Jumlah Halaman": "208",
	"Tanggal Terbit": "26 Apr 2017",
	"ISBN": "9786020412863",
	"Bahasa": "Indonesia",
	"Penerbit": "Elex Media Komputindo",
	"Berat": "0.1300 kg",
	"Lebar": "11.4 cm"
},
{
	"page": 21,
	"kategori 1": "buku-anak",
	"book_url": "https://www.gramedia.com/products/sticker-creative-cars-3-up-to-speed",
	"title": "Sticker Creative Cars 3 : Up To Speed",
	"author": "Disney",
	"Jumlah Halaman": "16",
	"Tanggal Terbit": "25 Apr 2017",
	"ISBN": "9786020412955",
	"Bahasa": "Indonesia",
	"Penerbit": "Elex Media Komputindo",
	"Berat": "0.1000 kg",
	"Lebar": "25 cm",
	"Panjang": "22.5 cm"
},
{
	"page": 21,
	"kategori 1": "buku-anak",
	"book_url": "https://www.gramedia.com/products/disney-princess-kisah-petualangan-putri-disney-storybook-collection",
	"title": "Disney Princess: Kisah Petualangan Putri Disney (Storybook Collection)",
	"author": "Disney",
},
{
	"page": 21,
	"kategori 1": "buku-anak",
	"book_url": "https://www.gramedia.com/products/10-perumpamaan-yesus-seri-cerita-2-menit",
	"title": "10 Perumpamaan Yesus : Seri Cerita 2 Menit",
	"author": "Elena Pasquali",
	"Jumlah Halaman": "44",
	"Tanggal Terbit": "20 Mei 2015",
	"ISBN": "9786022311492",
	"Bahasa": "Indonesia",
	"Penerbit": "Bpk Gunung Mulia",
	"Berat": "0.2000 kg",
	"Lebar": "21 cm"
},
{
	"page": 21,
	"kategori 1": "buku-anak",
	"book_url": "https://www.gramedia.com/products/odong2-dongeng-kancil-buaya",
	"title": "Odong2 Dongeng: Kancil&Buaya",
	"author": "Iput & Oyas",
	"Jumlah Halaman": "20",
	"Tanggal Terbit": "18 Mei 2015",
	"ISBN": "9786020989518",
	"Bahasa": "Indonesia",
	"Penerbit": "Noura",
	"Berat": "0.4000 kg",
	"Lebar": "18 cm"
},
{
	"page": 21,
	"kategori 1": "buku-anak",
	"book_url": "https://www.gramedia.com/products/world-god-only-knows-the-12",
	"title": "World God Only Knows,The 12",
	"author": "Wakaki Tamiki",
	"Jumlah Halaman": "-",
	"Tanggal Terbit": "30 Sep 2015",
	"ISBN": "9786020273068",
	"Bahasa": "Indonesia",
	"Penerbit": "Elex Media Komputindo",
	"Berat": "0.1000 kg",
	"Lebar": "11 cm"
},
{
	"page": 21,
	"kategori 1": "buku-anak",
	"book_url": "https://www.gramedia.com/products/under-the-rose-08-lc",
	"title": "Under The Rose 08: Lc",
	"author": "Akari Funato",
	"Jumlah Halaman": "-",
	"Tanggal Terbit": "29 Jul 2015",
	"ISBN": "9786020269511",
	"Bahasa": "Indonesia",
	"Penerbit": "+++",
	"Berat": "0.1500 kg",
	"Lebar": "13 cm"
},
{
	"page": 21,
	"kategori 1": "buku-anak",
	"book_url": "https://www.gramedia.com/products/library-war-love-war-12",
	"title": "Library War Love & War 12",
	"author": "Kiiro Yumi & Hiro Arikawa",
	"Jumlah Halaman": "192",
	"Tanggal Terbit": "9 Des 2015",
	"ISBN": "9786020275567",
	"Bahasa": "Indonesia",
	"Penerbit": "Elex Media Komputindo",
	"Berat": "0.1000 kg",
	"Lebar": "11.4 cm"
},
{
	"page": 21,
	"kategori 1": "buku-anak",
	"book_url": "https://www.gramedia.com/products/samurai-drive-03",
	"title": "Samurai Drive 03",
	"author": "Fujiko Kosumi",
	"Jumlah Halaman": "192",
	"Tanggal Terbit": "9 Des 2015",
	"ISBN": "9786023396214",
	"Bahasa": "Indonesia",
	"Penerbit": "m&c!",
	"Berat": "0.1000 kg",
	"Lebar": "11 cm"
},
{
	"page": 21,
	"kategori 1": "buku-anak",
	"book_url": "https://www.gramedia.com/products/amazing-fakta-menakjubkan-antariksa",
	"title": "Amazing! Fakta Menakjubkan Antariksa",
	"author": "Putri Yehkwah",
	"Jumlah Halaman": "208",
	"Tanggal Terbit": "13 Jun 2016",
	"ISBN": "9786023755240",
	"Bahasa": "Indonesia",
	"Penerbit": "Gramedia Widiasarana Indonesia",
	"Berat": "0.300 kg",
	"Lebar": "17 cm",
	"Panjang": "24 cm"
},
{
	"page": 21,
	"kategori 1": "buku-anak",
	"book_url": "https://www.gramedia.com/products/wonderful-science-hands-and-feet-tangan-dan-kaki",
	"title": "Wonderful Science: Hands and Feet - Tangan dan Kaki",
	"author": "Park Song Yi & Kim Do Kyung",
	"Jumlah Halaman": "176",
	"Tanggal Terbit": "15 Mei 2017",
	"ISBN": "9786020421513",
	"Bahasa": "Indonesia",
	"Penerbit": "Elex Media Komputindo",
	"Berat": "0.5000 kg",
	"Lebar": "15 cm"
},
{
	"page": 21,
	"kategori 1": "buku-anak",
	"book_url": "https://www.gramedia.com/products/mia-the-ghost-hunter-journey-to-louisiana",
	"title": "Mia The Ghost Hunter : Journey To Louisiana",
	"author": "Fayanna Ailisha",
	"Jumlah Halaman": "96",
	"Tanggal Terbit": "27 Mei 2015",
	"ISBN": "XXX",
	"Bahasa": "Indonesia",
	"Penerbit": "Mizan Publishing",
	"Berat": "0.2000 kg",
	"Lebar": "0 cm"
},
{
	"page": 21,
	"kategori 1": "buku-anak",
	"book_url": "https://www.gramedia.com/products/terhipnotis-twitter-kkpk",
	"title": "Terhipnotis Twitter : Kkpk",
	"author": "Mutiara Nurul Izzati",
	"Jumlah Halaman": "116",
	"Tanggal Terbit": "21 Mei 2015",
	"ISBN": "9786022426486",
	"Bahasa": "Indonesia",
	"Penerbit": "Mizan Media Utama",
	"Berat": "0.2000 kg",
	"Lebar": "14 cm"
},
{
	"page": 21,
	"kategori 1": "buku-anak",
	"book_url": "https://www.gramedia.com/products/ace-of-diamond-16",
	"title": "Ace of Diamond 16",
	"author": "Yuji Terajima",
	"Jumlah Halaman": "200",
	"Tanggal Terbit": "19 Apr 2017",
	"ISBN": "9786020412849",
	"Bahasa": "Indonesia",
	"Penerbit": "Elex Media Komputindo",
	"Berat": "0.1300 kg",
	"Lebar": "11.4 cm"
},
{
	"page": 21,
	"kategori 1": "buku-anak",
	"book_url": "https://www.gramedia.com/products/tera-si-pteranodon-belajar-terbang",
	"title": "Tera Si Pteranodon Belajar Terbang",
	"author": "Siti Anisa",
	"Jumlah Halaman": "32",
	"Tanggal Terbit": "3 Jun 2015",
	"ISBN": "9786023660322",
	"Penerbit": "Tiga Ananda",
	"Berat": "0.100 kg",
	"Lebar": "23 cm",
	"Panjang": "15 cm"
},
{
	"page": 21,
	"kategori 1": "buku-anak",
	"book_url": "https://www.gramedia.com/products/new-crayon-shinchan-01",
	"title": "New Crayon Shinchan 01",
	"author": "Yoshito Usui & Uy Studio",
	"Tanggal Terbit": "2 Jul 2012",
	"ISBN": "9786020029542",
	"Bahasa": "Indonesia",
	"Penerbit": "Elex Media Komputindo",
	"Berat": "0.2000 kg",
	"Lebar": "21 cm",
	"Panjang": "0 cm"
},
{
	"page": 21,
	"kategori 1": "buku-anak",
	"book_url": "https://www.gramedia.com/products/berhitung-tk-cars",
	"title": "Berhitung TK Cars",
	"author": "Disney",
	"Jumlah Halaman": "32",
	"Tanggal Terbit": "13 Okt 2014",
	"ISBN": "9786020250533",
	"Penerbit": "Elex Media Komputindo",
	"Berat": "0.1500 kg",
	"Lebar": "0 cm",
	"Panjang": "0 cm"
},
{
	"page": 21,
	"kategori 1": "buku-anak",
	"book_url": "https://www.gramedia.com/products/alice-in-borderland-12-0",
	"title": "Alice In Borderland 12",
	"author": "Haro Aso",
	"Jumlah Halaman": "176",
	"Tanggal Terbit": "23 Sep 2015",
	"ISBN": "9786020273006",
	"Bahasa": "Indonesia",
	"Penerbit": "Elex Media Komputindo",
	"Berat": "0.1000 kg",
	"Lebar": "11.4 cm"
},
{
	"page": 21,
	"kategori 1": "buku-anak",
	"book_url": "https://www.gramedia.com/products/sc-morinonaka-bookstore",
	"title": "Sc: Morinonaka Bookstore",
	"author": "Yuzuko Ikura",
	"Jumlah Halaman": "176",
	"Tanggal Terbit": "9 Des 2015",
	"ISBN": "9786020277486",
	"Bahasa": "Indonesia",
	"Penerbit": "Elex Media Komputindo",
	"Berat": "0.1000 kg",
	"Lebar": "11.4 cm"
},
{
	"page": 21,
	"kategori 1": "buku-anak",
	"book_url": "https://www.gramedia.com/products/lucky-luke-tali-gantungan-lc",
	"title": "LC: Lucky Luke - Tali Gantungan",
	"author": "Morris",
	"Jumlah Halaman": "48",
	"Tanggal Terbit": "19 Apr 2013",
	"ISBN": "9786020208589",
	"Bahasa": "Indonesia",
	"Penerbit": "Elex Media Komputindo",
	"Berat": "0.150 kg",
	"Lebar": "24 cm",
	"Panjang": "27 cm"
},
{
	"page": 21,
	"kategori 1": "buku-anak",
	"book_url": "https://www.gramedia.com/products/motorik-halus-cars-dot-to-dot-dan-mewarnai-2",
	"title": "Motorik Halus Cars Dot to Dot dan Mewarnai 2",
	"author": "Disney",
	"Jumlah Halaman": "96",
	"Tanggal Terbit": "9 Jan 2017",
	"ISBN": "9786020299075",
	"Bahasa": "Indonesia",
	"Penerbit": "Elex Media Komputindo",
	"Berat": "0.1300 kg",
	"Lebar": "17 cm"
},
{
	"page": 21,
	"kategori 1": "buku-anak",
	"book_url": "https://www.gramedia.com/products/ascension-3",
	"title": "Ascension 3",
	"author": "Mizuki Watanabe",
	"Jumlah Halaman": "200",
	"Tanggal Terbit": "24 Mei 2017",
	"ISBN": "9786020420691",
	"Bahasa": "Indonesia",
	"Penerbit": "Elex Media Komputindo",
	"Berat": "0.1300 kg",
	"Lebar": "11.4 cm"
},
{
	"page": 21,
	"kategori 1": "buku-anak",
	"book_url": "https://www.gramedia.com/products/jus-cinta-untuk-papa-cerita2-memikat-lainnya",
	"title": "Jus Cinta Untuk Papa dan Cerita-Cerita Memikat Lainnya",
	"author": "Ernita Dietjeria, Gege Orange",
	"Jumlah Halaman": "80",
	"Tanggal Terbit": "22 Sep 2014",
	"ISBN": "9786020248998",
	"Bahasa": "Indonesia",
	"Penerbit": "Elex Media Komputindo",
	"Berat": "0.150 kg",
	"Lebar": "21 cm",
	"Panjang": "27 cm"
},
{
	"page": 21,
	"kategori 1": "buku-anak",
	"book_url": "https://www.gramedia.com/products/yuk-belajar-membaca-untuk-tk-a",
	"title": "Yuk, Belajar Membaca Untuk Tk A",
	"author": "Muhajjah Saratini",
	"Jumlah Halaman": "52",
	"Tanggal Terbit": "26 Okt 2015",
	"ISBN": "9786020806228",
	"Bahasa": "Indonesia",
	"Penerbit": "Diva Press",
	"Berat": "0.1500 kg",
	"Lebar": "20 cm"
},
{
	"page": 21,
	"kategori 1": "buku-anak",
	"book_url": "https://www.gramedia.com/products/barbie-mariposa-edisi-foto",
	"title": "Barbie Mariposa Edisi Foto",
	"author": "Mattel",
	"Jumlah Halaman": "16",
	"Tanggal Terbit": "1 Jan 2008",
	"ISBN": "9789792235746",
	"Penerbit": "Gramedia Pustaka Utama",
	"Berat": "0.2000 kg",
	"Lebar": "20 cm",
	"Panjang": "0 cm"
},
{
	"page": 21,
	"kategori 1": "buku-anak",
	"book_url": "https://www.gramedia.com/products/agen-polisi-mabuk-darat",
	"title": "Agen Polisi: Mabuk Darat",
	"author": "Raoul Cauvin",
	"Tanggal Terbit": "8 Feb 2010",
	"ISBN": "9789790741522",
	"Penerbit": "Bhuana Ilmu Populer",
	"Berat": "0.3000 kg",
	"Lebar": "22 cm",
	"Panjang": "0 cm"
},
{
	"page": 21,
	"kategori 1": "buku-anak",
	"book_url": "https://www.gramedia.com/products/koleksi-cerita-dwibahasa-confident-princesses-para-putri-yang-percaya-diri",
	"title": "Koleksi Cerita Dwibahasa: Confident Princesses (Para Putri Yang Percaya Diri)",
	"author": "Disney",
	"Tanggal Terbit": "19 Sep 2014",
	"ISBN": "9786020308289",
	"Penerbit": "Gramedia Pustaka Utama",
	"Berat": "0.3000 kg",
	"Lebar": "19 cm",
	"Panjang": "0 cm"
},
{
	"page": 21,
	"kategori 1": "buku-anak",
	"book_url": "https://www.gramedia.com/products/board-book-kenali-aku-gajahku",
	"title": "Board Book Kenali Aku : Gajahku",
	"author": "Fx Sukamto",
	"Jumlah Halaman": "14",
	"Tanggal Terbit": "23 Jan 2017",
	"ISBN": "9786020298450",
	"Bahasa": "Indonesia",
	"Penerbit": "Elex Media Komputindo",
	"Berat": "0.1000 kg",
	"Lebar": "10.5 cm"
},
{
	"page": 21,
	"kategori 1": "buku-anak",
	"book_url": "https://www.gramedia.com/products/friends-do-not-give-up",
	"title": "Friends - Do Not Give Up",
	"author": "Daewon C.i.",
	"Jumlah Halaman": "192",
	"Tanggal Terbit": "19 Sep 2016",
	"ISBN": "9786020293523",
	"Bahasa": "Indonesia",
	"Penerbit": "Elex Media Komputindo",
	"Berat": "0.4000 kg",
	"Lebar": "15 cm"
},
{
	"page": 21,
	"kategori 1": "buku-anak",
	"book_url": "https://www.gramedia.com/products/muhyo-roji-16",
	"title": "Muhyo & Roji 16",
	"author": "Nishi Yoshiyuki",
	"Jumlah Halaman": "192",
	"Tanggal Terbit": "24 Mei 2017",
	"ISBN": "9786020421810",
	"Bahasa": "Indonesia",
	"Penerbit": "Elex Media Komputindo",
	"Berat": "0.1300 kg",
	"Lebar": "11.4 cm"
},
{
	"page": 21,
	"kategori 1": "buku-anak",
	"book_url": "https://www.gramedia.com/products/komik-kkpk-next-g-putri-blura-0",
	"title": "Komik KKPK Next G Putri Blura",
	"author": "Zahra Roidah A & Faisal A.s, Dkk",
	"Jumlah Halaman": "104",
	"Tanggal Terbit": "30 Des 2015",
	"ISBN": "9786023671076",
	"Bahasa": "Indonesia",
	"Penerbit": "Mizan",
	"Berat": "0.1000 kg",
	"Lebar": "15 cm"
},
{
	"page": 21,
	"kategori 1": "buku-anak",
	"book_url": "https://www.gramedia.com/products/potret-negeriku-kebudayaan-unik",
	"title": "Potret Negeriku: Kebudayaan Unik",
	"author": "Redaksi Bobo",
	"Jumlah Halaman": "160",
	"Tanggal Terbit": "27 Mar 2017",
	"ISBN": "9786024242381",
	"Bahasa": "Indonesia",
	"Penerbit": "Kepustakaan Populer Gramedia",
	"Berat": "0.2500 kg",
	"Lebar": "17 cm"
},
{
	"page": 21,
	"kategori 1": "buku-anak",
	"book_url": "https://www.gramedia.com/products/labirin-rahasia-kkpk-pipoya",
	"title": "Labirin Rahasia : Kkpk Pipoya",
	"author": "Oyasujiwo",
	"Jumlah Halaman": "92",
	"Tanggal Terbit": "19 Okt 2015",
	"ISBN": "9786023670819",
	"Bahasa": "Indonesia",
	"Penerbit": "Mizan Publishing",
	"Berat": "0.1500 kg",
	"Lebar": "14 cm"
},
{
	"page": 21,
	"kategori 1": "buku-anak",
	"book_url": "https://www.gramedia.com/products/ghost-school-days-mix-ed-gaun-jebret-ahaidedeu",
	"title": "Ghost School Days Mix Ed: Gaun Jebret Ahaidedeu",
	"author": "M Rafid Nadhif R & Assyifa S Arum",
	"Jumlah Halaman": "96",
	"Tanggal Terbit": "13 Okt 2015",
	"ISBN": "9786023670826",
	"Bahasa": "Indonesia",
	"Penerbit": "Mizan",
	"Berat": "0.1600 kg",
	"Lebar": "15 cm"
},
{
	"page": 21,
	"kategori 1": "buku-anak",
	"book_url": "https://www.gramedia.com/products/holidaylicious-hala-meksiko",
	"title": "Holidaylicious : Hola Meksiko",
	"author": "Sherina Salsabila",
	"Jumlah Halaman": "110",
	"Tanggal Terbit": "24 Jun 2015",
	"ISBN": "9786020989792",
	"Bahasa": "Indonesia",
	"Penerbit": "Noura Publishing House",
	"Berat": "0.2000 kg",
	"Lebar": "21 cm"
},
{
	"page": 21,
	"kategori 1": "buku-anak",
	"book_url": "https://www.gramedia.com/products/si-bolangpedia-bertahan-hidup",
	"title": "Si Bolangpedia: Bertahan Hidup",
	"author": "Johanna Ernawati",
	"Jumlah Halaman": "192",
	"Tanggal Terbit": "14 Nov 2016",
	"ISBN": "9786024242084",
	"Bahasa": "Indonesia",
	"Penerbit": "Kepustakaan Populer Gramedia",
	"Berat": "0.2900 kg",
	"Lebar": "17 cm"
},
{
	"page": 21,
	"kategori 1": "buku-anak",
	"book_url": "https://www.gramedia.com/products/small-puzzle-pasukan-pemburu-sfera-kuasa",
	"title": "Small Puzzle - Pasukan Pemburu Sfera Kuasa",
	"author": "Animonsta",
	"Jumlah Halaman": "2",
	"Tanggal Terbit": "13 Sep 2016",
	"ISBN": "716121053",
	"Bahasa": "Indonesia",
	"Penerbit": "Elex Media Komputindo",
	"Berat": "0.150 kg",
	"Lebar": "16.5 cm",
	"Panjang": "16.5 cm"
},
{
	"page": 21,
	"kategori 1": "buku-anak",
	"book_url": "https://www.gramedia.com/products/13-cerita-aneh-bin-ajaib-hewan-fantastis",
	"title": "13 Cerita Aneh Bin Ajaib : Hewan Fantastis",
	"author": "Claire Renaud",
	"Tanggal Terbit": "30 Jun 2013",
	"ISBN": "9786022492566",
	"Penerbit": "Bhuana Ilmu Populer",
	"Berat": "0.3000 kg",
	"Lebar": "0 cm",
	"Panjang": "0 cm"
},
{
	"page": 21,
	"kategori 1": "buku-anak",
	"book_url": "https://www.gramedia.com/products/angry-birds-playground-buku-mewarnai-aktivitas-chuck",
	"title": "Angry Birds Playground: Buku Mewarnai & Aktivitas Chuck",
	"author": "Rovio",
	"Jumlah Halaman": "24",
	"Tanggal Terbit": "4 Jan 2016",
	"ISBN": "9786020323749",
	"Bahasa": "Indonesia",
	"Penerbit": "Gramedia Pustaka Utama",
	"Berat": "0.2500 kg",
	"Lebar": "21.5 cm"
},
{
	"page": 21,
	"kategori 1": "buku-anak",
	"book_url": "https://www.gramedia.com/products/pintar-gambar-robot-stiker",
	"title": "Pintar Gambar Robot+Stiker",
	"author": "Yusup Somadinata",
	"Tanggal Terbit": "20 Okt 2014",
	"ISBN": "9786020250830",
	"Penerbit": "Elex Media Komputindo",
	"Berat": "0.3000 kg",
	"Lebar": "0 cm",
	"Panjang": "0 cm"
},
{
	"page": 21,
	"kategori 1": "buku-anak",
	"book_url": "https://www.gramedia.com/products/13-cerita-aneh-bin-ajaib-di-sekolah",
	"title": "13 Cerita Aneh Bin Ajaib Di Sekolah",
	"author": "Claire Renau",
	"Tanggal Terbit": "30 Jun 2013",
	"ISBN": "9786022492658",
	"Penerbit": "No Publisher",
	"Berat": "0.3000 kg"
},
{
	"page": 21,
	"kategori 1": "buku-anak",
	"book_url": "https://www.gramedia.com/products/drawing-mama-benda-sekitar-kita",
	"title": "Drawing Mama - Benda Sekitar Kita",
	"author": "Yanuar Rahman,devi Azhar",
	"Jumlah Halaman": "48",
	"Tanggal Terbit": "2 Nov 2015",
	"ISBN": "9786020274911",
	"Bahasa": "Indonesia",
	"Penerbit": "Elex Media Komputindo",
	"Berat": "0.2500 kg",
	"Lebar": "19 cm"
},
{
	"page": 21,
	"kategori 1": "buku-anak",
	"book_url": "https://www.gramedia.com/products/sekolah-zombie-komik-fantasteen-the-series",
	"title": "Sekolah Zombie :Komik Fantasteen The Series",
	"author": "Fatimah Assegaf & Hasan Arifin",
	"Jumlah Halaman": "124",
	"Tanggal Terbit": "24 Jun 2015",
	"ISBN": "9786023670543",
	"Bahasa": "Indonesia",
	"Penerbit": "Mizan Publishing",
	"Berat": "0.2000 kg",
	"Lebar": "15 cm"
},
{
	"page": 21,
	"kategori 1": "buku-anak",
	"book_url": "https://www.gramedia.com/products/bus-sekolah-mia-the-brave",
	"title": "Bus Sekolah : Mia The Brave",
	"author": "Oyasujiwo",
	"Jumlah Halaman": "92",
	"Tanggal Terbit": "19 Okt 2015",
	"ISBN": "9786023670864",
	"Bahasa": "Indonesia",
	"Penerbit": "Mizan Publishing",
	"Berat": "0.1500 kg",
	"Lebar": "14 cm"
},
{
	"page": 21,
	"kategori 1": "buku-anak",
	"book_url": "https://www.gramedia.com/products/monster-alam-paling-ditakuti-reptil-yang-terancam-punah",
	"title": "Monster Alam Paling Ditakuti: Reptil Yang Terancam Punah",
	"author": "Chris Mcnab",
	"Jumlah Halaman": "32",
	"Tanggal Terbit": "16 Nov 2015",
	"ISBN": "9786020276496",
	"Bahasa": "Indonesia",
	"Penerbit": "Elex Media Komputindo",
	"Berat": "0.2500 kg",
	"Lebar": "16.5 cm"
},
{
	"page": 21,
	"kategori 1": "buku-anak",
	"book_url": "https://www.gramedia.com/products/ghost-school-days-bunga-matahari",
	"title": "Ghost School Days: Bunga Matahari",
	"author": "Romy Hernadi & Assyifa S. Arum",
	"Jumlah Halaman": "92",
	"Tanggal Terbit": "13 Okt 2015",
	"ISBN": "9786023670772",
	"Bahasa": "Indonesia",
	"Penerbit": "Mizan",
	"Berat": "0.1000 kg",
	"Lebar": "14 cm"
},
{
	"page": 21,
	"kategori 1": "buku-anak",
	"book_url": "https://www.gramedia.com/products/school-quiz-bumi-antariksa",
	"title": "School Quiz - Bumi & Antariksa",
	"author": "Hyejin Kim",
	"Jumlah Halaman": "148",
	"Tanggal Terbit": "10 Agt 2015",
	"ISBN": "9786020269863",
	"Bahasa": "Indonesia",
	"Penerbit": "Elex Media Komputindo",
	"Berat": "0.1880 kg",
	"Lebar": "15 cm"
},
{
	"page": 21,
	"kategori 1": "buku-anak",
	"book_url": "https://www.gramedia.com/products/sejarah-sains-1-zaman-batu-yunani-kuno",
	"title": "Sejarah Sains #1: Zaman Batu - Yunani Kuno",
	"author": "Jung Hae-yung",
	"Jumlah Halaman": "204",
	"Tanggal Terbit": "26 Des 2014",
	"ISBN": "9786020312149",
	"Bahasa": "Indonesia",
	"Penerbit": "Gramedia Pustaka Utama",
	"Berat": "0.3000 kg",
	"Lebar": "7.5 cm",
	"Panjang": "24 cm"
},
{
	"page": 21,
	"kategori 1": "buku-anak",
	"book_url": "https://www.gramedia.com/products/mini-coloring-books-mobil-klasik-bermesin-dashyat",
	"title": "Mini Coloring Books Mobil Klasik Bermesin Dashyat",
	"author": "Yusup Somadinata",
	"Jumlah Halaman": "16",
	"Tanggal Terbit": "31 Jul 2017",
	"ISBN": "9786020439860",
	"Bahasa": "Indonesia",
	"Penerbit": "Elex Media Komputindo",
	"Berat": "0.1200 kg",
	"Lebar": "17 cm"
},
{
	"page": 21,
	"kategori 1": "buku-anak",
	"book_url": "https://www.gramedia.com/products/little-bebi-tolong-maaf-terima-kasih-ar",
	"title": "Little Bebi - Tolong, Maaf, Terima Kasih + Ar",
	"author": "Tim Eldi",
	"Jumlah Halaman": "36",
	"Tanggal Terbit": "30 Des 2014",
	"ISBN": "9786020254234",
	"Bahasa": "Indonesia",
	"Penerbit": "Elex Media Komputindo",
	"Berat": "0.120 kg",
	"Lebar": "21 cm",
	"Panjang": "27 cm"
},
{
	"page": 21,
	"kategori 1": "buku-anak",
	"book_url": "https://www.gramedia.com/products/science-melihat-fenomena-di-langit",
	"title": "Science-Melihat Fenomena Di Langit",
	"author": "Shin Kwang B",
	"Tanggal Terbit": "9 Mar 2013",
	"ISBN": "9786020207551",
	"Bahasa": "Indonesia",
	"Penerbit": "Elex Media Komputindo",
	"Berat": "0.3000 kg",
	"Lebar": "15 cm"
},
{
	"page": 21,
	"kategori 1": "buku-anak",
	"book_url": "https://www.gramedia.com/products/conf-pustaka-oasis-kids-pelihara-rambutmu-ala-rasul",
	"title": "Pustaka Oasis Kids: Pelihara Rambutmu ala Rasul",
	"author": "Herlina S.",
	"Jumlah Halaman": "26",
	"Tanggal Terbit": "7 Nov 2016",
	"ISBN": "9789790810662",
	"Penerbit": "Gramedia Widiasarana Indonesia",
	"Berat": "0.06 kg",
	"Lebar": "23.0 cm",
	"Panjang": "23.0 cm"
},
{
	"page": 21,
	"kategori 1": "buku-anak",
	"book_url": "https://www.gramedia.com/products/paramedis-10-mesin-jahit",
	"title": "Paramedis 10 : Mesin Jahit",
	"author": "Bercovici & Cauvin",
	"Jumlah Halaman": "48",
	"Tanggal Terbit": "7 Nov 2014",
	"ISBN": "9786022497776",
	"Penerbit": "Bhuana Ilmu Populer",
	"Berat": "0.3000 kg",
	"Lebar": "0 cm",
	"Panjang": "0 cm"
},
{
	"page": 21,
	"kategori 1": "buku-anak",
	"book_url": "https://www.gramedia.com/products/mockingjay-hunger-games-buku-ketiga",
	"title": "MOCKINGJAY HUNGER GAMES -BUKU KETIGA",
	"author": "Suzanne Collins",
	"Tanggal Terbit": "3 Jan 2012",
	"Penerbit": "Gramedia Pustaka Utama",
	"Berat": "0.4000 kg",
	"Lebar": "0 cm",
	"Panjang": "0 cm"
},
{
	"page": 21,
	"kategori 1": "buku-anak",
	"book_url": "https://www.gramedia.com/products/double-small-puzzle-cars-fun-vol-2",
	"title": "Double Small Puzzle Cars Fun Vol 2",
	"author": "Disney",
	"Tanggal Terbit": "13 Feb 2017",
	"ISBN": "XXX",
	"Bahasa": "Indonesia",
	"Penerbit": "Elex Media Komputindo",
	"Berat": "0.1000 kg",
	"Lebar": "16 cm"
},
{
	"page": 21,
	"kategori 1": "buku-anak",
	"book_url": "https://www.gramedia.com/products/ensiklopedia-ringkas-untuk-anak-invertebrata-ikan-reptil-burung",
	"title": "Ensiklopedia Ringkas Untuk Anak Invertebrata, Ikan, Reptil & Burung",
	"author": "Steve Parker",
	"Jumlah Halaman": "32",
	"Tanggal Terbit": "26 Sep 2016",
	"ISBN": "9786020293844",
	"Bahasa": "Indonesia",
	"Penerbit": "Elex Media Komputindo",
	"Berat": "0.9119 kg",
	"Lebar": "1 cm"
},
{
	"page": 21,
	"kategori 1": "buku-anak",
	"book_url": "https://www.gramedia.com/products/3d-coloring-boboiboy-pertarungan-antar-galaxy",
	"title": "3D Coloring Boboiboy: Pertarungan Antar Galaxy",
	"author": "Animonsta Studio Sdn. Bhd",
	"Jumlah Halaman": "16",
	"Tanggal Terbit": "13 Mar 2017",
	"ISBN": "9786020400594",
	"Bahasa": "Indonesia",
	"Penerbit": "Elex Media Komputindo",
	"Berat": "0.1000 kg",
	"Lebar": "21 cm"
},
{
	"page": 21,
	"kategori 1": "buku-anak",
	"book_url": "https://www.gramedia.com/products/lima-sekawan-rawa-rahasia",
	"title": "Lima Sekawan: Rawa Rahasia",
	"author": "Enid Blyton",
	"Tanggal Terbit": "5 Agt 2010",
	"ISBN": "9789792260373",
	"Penerbit": "Gramedia Pustaka Utama",
	"Berat": "0.1200 kg",
	"Lebar": "17.5 cm",
	"Panjang": "0 cm"
},
{
	"page": 21,
	"kategori 1": "buku-anak",
	"book_url": "https://www.gramedia.com/products/love-me-blue-03",
	"title": "Love Me Blue 03",
	"author": "Fujiwara Yoshiko",
	"Jumlah Halaman": "192",
	"Tanggal Terbit": "1 Okt 2012",
	"ISBN": "9786020034775",
	"Penerbit": "Elex Media Komputindo",
	"Berat": "0.1000 kg",
	"Lebar": "11 cm",
	"Panjang": "0 cm"
},
{
	"page": 21,
	"kategori 1": "buku-anak",
	"book_url": "https://www.gramedia.com/products/matching-book-bilingual-binatang-qr",
	"title": "Matching Book Bilingual - Binatang + Qr",
	"author": "Tim Eldi",
	"Jumlah Halaman": "16",
	"Tanggal Terbit": "25 Nov 2016",
	"ISBN": "9786020293349",
	"Bahasa": "Indonesia",
	"Penerbit": "Elex Media Komputindo",
	"Berat": "0.1000 kg",
	"Lebar": "9.5 cm"
},
{
	"page": 21,
	"kategori 1": "buku-anak",
	"book_url": "https://www.gramedia.com/products/si-berang2-kecil-seri-fabel-andung-ila",
	"title": "Si Berang-berang Kecil : Seri Fabel Andung Ila",
	"author": "Tartila Tartusi",
	"Jumlah Halaman": "24",
	"Tanggal Terbit": "15 Feb 2016",
	"ISBN": "9786022502999",
	"Bahasa": "Indonesia",
	"Penerbit": "Gema Insani",
	"Berat": "0.1000 kg",
	"Lebar": "20 cm"
},
{
	"page": 21,
	"kategori 1": "buku-anak",
	"book_url": "https://www.gramedia.com/products/wolf-x-wolves-03",
	"title": "Wolf X Wolves 03",
	"author": "Movita Shigeru",
	"Tanggal Terbit": "13 Okt 2014",
	"ISBN": "9786020249957",
	"Penerbit": "Elex Media Komputindo",
	"Berat": "0.1500 kg",
	"Lebar": "0 cm",
	"Panjang": "0 cm"
},
{
	"page": 21,
	"kategori 1": "buku-anak",
	"book_url": "https://www.gramedia.com/products/the-star-girl-kkpk",
	"title": "The Star Girl :Kkpk",
	"author": "Salsabila Putri Yuda",
	"Jumlah Halaman": "92",
	"Tanggal Terbit": "1 Okt 2015",
	"ISBN": "9786022425960",
	"Bahasa": "Indonesia",
	"Penerbit": "Mizan Publishing",
	"Berat": "0.9119 kg",
	"Lebar": "24 cm"
},
{
	"page": 21,
	"kategori 1": "buku-anak",
	"book_url": "https://www.gramedia.com/products/lc-captain-alice-09",
	"title": "LC: Captain Alice 09",
	"author": "Yuzo Takada",
	"Jumlah Halaman": "208",
	"Tanggal Terbit": "3 Mei 2017",
	"ISBN": "9786020420707",
	"Bahasa": "Indonesia",
	"Penerbit": "Elex Media Komputindo",
	"Berat": "0.1450 kg",
	"Lebar": "13 cm"
},
{
	"page": 21,
	"kategori 1": "buku-anak",
	"book_url": "https://www.gramedia.com/products/bebi-friend-book-collections-fruits-vegetables",
	"title": "Bebi & Friend Book Collections : Fruits & Vegetables",
	"author": "Tim Elex",
	"Jumlah Halaman": "6",
	"Tanggal Terbit": "19 Okt 2015",
	"ISBN": "9786020266978",
	"Bahasa": "Indonesia",
	"Penerbit": "Elex Media Komputindo",
	"Berat": "0.1500 kg",
	"Lebar": "9.5 cm"
},
{
	"page": 21,
	"kategori 1": "buku-anak",
	"book_url": "https://www.gramedia.com/products/aku-sayang-saudaraku",
	"title": "Aku Sayang Saudaraku",
	"author": "Alby Syafie",
	"Jumlah Halaman": "160",
	"Tanggal Terbit": "13 Feb 2015",
	"ISBN": "9786021614242",
	"Bahasa": "Indonesia",
	"Penerbit": "Indiva Media Kreasi",
	"Berat": "0.3000 kg",
	"Lebar": "14 cm"
},
{
	"page": 21,
	"kategori 1": "buku-anak",
	"book_url": "https://www.gramedia.com/products/shonen-fight-vol-2",
	"title": "Shonen Fight Vol 2",
	"author": "Mukhlis Nur",
	"Jumlah Halaman": "304",
	"Tanggal Terbit": "26 Agt 2015",
	"ISBN": "9786027262928",
	"Bahasa": "Indonesia",
	"Penerbit": "Pt Fajar Waka Semesta",
	"Berat": "0.3000 kg",
	"Lebar": "15 cm"
},
{
	"page": 21,
	"kategori 1": "buku-anak",
	"book_url": "https://www.gramedia.com/products/ramayana-sinta-bunga-kerajaan-mantili",
	"title": "Ramayana : Sinta Bunga Kerajaan Mantili",
	"author": "Setiawan G Sasongko",
	"Jumlah Halaman": "32",
	"Tanggal Terbit": "18 Agt 2015",
	"ISBN": "9786021627587",
	"Bahasa": "Indonesia",
	"Penerbit": "Pelangi",
	"Berat": "0.2000 kg",
	"Lebar": "23 cm"
},
{
	"page": 21,
	"kategori 1": "buku-anak",
	"book_url": "https://www.gramedia.com/products/teens-kurang-percaya-diri",
	"title": "Teens: Kurang Percaya Diri",
	"author": "Yoo Eun Gi",
	"Jumlah Halaman": "-",
	"Tanggal Terbit": "7 Sep 2015",
	"ISBN": "9786020271613",
	"Bahasa": "Indonesia",
	"Penerbit": "Elex Media Komputindo",
	"Berat": "0.2500 kg",
	"Lebar": "15 cm"
},
{
	"page": 21,
	"kategori 1": "buku-anak",
	"book_url": "https://www.gramedia.com/products/cepat-lancar-membaca-cars-2",
	"title": "Cepat Lancar Membaca Cars 2",
	"author": "Disney",
	"Jumlah Halaman": "32",
	"Tanggal Terbit": "25 Sep 2017",
	"ISBN": "9786020446400",
	"Bahasa": "Indonesia",
	"Penerbit": "Elex Media Komputindo",
	"Berat": "0.1000 kg",
	"Lebar": "21.5 cm"
},
{
	"page": 21,
	"kategori 1": "buku-anak",
	"book_url": "https://www.gramedia.com/products/juiceme-harmonika-kesayangan",
	"title": "Juiceme: Harmonika Kesayangan",
	"author": "Hana Dkk",
	"Jumlah Halaman": "124",
	"Tanggal Terbit": "18 Agt 2015",
	"ISBN": "9786022426370",
	"Bahasa": "Indonesia",
	"Penerbit": "Mizan Publishing",
	"Berat": "0.3500 kg",
	"Lebar": "14 cm"
},
{
	"page": 21,
	"kategori 1": "buku-anak",
	"book_url": "https://www.gramedia.com/products/ten-ten-miss-jinjing-cewek-kaya-ceria",
	"title": "Ten Ten: Miss Jinjing, cewek kaya & ceria",
	"author": "Yun E Hyeon",
	"Jumlah Halaman": "200",
	"Tanggal Terbit": "23 Feb 2015",
	"ISBN": "9786020259246",
	"Bahasa": "Indonesia",
	"Penerbit": "Elex Media Komputindo",
	"Berat": "0.2500 kg",
	"Lebar": "15 cm",
	"Panjang": "23 cm"
},
{
	"page": 21,
	"kategori 1": "buku-anak",
	"book_url": "https://www.gramedia.com/products/karya-sahabat-kiddo-2-laura-green-and-the-screaming-maze",
	"title": "Karya Sahabat Kiddo 2: Laura Green And The Screaming Maze",
	"author": "Jennifer Tan",
	"Jumlah Halaman": "110",
	"Tanggal Terbit": "24 Apr 2015",
	"ISBN": "9789799108609",
	"Penerbit": "Kepustakaan Populer Gramedia",
	"Berat": "0.1140 kg",
	"Lebar": "13 cm"
},
{
	"page": 21,
	"kategori 1": "buku-anak",
	"book_url": "https://www.gramedia.com/products/mini-coloring-books-mobil-canggih-masa-depan",
	"title": "Mini Coloring Books-Mobil Canggih Masa Depan",
	"author": "Yusup Somadinata",
	"Jumlah Halaman": "16",
	"Tanggal Terbit": "2 Okt 2017",
	"ISBN": "9786020447353",
	"Penerbit": "Elex Media Komputindo",
	"Berat": "0.1000 kg",
	"Lebar": "17 cm",
	"Panjang": "17 cm"
},
{
	"page": 21,
	"kategori 1": "buku-anak",
	"book_url": "https://www.gramedia.com/products/warnai-ketahui-motor-super-stiker",
	"title": "Warnai & Ketahui: Motor Super + Stiker",
	"author": "Yusuf",
	"Jumlah Halaman": "48",
	"Tanggal Terbit": "23 Feb 2015",
	"ISBN": "9786020258966",
	"Bahasa": "Indonesia",
	"Penerbit": "Elex Media Komputindo",
	"Berat": "0.1280 kg",
	"Lebar": "21 cm"
},
{
	"page": 21,
	"kategori 1": "buku-anak",
	"book_url": "https://www.gramedia.com/products/orange-marmalade-10-undian-tiket-ke-korea",
	"title": "Orange Marmalade 10 (Undian Tiket Ke Korea)",
	"author": "Seok Woo",
	"Jumlah Halaman": "160",
	"Tanggal Terbit": "4 Jan 2017",
	"ISBN": "9786024281373",
	"Bahasa": "Indonesia",
	"Penerbit": "m&c!",
	"Berat": "0.2000 kg",
	"Lebar": "14.8 cm"
},
{
	"page": 21,
	"kategori 1": "buku-anak",
	"book_url": "https://www.gramedia.com/products/yu-gi-oh-premium-16",
	"title": "Yu-Gi-Oh (Premium) 16",
	"author": "Kazuki Takahashi",
	"Jumlah Halaman": "328",
	"Tanggal Terbit": "19 Apr 2017",
	"ISBN": "9786020411705",
	"Bahasa": "Indonesia",
	"Penerbit": "Elex Media Komputindo",
	"Berat": "0.1350 kg",
	"Lebar": "11.4 cm"
},
{
	"page": 21,
	"kategori 1": "buku-anak",
	"book_url": "https://www.gramedia.com/products/kkpk-untukmu-ayah",
	"title": "Kkpk: Untukmu Ayah",
	"author": "Rafid",
	"Jumlah Halaman": "100",
	"Tanggal Terbit": "1 Jul 2015",
	"ISBN": "9786022426981",
	"Bahasa": "Indonesia",
	"Penerbit": "Mizan Publishing",
	"Berat": "0.2000 kg",
	"Lebar": "14 cm"
},
{
	"page": 21,
	"kategori 1": "buku-anak",
	"book_url": "https://www.gramedia.com/products/selamat-datang-di-whisker-haven-welcome-to-whisker-haven",
	"title": "Selamat Datang Di Whisker Haven (Welcome To Whisker Haven)",
	"author": "Disney",
	"Jumlah Halaman": "160",
	"Tanggal Terbit": "26 Sep 2016",
	"ISBN": "9786020333106",
	"Bahasa": "Indonesia",
	"Penerbit": "Gramedia Pustaka Utama",
	"Berat": "0.1300 kg",
	"Lebar": "21 cm"
},
{
	"page": 21,
	"kategori 1": "buku-anak",
	"book_url": "https://www.gramedia.com/products/sc-timeless-lesson",
	"title": "SC: Timeless Lesson",
	"author": "Natsuki Hinai",
	"Jumlah Halaman": "200",
	"Tanggal Terbit": "26 Apr 2017",
	"ISBN": "9786020418315",
	"Bahasa": "Indonesia",
	"Penerbit": "Elex Media Komputindo",
	"Berat": "0.1300 kg",
	"Lebar": "11.4 cm"
},
{
	"page": 21,
	"kategori 1": "buku-anak",
	"book_url": "https://www.gramedia.com/products/belajar-berhitung-sejak-dini",
	"title": "Belajar Berhitung Sejak Dini",
	"author": "Sri Hartati",
	"Jumlah Halaman": "52",
	"Tanggal Terbit": "15 Mei 2015",
	"ISBN": "9786022881360",
	"Bahasa": "Indonesia",
	"Penerbit": "Buku Pintar",
	"Berat": "0.2000 kg",
	"Lebar": "21 cm"
},
{
	"page": 21,
	"kategori 1": "buku-anak",
	"book_url": "https://www.gramedia.com/products/so-fashion-so-chic-studio-glamor",
	"title": "So Fashion So Chic: Studio Glamor",
	"author": "Editions Playbac",
	"Jumlah Halaman": "80",
	"Tanggal Terbit": "23 Jan 2017",
	"ISBN": "9786020298726",
	"Bahasa": "Indonesia",
	"Penerbit": "Elex Media Komputindo",
	"Berat": "0.4000 kg",
	"Lebar": "21 cm"
},
{
	"page": 21,
	"kategori 1": "buku-anak",
	"book_url": "https://www.gramedia.com/products/disney-princess-berbagi-peduli-sharing-caring",
	"title": "Disney Princess: Berbagi & Peduli (Sharing & Caring)",
	"author": "Disney",
	"Jumlah Halaman": "16",
	"Tanggal Terbit": "12 Okt 2015",
	"ISBN": "9786020321943",
	"Bahasa": "Indonesia",
	"Penerbit": "Gramedia Pustaka Utama",
	"Berat": "0.1500 kg",
	"Lebar": "20 cm"
},
{
	"page": 21,
	"kategori 1": "buku-anak",
	"book_url": "https://www.gramedia.com/products/ten-ten-berani-tampil-beda",
	"title": "Ten Ten: Berani Tampil Beda",
	"author": "Oh Su Jin",
	"Jumlah Halaman": "204",
	"Tanggal Terbit": "9 Mei 2012",
	"ISBN": "9786020025834",
	"Bahasa": "Indonesia",
	"Penerbit": "Elex Media Komputindo",
	"Berat": "0.300 kg",
	"Lebar": "13 cm",
	"Panjang": "18 cm"
},
{
	"page": 21,
	"kategori 1": "buku-anak",
	"book_url": "https://www.gramedia.com/products/the-novelist-is-made-from-chocolate",
	"title": "The Novelist Is Made From Chocolate",
	"author": "Madoka Miyake",
	"Jumlah Halaman": "192",
	"Tanggal Terbit": "27 Mei 2015",
	"ISBN": "9786021122754",
	"Bahasa": "Indonesia",
	"Penerbit": "Tiga Lancar",
	"Berat": "0.2000 kg",
	"Lebar": "12 cm"
},
{
	"page": 21,
	"kategori 1": "buku-anak",
	"book_url": "https://www.gramedia.com/products/komik-fantasteen-25-peron-tigabelas",
	"title": "Komik Fantasteen #25: Peron Tigabelas",
	"author": "Laksita Judith Dkk",
	"Jumlah Halaman": "116",
	"Tanggal Terbit": "6 Jul 2015",
	"ISBN": "9786022427827",
	"Bahasa": "Indonesia",
	"Penerbit": "Mizan Publishing",
	"Berat": "0.2000 kg",
	"Lebar": "0 cm"
},
{
	"page": 21,
	"kategori 1": "buku-anak",
	"book_url": "https://www.gramedia.com/products/ghost-school-days-flitz",
	"title": "Ghost School Days : Flitz",
	"author": "Tanima Armdapta",
	"Jumlah Halaman": "0",
	"Tanggal Terbit": "27 Mei 2015",
	"ISBN": "XXX",
	"Bahasa": "Indonesia",
	"Penerbit": "Mizan Publishing",
	"Berat": "0.2000 kg",
	"Lebar": "0 cm"
},
{
	"page": 21,
	"kategori 1": "buku-anak",
	"book_url": "https://www.gramedia.com/products/johan-pirlouit-kurcaci-di-hutan-berbatu-lc",
	"title": "LC: Johan & Pirlouit - Kurcaci di Hutan Berbatu",
	"author": "Peyo",
	"Jumlah Halaman": "48",
	"Tanggal Terbit": "7 Jun 2013",
	"ISBN": "9786020211329",
	"Bahasa": "Indonesia",
	"Penerbit": "Elex Media Komputindo",
	"Berat": "0.3000 kg",
	"Lebar": "18 cm",
	"Panjang": "24 cm"
},
{
	"page": 21,
	"kategori 1": "buku-anak",
	"book_url": "https://www.gramedia.com/products/tom-gates-si-bocah-konyol",
	"title": "Tom Gates Si Bocah Konyol",
	"author": "L.pichon",
	"Jumlah Halaman": "162",
	"Tanggal Terbit": "8 Sep 2015",
	"ISBN": "9786020989969",
	"Bahasa": "Indonesia",
	"Penerbit": "Noura Publishing House",
	"Berat": "0.2000 kg",
	"Lebar": "15 cm"
},
{
	"page": 21,
	"kategori 1": "buku-anak",
	"book_url": "https://www.gramedia.com/products/koleksi-aktivitas-mewarnai-tangled-rambut-emas-rapunzel",
	"title": "Koleksi Aktivitas & Mewarnai Tangled: Rambut Emas Rapunzel",
	"author": "Disney",
	"Jumlah Halaman": "64",
	"Tanggal Terbit": "3 Agt 2015",
	"ISBN": "9786020270135",
	"Bahasa": "Indonesia",
	"Penerbit": "+++",
	"Berat": "0.1560 kg",
	"Lebar": "21 cm"
},
{
	"page": 21,
	"kategori 1": "buku-anak",
	"book_url": "https://www.gramedia.com/products/selalu-di-hati-catatan-harian-olin-3",
	"title": "Selalu Di Hati : Catatan Harian Olin 3",
	"author": "Ali Muakhir & Hasan Arifin",
	"Jumlah Halaman": "168",
	"Tanggal Terbit": "16 Sep 2015",
	"ISBN": "9786022428299",
	"Bahasa": "Indonesia",
	"Penerbit": "Mizan Media Utama",
	"Berat": "0.1600 kg",
	"Lebar": "23 cm"
},
{
	"page": 21,
	"kategori 1": "buku-anak",
	"book_url": "https://www.gramedia.com/products/girl-generation-style-menonjol-aku-pun-fashionista",
	"title": "Girl Generation - Style Menonjol, Aku Pun Fashionista!",
	"author": "Choi Bongsun",
	"Jumlah Halaman": "208",
	"Tanggal Terbit": "20 Jun 2016",
	"ISBN": "9786020288154",
	"Bahasa": "Indonesia",
	"Penerbit": "Elex Media Komputindo",
	"Berat": "0.4000 kg",
	"Lebar": "15 cm",
	"Panjang": "23 cm"
},
{
	"page": 21,
	"kategori 1": "buku-anak",
	"book_url": "https://www.gramedia.com/products/conf-dear-boys-act-iii-03",
	"title": "Dear Boys Act III 03",
	"author": "Hiroki Yagami",
	"Jumlah Halaman": "192",
	"Tanggal Terbit": "18 Sep 2014",
	"ISBN": "978979278169",
	"Penerbit": "Elex Media Komputindo",
	"Berat": "0.12 kg",
	"Lebar": "11.5 cm",
	"Panjang": "17.5 cm"
},
