{
	"page": 52,
	"kategori 1": "fiksi-sastra",
	"kategori 2": "fiksi-populer",
	"book_url": "https://www.gramedia.com/products/bulu-matamu-padang-ilalang",
	"title": "Bulu Matamu: Padang Ilalang",
	"author": "Joko Pinurbo",
	"Jumlah Halaman": "62.0",
	"Tanggal Terbit": "16 Sep 2019",
	"ISBN": "9786023917914",
	"Bahasa": "Indonesia",
	"Penerbit": "Divapress",
	"Berat": "0.2 kg",
	"Lebar": "14.0 cm",
	"Panjang": "21.0 cm"
},
{
	"page": 52,
	"kategori 1": "fiksi-sastra",
	"kategori 2": "fiksi-populer",
	"book_url": "https://www.gramedia.com/products/the-reprieve",
	"title": "The Reprieve",
	"author": "Jean Paul Sartre",
	"Jumlah Halaman": "495",
	"Tanggal Terbit": "13 Feb 2018",
	"ISBN": "9786026657961",
	"Bahasa": "Indonesia",
	"Penerbit": "Immortal Publishing",
	"Berat": "0.45 kg",
	"Lebar": "14 cm",
	"Panjang": "21 cm"
},
{
	"page": 52,
	"kategori 1": "fiksi-sastra",
	"kategori 2": "fiksi-populer",
	"book_url": "https://www.gramedia.com/products/djoeroe-masak-4-sembah-dan-berkah",
	"title": "DJOEROE MASAK 4 : Sembah dan Berkah",
	"author": "Dyah Prameswarie",
	"Jumlah Halaman": "150",
	"Tanggal Terbit": "26 Jul 2017",
	"ISBN": "9786029251395",
	"Penerbit": "Metamind",
	"Berat": "0.20 kg",
	"Lebar": "13.5 cm",
	"Panjang": "20 cm"
},
{
	"page": 52,
	"kategori 1": "fiksi-sastra",
	"kategori 2": "fiksi-populer",
	"book_url": "https://www.gramedia.com/products/the-secret-suster-ngesot-urband-legend",
	"title": "The Secret Suster Ngesot Urband Legend",
	"author": "Demas Garin",
	"Jumlah Halaman": "190",
	"Tanggal Terbit": "20 Apr 2018",
	"ISBN": "9786026117649",
	"Bahasa": "Indonesia",
	"Penerbit": "RANS Publisher",
	"Berat": "0.20 kg",
	"Lebar": "13 cm",
	"Panjang": "19 cm"
},
{
	"page": 52,
	"kategori 1": "fiksi-sastra",
	"kategori 2": "fiksi-populer",
	"book_url": "https://www.gramedia.com/products/jalan-lain-ke-majapahit",
	"title": "Jalan Lain Ke Majapahit",
	"author": "Dadang Ari Murtono",
	"Jumlah Halaman": "159",
	"Tanggal Terbit": "25 Apr 2019",
	"ISBN": "9786023917242",
	"Bahasa": "Indonesia",
	"Penerbit": "Divapress",
	"Berat": "0.142 kg",
	"Lebar": "14 cm",
	"Panjang": "20 cm"
},
{
	"page": 52,
	"kategori 1": "fiksi-sastra",
	"kategori 2": "fiksi-populer",
	"book_url": "https://www.gramedia.com/products/lain-waktu-sebuah-novel-absurd",
	"title": "Lain Waktu: Sebuah Novel Absurd",
	"author": "Hilmi Abedillah",
	"Jumlah Halaman": "212.0",
	"Tanggal Terbit": "21 Okt 2019",
	"ISBN": "9786230008153",
	"Bahasa": "Indonesia",
	"Penerbit": "Elex Media Komputindo",
	"Berat": "0.15 kg",
	"Lebar": "12.5 cm",
	"Panjang": "19.5 cm"
},
{
	"page": 52,
	"kategori 1": "fiksi-sastra",
	"kategori 2": "fiksi-populer",
	"book_url": "https://www.gramedia.com/products/saving-the-drama-queen",
	"title": "Saving The Drama Queen",
	"author": "Kyria",
	"Jumlah Halaman": "492",
	"Tanggal Terbit": "1 Des 2018",
	"ISBN": "9789792966961",
	"Bahasa": "Indonesia",
	"Penerbit": "Andi Offset",
	"Berat": "0.380 kg",
	"Lebar": "19 cm",
	"Panjang": "13 cm"
},
