{
	"page": 40,
	"kategori 1": "fiksi-sastra",
	"kategori 2": "fiksi-populer",
	"book_url": "https://www.gramedia.com/products/gemina-the-illuminae-files_02",
	"title": "Gemina The Illuminae Files_02",
	"author": "Jay Kristoff",
	"Jumlah Halaman": "630",
	"Tanggal Terbit": "20 Mar 2019",
	"ISBN": "9786026682413",
	"Bahasa": "Indonesia",
	"Penerbit": "Penerbit Spring",
	"Berat": "0.6 kg",
	"Lebar": "14.5 cm",
	"Panjang": "21 cm"
},
{
	"page": 40,
	"kategori 1": "fiksi-sastra",
	"kategori 2": "fiksi-populer",
	"book_url": "https://www.gramedia.com/products/perjalanan-lain-menuju-bulan-cd",
	"title": "Perjalanan Lain Menuju Bulan+Cd",
	"author": "M. Aan Mansyur",
	"Jumlah Halaman": "112",
	"Tanggal Terbit": "2 Jun 2017",
	"ISBN": "9786022913917",
	"Bahasa": "Indonesia",
	"Penerbit": "Bentang Pustaka",
	"Berat": "0.1280 kg",
	"Lebar": "14.5 cm"
},
{
	"page": 40,
	"kategori 1": "fiksi-sastra",
	"kategori 2": "fiksi-populer",
	"book_url": "https://www.gramedia.com/products/hanoman",
	"title": "Hanoman",
	"author": "Zulham Farobi",
	"Jumlah Halaman": "472",
	"Tanggal Terbit": "16 Nov 2017",
	"ISBN": "9786025469589",
	"Bahasa": "Indonesia",
	"Penerbit": "Pustaka Jawi",
	"Berat": "0.500 kg",
	"Lebar": "14 cm",
	"Panjang": "20 cm"
},
{
	"page": 40,
	"kategori 1": "fiksi-sastra",
	"kategori 2": "fiksi-populer",
	"book_url": "https://www.gramedia.com/products/a-carribean-mystery-misteri-karibia-cover-baru",
	"title": "A Carribean Mystery (Misteri Karibia) - Cover Baru",
	"author": "Agatha Christie",
	"Jumlah Halaman": "280",
	"Tanggal Terbit": "26 Mar 2018",
	"ISBN": "9789792293197",
	"Bahasa": "Indonesia",
	"Penerbit": "Gramedia Pustaka Utama",
	"Berat": "0.120 kg",
	"Lebar": "11 cm",
	"Panjang": "18 cm"
},
{
	"page": 40,
	"kategori 1": "fiksi-sastra",
	"kategori 2": "fiksi-populer",
	"book_url": "https://www.gramedia.com/products/besok-kita-belum-tentu-saling-mengingat",
	"title": "Besok Kita Belum Tentu Saling Mengingat",
	"author": "DOPRA",
	"Jumlah Halaman": "160.0",
	"Tanggal Terbit": "25 Nov 2019",
	"ISBN": "9786020636252",
	"Bahasa": "Indonesia",
	"Penerbit": "Gramedia Pustaka Utama",
	"Berat": "0.14 kg",
	"Lebar": "12.0 cm",
	"Panjang": "18.0 cm"
},
