{
	"page": 73,
	"kategori 1": "fiksi-sastra",
	"kategori 2": "fiksi-populer",
	"book_url": "https://www.gramedia.com/products/a-thousand-stars-for-nathan",
	"title": "A Thousand Stars For Nathan",
	"author": "REZTY WI PALESTINA",
	"Jumlah Halaman": "307.0",
	"Tanggal Terbit": "30 Okt 2019",
	"ISBN": "9786020729077",
	"Bahasa": "Indonesia",
	"Penerbit": "Rdm Publishers",
	"Berat": "0.266 kg",
	"Lebar": "14.0 cm",
	"Panjang": "20.5 cm"
},
{
	"page": 73,
	"kategori 1": "fiksi-sastra",
	"kategori 2": "fiksi-populer",
	"book_url": "https://www.gramedia.com/products/hantu-galau-new-look",
	"title": "Hantu Galau New Look",
	"author": "Empok Mercy Sitanggang",
	"Jumlah Halaman": "176",
	"Tanggal Terbit": "17 Nov 2016",
	"ISBN": "9786021298725",
	"Bahasa": "Indonesia",
	"Penerbit": "Zettu",
	"Berat": "0.1480 kg",
	"Lebar": "14 cm"
},
{
	"page": 73,
	"kategori 1": "fiksi-sastra",
	"kategori 2": "fiksi-populer",
	"book_url": "https://www.gramedia.com/products/cinta-terkalang",
	"title": "Cinta Terkalang",
	"author": "Hamka",
	"Jumlah Halaman": "218.0",
	"Tanggal Terbit": "10 Des 2019",
	"ISBN": "9786022506591",
	"Bahasa": "Indonesia",
	"Penerbit": "Gema Insani",
	"Berat": "0.24 kg",
	"Lebar": "14.0 cm",
	"Panjang": "18.0 cm"
},
{
	"page": 73,
	"kategori 1": "fiksi-sastra",
	"kategori 2": "fiksi-populer",
	"book_url": "https://www.gramedia.com/products/pudarnya-pesona-cleopatra",
	"title": "Pudarnya Pesona Cleopatra",
	"author": "Habiburahman El Shirazy",
	"Jumlah Halaman": "120.0",
	"Tanggal Terbit": "25 Sep 2019",
	"ISBN": "9789793604008",
	"Bahasa": "Indonesia",
	"Penerbit": "Pustaka Abdi Bangsa Pt/ Pen Republika",
	"Berat": "0.112 kg",
	"Lebar": "13.5 cm",
	"Panjang": "20.8 cm"
},
{
	"page": 73,
	"kategori 1": "fiksi-sastra",
	"kategori 2": "fiksi-populer",
	"book_url": "https://www.gramedia.com/products/perjumpaan-dengan-pengkhianat",
	"title": "Perjumpaan Dengan Pengkhianat",
	"author": "Tia Setiadi",
	"Jumlah Halaman": "212",
	"Tanggal Terbit": "30 Des 2016",
	"ISBN": "9786023913565",
	"Bahasa": "Indonesia",
	"Penerbit": "Diva Press",
	"Berat": "0.1700 kg",
	"Lebar": "14 cm"
},
{
	"page": 73,
	"kategori 1": "fiksi-sastra",
	"kategori 2": "fiksi-populer",
	"book_url": "https://www.gramedia.com/products/kisah-1001-malam-1",
	"title": "Kisah 1001 Malam (Jillid 1)",
	"author": "Alfu Lailah Wa Lailah",
	"Jumlah Halaman": "432",
	"Tanggal Terbit": "18 Okt 2018",
	"ISBN": "9786023915767",
	"Bahasa": "Indonesia",
	"Penerbit": "Diva Press",
	"Berat": "0.30 kg",
	"Lebar": "17 cm",
	"Panjang": "23 cm"
},
{
	"page": 73,
	"kategori 1": "fiksi-sastra",
	"kategori 2": "fiksi-populer",
	"book_url": "https://www.gramedia.com/products/the-girl-called-feeling",
	"title": "The Girl Called Feeling",
	"author": "Neal Wu",
	"Jumlah Halaman": "230.0",
	"Tanggal Terbit": "8 Jan 2020",
	"ISBN": "9786026682598",
	"Bahasa": "Indonesia",
	"Penerbit": "Haru",
	"Berat": "0.19 kg",
	"Lebar": "14.0 cm",
	"Panjang": "20.0 cm"
},
{
	"page": 73,
	"kategori 1": "fiksi-sastra",
	"kategori 2": "fiksi-populer",
	"book_url": "https://www.gramedia.com/products/dinding-beku",
	"title": "Dinding Beku",
	"author": "Kamiluddin Azis",
	"Jumlah Halaman": "248",
	"Tanggal Terbit": "18 Des 2017",
	"ISBN": "9786023914661",
	"Bahasa": "Indonesia",
	"Penerbit": "Diva Press",
	"Berat": "0.215 kg",
	"Lebar": "14 cm",
	"Panjang": "20 cm"
},
{
	"page": 73,
	"kategori 1": "fiksi-sastra",
	"kategori 2": "fiksi-populer",
	"book_url": "https://www.gramedia.com/products/trials-of-apollo-1-the-hidden-oracle-sc",
	"title": "Trials Of Apollo #1 The Hidden Oracle (Sc)",
	"author": "Rick Riordan",
	"Jumlah Halaman": "416",
	"Tanggal Terbit": "22 Mei 2019",
	"ISBN": "9781484746417",
	"Bahasa": "Indonesia",
	"Penerbit": "Hachette Book Us",
	"Berat": "0.277 kg",
	"Lebar": "13 cm",
	"Panjang": "19 cm"
},
{
	"page": 73,
	"kategori 1": "fiksi-sastra",
	"kategori 2": "fiksi-populer",
	"book_url": "https://www.gramedia.com/products/teenlit3-dangel-princess-cover-baru",
	"title": "Teenlit#3: D'Angel: Princess - Cover Baru",
	"author": "Luna Torashyngu",
	"Jumlah Halaman": "288",
	"Tanggal Terbit": "24 Jun 2019",
	"ISBN": "9786020306384",
	"Bahasa": "Indonesia",
	"Penerbit": "Gramedia Pustaka Utama",
	"Berat": "0.120 kg",
	"Lebar": "13.5 cm",
	"Panjang": "20 cm"
},
{
	"page": 73,
	"kategori 1": "fiksi-sastra",
	"kategori 2": "fiksi-populer",
	"book_url": "https://www.gramedia.com/products/himpunan",
	"title": "Himpunan",
	"author": "Citra Saras",
	"Jumlah Halaman": "520.0",
	"Tanggal Terbit": "1 Jan 2019",
	"ISBN": "9786239115128",
	"Bahasa": "Indonesia",
	"Penerbit": "Penerbit Sunset Road",
	"Berat": "0.55 kg",
	"Lebar": "14.0 cm",
	"Panjang": "21.0 cm"
},
{
	"page": 73,
	"kategori 1": "fiksi-sastra",
	"kategori 2": "fiksi-populer",
	"book_url": "https://www.gramedia.com/products/broken",
	"title": "Broken",
	"author": "Lilis Suryani",
	"Jumlah Halaman": "396",
	"Tanggal Terbit": "8 Jul 2017",
	"ISBN": "9786026657503",
	"Bahasa": "Indonesia",
	"Penerbit": "Aria Media",
	"Berat": "0.2700 kg",
	"Lebar": "19 cm"
},
{
	"page": 73,
	"kategori 1": "fiksi-sastra",
	"kategori 2": "fiksi-populer",
	"book_url": "https://www.gramedia.com/products/lelaki-yang-tidak-bisa-dicuri",
	"title": "Lelaki Yang Tidak Bisa Dicuri",
	"author": "RIEZKIANTY YURA",
	"Jumlah Halaman": "362.0",
	"Tanggal Terbit": "22 Okt 2019",
	"ISBN": "9786026972385",
	"Bahasa": "Indonesia",
	"Penerbit": "Gramata",
	"Berat": "0.255 kg",
	"Lebar": "13.0 cm",
	"Panjang": "20.0 cm"
},
{
	"page": 73,
	"kategori 1": "fiksi-sastra",
	"kategori 2": "fiksi-populer",
	"book_url": "https://www.gramedia.com/products/ibu-adalah-surgaku",
	"title": "Ibu Adalah Surgaku",
	"author": "Naomi Orlin",
	"Jumlah Halaman": "193",
	"Tanggal Terbit": "1 Jan 2019",
	"ISBN": "9786026409942",
	"Bahasa": "Indonesia",
	"Penerbit": "Nuansa",
	"Berat": "0.170 kg",
	"Lebar": "14 cm",
	"Panjang": "21 cm"
},
{
	"page": 73,
	"kategori 1": "fiksi-sastra",
	"kategori 2": "fiksi-populer",
	"book_url": "https://www.gramedia.com/products/my-angelic-boyfriend",
	"title": "My Angelic Boyfriend",
	"author": "Honey Dee",
	"Jumlah Halaman": "400",
	"Tanggal Terbit": "18 Apr 2019",
	"ISBN": "9786239033231",
	"Bahasa": "Indonesia",
	"Penerbit": "Rainbow Books",
	"Berat": "0.285 kg",
	"Lebar": "13.2 cm",
	"Panjang": "19 cm"
},
{
	"page": 73,
	"kategori 1": "fiksi-sastra",
	"kategori 2": "fiksi-populer",
	"book_url": "https://www.gramedia.com/products/elephants-can-remember-gajah-selalu-ingat",
	"title": "Elephant's Can Remember (Gajah Selalu Ingat)",
	"author": "Agatha Christie",
	"Jumlah Halaman": "288",
	"Tanggal Terbit": "9 Jul 2018",
	"ISBN": "9789792228700",
	"Bahasa": "Indonesia",
	"Penerbit": "Gramedia Pustaka Utama",
	"Berat": "0.12 kg",
	"Lebar": "11 cm",
	"Panjang": "18 cm"
},
{
	"page": 73,
	"kategori 1": "fiksi-sastra",
	"kategori 2": "fiksi-populer",
	"book_url": "https://www.gramedia.com/products/orkestra-pemakaman",
	"title": "Orkestra Pemakaman",
	"author": "Aslan Abidin",
	"Jumlah Halaman": "124",
	"Tanggal Terbit": "5 Okt 2018",
	"ISBN": "9786024810443",
	"Bahasa": "Indonesia",
	"Penerbit": "Kepustakaan Populer Gramedia",
	"Berat": "0.125 kg",
	"Lebar": "13.5 cm",
	"Panjang": "20 cm"
},
{
	"page": 73,
	"kategori 1": "fiksi-sastra",
	"kategori 2": "fiksi-populer",
	"book_url": "https://www.gramedia.com/products/betapa-kita-masih-belum-beranjak-dari-pertanyaan-tentang-cinta",
	"title": "Betapa Kita Masih Belum Beranjak Dari Pertanyaan Tentang Cinta",
	"author": "Asef Saeful Anwar",
	"Jumlah Halaman": "190.0",
	"Tanggal Terbit": "15 Nov 2019",
	"ISBN": "9786025868849",
	"Bahasa": "Indonesia",
	"Penerbit": "Shira Media",
	"Berat": "0.146 kg",
	"Lebar": "13.0 cm",
	"Panjang": "19.0 cm"
},
{
	"page": 73,
	"kategori 1": "fiksi-sastra",
	"kategori 2": "fiksi-populer",
	"book_url": "https://www.gramedia.com/products/secangkir-kopi-ndp",
	"title": "Secangkir Kopi NDP",
	"author": "Firdaus Syam",
	"Jumlah Halaman": "230",
	"Tanggal Terbit": "10 Des 2018",
	"ISBN": "9786025508554",
	"Bahasa": "Indonesia",
	"Penerbit": "COCONUT",
	"Berat": "0.16 kg",
	"Lebar": "20.5 cm",
	"Panjang": "14 cm"
},
{
	"page": 73,
	"kategori 1": "fiksi-sastra",
	"kategori 2": "fiksi-populer",
	"book_url": "https://www.gramedia.com/products/khotbah-si-bisu",
	"title": "Khotbah Si Bisu",
	"author": "Deddyarsya",
	"Jumlah Halaman": "80.0",
	"Tanggal Terbit": "23 Agt 2018",
	"ISBN": "9786023917587",
	"Penerbit": "Divapress",
	"Berat": "0.15 kg",
	"Lebar": "13.5 cm",
	"Panjang": "20.0 cm"
},
{
	"page": 73,
	"kategori 1": "fiksi-sastra",
	"kategori 2": "fiksi-populer",
	"book_url": "https://www.gramedia.com/products/wordsworth-case-book-of-sherlock-holmes",
	"title": "Wordsworth: Case Book Of Sherlock Holmes",
	"author": "Sir Arthur Conan Doyle",
	"Jumlah Halaman": "432",
	"Tanggal Terbit": "1 Okt 2018",
	"ISBN": "9781853260704",
	"Bahasa": "English",
	"Penerbit": "Sinar Star Book",
	"Berat": "0.274 kg",
	"Lebar": "13 cm",
	"Panjang": "20 cm"
},
{
	"page": 73,
	"kategori 1": "fiksi-sastra",
	"kategori 2": "fiksi-populer",
	"book_url": "https://www.gramedia.com/products/menari-di-antara-desing-peluru",
	"title": "Menari di Antara Desing Peluru",
	"author": "Luri Permadi",
	"Jumlah Halaman": "390",
	"Tanggal Terbit": "12 Feb 2016",
	"ISBN": "9786028144322",
	"Bahasa": "Indonesia",
	"Penerbit": "Medium",
	"Berat": "0.3000 kg",
	"Lebar": "14 cm"
},
