{
	"page": 97,
	"kategori 1": "fiksi-sastra",
	"kategori 2": "fiksi-populer",
	"book_url": "https://www.gramedia.com/products/awas-hantu-eksis",
	"title": "Awas Hantu Eksis!",
	"author": "Cem Acem",
	"Jumlah Halaman": "204",
	"Tanggal Terbit": "29 Mei 2017",
	"ISBN": "9789799115522",
	"Bahasa": "Indonesia",
	"Penerbit": "Media Pressindo",
	"Berat": "0.1600 kg",
	"Lebar": "13 cm"
},
{
	"page": 97,
	"kategori 1": "fiksi-sastra",
	"kategori 2": "fiksi-populer",
	"book_url": "https://www.gramedia.com/products/drama-1",
	"title": "Drama",
	"author": "Juna Bei",
	"Jumlah Halaman": "292",
	"Tanggal Terbit": "12 Sep 2018",
	"ISBN": "9786024303518",
	"Bahasa": "Indonesia",
	"Penerbit": "Bentang Belia",
	"Berat": "0.250 kg"
},
{
	"page": 97,
	"kategori 1": "fiksi-sastra",
	"kategori 2": "fiksi-populer",
	"book_url": "https://www.gramedia.com/products/burung-burung-kecil",
	"title": "Burung-burung Kecil",
	"author": "Kembangmanggis",
	"Jumlah Halaman": "128",
	"Tanggal Terbit": "18 Mar 2019",
	"ISBN": "9786020618555",
	"Bahasa": "Indonesia",
	"Penerbit": "Gramedia Pustaka Utama",
	"Berat": "0.15 kg",
	"Lebar": "14 cm",
	"Panjang": "21 cm"
},
{
	"page": 97,
	"kategori 1": "fiksi-sastra",
	"kategori 2": "fiksi-populer",
	"book_url": "https://www.gramedia.com/products/terlalu-cabe-untuk-romantis",
	"title": "Terlalu Cabe Untuk Romantis",
	"author": "Bambang Haryadi",
	"Jumlah Halaman": "160",
	"Tanggal Terbit": "9 Jan 2018",
	"ISBN": "9789799116185",
	"Bahasa": "Indonesia",
	"Penerbit": "Media Pressindo",
	"Berat": "0.14 kg",
	"Lebar": "14 cm",
	"Panjang": "20 cm"
},
{
	"page": 97,
	"kategori 1": "fiksi-sastra",
	"kategori 2": "fiksi-populer",
	"book_url": "https://www.gramedia.com/products/cinta-mati-dasamuka",
	"title": "Cinta Mati Dasamuka",
	"author": "Pitoyo Amrih",
	"Jumlah Halaman": "364",
	"Tanggal Terbit": "31 Agt 2016",
	"ISBN": "9786023912322",
	"Bahasa": "Indonesia",
	"Penerbit": "Diva Press",
	"Berat": "0.3820 kg",
	"Lebar": "24 cm"
},
{
	"page": 97,
	"kategori 1": "fiksi-sastra",
	"kategori 2": "fiksi-populer",
	"book_url": "https://www.gramedia.com/products/find-a-way-to-my-heart",
	"title": "Find A Way To My Heart",
	"author": "Dinda Ryne & Asri Aci",
	"Jumlah Halaman": "332.0",
	"Tanggal Terbit": "16 Okt 2019",
	"ISBN": "9786024305789",
	"Bahasa": "Indonesia",
	"Penerbit": "Bentang Pustaka",
	"Berat": "0.32 kg",
	"Lebar": "14.0 cm",
	"Panjang": "21.0 cm"
},
{
	"page": 97,
	"kategori 1": "fiksi-sastra",
	"kategori 2": "fiksi-populer",
	"book_url": "https://www.gramedia.com/products/new-york-bakery",
	"title": "New York Bakery",
	"author": "KOREA FOUNDATION",
	"Jumlah Halaman": "396.0",
	"Tanggal Terbit": "26 Jul 2019",
	"ISBN": "9786020632162",
	"Penerbit": "Gramedia Pustaka Utama",
	"Berat": "0.6 kg",
	"Lebar": "15.0 cm",
	"Panjang": "23.0 cm"
},
{
	"page": 97,
	"kategori 1": "fiksi-sastra",
	"kategori 2": "fiksi-populer",
	"book_url": "https://www.gramedia.com/products/anak-rantau-edisi-cover-baru-2019",
	"title": "Anak Rantau (Edisi Cover Baru 2019)",
	"author": "A Fuadi",
	"Jumlah Halaman": "370.0",
	"Tanggal Terbit": "27 Mei 2019",
	"ISBN": "9786026714534",
	"Bahasa": "Indonesia",
	"Penerbit": "Falcon Publishing",
	"Berat": "0.352 kg",
	"Lebar": "14.0 cm",
	"Panjang": "20.5 cm"
},
{
	"page": 97,
	"kategori 1": "fiksi-sastra",
	"kategori 2": "fiksi-populer",
	"book_url": "https://www.gramedia.com/products/addio",
	"title": "Addio",
	"author": "Alya Damianti",
	"Jumlah Halaman": "352",
	"Tanggal Terbit": "24 Jun 2019",
	"ISBN": "9786232162570",
	"Bahasa": "Indonesia",
	"Penerbit": "Bhuana Ilmu Populer",
	"Berat": "0.125 kg",
	"Lebar": "19 cm",
	"Panjang": "13 cm"
},
{
	"page": 97,
	"kategori 1": "fiksi-sastra",
	"kategori 2": "fiksi-populer",
	"book_url": "https://www.gramedia.com/products/apology",
	"title": "Apology",
	"author": "MALATI",
	"Jumlah Halaman": "200.0",
	"Tanggal Terbit": "10 Agt 2019",
	"ISBN": "9786025921216",
	"Penerbit": "Aria Media Mandiri",
	"Berat": "0.15 kg",
	"Lebar": "14.0 cm",
	"Panjang": "20.0 cm"
},
{
	"page": 97,
	"kategori 1": "fiksi-sastra",
	"kategori 2": "fiksi-populer",
	"book_url": "https://www.gramedia.com/products/the-moon-the-star-and-our-love",
	"title": "The Moon, The Star, And Our Love",
	"author": "Cha Mirae",
	"Jumlah Halaman": "252.0",
	"Tanggal Terbit": "30 Sep 2019",
	"ISBN": "9786237324188",
	"Bahasa": "Indonesia",
	"Penerbit": "Histeria",
	"Berat": "0.151 kg",
	"Lebar": "13.5 cm",
	"Panjang": "20.0 cm"
},
{
	"page": 97,
	"kategori 1": "fiksi-sastra",
	"kategori 2": "fiksi-populer",
	"book_url": "https://www.gramedia.com/products/youth-love",
	"title": "Youth Love",
	"author": "Marisa Agustina",
	"Jumlah Halaman": "298.0",
	"Tanggal Terbit": "9 Sep 2019",
	"ISBN": "9786020504193",
	"Penerbit": "Gramedia Widiasarana Indonesia",
	"Berat": "0.2 kg",
	"Lebar": "13.0 cm",
	"Panjang": "19.0 cm"
},
{
	"page": 97,
	"kategori 1": "fiksi-sastra",
	"kategori 2": "fiksi-populer",
	"book_url": "https://www.gramedia.com/products/diary-pramugari-1-makna-cinta-dan-kehidupan-recover",
	"title": "Diary Pramugari 1 : Makna Cinta Dan Kehidupan (Recover)",
	"author": "Agung Webe",
	"Jumlah Halaman": "352",
	"Tanggal Terbit": "17 Apr 2018",
	"ISBN": "9786025474521",
	"Bahasa": "Indonesia",
	"Penerbit": "Pohon Cahaya",
	"Berat": "0.25 kg",
	"Lebar": "13 cm",
	"Panjang": "18 cm"
},
{
	"page": 97,
	"kategori 1": "fiksi-sastra",
	"kategori 2": "fiksi-populer",
	"book_url": "https://www.gramedia.com/products/herding-the-wind",
	"title": "Herding The Wind",
	"author": "Gabriel Possenti Sindhunata",
	"Jumlah Halaman": "432",
	"Tanggal Terbit": "7 Jan 2019",
	"ISBN": "9786020326252",
	"Bahasa": "English",
	"Penerbit": "Gramedia Pustaka Utama",
	"Berat": "0.520 kg",
	"Lebar": "14 cm",
	"Panjang": "21 cm"
},
{
	"page": 97,
	"kategori 1": "fiksi-sastra",
	"kategori 2": "fiksi-populer",
	"book_url": "https://www.gramedia.com/products/efemeral",
	"title": "Efemeral",
	"author": "Discaria Paladinteri Montera de Manics",
	"Jumlah Halaman": "274",
	"Tanggal Terbit": "14 Mei 2018",
	"ISBN": "9786020384573",
	"Bahasa": "Indonesia",
	"Penerbit": "Gramedia Pustaka Utama",
	"Berat": "0.2 kg",
	"Lebar": "14 cm",
	"Panjang": "20 cm"
},
{
	"page": 97,
	"kategori 1": "fiksi-sastra",
	"kategori 2": "fiksi-populer",
	"book_url": "https://www.gramedia.com/products/wordsworth-christmas-carol",
	"title": "Wordsworth: Christmas Carol",
	"author": "Charles Dickens",
	"Jumlah Halaman": "96",
	"Tanggal Terbit": "1 Okt 2018",
	"ISBN": "9781840227567",
	"Bahasa": "English",
	"Penerbit": "Sinar Star Book",
	"Berat": "0.1 kg",
	"Lebar": "13 cm",
	"Panjang": "20 cm"
},
{
	"page": 97,
	"kategori 1": "fiksi-sastra",
	"kategori 2": "fiksi-populer",
	"book_url": "https://www.gramedia.com/products/vall-for-mars",
	"title": "Val(l) for Mars",
	"author": "Desy Miladiana",
	"Jumlah Halaman": "232.0",
	"Tanggal Terbit": "20 Sep 2019",
	"ISBN": "9786024076269",
	"Penerbit": "Laksana",
	"Berat": "0.3 kg",
	"Lebar": "14.0 cm",
	"Panjang": "20.0 cm"
},
{
	"page": 97,
	"kategori 1": "fiksi-sastra",
	"kategori 2": "fiksi-populer",
	"book_url": "https://www.gramedia.com/products/oscillate-2-3-the-blank-page",
	"title": "Oscillate 2 & 3 - The Blank Page",
	"author": "Raden Chedid",
	"Jumlah Halaman": "520.0",
	"Tanggal Terbit": "27 Agt 2019",
	"ISBN": "9786237211266",
	"Penerbit": "Loveable",
	"Berat": "0.447 kg",
	"Lebar": "13.5 cm",
	"Panjang": "20.0 cm"
},
{
	"page": 97,
	"kategori 1": "fiksi-sastra",
	"kategori 2": "fiksi-populer",
	"book_url": "https://www.gramedia.com/products/carita-calin",
	"title": "Carita Calin",
	"author": "Aprilia Fatmawati",
	"Jumlah Halaman": "292",
	"Tanggal Terbit": "31 Agt 2018",
	"ISBN": "9786024074159",
	"Bahasa": "Indonesia",
	"Penerbit": "Laksana",
	"Berat": "0.17 kg",
	"Lebar": "14 cm",
	"Panjang": "20 cm"
},
{
	"page": 97,
	"kategori 1": "fiksi-sastra",
	"kategori 2": "fiksi-populer",
	"book_url": "https://www.gramedia.com/products/setelah-gelanggang-itu",
	"title": "Setelah Gelanggang Itu",
	"author": "Esha Tegar Putra",
	"Jumlah Halaman": "116.0",
	"Tanggal Terbit": "6 Jan 2020",
	"ISBN": "9786020522685",
	"Bahasa": "Indonesia",
	"Penerbit": "Gramedia Widiasarana Indonesia",
	"Berat": "0.25 kg",
	"Lebar": "11.5 cm",
	"Panjang": "16.0 cm"
},
{
	"page": 97,
	"kategori 1": "fiksi-sastra",
	"kategori 2": "fiksi-populer",
	"book_url": "https://www.gramedia.com/products/yang-terlupakan",
	"title": "Yang Terlupakan",
	"author": "Amanda Rawles",
	"Jumlah Halaman": "148",
	"Tanggal Terbit": "5 Jun 2017",
	"ISBN": "9786026940711",
	"Bahasa": "Indonesia",
	"Penerbit": "Coconut Book",
	"Berat": "0.1550 kg",
	"Lebar": "15 cm"
},
{
	"page": 97,
	"kategori 1": "fiksi-sastra",
	"kategori 2": "fiksi-populer",
	"book_url": "https://www.gramedia.com/products/taira-no-masakado-new-cover-antara-darah-cinta-dan-air-mata",
	"title": "Taira No Masakado New Cover : Antara Darah, Cinta Dan Air Mata",
	"author": "Eiji Yoshikawa",
	"Jumlah Halaman": "635",
	"Tanggal Terbit": "8 Apr 2016",
	"ISBN": "9786027048331",
	"Penerbit": "Serambi",
	"Berat": "0.2500 kg",
	"Lebar": "14 cm"
},
{
	"page": 97,
	"kategori 1": "fiksi-sastra",
	"kategori 2": "fiksi-populer",
	"book_url": "https://www.gramedia.com/products/kesatria-terakhir",
	"title": "Kesatria Terakhir",
	"author": "E. Rokajat Asura",
	"Jumlah Halaman": "586",
	"Tanggal Terbit": "8 Jun 2018",
	"ISBN": "9786027926400",
	"Bahasa": "Indonesia",
	"Penerbit": "Penerbit Imania",
	"Berat": "0.500 kg",
	"Lebar": "13.5 cm",
	"Panjang": "21 cm"
},
