{
	"page": 36,
	"kategori 1": "fiksi-sastra",
	"kategori 2": "fiksi-populer",
	"book_url": "https://www.gramedia.com/products/dont-tell-me-anything-1",
	"title": "Don`T Tell Me Anything",
	"author": "Vasca Vannisa",
	"Jumlah Halaman": "466.0",
	"Tanggal Terbit": "19 Okt 2019",
	"ISBN": "9786025921247",
	"Bahasa": "Indonesia",
	"Penerbit": "Shira Media",
	"Berat": "0.306 kg",
	"Lebar": "13.0 cm",
	"Panjang": "19.0 cm"
},
{
	"page": 36,
	"kategori 1": "fiksi-sastra",
	"kategori 2": "fiksi-populer",
	"book_url": "https://www.gramedia.com/products/sarang-haerang",
	"title": "Sarang-Haerang",
	"author": "Ririn Ayu",
	"Jumlah Halaman": "312.0",
	"Tanggal Terbit": "10 Okt 2019",
	"ISBN": "9786237122371",
	"Bahasa": "Indonesia",
	"Penerbit": "Andi Offset",
	"Berat": "0.352 kg",
	"Lebar": "14.0 cm",
	"Panjang": "21.0 cm"
},
{
	"page": 36,
	"kategori 1": "fiksi-sastra",
	"kategori 2": "fiksi-populer",
	"book_url": "https://www.gramedia.com/products/the-cursed-hand",
	"title": "The Cursed Hand",
	"author": "Sinta Susanti",
	"Jumlah Halaman": "160",
	"Tanggal Terbit": "10 Des 2018",
	"ISBN": "9786024832872",
	"Bahasa": "Indonesia",
	"Penerbit": "Bhuana Ilmu Populer",
	"Berat": "0.2 kg",
	"Lebar": "13 cm",
	"Panjang": "19 cm"
},
{
	"page": 36,
	"kategori 1": "fiksi-sastra",
	"kategori 2": "fiksi-populer",
	"book_url": "https://www.gramedia.com/products/di-kala-pagi-1",
	"title": "Di Kala Pagi",
	"author": "Reni Nuryanti",
	"Jumlah Halaman": "200",
	"Tanggal Terbit": "22 Jul 2019",
	"ISBN": "9786024811730",
	"Bahasa": "Indonesia",
	"Penerbit": "Kepustakaan Populer Gramedia",
	"Berat": "0.135 kg",
	"Lebar": "15.5 cm",
	"Panjang": "17.5 cm"
},
{
	"page": 36,
	"kategori 1": "fiksi-sastra",
	"kategori 2": "fiksi-populer",
	"book_url": "https://www.gramedia.com/products/the-innkeepers-sister",
	"title": "The Innkeeper`S Sister",
	"author": "Linda Goodnight",
	"Jumlah Halaman": "392.0",
	"Tanggal Terbit": "2 Des 2019",
	"ISBN": "9786230010347",
	"Bahasa": "Indonesia",
	"Penerbit": "Elex Media Komputindo",
	"Berat": "0.25 kg",
	"Lebar": "13.5 cm",
	"Panjang": "20.0 cm"
},
{
	"page": 36,
	"kategori 1": "fiksi-sastra",
	"kategori 2": "fiksi-populer",
	"book_url": "https://www.gramedia.com/products/dendam-arwah-jumat-kliwon-edisi-baru",
	"title": "Dendam Arwah Jumat Kliwon (Edisi Baru)",
	"author": "Ahmad Sufiatur Rahman",
	"Jumlah Halaman": "184.0",
	"Tanggal Terbit": "8 Jan 2020",
	"ISBN": "9786025170270",
	"Bahasa": "Indonesia",
	"Penerbit": "Narasi",
	"Berat": "0.135 kg",
	"Lebar": "13.0 cm",
	"Panjang": "19.0 cm"
},
{
	"page": 36,
	"kategori 1": "fiksi-sastra",
	"kategori 2": "fiksi-populer",
	"book_url": "https://www.gramedia.com/products/djoeroe-masak-2-kelab-makan-siang-rahasia",
	"title": "DJOEROE MASAK 2 : Kelab Makan Siang Rahasia",
	"author": "Dyah Prameswarie",
	"Jumlah Halaman": "166",
	"Tanggal Terbit": "26 Jul 2017",
	"ISBN": "9786029251364",
	"Penerbit": "Metamind",
	"Berat": "0.21 kg",
	"Lebar": "13.5 cm",
	"Panjang": "20 cm"
},
{
	"page": 36,
	"kategori 1": "fiksi-sastra",
	"kategori 2": "fiksi-populer",
	"book_url": "https://www.gramedia.com/products/my-stupid-boss-3",
	"title": "My Stupid Boss 3",
	"author": "Chaos@work",
	"Jumlah Halaman": "288",
	"Tanggal Terbit": "25 Jan 2011",
	"ISBN": "9786028260893",
	"Bahasa": "Indonesia",
	"Penerbit": "Gradien",
	"Berat": "0.250 kg",
	"Lebar": "13 cm",
	"Panjang": "19 cm"
},
{
	"page": 36,
	"kategori 1": "fiksi-sastra",
	"kategori 2": "fiksi-populer",
	"book_url": "https://www.gramedia.com/products/kisah-misteri-enola-holmes-kasus-menghilangnya-sang-marque",
	"title": "Kisah Misteri Enola Holmes : Kasus Menghilangnya Sang Marquess",
	"author": "NANCY SPRINGER",
	"Jumlah Halaman": "224.0",
	"Tanggal Terbit": "20 Mar 2020",
	"ISBN": "9786230300868",
	"Bahasa": "Indonesia",
	"Penerbit": "m&c!",
	"Berat": "0.18 kg",
	"Lebar": "13.0 cm",
	"Panjang": "19.0 cm"
},
{
	"page": 36,
	"kategori 1": "fiksi-sastra",
	"kategori 2": "fiksi-populer",
	"book_url": "https://www.gramedia.com/products/rindu-mantan",
	"title": "Rindu Mantan",
	"author": "Ariny Nh",
	"Jumlah Halaman": "176",
	"Tanggal Terbit": "30 Mei 2017",
	"ISBN": "9786026092373",
	"Bahasa": "Indonesia",
	"Penerbit": "Cahaya Fiksi",
	"Berat": "0.1360 kg",
	"Lebar": "13 cm"
},
{
	"page": 36,
	"kategori 1": "fiksi-sastra",
	"kategori 2": "fiksi-populer",
	"book_url": "https://www.gramedia.com/products/101-sketsa-wajah-hantu",
	"title": "101 Sketsa Wajah Hantu",
	"author": "Indiria Maharsi",
	"Jumlah Halaman": "368",
	"Tanggal Terbit": "28 Jun 2018",
	"ISBN": "9786025170225",
	"Bahasa": "Indonesia",
	"Penerbit": "Narasi",
	"Berat": "0.550 kg",
	"Lebar": "15 cm",
	"Panjang": "23 cm"
},
