{
	"page": 42,
	"kategori 1": "fiksi-sastra",
	"kategori 2": "fiksi-populer",
	"book_url": "https://www.gramedia.com/products/english-classics-the-invisible-man",
	"title": "English Classics: The Invisible Man",
	"author": "H.g. Wells",
	"Jumlah Halaman": "208.0",
	"Tanggal Terbit": "30 Sep 2019",
	"ISBN": "9786020632834",
	"Bahasa": "English",
	"Penerbit": "Gramedia Pustaka Utama",
	"Berat": "0.18 kg",
	"Lebar": "11.0 cm",
	"Panjang": "18.0 cm"
},
