{
	"page": 17,
	"kategori 1": "fiksi-sastra",
	"kategori 2": "fiksi-populer",
	"book_url": "https://www.gramedia.com/products/semua-untuk-hindia",
	"title": "Semua Untuk Hindia",
	"author": "Iksaka Banu",
	"Jumlah Halaman": "172.0",
	"Tanggal Terbit": "26 Mar 2018",
	"ISBN": "9786024248246",
	"Bahasa": "Indonesia",
	"Penerbit": "Kepustakaan Populer Gramedia",
	"Berat": "0.135 kg",
	"Lebar": "20.0 cm",
	"Panjang": "13.5 cm"
},
