{
	"page": 76,
	"kategori 1": "non-fiksi",
	"kategori 2": "gaya-hidup",
	"book_url": "https://www.gramedia.com/products/conf-five-in-one-the-series-of-pregnancy-seputar-kehamilan",
	"title": "Five in One: The Series of Pregnancy, Seputar Kehamilan",
	"author": "Nurul Chomaria, S. Psi",
	"Jumlah Halaman": "252",
	"Tanggal Terbit": "15 Apr 2014",
	"ISBN": "978602003557",
	"Penerbit": "Elex Media Komputindo",
	"Berat": "0.22 kg",
	"Lebar": "14.0 cm",
	"Panjang": "21.0 cm"
},
{
	"page": 76,
	"kategori 1": "non-fiksi",
	"kategori 2": "gaya-hidup",
	"book_url": "https://www.gramedia.com/products/conf-puasa-sambil-detoks",
	"title": "Puasa Sambil Detoks",
	"author": "Prof.dr.h. Hardinsyah, Ms",
	"Jumlah Halaman": "112",
	"Tanggal Terbit": "7 Nov 2016",
	"ISBN": "978979081576",
	"Penerbit": "Gramedia Widiasarana Indonesia",
	"Berat": "0.1 kg",
	"Lebar": "14.0 cm",
	"Panjang": "21.0 cm"
},
{
	"page": 76,
	"kategori 1": "non-fiksi",
	"kategori 2": "gaya-hidup",
	"book_url": "https://www.gramedia.com/products/yuk-membuat-lemari-mini-dan-wadah-pensil-sendiri",
	"title": "Yuk Membuat Lemari Mini dan Wadah Pensil Sendiri",
	"author": "Indira",
	"Jumlah Halaman": "104",
	"Tanggal Terbit": "14 Apr 2018",
	"ISBN": "9786020385433",
	"Bahasa": "Indonesia",
	"Penerbit": "Gramedia Pustaka Utama",
	"Berat": "0.3 kg",
	"Lebar": "15 cm",
	"Panjang": "23 cm"
},
{
	"page": 76,
	"kategori 1": "non-fiksi",
	"kategori 2": "gaya-hidup",
	"book_url": "https://www.gramedia.com/products/eksplorasi-kanzashi",
	"title": "Eksplorasi Kanzashi",
	"author": "Laksmiwati Etty",
	"Jumlah Halaman": "80",
	"Tanggal Terbit": "15 Sep 2015",
	"ISBN": "9786021656143",
	"Bahasa": "Indonesia",
	"Penerbit": "Tiara Aksa",
	"Berat": "0.15 kg",
	"Lebar": "17 cm",
	"Panjang": "21 cm"
},
{
	"page": 76,
	"kategori 1": "non-fiksi",
	"kategori 2": "gaya-hidup",
	"book_url": "https://www.gramedia.com/products/aneka-kreasi-pom-pom",
	"title": "Aneka Kreasi Pom - Pom",
	"author": "Indira",
	"Jumlah Halaman": "112",
	"Tanggal Terbit": "4 Jun 2018",
	"ISBN": "9786020386300",
	"Bahasa": "Indonesia",
	"Penerbit": "Gramedia Pustaka Utama",
	"Berat": "0.300 kg",
	"Lebar": "15 cm",
	"Panjang": "23 cm"
},
{
	"page": 76,
	"kategori 1": "non-fiksi",
	"kategori 2": "gaya-hidup",
	"book_url": "https://www.gramedia.com/products/hijab-for-teens-feminine-vs-masculine-vcd",
	"title": "Hijab For Teens - Feminine Vs Masculine + Vcd",
	"author": "Ade Aprilia",
	"Jumlah Halaman": "76",
	"Tanggal Terbit": "19 Des 2016",
	"ISBN": "9786020326047",
	"Bahasa": "Indonesia",
	"Penerbit": "Gramedia Pustaka Utama",
	"Berat": "0.3000 kg",
	"Lebar": "20 cm"
},
{
	"page": 76,
	"kategori 1": "non-fiksi",
	"kategori 2": "gaya-hidup",
	"book_url": "https://www.gramedia.com/products/35-kreasi-kreatif-kertas-koran-bekas",
	"title": "35 Kreasi Kreatif Kertas & Koran Bekas",
	"author": "Lynde Sitepu",
	"Jumlah Halaman": "82",
	"Tanggal Terbit": "2 Mei 2016",
	"ISBN": "9786020327860",
	"Bahasa": "Indonesia",
	"Penerbit": "Gramedia Pustaka Utama",
	"Berat": "0.3 kg",
	"Lebar": "15 cm",
	"Panjang": "23 cm"
},
{
	"page": 76,
	"kategori 1": "non-fiksi",
	"kategori 2": "gaya-hidup",
	"book_url": "https://www.gramedia.com/products/conf-susu-kesehatan-manusia-mitos-fakta",
	"title": "Susu & Kesehatan Manusia: Mitos & Fakta",
	"author": "F. G. Winarno",
	"Jumlah Halaman": "88",
	"Tanggal Terbit": "1 Des 2016",
	"ISBN": "9786020334004",
	"Bahasa": "Indonesia",
	"Penerbit": "Gramedia Pustaka Utama",
	"Berat": "0.2000 kg",
	"Lebar": "15 cm"
},
{
	"page": 76,
	"kategori 1": "non-fiksi",
	"kategori 2": "gaya-hidup",
	"book_url": "https://www.gramedia.com/products/conf-penanganan-segar-hortikultura",
	"title": "Penanganan Segar Hortikultura",
	"author": "Murdijati Garjito",
	"Jumlah Halaman": "508",
	"Tanggal Terbit": "9 Apr 2017",
	"ISBN": "9786021186909",
	"Bahasa": "Indonesia",
	"Penerbit": "Prenada Media",
	"Berat": "0.5200 kg",
	"Lebar": "15 cm"
},
{
	"page": 76,
	"kategori 1": "non-fiksi",
	"kategori 2": "gaya-hidup",
	"book_url": "https://www.gramedia.com/products/teknik-dasar-membuat-pola-memotong-bahan-menjahit",
	"title": "Teknik Dasar Membuat Pola,Memotong Bahan & Menjahit",
	"author": "Idayanti",
	"Jumlah Halaman": "100",
	"Tanggal Terbit": "22 Mei 2015",
	"ISBN": "9786023001378",
	"Bahasa": "Indonesia",
	"Penerbit": "Araska",
	"Berat": "0.2000 kg",
	"Lebar": "15 cm"
},
{
	"page": 76,
	"kategori 1": "non-fiksi",
	"kategori 2": "gaya-hidup",
	"book_url": "https://www.gramedia.com/products/conf-rahasia-tubuh-langsing-ideal",
	"title": "Rahasia Tubuh Langsing Ideal",
	"author": "Ayu Rini",
	"Jumlah Halaman": "172",
	"Tanggal Terbit": "12 Agt 2015",
	"ISBN": "9786020269054",
	"Bahasa": "Indonesia",
	"Penerbit": "Elex Media Komputindo",
	"Berat": "0.1920 kg",
	"Lebar": "14 cm"
},
{
	"page": 76,
	"kategori 1": "non-fiksi",
	"kategori 2": "gaya-hidup",
	"book_url": "https://www.gramedia.com/products/kreasi-keset-unik-dari-perca-kaos",
	"title": "Kreasi Keset Unik Dari Perca Kaos",
	"author": "Supardi & Wiwit Manfaati",
	"Jumlah Halaman": "64",
	"Tanggal Terbit": "8 Mar 2016",
	"ISBN": "9786021656525",
	"Bahasa": "Indonesia",
	"Penerbit": "Tiara Aksa",
	"Berat": "0.1300 kg",
	"Lebar": "17 cm"
},
{
	"page": 76,
	"kategori 1": "non-fiksi",
	"kategori 2": "gaya-hidup",
	"book_url": "https://www.gramedia.com/products/asyik-sudoku-21",
	"title": "Asyik Sudoku 21",
	"author": "Dinastindo",
	"Jumlah Halaman": "160",
	"Tanggal Terbit": "31 Des 2018",
	"ISBN": "9789799335616",
	"Bahasa": "Indonesia",
	"Penerbit": "Dinastindo",
	"Berat": "0.240 kg",
	"Lebar": "12 cm",
	"Panjang": "15 cm"
},
{
	"page": 76,
	"kategori 1": "non-fiksi",
	"kategori 2": "gaya-hidup",
	"book_url": "https://www.gramedia.com/products/yuk-membuat-hiasan-pintu-sendiri",
	"title": "Yuk Membuat Hiasan Pintu Sendiri",
	"author": "Ir. Margarita Elen Elen Hendrawan",
	"Jumlah Halaman": "70",
	"Tanggal Terbit": "13 Nov 2017",
	"ISBN": "9786020378503",
	"Penerbit": "Gramedia Pustaka Utama",
	"Berat": "0.28 kg",
	"Lebar": "15 cm",
	"Panjang": "23 cm"
},
{
	"page": 76,
	"kategori 1": "non-fiksi",
	"kategori 2": "gaya-hidup",
	"book_url": "https://www.gramedia.com/products/dos-donts-pasca-kanker",
	"title": "Dos & Donts Pasca Kanker",
	"author": "P Prom  Keshtan R.S Kanker Universitas Seoul",
	"Jumlah Halaman": "306",
	"Tanggal Terbit": "19 Okt 2016",
	"ISBN": "9786024020385",
	"Bahasa": "Indonesia",
	"Penerbit": "Mizan Publishing",
	"Berat": "0.153 kg",
	"Lebar": "17 cm",
	"Panjang": "19 cm"
},
{
	"page": 76,
	"kategori 1": "non-fiksi",
	"kategori 2": "gaya-hidup",
	"book_url": "https://www.gramedia.com/products/conf-obat-bisa-salah",
	"title": "Obat Bisa Salah",
	"author": "Dr Handarwan Nadesul",
	"Tanggal Terbit": "16 Feb 2016",
	"ISBN": "9789797098346",
	"Bahasa": "Indonesia",
	"Penerbit": "Kompas Penerbit Buku",
	"Berat": "0.3500 kg"
},
{
	"page": 76,
	"kategori 1": "non-fiksi",
	"kategori 2": "gaya-hidup",
	"book_url": "https://www.gramedia.com/products/seri-apotek-dapur-herbal-ajaib-terung-tumpas-penyakit-dari-jantung-liver-hingga-tumit-pecah-pecah",
	"title": "Seri Apotek Dapur: Herbal Ajaib Terung, Tumpas Penyakit Dari jantung Liver Hingga Tumit Pecah-pecah",
	"author": "Nugraheni",
	"Jumlah Halaman": "272",
	"Tanggal Terbit": "19 Des 2016",
	"ISBN": "9789792952391",
	"Bahasa": "Indonesia",
	"Penerbit": "Rapha Publishing",
	"Berat": "0.35 kg",
	"Lebar": "15 cm",
	"Panjang": "19 cm"
},
{
	"page": 76,
	"kategori 1": "non-fiksi",
	"kategori 2": "gaya-hidup",
	"book_url": "https://www.gramedia.com/products/lezat-sih-tapi-sehat-nggak-ya",
	"title": "Lezat Sih Tapi Sehat Nggak Ya?",
	"author": "Triana Helmawati",
	"Jumlah Halaman": "228",
	"Tanggal Terbit": "11 Agt 2015",
	"ISBN": "9786022882107",
	"Bahasa": "Indonesia",
	"Penerbit": "Suka Buku",
	"Berat": "0.3000 kg",
	"Lebar": "14 cm"
},
