{
	"page": 12,
	"kategori 1": "non-fiksi",
	"kategori 2": "gaya-hidup",
	"book_url": "https://www.gramedia.com/products/nasehat-buat-sehat",
	"title": "Nasehat Buat Sehat",
	"author": "Tan Shot Yen",
	"Jumlah Halaman": "204",
	"Tanggal Terbit": "12 Okt 2015",
	"ISBN": "9786020322087",
	"Bahasa": "Indonesia",
	"Penerbit": "Gramedia Pustaka Utama",
	"Berat": "0.3000 kg",
	"Lebar": "14 cm",
	"Panjang": "21 cm"
},
