{
	"page": 31,
	"kategori 1": "non-fiksi",
	"kategori 2": "gaya-hidup",
	"book_url": "https://www.gramedia.com/products/senam-kecantikan",
	"title": "Senam Kecantikan",
	"author": "Linda Ratna Dewi",
	"Jumlah Halaman": "176",
	"Tanggal Terbit": "13 Mei 2015",
	"ISBN": "9786022961055",
	"Bahasa": "Indonesia",
	"Penerbit": "Flashbooks",
	"Berat": "0.3000 kg",
	"Lebar": "14 cm"
},
