{
	"page": 28,
	"kategori 1": "non-fiksi",
	"kategori 2": "gaya-hidup",
	"book_url": "https://www.gramedia.com/products/menuju-kemuliaan-diri-kumpulan-cerpen-ttg-wanita",
	"title": "Menuju Kemuliaan Diri :Kumpulan Cerpen Ttg Wanita..",
	"author": "Anisa Mirza,ryt",
	"Jumlah Halaman": "82",
	"Tanggal Terbit": "26 Sep 2016",
	"ISBN": "9789794566381",
	"Bahasa": "Indonesia",
	"Penerbit": "Penerbit Ui ( Ui Press )",
	"Berat": "0.3000 kg",
	"Lebar": "18 cm"
},
