{
	"page": 96,
	"kategori 1": "non-fiksi",
	"kategori 2": "gaya-hidup",
	"book_url": "https://www.gramedia.com/products/conf-melahirkan-itu-seru-22-pengalaman-melahirkan",
	"title": "Melahirkan itu Seru! 22 Pengalaman Melahirkan",
	"author": "Komunitas Ibu-ibu Seru!",
	"Jumlah Halaman": "118",
	"Tanggal Terbit": "15 Mar 2016",
	"ISBN": "9786020326054",
	"Bahasa": "Indonesia",
	"Penerbit": "Gramedia Pustaka Utama",
	"Berat": "0.3000 kg",
	"Lebar": "15 cm"
},
{
	"page": 96,
	"kategori 1": "non-fiksi",
	"kategori 2": "gaya-hidup",
	"book_url": "https://www.gramedia.com/products/felt-20-creative-projects",
	"title": "Felt 20+ Creative Projects",
	"author": "Yeni Diana",
	"Jumlah Halaman": "96",
	"Tanggal Terbit": "13 Nov 2017",
	"ISBN": "9789797576523",
	"Bahasa": "Indonesia",
	"Penerbit": "Kawan Pustaka",
	"Berat": "0.2 kg",
	"Lebar": "15.5 cm",
	"Panjang": "24 cm"
},
{
	"page": 96,
	"kategori 1": "non-fiksi",
	"kategori 2": "gaya-hidup",
	"book_url": "https://www.gramedia.com/products/dietclopedia-110-rahasia-diet-sehat",
	"title": "Dietclopedia: 110 Rahasia Diet Sehat",
	"author": "Go Dok",
	"Jumlah Halaman": "336",
	"Tanggal Terbit": "25 Mar 2019",
	"ISBN": "9786020516837",
	"Bahasa": "Indonesia",
	"Penerbit": "Gramedia Widiasarana Indonesia",
	"Berat": "0.220 kg",
	"Lebar": "13.5 cm",
	"Panjang": "20 cm"
},
{
	"page": 96,
	"kategori 1": "non-fiksi",
	"kategori 2": "gaya-hidup",
	"book_url": "https://www.gramedia.com/products/selfhealing-at-the-office",
	"title": "Selfhealing At The Office",
	"author": "Yoo Hajin",
	"Jumlah Halaman": "272",
	"Tanggal Terbit": "31 Mar 2017",
	"ISBN": "9786024020583",
	"Bahasa": "Indonesia",
	"Penerbit": "Mizan Publishing",
	"Berat": "0.32 kg",
	"Lebar": "14 cm",
	"Panjang": "21 cm"
},
{
	"page": 96,
	"kategori 1": "non-fiksi",
	"kategori 2": "gaya-hidup",
	"book_url": "https://www.gramedia.com/products/diet-minimalis",
	"title": "Diet Minimalis",
	"author": "DR. Yoshinori Nagumo",
	"Jumlah Halaman": "0",
	"Tanggal Terbit": "15 Mei 2019",
	"ISBN": "9786024021399",
	"Bahasa": "Indonesia",
	"Penerbit": "Mizan Media Utama",
	"Berat": "0.18 kg",
	"Lebar": "0.0 cm",
	"Panjang": "0.0 cm"
},
{
	"page": 96,
	"kategori 1": "non-fiksi",
	"kategori 2": "gaya-hidup",
	"book_url": "https://www.gramedia.com/products/teknik-cepat-membuat-busana-aneka-celana",
	"title": "Teknik Cepat Membuat Busana: Aneka Celana",
	"author": "Siti Sabariah Lubis",
	"Jumlah Halaman": "68.0",
	"Tanggal Terbit": "9 Des 2019",
	"ISBN": "9786020636900",
	"Bahasa": "Indonesia",
	"Penerbit": "Gramedia Pustaka Utama",
	"Berat": "0.15 kg",
	"Lebar": "18.0 cm",
	"Panjang": "24.0 cm"
},
{
	"page": 96,
	"kategori 1": "non-fiksi",
	"kategori 2": "gaya-hidup",
	"book_url": "https://www.gramedia.com/products/kreasi-perca-u-bayi-anak",
	"title": "Kreasi Perca U/ Bayi&Anak",
	"author": "Retno A",
	"Tanggal Terbit": "15 Apr 2013",
	"ISBN": "9786029173246",
	"Penerbit": "Kanaya Press",
	"Berat": "0.1500 kg",
	"Lebar": "23 cm",
	"Panjang": "0 cm"
},
{
	"page": 96,
	"kategori 1": "non-fiksi",
	"kategori 2": "gaya-hidup",
	"book_url": "https://www.gramedia.com/products/bioteknologi-penuaan-peran-pangan-dalam-peremajaan-kulit",
	"title": "Bioteknologi Penuaan, Peran Pangan dalam Peremajaan Kulit",
	"author": "F.g Winarno",
	"Jumlah Halaman": "184",
	"Tanggal Terbit": "22 Okt 2018",
	"ISBN": "9786020614120",
	"Bahasa": "Indonesia",
	"Penerbit": "Gramedia Pustaka Utama",
	"Berat": "0.15 kg",
	"Lebar": "13.5 cm",
	"Panjang": "20 cm"
},
{
	"page": 96,
	"kategori 1": "non-fiksi",
	"kategori 2": "gaya-hidup",
	"book_url": "https://www.gramedia.com/products/jaminan-kesehatan-nasional-edisi-kedua",
	"title": "Jaminan Kesehatan Nasional Edisi Kedua",
	"author": "Hasbullah Thabrany",
	"Jumlah Halaman": "380",
	"Tanggal Terbit": "9 Jul 2015",
	"ISBN": "9789797698485",
	"Bahasa": "Indonesia",
	"Penerbit": "Rajawali Pres",
	"Berat": "0.4000 kg",
	"Lebar": "16 cm"
},
{
	"page": 96,
	"kategori 1": "non-fiksi",
	"kategori 2": "gaya-hidup",
	"book_url": "https://www.gramedia.com/products/tts-888-kontes-teka-teki-silang",
	"title": "Tts 888 : Kontes Teka Teki Silang",
	"author": "Studio Rito",
	"Jumlah Halaman": "124",
	"Tanggal Terbit": "25 Agt 2017",
	"ISBN": "9789799335517",
	"Bahasa": "Indonesia",
	"Penerbit": "Studio Rito",
	"Berat": "0.214 kg",
	"Lebar": "15.5 cm",
	"Panjang": "25 cm"
},
{
	"page": 96,
	"kategori 1": "non-fiksi",
	"kategori 2": "gaya-hidup",
	"book_url": "https://www.gramedia.com/products/mencocokan-angka",
	"title": "Mencocokan Angka",
	"author": "-",
	"Produsen": "MAINANKAYU.COM",
	"Berat": "0.400 kg",
	"Lebar": "30 cm",
	"Tinggi": "8 cm"
},
