{
	"page": 97,
	"kategori 1": "non-fiksi",
	"kategori 2": "gaya-hidup",
	"book_url": "https://www.gramedia.com/products/rajutan-cantik-untuk-pemula",
	"title": "Rajutan Cantik Untuk Pemula",
	"author": "Thata Pang",
	"Jumlah Halaman": "90",
	"Tanggal Terbit": "9 Feb 2016",
	"ISBN": "9789791478663",
	"Bahasa": "Indonesia",
	"Penerbit": "Kata Media",
	"Berat": "0.2000 kg",
	"Lebar": "19 cm",
	"Panjang": "21 cm"
},
{
	"page": 97,
	"kategori 1": "non-fiksi",
	"kategori 2": "gaya-hidup",
	"book_url": "https://www.gramedia.com/products/food-combining-kombinasi-makanan-sehat-untuk-langsing-dan-sehat-cover-baru-isbn-lama",
	"title": "Food Combining: Kombinasi Makanan Sehat Untuk Langsing Dan Sehat (Cover Baru Isbn Lama)",
	"author": "Andang W. Gunawan",
	"Jumlah Halaman": "256.0",
	"Tanggal Terbit": "17 Feb 2020",
	"ISBN": "9789792246989",
	"Bahasa": "Indonesia",
	"Penerbit": "Gramedia Pustaka Utama",
	"Berat": "0.4 kg",
	"Lebar": "18.0 cm",
	"Panjang": "23.5 cm"
},
{
	"page": 97,
	"kategori 1": "non-fiksi",
	"kategori 2": "gaya-hidup",
	"book_url": "https://www.gramedia.com/products/pop-up-coloring-bersama-gob-and-friends-3",
	"title": "Pop-Up Coloring Bersama Gob And Friends 3",
	"author": "Hompimpa Animation",
	"Jumlah Halaman": "8",
	"Tanggal Terbit": "26 Mar 2018",
	"ISBN": "9786020456393",
	"Bahasa": "Indonesia",
	"Penerbit": "Elex Media Komputindo",
	"Berat": "0.100 kg",
	"Lebar": "19 cm",
	"Panjang": "27 cm"
},
{
	"page": 97,
	"kategori 1": "non-fiksi",
	"kategori 2": "gaya-hidup",
	"book_url": "https://www.gramedia.com/products/detoksifikasi-membuang-tumpukan-racun-tubuh-secara-holistik",
	"title": "Detoksifikasi: Membuang Tumpukan Racun Tubuh Secara Holistik",
	"author": "Erikar Lebang",
	"Jumlah Halaman": "129",
	"Tanggal Terbit": "27 Mei 2015",
	"ISBN": "9786021637715",
	"Bahasa": "Indonesia",
	"Penerbit": "Mizan Publishing",
	"Berat": "0.17 kg",
	"Lebar": "18 cm",
	"Panjang": "21 cm"
},
{
	"page": 97,
	"kategori 1": "non-fiksi",
	"kategori 2": "gaya-hidup",
	"book_url": "https://www.gramedia.com/products/sehat-itu-sederhana-panduan-mudah-u-ssl-sehat-bahagia",
	"title": "Sehat Itu Sederhana : Panduan Mudah U/Ssl Sehat&Bahagia",
	"author": "Christopher Emille",
	"Jumlah Halaman": "122",
	"Tanggal Terbit": "7 Okt 2016",
	"ISBN": "9786027465145",
	"Bahasa": "Indonesia",
	"Penerbit": "Fmedia",
	"Berat": "0.2000 kg",
	"Lebar": "15 cm"
},
{
	"page": 97,
	"kategori 1": "non-fiksi",
	"kategori 2": "gaya-hidup",
	"book_url": "https://www.gramedia.com/products/stop-jangan-marah",
	"title": "Stop! Jangan Marah!",
	"author": "A Yusrianto Elga",
	"Jumlah Halaman": "152",
	"Tanggal Terbit": "10 Mei 2017",
	"ISBN": "9786024071448",
	"Bahasa": "Indonesia",
	"Penerbit": "Laksana",
	"Berat": "0.16 kg",
	"Lebar": "14 cm",
	"Panjang": "20 cm"
},
{
	"page": 97,
	"kategori 1": "non-fiksi",
	"kategori 2": "gaya-hidup",
	"book_url": "https://www.gramedia.com/products/mukjizat-suhu-tubuh-sc-cover-baru-isbn-lama",
	"title": "Mukjizat Suhu Tubuh Sc (Cover Baru Isbn Lama)",
	"author": "Masashi Saito",
	"Jumlah Halaman": "172.0",
	"Tanggal Terbit": "13 Jan 2020",
	"ISBN": "9789792292244",
	"Bahasa": "Indonesia",
	"Penerbit": "Gramedia Pustaka Utama",
	"Berat": "0.28 kg",
	"Lebar": "15.0 cm",
	"Panjang": "21.0 cm"
},
{
	"page": 97,
	"kategori 1": "non-fiksi",
	"kategori 2": "gaya-hidup",
	"book_url": "https://www.gramedia.com/products/seri-apotek-dapur-sehat-tanpa-obat-dengan-alpukat",
	"title": "Seri Apotek Dapur: Sehat Tanpa Obat Dengan Alpukat",
	"author": "Ketty Husnia Wardany",
	"Jumlah Halaman": "147",
	"Tanggal Terbit": "21 Okt 2016",
	"ISBN": "9789792958584",
	"Bahasa": "Indonesia",
	"Penerbit": "Rapha Publishing",
	"Berat": "0.20 kg",
	"Lebar": "15 cm",
	"Panjang": "19 cm"
},
{
	"page": 97,
	"kategori 1": "non-fiksi",
	"kategori 2": "gaya-hidup",
	"book_url": "https://www.gramedia.com/products/aneka-kreasi-cantik-flanel-sulam-utk-pemula",
	"title": "Aneka Kreasi Cantik Flanel Sulam Utk Pemula",
	"author": "Reikza Intania",
	"Jumlah Halaman": "0",
	"Tanggal Terbit": "11 Jun 2015",
	"ISBN": "9786023001446",
	"Bahasa": "Indonesia",
	"Penerbit": "Solusi",
	"Berat": "0.2500 kg",
	"Lebar": "0 cm"
},
{
	"page": 97,
	"kategori 1": "non-fiksi",
	"kategori 2": "gaya-hidup",
	"book_url": "https://www.gramedia.com/products/funny-coloring",
	"title": "Funny Coloring",
	"author": "Kak Thifa",
	"Jumlah Halaman": "84",
	"Tanggal Terbit": "14 Nov 2017",
	"ISBN": "9786024072407",
	"Bahasa": "Indonesia",
	"Penerbit": "Laksana",
	"Berat": "0.19 kg",
	"Lebar": "19 cm",
	"Panjang": "24 cm"
},
