{
	"page": 90,
	"kategori 1": "non-fiksi",
	"kategori 2": "gaya-hidup",
	"book_url": "https://www.gramedia.com/products/101-beauty-secret-acne-free",
	"title": "101++ Beauty Secret: Acne Free!",
	"author": "Kara Kim",
	"Jumlah Halaman": "112",
	"Tanggal Terbit": "1 Agt 2016",
	"ISBN": "9786023753239",
	"Bahasa": "Indonesia",
	"Penerbit": "Gramedia Widiasarana Indonesia",
	"Berat": "0.300 kg",
	"Lebar": "15 cm",
	"Panjang": "23 cm"
},
{
	"page": 90,
	"kategori 1": "non-fiksi",
	"kategori 2": "gaya-hidup",
	"book_url": "https://www.gramedia.com/products/806007-lyra-modelling-clay-500gr-yellow-1",
	"title": "Lyra Modelling Clay 500Gr",
	"author": "-",
	"Produsen": "Bino Mitra Sejati Pt / Dh Perma Plasindo Pt",
	"Berat": "0.5 kg",
	"Lebar": "13 cm",
	"Tinggi": "6 cm"
},
{
	"page": 90,
	"kategori 1": "non-fiksi",
	"kategori 2": "gaya-hidup",
	"book_url": "https://www.gramedia.com/products/khasiat-minyak-zaitun-satu-minyak-banyak-manfaatnya",
	"title": "Khasiat Minyak Zaitun - Satu Minyak, Banyak Manfaatnya",
	"author": "Made Astawan, Tutik Wresdiyati, Nurayla Arnas Nasution",
	"Tanggal Terbit": "11 Des 2014",
	"ISBN": "9789797098889",
	"Penerbit": "Penerbit Buku Kompas",
	"Berat": "0.3000 kg",
	"Lebar": "0 cm",
	"Panjang": "0 cm"
},
{
	"page": 90,
	"kategori 1": "non-fiksi",
	"kategori 2": "gaya-hidup",
	"book_url": "https://www.gramedia.com/products/teen-s-hijab-guide-bright-amp-beautiful",
	"title": "Teen`s Hijab Guide : Bright & Beautifull",
	"author": "Debbie S. Suryawan & Nana Lystiani",
	"Jumlah Halaman": "68",
	"Tanggal Terbit": "24 Okt 2014",
	"ISBN": "9786020310091",
	"Bahasa": "Indonesia",
	"Penerbit": "Gramedia Pustaka Utama",
	"Berat": "0.2 kg",
	"Lebar": "18 cm",
	"Panjang": "24 cm"
},
