{
	"page": 88,
	"kategori 1": "non-fiksi",
	"kategori 2": "kamus",
	"book_url": "https://www.gramedia.com/products/ensiklopedia-geografi-kehidupan-di-bumi",
	"title": "Ensiklopedia Geografi: Kehidupan Di Bumi",
	"author": "Retno Hastuti",
	"Jumlah Halaman": "84",
	"Tanggal Terbit": "4 Jun 2015",
	"ISBN": "9789796626007",
	"Bahasa": "Indonesia",
	"Penerbit": "Cempaka Putih",
	"Berat": "0.5000 kg",
	"Lebar": "22 cm"
},
{
	"page": 88,
	"kategori 1": "non-fiksi",
	"kategori 2": "kamus",
	"book_url": "https://www.gramedia.com/products/kamus-idiom-bahasa-inggris-lengkap-jelas-mudah",
	"title": "Kamus Idiom Bahasa Inggris Lengkap Jelas Mudah",
	"author": "Slamet Riyanto",
	"Jumlah Halaman": "406",
	"Tanggal Terbit": "9 Jun 2015",
	"ISBN": "9786022294795",
	"Bahasa": "Indonesia",
	"Penerbit": "Pustaka Pelajar",
	"Berat": "0.5500 kg",
	"Lebar": "16 cm"
},
{
	"page": 88,
	"kategori 1": "non-fiksi",
	"kategori 2": "kamus",
	"book_url": "https://www.gramedia.com/products/end-of-me-the-akhir-dari-ke-aku-an",
	"title": "End Of Me,The : Akhir Dari Ke Aku An",
	"author": "Kyle Idleman",
	"Jumlah Halaman": "212",
	"Tanggal Terbit": "5 Apr 2016",
	"ISBN": "9786021302248",
	"Bahasa": "Indonesia",
	"Penerbit": "Gloria Usaha",
	"Berat": "0.1800 kg",
	"Lebar": "14 cm"
},
{
	"page": 88,
	"kategori 1": "non-fiksi",
	"kategori 2": "kamus",
	"book_url": "https://www.gramedia.com/products/ensiklopedia-kimia-volume-4-dunia-sekitar-kita-kimia-ramah-lingkungan",
	"title": "Ensiklopedia Kimia Volume 4: Dunia Sekitar Kita, Kimia Ramah Lingkungan",
	"author": "Ian C Stewart & Justin P Lomont",
	"Jumlah Halaman": "88",
	"Tanggal Terbit": "4 Jun 2015",
	"ISBN": "9789795348559",
	"Bahasa": "Indonesia",
	"Penerbit": "Pakar Raya",
	"Berat": "0.3500 kg",
	"Lebar": "18 cm"
},
{
	"page": 88,
	"kategori 1": "non-fiksi",
	"kategori 2": "kamus",
	"book_url": "https://www.gramedia.com/products/kiat-menggapai-kesuksesan",
	"title": "Kiat Menggapai Kesuksesan",
	"author": "Abu Umar Basyer",
	"Jumlah Halaman": "381",
	"Tanggal Terbit": "26 Jan 2016",
	"ISBN": "9786029330137",
	"Bahasa": "Indonesia",
	"Penerbit": "Shafa",
	"Berat": "0.5000 kg",
	"Lebar": "15 cm"
},
{
	"page": 88,
	"kategori 1": "non-fiksi",
	"kategori 2": "kamus",
	"book_url": "https://www.gramedia.com/products/maksiat-dalam-taubat",
	"title": "Maksiat Dalam Taubat",
	"author": "Brilly El-rasheed",
	"Jumlah Halaman": "216",
	"Tanggal Terbit": "26 Jan 2016",
	"ISBN": "9786029330120",
	"Bahasa": "Indonesia",
	"Penerbit": "Shafa Publika",
	"Berat": "0.3000 kg",
	"Lebar": "15 cm"
},
{
	"page": 88,
	"kategori 1": "non-fiksi",
	"kategori 2": "kamus",
	"book_url": "https://www.gramedia.com/products/1-jam-pasti-langsung-jago-mahir-16-tenses-inggris",
	"title": "1 Jam Pasti Langsung Jago&Mahir 16 Tenses Inggris",
	"author": "Alwia Nur Aulia",
	"Jumlah Halaman": "128",
	"Tanggal Terbit": "13 Agt 2015",
	"ISBN": "9786020969695",
	"Bahasa": "Indonesia",
	"Penerbit": "Sealova Media",
	"Berat": "0.1700 kg",
	"Lebar": "27 cm"
},
{
	"page": 88,
	"kategori 1": "non-fiksi",
	"kategori 2": "kamus",
	"book_url": "https://www.gramedia.com/products/conf-the-big-pang-theory-talking-mad-about-football",
	"title": "The Big Pang Theory: Talking Mad About Football",
	"author": "Pangeran Siahaan",
	"Jumlah Halaman": "352",
	"Tanggal Terbit": "29 Apr 2014",
	"ISBN": "978602023953",
	"Penerbit": "Elex Media Komputindo",
	"Berat": "0.3 kg",
	"Lebar": "14.0 cm",
	"Panjang": "21.0 cm"
},
{
	"page": 88,
	"kategori 1": "non-fiksi",
	"kategori 2": "kamus",
	"book_url": "https://www.gramedia.com/products/genggam-mimpimu-semesta-pasti-mendukungmu",
	"title": "Genggam Mimpimu, Semesta Pasti Mendukungmu!",
	"author": "Zamzami Elriza Dkk",
	"Jumlah Halaman": "256",
	"Tanggal Terbit": "24 Agt 2015",
	"ISBN": "9786022559481",
	"Bahasa": "Indonesia",
	"Penerbit": "Diva Press",
	"Berat": "0.3000 kg",
	"Lebar": "14 cm"
},
{
	"page": 88,
	"kategori 1": "non-fiksi",
	"kategori 2": "kamus",
	"book_url": "https://www.gramedia.com/products/warisan-agung-tasawuf-mengenal-karya-besar-para-sufi",
	"title": "Warisan Agung Tasawuf : Mengenal Karya Besar Para Sufi",
	"author": "Kautsar Azhari Noer",
	"Jumlah Halaman": "434",
	"Tanggal Terbit": "26 Nov 2015",
	"ISBN": "9786029261578",
	"Bahasa": "Indonesia",
	"Penerbit": "Suka Buku",
	"Berat": "0.4500 kg",
	"Lebar": "15 cm"
},
{
	"page": 88,
	"kategori 1": "non-fiksi",
	"kategori 2": "kamus",
	"book_url": "https://www.gramedia.com/products/pelajaran-dari-alam-kubur-mengais-hikmah-dari-kisah-orang-orang-mati-yang-hidup-lagi",
	"title": "Pelajaran Dari Alam Kubur; Mengais Hikmah Dari Kisah Orang-Orang Mati Yang Hidup Lagi",
	"author": "Syamsuddin Bin Salim Al-qalyubi",
	"Jumlah Halaman": "188",
	"Tanggal Terbit": "5 Okt 2015",
	"ISBN": "9786020806334",
	"Bahasa": "Indonesia",
	"Penerbit": "Diva Press",
	"Berat": "0.2000 kg",
	"Lebar": "14 cm"
},
{
	"page": 88,
	"kategori 1": "non-fiksi",
	"kategori 2": "kamus",
	"book_url": "https://www.gramedia.com/products/hadis-qudsi-pilihan-panduan-untuk-memahami",
	"title": "Hadis Qudsi Pilihan : Panduan Untuk Memahami",
	"author": "Syaikh Muhammad Mutawalli Asy-sya Rawi",
	"Jumlah Halaman": "212",
	"Tanggal Terbit": "23 Sep 2015",
	"ISBN": "9786023720361",
	"Bahasa": "Indonesia",
	"Penerbit": "Prima Ufuk Semesta",
	"Berat": "0.9119 kg",
	"Lebar": "27 cm"
},
{
	"page": 88,
	"kategori 1": "non-fiksi",
	"kategori 2": "kamus",
	"book_url": "https://www.gramedia.com/products/manisnya-duka",
	"title": "Manisnya Duka",
	"author": "Ahmad Al-utsman",
	"Jumlah Halaman": "188",
	"Tanggal Terbit": "24 Agt 2015",
	"ISBN": "9786029396164",
	"Bahasa": "Indonesia",
	"Penerbit": "Elba",
	"Berat": "0.2500 kg",
	"Lebar": "15 cm"
},
{
	"page": 88,
	"kategori 1": "non-fiksi",
	"kategori 2": "kamus",
	"book_url": "https://www.gramedia.com/products/modis-tapi-ahlul-jannah",
	"title": "Modis, Tapi Ahlul Jannah!",
	"author": "Izzah Qanita Nailiya",
	"Jumlah Halaman": "200",
	"Tanggal Terbit": "17 Sep 2015",
	"ISBN": "9786022559597",
	"Bahasa": "Indonesia",
	"Penerbit": "Saufa",
	"Berat": "0.2600 kg",
	"Lebar": "24 cm"
},
{
	"page": 88,
	"kategori 1": "non-fiksi",
	"kategori 2": "kamus",
	"book_url": "https://www.gramedia.com/products/20-hari-hafal-1-juz",
	"title": "20 Hari Hafal 1 Juz",
	"author": "Ummu Habibah",
	"Jumlah Halaman": "184",
	"Tanggal Terbit": "24 Agt 2015",
	"ISBN": "9786022559450",
	"Bahasa": "Indonesia",
	"Penerbit": "Diva Press",
	"Berat": "0.4000 kg",
	"Lebar": "24 cm"
},
{
	"page": 88,
	"kategori 1": "non-fiksi",
	"kategori 2": "kamus",
	"book_url": "https://www.gramedia.com/products/conf-exo-domba-jumbo",
	"title": "Domba Jumbo: Usaha Pembibitan & Pembesaran",
	"author": "Redaksi Trubus",
	"Tanggal Terbit": "13 Jan 2016",
	"ISBN": "9786029407167",
	"Penerbit": "Trubus",
	"Berat": "0.3000 kg",
	"Lebar": "0 cm"
},
{
	"page": 88,
	"kategori 1": "non-fiksi",
	"kategori 2": "kamus",
	"book_url": "https://www.gramedia.com/products/disayang-suami-hingga-di-surga",
	"title": "Disayang Suami Hingga Di Surga",
	"author": "Umi Hasunah Ar Razi",
	"Jumlah Halaman": "216",
	"Tanggal Terbit": "1 Okt 2015",
	"ISBN": "9786020806327",
	"Bahasa": "Indonesia",
	"Penerbit": "Diva Press",
	"Berat": "0.2700 kg",
	"Lebar": "24 cm"
},
{
	"page": 88,
	"kategori 1": "non-fiksi",
	"kategori 2": "kamus",
	"book_url": "https://www.gramedia.com/products/conf-siap-lulus-us-sdmi-2015",
	"title": "Siap Lulus US SD/MI 2015",
	"author": "Tim Sigma",
	"Jumlah Halaman": "124",
	"Tanggal Terbit": "16 Des 2014",
	"ISBN": "9786022518044",
	"Penerbit": "Gramedia Widiasarana Indonesia",
	"Berat": "0.3000 kg",
	"Lebar": "21 cm"
},
{
	"page": 88,
	"kategori 1": "non-fiksi",
	"kategori 2": "kamus",
	"book_url": "https://www.gramedia.com/products/english-for-medical-centres",
	"title": "English For Medical Centres",
	"author": "Ahmad Sunandar",
	"Jumlah Halaman": "134",
	"Tanggal Terbit": "26 Jun 2015",
	"ISBN": "9786022624417",
	"Bahasa": "Indonesia",
	"Penerbit": "Graha Ilmu",
	"Berat": "0.2000 kg",
	"Lebar": "16 cm"
},
{
	"page": 88,
	"kategori 1": "non-fiksi",
	"kategori 2": "kamus",
	"book_url": "https://www.gramedia.com/products/conf-kawin-beda-agama-di-indonesia",
	"title": "Kawin Beda Agama Di Indonesia",
	"author": "H. Muhammad Amin Suma",
	"Jumlah Halaman": "280",
	"Tanggal Terbit": "9 Sep 2016",
	"ISBN": "9786027720343",
	"Bahasa": "Indonesia",
	"Penerbit": "Lentera Hati",
	"Berat": "0.3000 kg",
	"Lebar": "14 cm"
},
{
	"page": 88,
	"kategori 1": "non-fiksi",
	"kategori 2": "kamus",
	"book_url": "https://www.gramedia.com/products/conf-sosiologi-peradilan-pidana",
	"title": "Sosiologi Peradilan Pidana",
	"author": "Mohammad Kemal Dernawan",
	"Jumlah Halaman": "280",
	"Tanggal Terbit": "14 Jun 2016",
	"ISBN": "9789794619193",
	"Bahasa": "Indonesia",
	"Penerbit": "Yayasan Pustaka Obor Indonesia",
	"Berat": "0.2500 kg",
	"Lebar": "15 cm"
},
{
	"page": 88,
	"kategori 1": "non-fiksi",
	"kategori 2": "kamus",
	"book_url": "https://www.gramedia.com/products/melawan-stres-depresi",
	"title": "Melawan Stres & Depresi",
	"author": "Rizem Aizid",
	"Jumlah Halaman": "188",
	"Tanggal Terbit": "17 Nov 2015",
	"ISBN": "9786022559023",
	"Bahasa": "Indonesia",
	"Penerbit": "Saufa",
	"Berat": "0.2000 kg",
	"Lebar": "14 cm"
},
{
	"page": 88,
	"kategori 1": "non-fiksi",
	"kategori 2": "kamus",
	"book_url": "https://www.gramedia.com/products/allah-itu-narsis",
	"title": "Allah Itu Narsis?",
	"author": "Hans Abdiel Harmakaputra",
	"Jumlah Halaman": "108",
	"Tanggal Terbit": "4 Sep 2015",
	"ISBN": "9786020890012",
	"Bahasa": "Indonesia",
	"Penerbit": "Gloria Usaha Mulia",
	"Berat": "0.2000 kg",
	"Lebar": "23 cm"
},
{
	"page": 88,
	"kategori 1": "non-fiksi",
	"kategori 2": "kamus",
	"book_url": "https://www.gramedia.com/products/mengatasi-hati-di-lorong-kehidupan",
	"title": "Mengatasi Hati Di Lorong Kehidupan",
	"author": "Ibnu Basyar",
	"Jumlah Halaman": "198",
	"Tanggal Terbit": "31 Agt 2015",
	"ISBN": "9786022502708",
	"Bahasa": "Indonesia",
	"Penerbit": "Gema Insani",
	"Berat": "0.2000 kg",
	"Lebar": "12 cm"
},
{
	"page": 88,
	"kategori 1": "non-fiksi",
	"kategori 2": "kamus",
	"book_url": "https://www.gramedia.com/products/have-fun-with-english-puzzles-book-3-cover-baru",
	"title": "Have Fun With English Puzzles Book 3 (Cover Baru)",
	"author": "Makmun Fauzi",
	"Jumlah Halaman": "80",
	"Tanggal Terbit": "7 Des 2015",
	"ISBN": "9786023940547",
	"Bahasa": "Indonesia",
	"Penerbit": "Bhuana Ilmu Populer",
	"Berat": "0.3000 kg",
	"Lebar": "15 cm"
},
{
	"page": 88,
	"kategori 1": "non-fiksi",
	"kategori 2": "kamus",
	"book_url": "https://www.gramedia.com/products/teori-hadis-sebuah-pergeseran-pemikiran",
	"title": "Teori Hadis : Sebuah Pergeseran Pemikiran",
	"author": "Maman Abdurrahman",
	"Jumlah Halaman": "182",
	"Tanggal Terbit": "28 Agt 2015",
	"ISBN": "9789796926350",
	"Bahasa": "Indonesia",
	"Penerbit": "Remaja Rosdakarya",
	"Berat": "0.3000 kg",
	"Lebar": "16 cm"
},
{
	"page": 88,
	"kategori 1": "non-fiksi",
	"kategori 2": "kamus",
	"book_url": "https://www.gramedia.com/products/conf-stop-mengeluh-siap-kerja-kerja-dan-kerja",
	"title": "Stop Mengeluh: Siap Kerja, Kerja dan Kerja",
	"author": "Jubilee Enterprise",
	"Jumlah Halaman": "296",
	"Tanggal Terbit": "12 Mar 2017",
	"ISBN": "9786020400396",
	"Bahasa": "Indonesia",
	"Penerbit": "Elex Media Komputindo",
	"Berat": "0.4000 kg",
	"Lebar": "14 cm"
},
{
	"page": 88,
	"kategori 1": "non-fiksi",
	"kategori 2": "kamus",
	"book_url": "https://www.gramedia.com/products/ensiklopedi-pintar-sinonim-antonim",
	"title": "Ensiklopedi Pintar Sinonim Antonim",
	"author": "Intania Putri",
	"Jumlah Halaman": "190",
	"Tanggal Terbit": "1 Jul 2015",
	"ISBN": "9786021005293",
	"Bahasa": "Indonesia",
	"Penerbit": "Pustaka Ilmu Semesta",
	"Berat": "0.2000 kg",
	"Lebar": "13 cm"
},
{
	"page": 88,
	"kategori 1": "non-fiksi",
	"kategori 2": "kamus",
	"book_url": "https://www.gramedia.com/products/99-permainan-dalam-pembelajaran-bahasa-arab",
	"title": "99 Permainan Dalam Pembelajaran Bahasa Arab",
	"author": "Faisol",
	"Jumlah Halaman": "204",
	"Tanggal Terbit": "13 Mei 2016",
	"ISBN": "9786021090916",
	"Bahasa": "Indonesia",
	"Penerbit": "Lentera Kreasindo",
	"Berat": "0.1900 kg",
	"Lebar": "14 cm"
},
{
	"page": 88,
	"kategori 1": "non-fiksi",
	"kategori 2": "kamus",
	"book_url": "https://www.gramedia.com/products/merancang-masa-depan-bersama-allah",
	"title": "Merancang Masa Depan Bersama Allah",
	"author": "Inspirasi Islam",
	"Jumlah Halaman": "",
	"Tanggal Terbit": "5 Des 2016",
	"ISBN": "9786020296944",
	"Bahasa": "Indonesia",
	"Penerbit": "Elex Media Komputindo",
	"Berat": "0.2000 kg",
	"Lebar": "14 cm"
},
{
	"page": 88,
	"kategori 1": "non-fiksi",
	"kategori 2": "kamus",
	"book_url": "https://www.gramedia.com/products/born-to-travel-petualangan-menjelajah-lima-benua-di-dunia",
	"title": "Born to Travel: Petualangan Menjelajah Lima Benua di Dunia",
	"author": "Hendra Fu, Dkk",
	"Jumlah Halaman": "272",
	"Tanggal Terbit": "5 Jun 2017",
	"ISBN": "9786020356655",
	"Bahasa": "Indonesia",
	"Penerbit": "Gramedia Pustaka Utama",
	"Berat": "0.1800 kg",
	"Lebar": "13.5 cm",
	"Panjang": "20 cm"
},
{
	"page": 88,
	"kategori 1": "non-fiksi",
	"kategori 2": "kamus",
	"book_url": "https://www.gramedia.com/products/conf-dari-jawa-menuju-atjeh",
	"title": "Dari Jawa Menuju Atjeh",
	"author": "Linda Christanty",
	"Jumlah Halaman": "-",
	"Tanggal Terbit": "14 Nov 2016",
	"ISBN": "9789799101549",
	"Bahasa": "Indonesia",
	"Penerbit": "Kepustakaan Populer Gramedia",
	"Berat": "0.2500 kg",
	"Lebar": "0 cm"
},
{
	"page": 88,
	"kategori 1": "non-fiksi",
	"kategori 2": "kamus",
	"book_url": "https://www.gramedia.com/products/persembahan-bunda-untuk-muslimah",
	"title": "Persembahan Bunda Untuk Muslimah",
	"author": "Bunda Yati",
	"Jumlah Halaman": "178",
	"Tanggal Terbit": "6 Jun 2016",
	"ISBN": "9786022296287",
	"Bahasa": "Indonesia",
	"Penerbit": "Setia Kawan",
	"Berat": "0.2000 kg",
	"Lebar": "14 cm"
},
{
	"page": 88,
	"kategori 1": "non-fiksi",
	"kategori 2": "kamus",
	"book_url": "https://www.gramedia.com/products/most-important-3000-english-vocabulary",
	"title": "Most Important 3000 English Vocabulary",
	"author": "Yohanes Sanaha Purba Dll",
	"Jumlah Halaman": "414",
	"Tanggal Terbit": "3 Jun 2015",
	"ISBN": "9789797752552",
	"Bahasa": "Indonesia",
	"Penerbit": "Indonesia Tera",
	"Berat": "0.3000 kg",
	"Lebar": "10 cm"
},
{
	"page": 88,
	"kategori 1": "non-fiksi",
	"kategori 2": "kamus",
	"book_url": "https://www.gramedia.com/products/1001-kesalahan-berbahasa",
	"title": "1001 Kesalahan Berbahasa",
	"author": "Zaenal Arifin",
	"Jumlah Halaman": "252",
	"Tanggal Terbit": "21 Jan 2016",
	"ISBN": "9789798035357",
	"Bahasa": "Indonesia",
	"Penerbit": "Paung Bona",
	"Berat": "0.3500 kg",
	"Lebar": "15 cm"
},
{
	"page": 88,
	"kategori 1": "non-fiksi",
	"kategori 2": "kamus",
	"book_url": "https://www.gramedia.com/products/ensiklopedia-geografi-tanah",
	"title": "Ensiklopedia Geografi: Tanah",
	"author": "Eka Susi Sulistyowati",
	"Jumlah Halaman": "76",
	"Tanggal Terbit": "4 Jun 2015",
	"ISBN": "9789796625970",
	"Bahasa": "Indonesia",
	"Penerbit": "Cempaka Putih",
	"Berat": "0.4500 kg",
	"Lebar": "22 cm"
},
{
	"page": 88,
	"kategori 1": "non-fiksi",
	"kategori 2": "kamus",
	"book_url": "https://www.gramedia.com/products/ensiklopedia-biologi-volume-3-keragaman-tumbuhan-struktur-fungsi-tumbuhan",
	"title": "Ensiklopedia Biologi Volume 3: Keragaman Tumbuhan, Struktur&Fungsi Tumbuhan",
	"author": "James Bobick Dkk",
	"Jumlah Halaman": "96",
	"Tanggal Terbit": "4 Jun 2015",
	"ISBN": "9789795348474",
	"Bahasa": "Indonesia",
	"Penerbit": "Pakar Raya",
	"Berat": "0.3500 kg",
	"Lebar": "18 cm"
},
{
	"page": 88,
	"kategori 1": "non-fiksi",
	"kategori 2": "kamus",
	"book_url": "https://www.gramedia.com/products/ensiklopedia-pulau2-kecil-nusantara-dki-jakarta-seribu-nusa-ibukota-di-laut-jawa",
	"title": "Ensiklopedia Pulau-Pulau Kecil Nusantara: Dki Jakarta-Seribu Nusa Ibukota Di Laut Jawa",
	"author": "Tim Kementerian Kelautan Dan Perikanan",
	"Jumlah Halaman": "224",
	"Tanggal Terbit": "9 Feb 2016",
	"ISBN": "9789797099756",
	"Bahasa": "Indonesia",
	"Penerbit": "Penerbit Buku Kompas",
	"Berat": "0.3700 kg"
},
{
	"page": 88,
	"kategori 1": "non-fiksi",
	"kategori 2": "kamus",
	"book_url": "https://www.gramedia.com/products/bangkok-rasa-lokal-destinasi-wisata-anti-mainstream",
	"title": "Bangkok Rasa Lokal, Destinasi Wisata anti-mainstream di Bangkok & sekitarnya",
	"author": "Irene Dyah",
	"Jumlah Halaman": "224",
	"Tanggal Terbit": "5 Jun 2017",
	"ISBN": "9786020338866",
	"Bahasa": "Indonesia",
	"Penerbit": "Gramedia Pustaka Utama",
	"Berat": "0.1700 kg",
	"Lebar": "13.5 cm",
	"Panjang": "20 cm"
},
{
	"page": 88,
	"kategori 1": "non-fiksi",
	"kategori 2": "kamus",
	"book_url": "https://www.gramedia.com/products/sedekah-tak-kenal-lelah",
	"title": "SEDEKAH TAK KENAL LELAH",
	"author": "Abdul Malik Al Qasim",
	"Jumlah Halaman": "206",
	"Tanggal Terbit": "2 Feb 2016",
	"ISBN": "9786029396249",
	"Bahasa": "Indonesia",
	"Penerbit": "Elba Fitrah Mandiri",
	"Berat": "0.2500 kg",
	"Lebar": "15 cm"
},
