{
	"page": 59,
	"kategori 1": "non-fiksi",
	"kategori 2": "kamus",
	"book_url": "https://www.gramedia.com/products/pengantar-ilmu-dakwah-studi-komprehensif-dakwah",
	"title": "Pengantar Ilmu Dakwah : Studi Komprehensif Dakwah",
	"author": "Ropingi El Ishaq",
	"Jumlah Halaman": "198",
	"Tanggal Terbit": "27 Apr 2016",
	"ISBN": "9786020899114",
	"Bahasa": "Indonesia",
	"Penerbit": "Intrans Publishing",
	"Berat": "0.2300 kg",
	"Lebar": "16 cm"
},
{
	"page": 59,
	"kategori 1": "non-fiksi",
	"kategori 2": "kamus",
	"book_url": "https://www.gramedia.com/products/100-1-cara-bahagia",
	"title": "100 + 1 Cara Bahagia",
	"author": "Ainun Mahya Dan Triyanto",
	"Jumlah Halaman": "356",
	"Tanggal Terbit": "24 Mar 2016",
	"ISBN": "9786020808222",
	"Bahasa": "Indonesia",
	"Penerbit": "Trans Idea",
	"Berat": "0.2000 kg",
	"Lebar": "13 cm"
},
{
	"page": 59,
	"kategori 1": "non-fiksi",
	"kategori 2": "kamus",
	"book_url": "https://www.gramedia.com/products/muslim-jaman-now",
	"title": "Muslim Jaman Now",
	"author": "Ipnu R Noegroho",
	"Jumlah Halaman": "336",
	"Tanggal Terbit": "9 Des 2017",
	"ISBN": "9786025469879",
	"Bahasa": "Indonesia",
	"Penerbit": "Mueeza",
	"Berat": "0.336 kg",
	"Lebar": "14 cm",
	"Panjang": "20 cm"
},
{
	"page": 59,
	"kategori 1": "non-fiksi",
	"kategori 2": "kamus",
	"book_url": "https://www.gramedia.com/products/fikih-menjemput-jodoh",
	"title": "Fikih Menjemput Jodoh",
	"author": "Musthafa Bin Abul Ghaith Abdulhayi",
	"Jumlah Halaman": "198",
	"Tanggal Terbit": "1 Apr 2016",
	"ISBN": "9786028417549",
	"Bahasa": "Indonesia",
	"Penerbit": "Al-qowam",
	"Berat": "0.3000 kg",
	"Lebar": "15 cm"
},
{
	"page": 59,
	"kategori 1": "non-fiksi",
	"kategori 2": "kamus",
	"book_url": "https://www.gramedia.com/products/english-is-easy",
	"title": "English is Easy",
	"author": "Diana Christianti, S.pd.",
	"Jumlah Halaman": "164",
	"Tanggal Terbit": "17 Jul 2017",
	"ISBN": "9786024522575",
	"Bahasa": "Indonesia",
	"Penerbit": "Gramedia Widiasarana Indonesia",
	"Berat": "0.2000 kg",
	"Lebar": "14 cm"
},
{
	"page": 59,
	"kategori 1": "non-fiksi",
	"kategori 2": "kamus",
	"book_url": "https://www.gramedia.com/products/amalan-sepanjang-tahun",
	"title": "Amalan Sepanjang Tahun",
	"author": "Hj. Fadillah Ulfa",
	"Jumlah Halaman": "234",
	"Tanggal Terbit": "27 Des 2016",
	"ISBN": "9786020894454",
	"Bahasa": "Indonesia",
	"Penerbit": "Tinta Medina",
	"Berat": "0.2500 kg",
	"Lebar": "14 cm"
},
{
	"page": 59,
	"kategori 1": "non-fiksi",
	"kategori 2": "kamus",
	"book_url": "https://www.gramedia.com/products/9-kisah-cinta-terindah-dalam-islam-romantis-menyentuh-hati-bahagia-dunia-akhirat",
	"title": "9 Kisah Cinta Terindah Dalam Islam: Romantis, Menyentuh Hati, Bahagia Dunia Akhirat",
	"author": "Idya Damayanti",
	"Jumlah Halaman": "204",
	"Tanggal Terbit": "15 Agt 2016",
	"ISBN": "9786023002900",
	"Bahasa": "Indonesia",
	"Penerbit": "Araska",
	"Berat": "1.0000 kg",
	"Lebar": "14 cm"
},
{
	"page": 59,
	"kategori 1": "non-fiksi",
	"kategori 2": "kamus",
	"book_url": "https://www.gramedia.com/products/rahasia-penciptaan-alam-semesta-makhluk-hidup",
	"title": "Rahasia Penciptaan Alam Semesta & Makhluk Hidup",
	"author": "Imam Al Ghazali",
	"Jumlah Halaman": "194",
	"Tanggal Terbit": "25 Jul 2016",
	"ISBN": "9786021583357",
	"Bahasa": "Indonesia",
	"Penerbit": "Turos Pustaka",
	"Berat": "0.1800 kg",
	"Lebar": "14 cm"
},
{
	"page": 59,
	"kategori 1": "non-fiksi",
	"kategori 2": "kamus",
	"book_url": "https://www.gramedia.com/products/fun-easy-grammar-book",
	"title": "Fun & Easy Grammar Book",
	"author": "Niswatin N. H.",
	"Jumlah Halaman": "204",
	"Tanggal Terbit": "9 Jun 2016",
	"ISBN": "9786021659762",
	"Bahasa": "Indonesia",
	"Penerbit": "Charissa Publisher",
	"Berat": "0.1500 kg",
	"Lebar": "13 cm"
},
{
	"page": 59,
	"kategori 1": "non-fiksi",
	"kategori 2": "kamus",
	"book_url": "https://www.gramedia.com/products/bekerjalah-untuk-duniamu-jangan-lupa-akhiratmu",
	"title": "Bekerjalah Untuk Duniamu Jangan Lupa Akhiratmu",
	"author": "Insan Nurrohiem",
	"Jumlah Halaman": "216",
	"Tanggal Terbit": "7 Sep 2015",
	"ISBN": "9786022961383",
	"Bahasa": "Indonesia",
	"Penerbit": "Safirah",
	"Berat": "0.3000 kg",
	"Lebar": "14 cm"
},
{
	"page": 59,
	"kategori 1": "non-fiksi",
	"kategori 2": "kamus",
	"book_url": "https://www.gramedia.com/products/kamus-bahasa-indonesia-arab-arab-indonesia-hvs-klf-idx",
	"title": "Kamus Bahasa Indonesia - Arab >< Arab - Indonesia",
	"author": "Muhammad Yunus",
	"Jumlah Halaman": "683",
	"Tanggal Terbit": "20 Nov 2013",
	"ISBN": "9786028936439",
	"Bahasa": "Indonesia",
	"Penerbit": "Wi Press",
	"Berat": "0.68 kg",
	"Lebar": "14 cm",
	"Panjang": "20 cm"
},
{
	"page": 59,
	"kategori 1": "non-fiksi",
	"kategori 2": "kamus",
	"book_url": "https://www.gramedia.com/products/little-oxford-english-dictionary",
	"title": "Little Oxford English Dictionary",
	"author": "Oxford University Press",
	"Jumlah Halaman": "818.0",
	"Tanggal Terbit": "26 Nov 2014",
	"ISBN": "9780198614388",
	"Penerbit": "Oxford University Press",
	"Berat": "0.51 kg",
	"Lebar": "10.0 cm",
	"Panjang": "15.0 cm"
},
{
	"page": 59,
	"kategori 1": "non-fiksi",
	"kategori 2": "kamus",
	"book_url": "https://www.gramedia.com/products/syekh-siti-jenar-manunggaling-kawula-gusti-kontroversial-fenomenal",
	"title": "Syekh Siti Jenar Manunggaling Kawula Gusti : Kontroversial & Fenomenal",
	"author": "Ust Ikhram Djallaludin",
	"Jumlah Halaman": "228",
	"Tanggal Terbit": "21 Des 2015",
	"ISBN": "9786021658703",
	"Bahasa": "Indonesia",
	"Penerbit": "Serambi Semesta",
	"Berat": "0.3000 kg",
	"Lebar": "15 cm"
},
{
	"page": 59,
	"kategori 1": "non-fiksi",
	"kategori 2": "kamus",
	"book_url": "https://www.gramedia.com/products/ibu-madrasah-umat-fungsi-peran-kaum-ibu-sebagai-pendidik-kodrati",
	"title": "Ibu Madrasah Umat: Fungsi&Peran Kaum Ibu Sebagai Pendidik Kodrati",
	"author": "Jalaluddin",
	"Jumlah Halaman": "366",
	"Tanggal Terbit": "14 Sep 2016",
	"ISBN": "9789792493658",
	"Bahasa": "Indonesia",
	"Penerbit": "Kalam Mulia",
	"Berat": "0.4000 kg",
	"Lebar": "15 cm"
},
{
	"page": 59,
	"kategori 1": "non-fiksi",
	"kategori 2": "kamus",
	"book_url": "https://www.gramedia.com/products/etika-membangun-masyarakat-islam-modern-ed-3",
	"title": "Etika Membangun Masyarakat Islam Modern Ed 3",
	"author": "Purwanto ,jazuli Suryadhi,agus Herta Sumarto",
	"Jumlah Halaman": "224",
	"Tanggal Terbit": "25 Apr 2016",
	"ISBN": "9786022625605",
	"Bahasa": "Indonesia",
	"Penerbit": "Graha Ilmu",
	"Berat": "0.4700 kg",
	"Lebar": "21 cm"
},
{
	"page": 59,
	"kategori 1": "non-fiksi",
	"kategori 2": "kamus",
	"book_url": "https://www.gramedia.com/products/pasti-terkabul-koleksi-doa-untuk-berbagai-kesulitan",
	"title": "Pasti Terkabul : Koleksi Doa Untuk Berbagai Kesulitan",
	"author": "Thoriq Anwar",
	"Jumlah Halaman": "312",
	"Tanggal Terbit": "21 Nov 2016",
	"ISBN": "9786023913121",
	"Bahasa": "Indonesia",
	"Penerbit": "Sabil",
	"Berat": "0.3500 kg",
	"Lebar": "14 cm"
},
{
	"page": 59,
	"kategori 1": "non-fiksi",
	"kategori 2": "kamus",
	"book_url": "https://www.gramedia.com/products/pocket-kamus-mandarin-best-of-the-best",
	"title": "Pocket Kamus Mandarin : Best Of The Best",
	"author": "Tim Pusat Bahasa Salemba",
	"Jumlah Halaman": "688",
	"Tanggal Terbit": "5 Jun 2017",
	"ISBN": "9786026156839",
	"Bahasa": "Indonesia",
	"Penerbit": "Penerbit Emc",
	"Berat": "0.3480 kg",
	"Lebar": "11 cm"
},
{
	"page": 59,
	"kategori 1": "non-fiksi",
	"kategori 2": "kamus",
	"book_url": "https://www.gramedia.com/products/mendidik-anak-dengan-cinta",
	"title": "Mendidik Anak Dengan Cinta",
	"author": "Muhammad Muhyidin",
	"Jumlah Halaman": "317",
	"Tanggal Terbit": "3 Jun 2016",
	"ISBN": "9786027053779",
	"Bahasa": "Indonesia",
	"Penerbit": "Braja Pustaka",
	"Berat": "0.2920 kg",
	"Lebar": "14.5 cm"
},
{
	"page": 59,
	"kategori 1": "non-fiksi",
	"kategori 2": "kamus",
	"book_url": "https://www.gramedia.com/products/mutiara-hati-penggugah-jiwa",
	"title": "Mutiara Hati Penggugah Jiwa",
	"author": "Husni Mubarrok",
	"Jumlah Halaman": "224",
	"Tanggal Terbit": "29 Jan 2018",
	"ISBN": "9786020452746",
	"Bahasa": "Indonesia",
	"Penerbit": "Elex Media Komputindo",
	"Berat": "0.3 kg",
	"Lebar": "14 cm",
	"Panjang": "21 cm"
},
{
	"page": 59,
	"kategori 1": "non-fiksi",
	"kategori 2": "kamus",
	"book_url": "https://www.gramedia.com/products/muara-cinta",
	"title": "Muara Cinta",
	"author": "Ust. Husin Nabil",
	"Jumlah Halaman": "236",
	"Tanggal Terbit": "4 Mei 2016",
	"ISBN": "9786023850853",
	"Bahasa": "Indonesia",
	"Penerbit": "Mizan",
	"Berat": "0.1600 kg",
	"Lebar": "12 cm"
},
{
	"page": 59,
	"kategori 1": "non-fiksi",
	"kategori 2": "kamus",
	"book_url": "https://www.gramedia.com/products/fikih-kontemporer",
	"title": "Fikih Kontemporer",
	"author": "Dr. H. Sapiudin Shidiq, M.ag.",
	"Jumlah Halaman": "316",
	"Tanggal Terbit": "17 Mei 2016",
	"ISBN": "9786020895994",
	"Bahasa": "Indonesia",
	"Penerbit": "Kencana Prenada Media",
	"Berat": "0.3000 kg",
	"Lebar": "15 cm"
},
{
	"page": 59,
	"kategori 1": "non-fiksi",
	"kategori 2": "kamus",
	"book_url": "https://www.gramedia.com/products/ushulun-fit-tafsir",
	"title": "Ushulun Fit Tafsir",
	"author": "Syaikh Muhammad Bin Shaloh Al-utsaimin",
	"Jumlah Halaman": "138",
	"Tanggal Terbit": "1 Apr 2016",
	"ISBN": "9786028417464",
	"Bahasa": "Indonesia",
	"Penerbit": "Al-qowam",
	"Berat": "0.3000 kg",
	"Lebar": "14 cm"
},
{
	"page": 59,
	"kategori 1": "non-fiksi",
	"kategori 2": "kamus",
	"book_url": "https://www.gramedia.com/products/cepat-kuasai-kosakata-bahasa-inggris-tanpa-banyak-mikir",
	"title": "Cepat Kuasai Kosakata Bahasa Inggris Tanpa Banyak Mikir",
	"author": "Hani Sutrisno",
	"Jumlah Halaman": "232",
	"Tanggal Terbit": "18 Mei 2016",
	"ISBN": "9789797752835",
	"Bahasa": "Indonesia",
	"Penerbit": "Indonesia Tera",
	"Berat": "0.1900 kg",
	"Lebar": "13 cm"
},
{
	"page": 59,
	"kategori 1": "non-fiksi",
	"kategori 2": "kamus",
	"book_url": "https://www.gramedia.com/products/percakapan-bahasa-inggris-simple-fun-and-easy",
	"title": "Percakapan Bahasa Inggris : Simple Fun And Easy",
	"author": "Bright Learning Center",
	"Jumlah Halaman": "294",
	"Tanggal Terbit": "20 Des 2017",
	"ISBN": "9786026657725",
	"Bahasa": "Indonesia",
	"Penerbit": "Bright Publisher",
	"Berat": "0.20 kg",
	"Lebar": "13 cm",
	"Panjang": "19 cm"
},
{
	"page": 59,
	"kategori 1": "non-fiksi",
	"kategori 2": "kamus",
	"book_url": "https://www.gramedia.com/products/biarkan-hatimu-bicara-hatimu-hakim-tertinggimu",
	"title": "Biarkan Hatimu Bicara : Hatimu Hakim Tertinggimu",
	"author": "Abi Aunillah Al Kuwarasani",
	"Jumlah Halaman": "176",
	"Tanggal Terbit": "2 Des 2015",
	"ISBN": "9786023910069",
	"Bahasa": "Indonesia",
	"Penerbit": "Serambi Semesta",
	"Berat": "0.2000 kg",
	"Lebar": "14 cm"
},
{
	"page": 59,
	"kategori 1": "non-fiksi",
	"kategori 2": "kamus",
	"book_url": "https://www.gramedia.com/products/puebi-terlengkap-dan-terupdate",
	"title": "PUEBI: Terlengkap dan Terupdate",
	"author": "Tikah Kumala",
	"Jumlah Halaman": "162",
	"Tanggal Terbit": "20 Jan 2018",
	"ISBN": "9786025448287",
	"Bahasa": "Indonesia",
	"Penerbit": "C-Klik Media",
	"Berat": "0.300 kg",
	"Lebar": "14 cm",
	"Panjang": "20 cm"
},
{
	"page": 59,
	"kategori 1": "non-fiksi",
	"kategori 2": "kamus",
	"book_url": "https://www.gramedia.com/products/kisah2-kematian-husnul-khatimah",
	"title": "Kisah-Kisah Kematian Husnul Khatimah",
	"author": "Mohammad Wifaqulldaini",
	"Jumlah Halaman": "232",
	"Tanggal Terbit": "10 Feb 2018",
	"ISBN": "9786023004782",
	"Bahasa": "Indonesia",
	"Penerbit": "Araska Publisher",
	"Berat": "0.25 kg",
	"Lebar": "14 cm",
	"Panjang": "20.5 cm"
},
{
	"page": 59,
	"kategori 1": "non-fiksi",
	"kategori 2": "kamus",
	"book_url": "https://www.gramedia.com/products/sd-mi-kls-3-pintar-ulangan-kur-2013",
	"title": "SD/MI Kelas 3 Pintar Ulangan Kurikulum 2013",
	"author": "Tim Pustaka Baru",
	"Jumlah Halaman": "160",
	"Tanggal Terbit": "1 Des 2014",
	"ISBN": "9786021674628",
	"Bahasa": "Indonesia",
	"Penerbit": "Pustaka Baru Press",
	"Berat": "0.30 kg",
	"Lebar": "20 cm",
	"Panjang": "29 cm"
},
{
	"page": 59,
	"kategori 1": "non-fiksi",
	"kategori 2": "kamus",
	"book_url": "https://www.gramedia.com/products/muliakan-ibumu",
	"title": "Muliakan Ibumu",
	"author": "Aam Amiruddin",
	"Jumlah Halaman": "222",
	"Tanggal Terbit": "11 Mar 2016",
	"ISBN": "9789793838786",
	"Bahasa": "Indonesia",
	"Penerbit": "Khazanah Intelektual",
	"Berat": "0.2000 kg",
	"Lebar": "13 cm"
},
{
	"page": 59,
	"kategori 1": "non-fiksi",
	"kategori 2": "kamus",
	"book_url": "https://www.gramedia.com/products/pedoman-umum-ebi-ejaan-bahasa-indonesia-ed-revisi",
	"title": "Pedoman Umum EBI Ejaan Bahasa Indonesia Edisi Revisi",
	"author": "Anjar Murtiani Dkk",
	"Jumlah Halaman": "180",
	"Tanggal Terbit": "24 Jan 2018",
	"ISBN": "9786023004713",
	"Bahasa": "Indonesia",
	"Penerbit": "Araska Publisher",
	"Berat": "0.155 kg",
	"Lebar": "14 cm",
	"Panjang": "20.5 cm"
},
{
	"page": 59,
	"kategori 1": "non-fiksi",
	"kategori 2": "kamus",
	"book_url": "https://www.gramedia.com/products/dahsyatnya-shalat-malam-new",
	"title": "Dahsyatnya Shalat Malam-New",
	"author": "Sallamah Muhammad Abu-al-",
	"Jumlah Halaman": "220",
	"Tanggal Terbit": "22 Agt 2016",
	"ISBN": "9786024180645",
	"Bahasa": "Indonesia",
	"Penerbit": "Mizan",
	"Berat": "0.2000 kg",
	"Lebar": "14 cm"
},
{
	"page": 59,
	"kategori 1": "non-fiksi",
	"kategori 2": "kamus",
	"book_url": "https://www.gramedia.com/products/how-to-master-koreancd-audio",
	"title": "How To Master Korean+Cd Audio",
	"author": "Sri Endah Setia Lestari",
	"Jumlah Halaman": "286",
	"Tanggal Terbit": "23 Sep 2014",
	"ISBN": "9789795936732",
	"Bahasa": "Indonesia",
	"Penerbit": "Kesaint Blanc",
	"Berat": "0.3 kg",
	"Lebar": "13 cm",
	"Panjang": "20 cm"
},
{
	"page": 59,
	"kategori 1": "non-fiksi",
	"kategori 2": "kamus",
	"book_url": "https://www.gramedia.com/products/bahasa-perancis-untuk-pemula-cd-audio",
	"title": "Bahasa Perancis Untuk Pemula + Cd Audio",
	"author": "Herpinus Simanjuntak",
	"Tanggal Terbit": "2 Agt 2011",
	"Penerbit": "Kesaint Blanc",
	"Berat": "0.3000 kg",
	"Lebar": "0 cm",
	"Panjang": "0 cm"
},
{
	"page": 59,
	"kategori 1": "non-fiksi",
	"kategori 2": "kamus",
	"book_url": "https://www.gramedia.com/products/kembalilah-kepada-allah-serba-serbi-amalan",
	"title": "Kembalilah Kepada Allah :Serba Serbi Amalan..",
	"author": "Abd.rahem",
	"Jumlah Halaman": "140",
	"Tanggal Terbit": "29 Sep 2016",
	"ISBN": "9786022962120",
	"Bahasa": "Indonesia",
	"Penerbit": "Diva Press",
	"Berat": "0.1500 kg",
	"Lebar": "14 cm"
},
{
	"page": 59,
	"kategori 1": "non-fiksi",
	"kategori 2": "kamus",
	"book_url": "https://www.gramedia.com/products/keep-talking-mandarin-kursus-audio-10-hari-cd-audio",
	"title": "Keep Talking Mandarin Kursus Audio 10 Hari + Cd Audio",
	"author": "Elizabeth Scurfield & Song Lianyi",
	"Jumlah Halaman": "112",
	"Tanggal Terbit": "26 Jan 2016",
	"ISBN": "9789795937555",
	"Bahasa": "Indonesia",
	"Penerbit": "Kesaint Blanc",
	"Berat": "0.3500 kg",
	"Lebar": "15 cm",
	"Panjang": "21 cm"
},
{
	"page": 59,
	"kategori 1": "non-fiksi",
	"kategori 2": "kamus",
	"book_url": "https://www.gramedia.com/products/ilmu-tasawuf-0",
	"title": "Ilmu Tasawuf",
	"author": "Zaprulkhan",
	"Jumlah Halaman": "360",
	"Tanggal Terbit": "4 Feb 2016",
	"ISBN": "9789797699048",
	"Bahasa": "Indonesia",
	"Penerbit": "Rajawali Press",
	"Berat": "0.4000 kg",
	"Lebar": "16 cm"
},
{
	"page": 59,
	"kategori 1": "non-fiksi",
	"kategori 2": "kamus",
	"book_url": "https://www.gramedia.com/products/the-history-of-hadith-historiografi-hadiths-nabi-dari-masa-ke-masa",
	"title": "The History of Hadith: Historiografi Hadiths Nabi Dari Masa Ke Masa",
	"author": "Muhammad Abu Zahw",
	"Jumlah Halaman": "396",
	"Tanggal Terbit": "20 Nov 2015",
	"ISBN": "9786021361535",
	"Bahasa": "Indonesia",
	"Penerbit": "Keira Publishing",
	"Berat": "0.7000 kg",
	"Lebar": "18 cm"
},
{
	"page": 59,
	"kategori 1": "non-fiksi",
	"kategori 2": "kamus",
	"book_url": "https://www.gramedia.com/products/ahl-al-kitab-makna-cakupannya-dalam-al-quran",
	"title": "AHL Al-Kitab : Makna & Cakupannya Dalam Al-Quran",
	"author": "Prof. Dr. H. Muhammad Galib M., M.a.",
	"Jumlah Halaman": "320",
	"Tanggal Terbit": "5 Des 2016",
	"ISBN": "9786023912735",
	"Bahasa": "Indonesia",
	"Penerbit": "Diva Press",
	"Berat": "0.2500 kg",
	"Lebar": "20 cm"
},
{
	"page": 59,
	"kategori 1": "non-fiksi",
	"kategori 2": "kamus",
	"book_url": "https://www.gramedia.com/products/surga",
	"title": "Surga",
	"author": "Jim Woodford",
	"Jumlah Halaman": "240",
	"Tanggal Terbit": "21 Feb 2018",
	"ISBN": "9786024190675",
	"Bahasa": "Indonesia",
	"Penerbit": "Light Publishing",
	"Berat": "0.230 kg",
	"Lebar": "14.5 cm",
	"Panjang": "21 cm"
},
{
	"page": 59,
	"kategori 1": "non-fiksi",
	"kategori 2": "kamus",
	"book_url": "https://www.gramedia.com/products/cara-mudah-kuasai-grammar",
	"title": "Cara Mudah Kuasai Grammar",
	"author": "Muryani J. Semita",
	"Jumlah Halaman": "188",
	"Tanggal Terbit": "20 Mar 2017",
	"ISBN": "9786026380265",
	"Bahasa": "Indonesia",
	"Penerbit": "Pusat Kajian Bahasa",
	"Berat": "0.25 kg",
	"Lebar": "14 cm",
	"Panjang": "20 cm"
},
