{
	"page": 13,
	"kategori 1": "komik",
	"book_url": "https://www.gramedia.com/products/lc-a-meal-makes-her-forget-6",
	"title": "LC: A Meal Makes Her Forget 6",
	"author": "Jun Abe",
	"Jumlah Halaman": "200",
	"Tanggal Terbit": "13 Mar 2019",
	"ISBN": "9786020489070",
	"Bahasa": "Indonesia",
	"Penerbit": "Elex Media Komputindo",
	"Berat": "0.110 kg",
	"Lebar": "18 cm",
	"Panjang": "13 cm"
},
