{
	"page": 64,
	"kategori 1": "komik",
	"book_url": "https://www.gramedia.com/products/komik-meng-edisi-warna-pesta-untuk-mia",
	"title": "Komik Meng Edisi Warna: Pesta Untuk Mia",
	"author": "Rendra M. Ridwan",
	"Jumlah Halaman": "88",
	"Tanggal Terbit": "1 Apr 2019",
	"ISBN": "9786023676293",
	"Bahasa": "Indonesia",
	"Penerbit": "Mizan Media Utama",
	"Berat": "0.1 kg",
	"Lebar": "15 cm",
	"Panjang": "21 cm"
},
{
	"page": 64,
	"kategori 1": "komik",
	"book_url": "https://www.gramedia.com/products/detektif-conan-premium-01",
	"title": "Detektif Conan Premium 01",
	"author": "Aoyama Gosho",
	"Jumlah Halaman": "360.0",
	"Tanggal Terbit": "11 Mar 2020",
	"ISBN": "9786230014918",
	"Bahasa": "Indonesia",
	"Penerbit": "Elex Media Komputindo",
	"Berat": "0.15 kg",
	"Lebar": "12.0 cm",
	"Panjang": "18.0 cm"
},
{
	"page": 64,
	"kategori 1": "komik",
	"book_url": "https://www.gramedia.com/products/why-people-john-f-kennedy",
	"title": "Why? People - John F. Kennedy",
	"author": "Yearimdang",
	"Jumlah Halaman": "176.0",
	"Tanggal Terbit": "7 Okt 2019",
	"ISBN": "9786230007538",
	"Bahasa": "Indonesia",
	"Penerbit": "Elex Media Komputindo",
	"Berat": "0.25 kg",
	"Lebar": "18.0 cm",
	"Panjang": "24.0 cm"
},
{
	"page": 64,
	"kategori 1": "komik",
	"book_url": "https://www.gramedia.com/products/we-never-learn-04",
	"title": "We Never Learn 04",
	"author": "Taishi Tsutsui",
	"Jumlah Halaman": "200.0",
	"Tanggal Terbit": "1 Apr 2020",
	"ISBN": "9786024809539",
	"Bahasa": "Indonesia",
	"Penerbit": "m&c!",
	"Berat": "0.1 kg",
	"Lebar": "11.4 cm",
	"Panjang": "17.2 cm"
},
{
	"page": 64,
	"kategori 1": "komik",
	"book_url": "https://www.gramedia.com/products/cafe-de-laylah-02",
	"title": "Cafe De Laylah 02",
	"author": "TAKEYUKI SATO",
	"Jumlah Halaman": "184.0",
	"Tanggal Terbit": "1 Apr 2020",
	"ISBN": "9786230015113",
	"Bahasa": "Indonesia",
	"Penerbit": "Elex Media Komputindo",
	"Berat": "0.2 kg",
	"Lebar": "11.4 cm",
	"Panjang": "17.2 cm"
},
{
	"page": 64,
	"kategori 1": "komik",
	"book_url": "https://www.gramedia.com/products/akasha-trace-recollections-of-a-forensic-researcher-03",
	"title": "Akasha : Trace, Recollections Of A Forensic Researcher 03",
	"author": "Kei Koga",
	"Jumlah Halaman": "192.0",
	"Tanggal Terbit": "1 Apr 2020",
	"ISBN": "9786024809485",
	"Bahasa": "Indonesia",
	"Penerbit": "m&c!",
	"Berat": "0.12 kg",
	"Lebar": "13.0 cm",
	"Panjang": "19.0 cm"
},
{
	"page": 64,
	"kategori 1": "komik",
	"book_url": "https://www.gramedia.com/products/koloni-si-unis-01",
	"title": "Koloni Si Unis 01",
	"author": "RINFAN / NARUCHACHA",
	"Jumlah Halaman": "144.0",
	"Tanggal Terbit": "1 Apr 2020",
	"ISBN": "9786230300639",
	"Bahasa": "Indonesia",
	"Penerbit": "m&c!",
	"Berat": "0.13 kg",
	"Lebar": "13.5 cm",
	"Panjang": "20.0 cm"
},
{
	"page": 64,
	"kategori 1": "komik",
	"book_url": "https://www.gramedia.com/products/and-yet-you-are-so-sweet-02",
	"title": "And Yet, You Are So Sweet 02",
	"author": "Kujira Anan",
	"Jumlah Halaman": "176.0",
	"Tanggal Terbit": "11 Mar 2020",
	"ISBN": "9786024809836",
	"Bahasa": "Indonesia",
	"Penerbit": "m&c!",
	"Berat": "0.085 kg",
	"Lebar": "11.4 cm",
	"Panjang": "17.2 cm"
},
{
	"page": 64,
	"kategori 1": "komik",
	"book_url": "https://www.gramedia.com/products/komik-next-g-perjuangan-army",
	"title": "Komik Next G Perjuangan Army",
	"author": "Azwa Layina Fayyaza, Dkk",
	"Jumlah Halaman": "100.0",
	"Tanggal Terbit": "10 Mar 2020",
	"ISBN": "9786023678204",
	"Bahasa": "Indonesia",
	"Penerbit": "Curhat Anak Bangsa",
	"Berat": "0.101 kg",
	"Lebar": "15.0 cm",
	"Panjang": "21.0 cm"
},
{
	"page": 64,
	"kategori 1": "komik",
	"book_url": "https://www.gramedia.com/products/master-grape-02",
	"title": "Master Grape 02",
	"author": "Masahiro Totsuka",
	"Jumlah Halaman": "192.0",
	"Tanggal Terbit": "19 Agt 2019",
	"ISBN": "9786230004094",
	"Penerbit": "ELEX MEDIA KOMPUTINDO",
	"Berat": "0.1 kg",
	"Lebar": "11.4 cm",
	"Panjang": "17.2 cm"
},
{
	"page": 64,
	"kategori 1": "komik",
	"book_url": "https://www.gramedia.com/products/doraemon-13-terbit-ulang",
	"title": "Doraemon 13 (Terbit Ulang)",
	"author": "Fujiko F. Fujio",
	"Jumlah Halaman": "None",
	"Tanggal Terbit": "14 Nov 2011",
	"ISBN": "9786020015057",
	"Bahasa": "Indonesia",
	"Penerbit": "Elex Media Komputindo",
	"Berat": "0.1000 kg",
	"Lebar": "11 cm",
	"Panjang": "18 cm"
},
{
	"page": 64,
	"kategori 1": "komik",
	"book_url": "https://www.gramedia.com/products/bip-laskar-pemadam-api-api-asmara",
	"title": "BIP - Laskar Pemadam Api: Api Asmara",
	"author": "Bamboo Media",
	"Jumlah Halaman": "48",
	"Tanggal Terbit": "16 Apr 2018",
	"ISBN": "550000696",
	"Bahasa": "Indonesia",
	"Penerbit": "Bhuana Ilmu Populer",
	"Berat": "0.1 kg",
	"Lebar": "16 cm",
	"Panjang": "22 cm"
},
{
	"page": 64,
	"kategori 1": "komik",
	"book_url": "https://www.gramedia.com/products/setiap-hari-every-day",
	"title": "Setiap Hari (Every Day)",
	"author": "David Levithan",
	"Jumlah Halaman": "472",
	"Tanggal Terbit": "26 Feb 2018",
	"ISBN": "9786020366364",
	"Penerbit": "Gramedia Pustaka Utama",
	"Berat": "0.430 kg",
	"Lebar": "13.5 cm",
	"Panjang": "20 cm"
},
{
	"page": 64,
	"kategori 1": "komik",
	"book_url": "https://www.gramedia.com/products/bluish-02",
	"title": "Bluish 02",
	"author": "ABI UMEDA",
	"Jumlah Halaman": "200.0",
	"Tanggal Terbit": "18 Des 2019",
	"ISBN": "9786230011023",
	"Bahasa": "Indonesia",
	"Penerbit": "Elex Media Komputindo",
	"Berat": "0.1 kg",
	"Lebar": "11.4 cm",
	"Panjang": "17.2 cm"
},
{
	"page": 64,
	"kategori 1": "komik",
	"book_url": "https://www.gramedia.com/products/please-marry-me",
	"title": "Please Marry Me!",
	"author": "Nagae Sunao",
	"Jumlah Halaman": "192.0",
	"Tanggal Terbit": "2 Okt 2019",
	"ISBN": "9786024807290",
	"Bahasa": "Indonesia",
	"Penerbit": "m&c!",
	"Berat": "0.093 kg",
	"Lebar": "11.4 cm",
	"Panjang": "17.2 cm"
},
{
	"page": 64,
	"kategori 1": "komik",
	"book_url": "https://www.gramedia.com/products/crayon-shinchan-movie-fast-asleep-the-great-assault-on-dr",
	"title": "Crayon Shinchan Movie - Fast Asleep! The Great Assault On Dr",
	"author": "Yoshito Usui, Mirei Takata",
	"Jumlah Halaman": "160.0",
	"Tanggal Terbit": "1 Apr 2020",
	"ISBN": "9786230015878",
	"Bahasa": "Indonesia",
	"Penerbit": "Elex Media Komputindo",
	"Berat": "0.19 kg",
	"Lebar": "11.4 cm",
	"Panjang": "17.2 cm"
},
{
	"page": 64,
	"kategori 1": "komik",
	"book_url": "https://www.gramedia.com/products/si-genius-sains-5-mengelilingi-tata-surya",
	"title": "Si Genius Sains #5 : Mengelilingi Tata Surya",
	"author": "Shin Tae  Hoon",
	"Jumlah Halaman": "176.0",
	"Tanggal Terbit": "12 Agt 2019",
	"ISBN": "9786232163539",
	"Penerbit": "Bhuana Ilmu Populer",
	"Berat": "0.25 kg",
	"Lebar": "18.0 cm",
	"Panjang": "24.0 cm"
},
{
	"page": 64,
	"kategori 1": "komik",
	"book_url": "https://www.gramedia.com/products/father-and-son-05",
	"title": "Father And Son 05",
	"author": "UCHIKO",
	"Jumlah Halaman": "152.0",
	"Tanggal Terbit": "4 Des 2019",
	"ISBN": "9786230010590",
	"Bahasa": "Indonesia",
	"Penerbit": "Elex Media Komputindo",
	"Berat": "0.065 kg",
	"Lebar": "11.4 cm",
	"Panjang": "17.2 cm"
},
{
	"page": 64,
	"kategori 1": "komik",
	"book_url": "https://www.gramedia.com/products/lc-a-meal-makes-her-forget-9",
	"title": "Lc: A Meal Makes Her Forget 9",
	"author": "Jun Abe",
	"Jumlah Halaman": "208",
	"Tanggal Terbit": "14 Agt 2019",
	"ISBN": "9786020499314",
	"Bahasa": "Indonesia",
	"Penerbit": "Elex Media Komputindo",
	"Berat": "0.120 kg",
	"Lebar": "13 cm",
	"Panjang": "18 cm"
},
{
	"page": 64,
	"kategori 1": "komik",
	"book_url": "https://www.gramedia.com/products/dongeng-sebelum-tidur",
	"title": "Dongeng Sebelum Tidur",
	"author": "Agnes Jessica",
	"Jumlah Halaman": "264",
	"Tanggal Terbit": "26 Feb 2018",
	"ISBN": "9786020382012",
	"Penerbit": "Gramedia Pustaka Utama",
	"Berat": "0.180 kg",
	"Lebar": "13.5 cm",
	"Panjang": "20 cm"
},
{
	"page": 64,
	"kategori 1": "komik",
	"book_url": "https://www.gramedia.com/products/one-piece-09",
	"title": "One Piece 09",
	"author": "Oda,Eichiro",
	"Jumlah Halaman": "200",
	"Tanggal Terbit": "1 Jan 1900",
	"ISBN": "9789792048179",
	"Bahasa": "Indonesia",
	"Penerbit": "Elex Media Komputindo",
	"Berat": "0.145 kg",
	"Lebar": "11.5 cm",
	"Panjang": "17 cm"
},
{
	"page": 64,
	"kategori 1": "komik",
	"book_url": "https://www.gramedia.com/products/one-piece-10",
	"title": "One Piece 10",
	"author": "Oda,Eichiro",
	"Jumlah Halaman": "200",
	"Tanggal Terbit": "1 Jan 2003",
	"ISBN": "9789792049046",
	"Bahasa": "Indonesia",
	"Penerbit": "Elex Media Komputindo",
	"Berat": "0.145 kg",
	"Lebar": "11.5 cm",
	"Panjang": "17 cm"
},
{
	"page": 64,
	"kategori 1": "komik",
	"book_url": "https://www.gramedia.com/products/attack-on-titan-02-lc",
	"title": "Attack On Titan 02: Lc",
	"author": "Hajime Isayama",
	"Jumlah Halaman": "None",
	"Tanggal Terbit": "23 Agt 2013",
	"ISBN": "9786020218755",
	"Bahasa": "Indonesia",
	"Penerbit": "Elex Media Komputindo",
	"Berat": "0.1500 kg"
},
