{
	"page": 55,
	"kategori 1": "komik",
	"book_url": "https://www.gramedia.com/products/komik-princess-academy-boneka-kesayangan",
	"title": "Komik Princess Academy: Boneka Kesayangan",
	"author": "Citra Mustikawati",
	"Jumlah Halaman": "92",
	"Tanggal Terbit": "5 Nov 2018",
	"ISBN": "9786023675791",
	"Bahasa": "Indonesia",
	"Penerbit": "Mizan Publishing",
	"Berat": "0.2 kg"
},
{
	"page": 55,
	"kategori 1": "komik",
	"book_url": "https://www.gramedia.com/products/your-flowery-heart-03-tamat",
	"title": "Your Flowery Heart 03 - tamat",
	"author": "Sota Kuwahara",
	"Jumlah Halaman": "168",
	"Tanggal Terbit": "22 Nov 2017",
	"ISBN": "9786024285562",
	"Penerbit": "m&c!",
	"Berat": "0.125 kg",
	"Lebar": "11.4 cm",
	"Panjang": "17.2 cm"
},
{
	"page": 55,
	"kategori 1": "komik",
	"book_url": "https://www.gramedia.com/products/smurf-smurf-bind-up-03-lc",
	"title": "Lc: Smurf - Smurf Bind Up 03",
	"author": "Peyo",
	"Jumlah Halaman": "168",
	"Tanggal Terbit": "13 Sep 2015",
	"ISBN": "9786020272474",
	"Bahasa": "Indonesia",
	"Penerbit": "Elex Media Komputindo",
	"Berat": "0.1500 kg",
	"Lebar": "18 cm",
	"Panjang": "24 cm"
},
{
	"page": 55,
	"kategori 1": "komik",
	"book_url": "https://www.gramedia.com/products/my-chubby-boyfriend-03",
	"title": "My Chubby Boyfriend 03",
	"author": "AYUMI KOMURA",
	"Jumlah Halaman": "176",
	"Tanggal Terbit": "7 Jan 2019",
	"ISBN": "9786024802899",
	"Bahasa": "Indonesia",
	"Penerbit": "m&c!",
	"Berat": "0.085 kg",
	"Lebar": "17.2 cm",
	"Panjang": "11.4 cm"
},
{
	"page": 55,
	"kategori 1": "komik",
	"book_url": "https://www.gramedia.com/products/komik-next-g-rumah-nomor-35",
	"title": "Komik Next G Rumah Nomor 35",
	"author": "Mei",
	"Jumlah Halaman": "95",
	"Tanggal Terbit": "25 Mei 2018",
	"ISBN": "9786023675234",
	"Bahasa": "Indonesia",
	"Penerbit": "Muffin Graphics",
	"Berat": "0.10 kg",
	"Lebar": "14 cm",
	"Panjang": "21 cm"
},
{
	"page": 55,
	"kategori 1": "komik",
	"book_url": "https://www.gramedia.com/products/one-piece-16",
	"title": "One Piece 16",
	"author": "Eiichiro Oda",
	"Jumlah Halaman": "184",
	"Tanggal Terbit": "1 Jan 1900",
	"ISBN": "9789792055382",
	"Bahasa": "Indonesia",
	"Penerbit": "Elex Media Komputindo",
	"Berat": "0.10 kg",
	"Lebar": "11 cm",
	"Panjang": "17 cm"
},
{
	"page": 55,
	"kategori 1": "komik",
	"book_url": "https://www.gramedia.com/products/komik-kkpk-misteri-lantai-atas",
	"title": "Komik KKPK Misteri Lantai Atas",
	"author": "Mutiara Sya'bani",
	"Jumlah Halaman": "98",
	"Tanggal Terbit": "5 Des 2018",
	"ISBN": "9786024207182",
	"Bahasa": "Indonesia",
	"Penerbit": "Mizan Publishing",
	"Berat": "0.100 kg",
	"Lebar": "14 cm",
	"Panjang": "21 cm"
},
{
	"page": 55,
	"kategori 1": "komik",
	"book_url": "https://www.gramedia.com/products/komik-next-g-dokter-untuk-adikku",
	"title": "Komik Next G Dokter Untuk Adikku",
	"author": "Nurulita Aulia Karindra, dkk",
	"Jumlah Halaman": "100",
	"Tanggal Terbit": "15 Mei 2019",
	"ISBN": "9786023676767",
	"Bahasa": "Indonesia",
	"Penerbit": "Mizan Media Utama",
	"Berat": "0.1 kg",
	"Lebar": "15 cm",
	"Panjang": "21 cm"
},
{
	"page": 55,
	"kategori 1": "komik",
	"book_url": "https://www.gramedia.com/products/komik-next-g-pergi-berkemah",
	"title": "Komik Next G Pergi Berkemah",
	"author": "Moza Khalifa Humayra, Dkk",
	"Jumlah Halaman": "100",
	"Tanggal Terbit": "27 Mar 2019",
	"ISBN": "9786023676453",
	"Bahasa": "Indonesia",
	"Penerbit": "Curhat Anak Bangsa",
	"Berat": "0.1 kg"
},
{
	"page": 55,
	"kategori 1": "komik",
	"book_url": "https://www.gramedia.com/products/oh-ternyata-kita-bisa-melakukan-kegiatan-3r-reduce-re",
	"title": "Oh, Ternyata ... Kita Bisa Melakukan Kegiatan 3R (Reduce, Reuse, Recycle) untuk Mengurangi Sampah!",
	"author": "Katsumi Yorimoto",
	"Jumlah Halaman": "64",
	"Tanggal Terbit": "18 Des 2017",
	"ISBN": "9786024287214",
	"Penerbit": "m&c!",
	"Berat": "0.100 kg",
	"Lebar": "18 cm",
	"Panjang": "24 cm"
},
{
	"page": 55,
	"kategori 1": "komik",
	"book_url": "https://www.gramedia.com/products/legend-of-an-emperor-viii-cang-tian-ba-huang-12-tamat",
	"title": "Legend of An Emperor VIII : Cang Tian Ba Huang 12 - tamat",
	"author": "Tony Wong",
	"Jumlah Halaman": "160",
	"Tanggal Terbit": "8 Mei 2019",
	"ISBN": "9786024804114",
	"Bahasa": "Indonesia",
	"Penerbit": "m&c!",
	"Berat": "0.130 kg",
	"Lebar": "17 cm",
	"Panjang": "24 cm"
},
{
	"page": 55,
	"kategori 1": "komik",
	"book_url": "https://www.gramedia.com/products/kkpk-full-colour-kado-untuk-mama",
	"title": "KKPK FULL COLOUR: KADO UNTUK MAMA",
	"author": "BAIQ SHAFIRA SALSABILA",
	"Jumlah Halaman": "80",
	"Tanggal Terbit": "7 Jul 2017",
	"ISBN": "9786024204150",
	"Penerbit": "Dar Mizan",
	"Berat": "0.1 kg"
},
{
	"page": 55,
	"kategori 1": "komik",
	"book_url": "https://www.gramedia.com/products/komik-next-g-smile-is-sedekah",
	"title": "Komik Next G Smile Is Sedekah",
	"author": "Fatima",
	"Jumlah Halaman": "96",
	"Tanggal Terbit": "3 Jan 2018",
	"ISBN": "9786023674633",
	"Bahasa": "Indonesia",
	"Penerbit": "Muffin Graphics",
	"Berat": "0.10 kg",
	"Lebar": "14.5 cm",
	"Panjang": "21 cm"
},
{
	"page": 55,
	"kategori 1": "komik",
	"book_url": "https://www.gramedia.com/products/komik-kkpk-toko-roti-impian",
	"title": "Komik Kkpk Toko Roti Impian",
	"author": "Gradiva Hana Suita, Dkk",
	"Jumlah Halaman": "92",
	"Tanggal Terbit": "21 Mar 2018",
	"ISBN": "9786024205805",
	"Bahasa": "Indonesia",
	"Penerbit": "Mizan Media Utama Pt",
	"Berat": "0.10 kg",
	"Lebar": "14 cm",
	"Panjang": "21 cm"
},
{
	"page": 55,
	"kategori 1": "komik",
	"book_url": "https://www.gramedia.com/products/animal-official-vol-4",
	"title": "Animal Official Vol. 4",
	"author": "Haruka Fukushima",
	"Jumlah Halaman": "176",
	"Tanggal Terbit": "6 Des 2017",
	"ISBN": "9786020450810",
	"Penerbit": "Elex Media Komputindo",
	"Berat": "0.110 kg",
	"Lebar": "11.4 cm",
	"Panjang": "17.2 cm"
},
{
	"page": 55,
	"kategori 1": "komik",
	"book_url": "https://www.gramedia.com/products/good-personality-series-aku-pasti-bisa",
	"title": "Good Personality Series - Aku Pasti Bisa!",
	"author": "Lee Yoon Hee",
	"Jumlah Halaman": "184",
	"Tanggal Terbit": "14 Mei 2018",
	"ISBN": "9786020459547",
	"Bahasa": "Indonesia",
	"Penerbit": "Elex Media Komputindo",
	"Berat": "0.3 kg",
	"Lebar": "15 cm",
	"Panjang": "22 cm"
},
{
	"page": 55,
	"kategori 1": "komik",
	"book_url": "https://www.gramedia.com/products/komik-better-muslimah",
	"title": "Komik Better Muslimah",
	"author": "Salsabila Amanda Dewi",
	"Jumlah Halaman": "153",
	"Tanggal Terbit": "21 Jan 2019",
	"ISBN": "9786021695548",
	"Bahasa": "Indonesia",
	"Penerbit": "Salsabila",
	"Berat": "0.15 kg",
	"Lebar": "14 cm",
	"Panjang": "20 cm"
},
{
	"page": 55,
	"kategori 1": "komik",
	"book_url": "https://www.gramedia.com/products/komik-next-g-nilai-rapor",
	"title": "Komik Next G Nilai Rapor",
	"author": "Dkk",
	"Jumlah Halaman": "100",
	"Tanggal Terbit": "27 Des 2018",
	"ISBN": "9786023675975",
	"Bahasa": "Indonesia",
	"Penerbit": "Muffin Graphics",
	"Berat": "0.12 kg",
	"Lebar": "15 cm",
	"Panjang": "21 cm"
},
{
	"page": 55,
	"kategori 1": "komik",
	"book_url": "https://www.gramedia.com/products/helter-skelter",
	"title": "Helter Skelter",
	"author": "Megan Arvina",
	"Jumlah Halaman": "456",
	"Tanggal Terbit": "17 Des 2017",
	"ISBN": "9786027241435",
	"Bahasa": "Indonesia",
	"Penerbit": "Bintang Media",
	"Berat": "0.39 kg",
	"Lebar": "14 cm",
	"Panjang": "20.5 cm"
},
{
	"page": 55,
	"kategori 1": "komik",
	"book_url": "https://www.gramedia.com/products/dragon-ball-vol-20",
	"title": "Dragon Ball Vol. 20",
	"author": "Akira Toriyama",
	"Jumlah Halaman": "192",
	"Tanggal Terbit": "27 Sep 2017",
	"ISBN": "9786020445809",
	"Bahasa": "Indonesia",
	"Penerbit": "Elex Media Komputindo",
	"Berat": "0.1300 kg",
	"Lebar": "11.4 cm"
},
{
	"page": 55,
	"kategori 1": "komik",
	"book_url": "https://www.gramedia.com/products/trinity-blood-14",
	"title": "Trinity Blood 14",
	"author": "Kiyo Kyujyo, Sunao Yoshida",
	"Jumlah Halaman": "160.0",
	"Tanggal Terbit": "19 Agt 2019",
	"ISBN": "9786230004070",
	"Penerbit": "ELEX MEDIA KOMPUTINDO",
	"Berat": "0.08 kg",
	"Lebar": "11.4 cm",
	"Panjang": "0.0 cm"
},
{
	"page": 55,
	"kategori 1": "komik",
	"book_url": "https://www.gramedia.com/products/ellie-is-lovesick-01",
	"title": "Ellie is Lovesick 01",
	"author": "Fujimomo",
	"Jumlah Halaman": "176",
	"Tanggal Terbit": "2 Jan 2018",
	"ISBN": "9786024286583",
	"Penerbit": "m&c!",
	"Berat": "0.115 kg",
	"Lebar": "11.4 cm",
	"Panjang": "17.2 cm"
},
{
	"page": 55,
	"kategori 1": "komik",
	"book_url": "https://www.gramedia.com/products/inuyasha-premium-13",
	"title": "Inuyasha Premium 13",
	"author": "Takahashi Rumiko",
	"Jumlah Halaman": "360",
	"Tanggal Terbit": "18 Okt 2017",
	"ISBN": "9786020445700",
	"Penerbit": "Elex Media Komputindo",
	"Berat": "0.1300 kg",
	"Lebar": "11.4 cm",
	"Panjang": "17.2 cm"
},
{
	"page": 55,
	"kategori 1": "komik",
	"book_url": "https://www.gramedia.com/products/smurf-dongeng-papa-smurf-buku-5",
	"title": "Smurf - Dongeng Papa Smurf Buku 5",
	"author": "Peyo",
	"Jumlah Halaman": "32",
	"Tanggal Terbit": "30 Jan 2019",
	"ISBN": "9786020486543",
	"Bahasa": "Indonesia",
	"Penerbit": "Elex Media Komputindo",
	"Berat": "0.1 kg",
	"Lebar": "18 cm",
	"Panjang": "24 cm"
},
{
	"page": 55,
	"kategori 1": "komik",
	"book_url": "https://www.gramedia.com/products/horimiya-05",
	"title": "Horimiya 05",
	"author": "Hero, Daisuke Hagiwara",
	"Jumlah Halaman": "192",
	"Tanggal Terbit": "6 Sep 2017",
	"ISBN": "9786020444017",
	"Bahasa": "Indonesia",
	"Penerbit": "Elex Media Komputindo",
	"Berat": "0.1300 kg",
	"Lebar": "11.4 cm"
},
{
	"page": 55,
	"kategori 1": "komik",
	"book_url": "https://www.gramedia.com/products/jess-friends-vol3-demam-cosplay",
	"title": "Jess and Friends Vol.3: Demam Cosplay",
	"author": "Christophe Cazenove",
	"Jumlah Halaman": "48",
	"Tanggal Terbit": "21 Mei 2018",
	"ISBN": "9786024555566",
	"Bahasa": "Indonesia",
	"Penerbit": "Bhuana Ilmu Populer",
	"Berat": "0.2 kg",
	"Lebar": "16 cm",
	"Panjang": "22 cm"
},
{
	"page": 55,
	"kategori 1": "komik",
	"book_url": "https://www.gramedia.com/products/please-take-my-brother-away-03",
	"title": "Please Take My Brother Away! 03",
	"author": "You. Ling",
	"Jumlah Halaman": "120.0",
	"Tanggal Terbit": "11 Des 2019",
	"ISBN": "9786024808211",
	"Bahasa": "Indonesia",
	"Penerbit": "m&c!",
	"Berat": "0.075 kg",
	"Lebar": "11.4 cm",
	"Panjang": "17.2 cm"
},
{
	"page": 55,
	"kategori 1": "komik",
	"book_url": "https://www.gramedia.com/products/koloni-cupid-01",
	"title": "Koloni Cupid+ 01",
	"author": "Maulana Faris, Yulia Awalina",
	"Jumlah Halaman": "128.0",
	"Tanggal Terbit": "13 Nov 2019",
	"ISBN": "9786024807979",
	"Bahasa": "Indonesia",
	"Penerbit": "m&c!",
	"Berat": "0.1 kg",
	"Lebar": "13.5 cm",
	"Panjang": "20.0 cm"
},
{
	"page": 55,
	"kategori 1": "komik",
	"book_url": "https://www.gramedia.com/products/the-snack-world-2",
	"title": "The Snack World 2",
	"author": "SHO.T,LEVEL 5",
	"Jumlah Halaman": "168",
	"Tanggal Terbit": "27 Mei 2019",
	"ISBN": "9786020498607",
	"Bahasa": "Indonesia",
	"Penerbit": "Elex Media Komputindo",
	"Berat": "0.115 kg",
	"Lebar": "11.4 cm",
	"Panjang": "17.2 cm"
},
{
	"page": 55,
	"kategori 1": "komik",
	"book_url": "https://www.gramedia.com/products/night-patrol-teacher-09-tamat",
	"title": "Night Patrol Teacher 09 - Tamat",
	"author": "Seiki Tsuchida",
	"Jumlah Halaman": "192.0",
	"Tanggal Terbit": "4 Sep 2019",
	"ISBN": "9786024806781",
	"Penerbit": "m&c!",
	"Berat": "0.093 kg",
	"Lebar": "11.4 cm",
	"Panjang": "17.2 cm"
},
{
	"page": 55,
	"kategori 1": "komik",
	"book_url": "https://www.gramedia.com/products/please-love-me-01-1",
	"title": "Please Love Me! 01",
	"author": "Aya Nakahara",
	"Jumlah Halaman": "184",
	"Tanggal Terbit": "27 Mei 2019",
	"ISBN": "9786020498980",
	"Bahasa": "Indonesia",
	"Penerbit": "Elex Media Komputindo",
	"Berat": "0.110 kg",
	"Lebar": "114 cm",
	"Panjang": "17.2 cm"
},
{
	"page": 55,
	"kategori 1": "komik",
	"book_url": "https://www.gramedia.com/products/paket-yona-the-girl-standing-in-the-blush-of-dawn-vol-13-1",
	"title": "Paket Yona, The Girl Standing In The Blush Of Dawn Vol. 13-16",
	"author": "Mizuho Kusanagi",
	"Jumlah Halaman": "0",
	"Tanggal Terbit": "8 Jul 2019",
	"ISBN": "531900009",
	"Bahasa": "Indonesia",
	"Penerbit": "m&c!",
	"Berat": "0.379 kg",
	"Lebar": "11.4 cm",
	"Panjang": "17.2 cm"
},
{
	"page": 55,
	"kategori 1": "komik",
	"book_url": "https://www.gramedia.com/products/lc-silver-wolf-blood-bone-01",
	"title": "Lc: Silver Wolf, Blood, Bone 01",
	"author": "Tatsukazu Konda, Shimeji Yukiyama",
	"Jumlah Halaman": "208.0",
	"Tanggal Terbit": "11 Sep 2019",
	"ISBN": "9786230000393",
	"Penerbit": "Elex Media Komputindo",
	"Berat": "0.12 kg",
	"Lebar": "13.0 cm",
	"Panjang": "18.0 cm"
},
{
	"page": 55,
	"kategori 1": "komik",
	"book_url": "https://www.gramedia.com/products/seven-deadly-sins-29",
	"title": "Seven Deadly Sins 29",
	"author": "Nakaba Suzuki",
	"Jumlah Halaman": "192",
	"Tanggal Terbit": "31 Jul 2019",
	"ISBN": "9786230002076",
	"Bahasa": "Indonesia",
	"Penerbit": "Elex Media Komputindo",
	"Berat": "0.093 kg",
	"Lebar": "11.4 cm",
	"Panjang": "17.2 cm"
},
{
	"page": 55,
	"kategori 1": "komik",
	"book_url": "https://www.gramedia.com/products/shaman-king-19",
	"title": "Shaman King 19",
	"author": "Hiroyuki Takei",
	"Jumlah Halaman": "192",
	"Tanggal Terbit": "11 Okt 2017",
	"ISBN": "9789792315707",
	"Bahasa": "Indonesia",
	"Penerbit": "m&c!",
	"Berat": "0.1300 kg",
	"Lebar": "11.2 cm"
},
{
	"page": 55,
	"kategori 1": "komik",
	"book_url": "https://www.gramedia.com/products/high-rise-invasion-07",
	"title": "High Rise Invasion 07",
	"author": "Tsuina Miura / Takahiro Oba",
	"Jumlah Halaman": "192",
	"Tanggal Terbit": "6 Feb 2019",
	"ISBN": "9786024802264",
	"Bahasa": "Indonesia",
	"Penerbit": "m&c!",
	"Berat": "0.093 kg",
	"Lebar": "17.2 cm",
	"Panjang": "11.4 cm"
},
{
	"page": 55,
	"kategori 1": "komik",
	"book_url": "https://www.gramedia.com/products/rahasia-anak-sd-friend",
	"title": "Rahasia Anak Sd - Friend",
	"author": "Mikayo Nakae",
	"Jumlah Halaman": "160",
	"Tanggal Terbit": "17 Jul 2019",
	"ISBN": "9786230002267",
	"Bahasa": "Indonesia",
	"Penerbit": "Elex Media Komputindo",
	"Berat": "0.076 kg",
	"Lebar": "11.4 cm",
	"Panjang": "17.2 cm"
},
{
	"page": 55,
	"kategori 1": "komik",
	"book_url": "https://www.gramedia.com/products/komik-next-g-bianglala-tua",
	"title": "Komik Next G Bianglala Tua",
	"author": "Difta Wachidaturrosyidah, Dkk",
	"Jumlah Halaman": "95",
	"Tanggal Terbit": "8 Jan 2019",
	"ISBN": "9786023676149",
	"Bahasa": "Indonesia",
	"Penerbit": "Muffin Graphics",
	"Berat": "0.120 kg",
	"Lebar": "14 cm",
	"Panjang": "21 cm"
},
{
	"page": 55,
	"kategori 1": "komik",
	"book_url": "https://www.gramedia.com/products/shaman-king-21",
	"title": "Shaman King 21",
	"author": "Hiroyuki Takei",
	"Jumlah Halaman": "192",
	"Tanggal Terbit": "25 Okt 2017",
	"ISBN": "9789792305180",
	"Penerbit": "m&c!",
	"Berat": "0.1300 kg",
	"Lebar": "11.2 cm",
	"Panjang": "17.4 cm"
},
{
	"page": 55,
	"kategori 1": "komik",
	"book_url": "https://www.gramedia.com/products/moriarty-the-patriot-7",
	"title": "Moriarty The Patriot 7",
	"author": "Miyoshi Hikaru",
	"Jumlah Halaman": "208",
	"Tanggal Terbit": "26 Jun 2019",
	"ISBN": "9786020498966",
	"Bahasa": "Indonesia",
	"Penerbit": "Elex Media Komputindo",
	"Berat": "0.118 kg",
	"Lebar": "11.4 cm",
	"Panjang": "17.2 cm"
},
{
	"page": 55,
	"kategori 1": "komik",
	"book_url": "https://www.gramedia.com/products/os-diorama-toy-box",
	"title": "OS: Diorama Toy Box",
	"author": "Kenta Mizuhara",
	"Jumlah Halaman": "192",
	"Tanggal Terbit": "23 Agt 2017",
	"ISBN": "9786020442211",
	"Bahasa": "Indonesia",
	"Penerbit": "Elex Media Komputindo",
	"Berat": "0.1300 kg",
	"Lebar": "11.4 cm"
},
{
	"page": 55,
	"kategori 1": "komik",
	"book_url": "https://www.gramedia.com/products/stardust-wink-09",
	"title": "Stardust Wink 09",
	"author": "Nana Haruta",
	"Jumlah Halaman": "160",
	"Tanggal Terbit": "27 Des 2017",
	"ISBN": "9786024286194",
	"Penerbit": "m&c!",
	"Berat": "0.100 kg",
	"Lebar": "11.2 cm",
	"Panjang": "17.6 cm"
},
