{
	"page": 75,
	"kategori 1": "non-fiksi",
	"kategori 2": "komputer-teknologi",
	"book_url": "https://www.gramedia.com/products/conf-website-pencetak-uang",
	"title": "Website Pencetak Uang",
	"author": "Dedik Kurniawan & Java Creativity",
	"Jumlah Halaman": "264",
	"Tanggal Terbit": "5 Apr 2013",
	"ISBN": "978979278292",
	"Penerbit": "Elex Media Komputindo",
	"Berat": "0.23 kg",
	"Lebar": "14.0 cm",
	"Panjang": "21.0 cm"
},
{
	"page": 75,
	"kategori 1": "non-fiksi",
	"kategori 2": "komputer-teknologi",
	"book_url": "https://www.gramedia.com/products/conf-toko-online-canggih-dengan-wordpress",
	"title": "Toko Online Canggih dengan WordPress",
	"author": "M.hilmi Masruri & Java Creativity",
	"Jumlah Halaman": "225",
	"Tanggal Terbit": "13 Jun 2013",
	"ISBN": "978602002132",
	"Penerbit": "Elex Media Komputindo",
	"Berat": "0.2 kg",
	"Lebar": "14.0 cm",
	"Panjang": "21.0 cm"
},
{
	"page": 75,
	"kategori 1": "non-fiksi",
	"kategori 2": "komputer-teknologi",
	"book_url": "https://www.gramedia.com/products/aplikasi-android-dalam-5-menit",
	"title": "Aplikasi Android Dalam 5 Menit",
	"author": "Hanif Irsyad",
	"Jumlah Halaman": "174",
	"Tanggal Terbit": "31 Agt 2015",
	"ISBN": "9786020271538",
	"Bahasa": "Indonesia",
	"Penerbit": "Elex Media Komputindo",
	"Berat": "0.1940 kg",
	"Lebar": "14 cm"
},
{
	"page": 75,
	"kategori 1": "non-fiksi",
	"kategori 2": "komputer-teknologi",
	"book_url": "https://www.gramedia.com/products/conf-rahasia-fungsi-excel-2007-2010",
	"title": "Rahasia Fungsi Excel 2007 & 2010",
	"author": "Christopher Lee",
	"Jumlah Halaman": "256",
	"Tanggal Terbit": "11 Mei 2014",
	"ISBN": "978602002593",
	"Penerbit": "Elex Media Komputindo",
	"Berat": "0.22 kg",
	"Lebar": "14.0 cm",
	"Panjang": "21.0 cm"
},
{
	"page": 75,
	"kategori 1": "non-fiksi",
	"kategori 2": "komputer-teknologi",
	"book_url": "https://www.gramedia.com/products/conf-trik-memproteksi-ponsel-tablet-android-dari-virus-dan-aplikasi-jahat",
	"title": "Trik Memproteksi Ponsel & Tablet Android dari Virus dan Aplikasi Jahat",
	"author": "Jubilee Enterprise",
	"Jumlah Halaman": "112",
	"Tanggal Terbit": "26 Mei 2014",
	"ISBN": "978602003544",
	"Penerbit": "Elex Media Komputindo",
	"Berat": "0.1 kg",
	"Lebar": "14.0 cm",
	"Panjang": "21.0 cm"
},
{
	"page": 75,
	"kategori 1": "non-fiksi",
	"kategori 2": "komputer-teknologi",
	"book_url": "https://www.gramedia.com/products/conf-powerpoint-untuk-seminar-pameran",
	"title": "PowerPoint untuk Seminar & Pameran",
	"author": "Jubilee Enterprise",
	"Jumlah Halaman": "-",
	"Tanggal Terbit": "24 Apr 2015",
	"ISBN": "9786020262604",
	"Bahasa": "Indonesia",
	"Penerbit": "Elex Media Komputindo",
	"Berat": "0.2500 kg",
	"Lebar": "14 cm"
},
{
	"page": 75,
	"kategori 1": "non-fiksi",
	"kategori 2": "komputer-teknologi",
	"book_url": "https://www.gramedia.com/products/conf-mahir-otodidak-word-dan-excel-2010",
	"title": "Mahir Otodidak Word dan Excel 2010",
	"author": "Hendra Wijaya",
	"Jumlah Halaman": "216",
	"Tanggal Terbit": "7 Feb 2015",
	"ISBN": "9786020257808",
	"Bahasa": "Indonesia",
	"Penerbit": "Elex Media Komputindo",
	"Berat": "0.2370 kg",
	"Lebar": "14 cm"
},
{
	"page": 75,
	"kategori 1": "non-fiksi",
	"kategori 2": "komputer-teknologi",
	"book_url": "https://www.gramedia.com/products/conf-instagram-untuk-fotografi-digital-dan-bisnis-kreatif",
	"title": "Instagram untuk Fotografi Digital dan Bisnis Kreatif",
	"author": "Jubilee Enterprise",
	"Jumlah Halaman": "119",
	"Tanggal Terbit": "29 Apr 2014",
	"ISBN": "978602002274",
	"Penerbit": "Elex Media Komputindo",
	"Berat": "0.11 kg",
	"Lebar": "14.0 cm",
	"Panjang": "21.0 cm"
},
{
	"page": 75,
	"kategori 1": "non-fiksi",
	"kategori 2": "komputer-teknologi",
	"book_url": "https://www.gramedia.com/products/conf-mengenal-levels-curves-dan-histogram-photoshop",
	"title": "Mengenal Levels, Curves, dan Histogram Photoshop",
	"author": "Jubilee Enterprise",
	"Jumlah Halaman": "169",
	"Tanggal Terbit": "4 Jun 2014",
	"ISBN": "978602020323",
	"Penerbit": "Elex Media Komputindo",
	"Berat": "0.15 kg",
	"Lebar": "14.0 cm",
	"Panjang": "21.0 cm"
},
{
	"page": 75,
	"kategori 1": "non-fiksi",
	"kategori 2": "komputer-teknologi",
	"book_url": "https://www.gramedia.com/products/conf-grafis-chart-spektakuler-excel",
	"title": "Grafis & Chart Spektakuler Excel",
	"author": "Christopher Lee",
	"Jumlah Halaman": "218",
	"Tanggal Terbit": "23 Mei 2014",
	"ISBN": "978602003331",
	"Penerbit": "Elex Media Komputindo",
	"Berat": "0.19 kg",
	"Lebar": "14.0 cm",
	"Panjang": "21.0 cm"
},
