{
	"page": 62,
	"kategori 1": "non-fiksi",
	"kategori 2": "pendidikan",
	"book_url": "https://www.gramedia.com/products/smama-kl11-sejarah-peminatan-smt2-rev2017-kur2013",
	"title": "Sejarah Peminatan SMA/MA Kelas 11 Semester 2 Revisi 2017 Kurikulum 2013",
	"author": "Melkisedek Bagas Fenetiruma",
	"Jumlah Halaman": "176",
	"Tanggal Terbit": "1 Agt 2017",
	"ISBN": "9789792816792",
	"Bahasa": "Indonesia",
	"Penerbit": "Intan Pariwara",
	"Berat": "0.245 kg",
	"Lebar": "20.5 cm",
	"Panjang": "28 cm"
},
{
	"page": 62,
	"kategori 1": "non-fiksi",
	"kategori 2": "pendidikan",
	"book_url": "https://www.gramedia.com/products/sma-kl-10-12-buku-saku-rumus-hafalan-kimia",
	"title": "Sma Kl 10-12 Buku Saku Rumus&Hafalan Kimia",
	"author": "Dita Anggraini",
	"Jumlah Halaman": "240",
	"Tanggal Terbit": "3 Jul 2015",
	"ISBN": "9789799115133",
	"Bahasa": "Indonesia",
	"Penerbit": "Quantum Ilmu",
	"Berat": "0.2000 kg",
	"Lebar": "12 cm"
},
{
	"page": 62,
	"kategori 1": "non-fiksi",
	"kategori 2": "pendidikan",
	"book_url": "https://www.gramedia.com/products/the-master-key-sbmptn-saintek-2018-paket-super-lengkap",
	"title": "THE MASTER KEY SBMPTN SAINTEK 2018: PAKET SUPER LENGKAP",
	"author": "Tim Widya Gamma & Tim Quantum",
	"Jumlah Halaman": "512",
	"Tanggal Terbit": "3 Okt 2017",
	"ISBN": "9786023746637",
	"Penerbit": "Yrama Widya",
	"Berat": "0.78 kg",
	"Lebar": "20 cm",
	"Panjang": "26 cm"
},
{
	"page": 62,
	"kategori 1": "non-fiksi",
	"kategori 2": "pendidikan",
	"book_url": "https://www.gramedia.com/products/bahas-tuntas-kisi-kisi-un-smp-2018-cd",
	"title": "Bahas Tuntas Kisi-Kisi UN SMP 2018 + CD",
	"author": "Tim Tentor Smart",
	"Jumlah Halaman": "656",
	"Tanggal Terbit": "29 Mei 2017",
	"ISBN": "9786023759415",
	"Bahasa": "Indonesia",
	"Penerbit": "Gramedia Widiasarana Indonesia",
	"Berat": "1.3000 kg",
	"Lebar": "20.5 cm"
},
{
	"page": 62,
	"kategori 1": "non-fiksi",
	"kategori 2": "pendidikan",
	"book_url": "https://www.gramedia.com/products/sma-ma-kl-x-matematika-kur-2013-ed-revisi-2016-peminatan",
	"title": "Sma/Ma Kl. X Matematika Kur 2013 Ed Revisi 2016 : Peminatan",
	"author": "Sutrisna - Slamet Waluyo",
	"Jumlah Halaman": "144",
	"Tanggal Terbit": "28 Apr 2017",
	"ISBN": "9786022177340",
	"Bahasa": "Indonesia",
	"Penerbit": "Bumi Aksara",
	"Berat": "0.5400 kg",
	"Lebar": "21 cm"
},
{
	"page": 62,
	"kategori 1": "non-fiksi",
	"kategori 2": "pendidikan",
	"book_url": "https://www.gramedia.com/products/sd-kl-3a-pintar-sains-semester-1-kur-2006-ktsp",
	"title": "SD Kelas 3A Pintar Sains Semester 1 Kurikulum 2006 KTSP",
	"author": "Septi A.Rachmadi Dkk",
	"Jumlah Halaman": "104",
	"Tanggal Terbit": "31 Mar 2016",
	"ISBN": "9786022994381",
	"Bahasa": "Indonesia",
	"Penerbit": "Yudhistira Ghalia Indonesia",
	"Berat": "0.300 kg",
	"Lebar": "20 cm",
	"Panjang": "27 cm"
},
{
	"page": 62,
	"kategori 1": "non-fiksi",
	"kategori 2": "pendidikan",
	"book_url": "https://www.gramedia.com/products/sdmi-klvi-tematik-tokohpenemuan-jl6c-k13-rev",
	"title": "SD/MI Kelas VI Tematik Tokoh dan Penemuan Jilid 6C Kurikulum 2013 Revisi",
	"author": "Dhiah Saptorini",
	"Jumlah Halaman": "148",
	"Tanggal Terbit": "1 Jul 2018",
	"ISBN": "9786022996811",
	"Bahasa": "Indonesia",
	"Penerbit": "Yudhistira Ghalia Indonesia",
	"Berat": "0.4 kg",
	"Lebar": "20.5 cm",
	"Panjang": "27.5 cm"
},
{
	"page": 62,
	"kategori 1": "non-fiksi",
	"kategori 2": "pendidikan",
	"book_url": "https://www.gramedia.com/products/pembelajaran-bahasa-asing-tradisional-ed-rev",
	"title": "Pembelajaran Bahasa Asing Tradisional Ed. Revesi",
	"author": "Aziz Fachrurrozi & Erta Mahyudin",
	"Jumlah Halaman": "240",
	"Tanggal Terbit": "3 Nov 2016",
	"ISBN": "9786024250225",
	"Bahasa": "Indonesia",
	"Penerbit": "Rajagrafindo",
	"Berat": "0.3500 kg",
	"Lebar": "16 cm"
},
{
	"page": 62,
	"kategori 1": "non-fiksi",
	"kategori 2": "pendidikan",
	"book_url": "https://www.gramedia.com/products/easy-english-part-2",
	"title": "Easy English Part 2",
	"author": "Karlina Denistta",
	"Jumlah Halaman": "182",
	"Tanggal Terbit": "18 Mar 2016",
	"ISBN": "9789797808563",
	"Bahasa": "Indonesia",
	"Penerbit": "Pandamedia",
	"Berat": "0.1500 kg",
	"Lebar": "13 cm"
},
{
	"page": 62,
	"kategori 1": "non-fiksi",
	"kategori 2": "pendidikan",
	"book_url": "https://www.gramedia.com/products/primagama-smart-solution-lulus-un-smama-ips-2018",
	"title": "Primagama Smart Solution Lulus UN SMA/MA IPS 2018",
	"author": "Tim Primagama",
	"Jumlah Halaman": "298",
	"Tanggal Terbit": "2 Jan 2018",
	"ISBN": "9786024523633",
	"Penerbit": "Gramedia Widiasarana Indonesia",
	"Berat": "0.9 kg",
	"Lebar": "20.5 cm",
	"Panjang": "27.5 cm"
},
{
	"page": 62,
	"kategori 1": "non-fiksi",
	"kategori 2": "pendidikan",
	"book_url": "https://www.gramedia.com/products/penulisan-buku-ajar-perguruan-tinggi",
	"title": "Penulisan Buku Ajar Perguruan Tinggi",
	"author": "Wahyu Wibowo",
	"Jumlah Halaman": "224",
	"Tanggal Terbit": "4 Feb 2016",
	"ISBN": "9789797699086",
	"Bahasa": "Indonesia",
	"Penerbit": "Rajawali Press",
	"Berat": "0.2500 kg",
	"Lebar": "14 cm",
	"Panjang": "20.5 cm"
},
{
	"page": 62,
	"kategori 1": "non-fiksi",
	"kategori 2": "pendidikan",
	"book_url": "https://www.gramedia.com/products/sma-kl-12-pendalaman-buku-teks-fisika-3-ktsp",
	"title": "SMA Kelas 12 Pendalaman Buku Teks Fisika 3 KTSP",
	"author": "Siti Nurma Nugraha",
	"Jumlah Halaman": "112",
	"Tanggal Terbit": "15 Apr 2016",
	"ISBN": "9786022992301",
	"Bahasa": "Indonesia",
	"Penerbit": "Yudhistira Ghalia Indonesia",
	"Berat": "0.400 kg",
	"Lebar": "20.5 cm",
	"Panjang": "26.8 cm"
},
{
	"page": 62,
	"kategori 1": "non-fiksi",
	"kategori 2": "pendidikan",
	"book_url": "https://www.gramedia.com/products/sma-kl-10-12-genius-pocket-book-fisika",
	"title": "Sma Kl 10-12 Genius Pocket Book Fisika",
	"author": "Indarniati",
	"Jumlah Halaman": "310",
	"Tanggal Terbit": "22 Mar 2016",
	"ISBN": "9786027258976",
	"Penerbit": "Caesar Media Pustaka",
	"Berat": "0.3000 kg",
	"Lebar": "2 cm"
},
{
	"page": 62,
	"kategori 1": "non-fiksi",
	"kategori 2": "pendidikan",
	"book_url": "https://www.gramedia.com/products/smama-klxii-mozaik-ekonomi-jl3-k13-rev",
	"title": "Sma/Ma Kl.Xii Mozaik Ekonomi Jl.3 K/13 Rev",
	"author": "Endang Mulyadi",
	"Jumlah Halaman": "170.0",
	"Tanggal Terbit": "1 Jul 2019",
	"ISBN": "9786024456771",
	"Bahasa": "Indonesia",
	"Penerbit": "YUDHISTIRA",
	"Berat": "0.28 kg",
	"Lebar": "20.5 cm",
	"Panjang": "25.6 cm"
},
{
	"page": 62,
	"kategori 1": "non-fiksi",
	"kategori 2": "pendidikan",
	"book_url": "https://www.gramedia.com/products/school-zone-maths-basics-2-ages-6-7-sc",
	"title": "School Zone: Maths Basics 2 Ages 6-7",
	"author": "Hinkler",
	"Jumlah Halaman": "None",
	"Tanggal Terbit": "1 Des 2018",
	"ISBN": "9781488930072",
	"Bahasa": "English",
	"Penerbit": "Hinkler",
	"Berat": "0.5 kg",
	"Lebar": "30 cm",
	"Panjang": "38 cm"
},
{
	"page": 62,
	"kategori 1": "non-fiksi",
	"kategori 2": "pendidikan",
	"book_url": "https://www.gramedia.com/products/matematika-untuk-siswa-sma-ma-kelas-xii-kur-2013-revisi",
	"title": "Matematika Untuk Siswa Sma/Ma Kelas Xii Kur.2013 Revisi",
	"author": "Suah ,mahmun,marsito,ibnu",
	"Jumlah Halaman": "224",
	"Tanggal Terbit": "2 Feb 2017",
	"ISBN": "9786023820832",
	"Bahasa": "Indonesia",
	"Penerbit": "Yrama Widya",
	"Berat": "0.3680 kg",
	"Lebar": "17.6 cm"
},
{
	"page": 62,
	"kategori 1": "non-fiksi",
	"kategori 2": "pendidikan",
	"book_url": "https://www.gramedia.com/products/sma-ma-kl-11-bupena-fisika-2-kur-2013",
	"title": "SMA/MA Kelas 11 Bupena Fisika 2 Kurikulum 2013",
	"author": "Ari Damari",
	"Jumlah Halaman": "229",
	"Tanggal Terbit": "29 Jul 2015",
	"ISBN": "9786022418313",
	"Bahasa": "Indonesia",
	"Penerbit": "Erlangga",
	"Berat": "0.50 kg",
	"Lebar": "21 cm",
	"Panjang": "26 cm"
},
{
	"page": 62,
	"kategori 1": "non-fiksi",
	"kategori 2": "pendidikan",
	"book_url": "https://www.gramedia.com/products/sdmi-kl1-seni-budaya-keterampilan-1-ktsp",
	"title": "SD/MI Kelas 1 Seni Budaya & Keterampilan 1 KTSP",
	"author": "Eko Wijiono",
	"Jumlah Halaman": "136",
	"Tanggal Terbit": "16 Jul 2012",
	"ISBN": "9789790845350",
	"Bahasa": "Indonesia",
	"Penerbit": "Global",
	"Berat": "0.25 kg",
	"Lebar": "17.5 cm",
	"Panjang": "26 cm"
},
{
	"page": 62,
	"kategori 1": "non-fiksi",
	"kategori 2": "pendidikan",
	"book_url": "https://www.gramedia.com/products/sd-kelas-iv-penjasorkes-jilid-4-kurikulum-2013-revisi-2016",
	"title": "SD Kelas IV Penjasorkes Jilid 4 Kurikulum 2013 Revisi 2016",
	"author": "Bambang Wicaksono",
	"Jumlah Halaman": "126",
	"Tanggal Terbit": "1 Apr 2018",
	"ISBN": "9786022999751",
	"Bahasa": "Indonesia",
	"Penerbit": "Yudhistira Ghalia Indonesia",
	"Berat": "0.35 kg",
	"Lebar": "21 cm",
	"Panjang": "28.5 cm"
},
{
	"page": 62,
	"kategori 1": "non-fiksi",
	"kategori 2": "pendidikan",
	"book_url": "https://www.gramedia.com/products/buku-ajar-humaniora-dalam-kebidanan",
	"title": "Buku Ajar Humaniora Dalam Kebidanan",
	"author": "Risneni",
	"Jumlah Halaman": "100",
	"Tanggal Terbit": "20 Jul 2016",
	"ISBN": "9786020946856",
	"Bahasa": "Indonesia",
	"Penerbit": "In Media",
	"Berat": "0.1500 kg",
	"Lebar": "14 cm"
},
{
	"page": 62,
	"kategori 1": "non-fiksi",
	"kategori 2": "pendidikan",
	"book_url": "https://www.gramedia.com/products/pintar-ipa-metode-mind-map-sd-kelas-456",
	"title": "Pintar Ipa Metode Mind Map Sd Kelas 4.5.6",
	"author": "Irma Nurmala, S.Pd. Dan Trioyono M.Pd.",
	"Jumlah Halaman": "0",
	"Tanggal Terbit": "27 Mei 2016",
	"ISBN": "9786023755165",
	"Penerbit": "Gramedia Widiasarana Indonesia",
	"Berat": "0 kg",
	"Lebar": "0 cm",
	"Panjang": "1 cm"
},
{
	"page": 62,
	"kategori 1": "non-fiksi",
	"kategori 2": "pendidikan",
	"book_url": "https://www.gramedia.com/products/siap-sekejap-kuasai-semua-pola-soal-un-smp-mts-2017",
	"title": "Siap Sekejap Kuasai Semua Pola Soal Un Smp/Mts 2017",
	"author": "M.f. Atsnan",
	"Jumlah Halaman": "680",
	"Tanggal Terbit": "7 Sep 2016",
	"ISBN": "9789796201570",
	"Bahasa": "Indonesia",
	"Penerbit": "Pustaka Widyatama",
	"Berat": "0.9500 kg",
	"Lebar": "19.5 cm"
},
{
	"page": 62,
	"kategori 1": "non-fiksi",
	"kategori 2": "pendidikan",
	"book_url": "https://www.gramedia.com/products/sukses-tembus-tpa-smpmts",
	"title": "Sukses Tembus TPA SMP/MTS",
	"author": "Mohammad Jauhar, S.Pd.",
	"Jumlah Halaman": "220",
	"Tanggal Terbit": "13 Mei 2019",
	"ISBN": "9786232161573",
	"Bahasa": "Indonesia",
	"Penerbit": "Bhuana Ilmu Populer",
	"Berat": "0.500 kg",
	"Lebar": "21 cm",
	"Panjang": "27 cm"
},
{
	"page": 62,
	"kategori 1": "non-fiksi",
	"kategori 2": "pendidikan",
	"book_url": "https://www.gramedia.com/products/pengembangan-strategi-model-pembelajaran-inovatifkreati",
	"title": "Pengembangan Strategi & Model Pembelajaran: Inovatif, Kreatif, dan Prestatif dalam Memahami Peserta Didik",
	"author": "Doni Juni Priansa",
	"Jumlah Halaman": "372",
	"Tanggal Terbit": "28 Apr 2017",
	"ISBN": "9789790766570",
	"Bahasa": "Indonesia",
	"Penerbit": "Pustaka Setia",
	"Berat": "0.43 kg",
	"Lebar": "15.5 cm",
	"Panjang": "24 cm"
},
{
	"page": 62,
	"kategori 1": "non-fiksi",
	"kategori 2": "pendidikan",
	"book_url": "https://www.gramedia.com/products/menyusun-penelitian-kuantitatif-untuk-skripsi-tesis",
	"title": "Menyusun Penelitian Kuantitatif Untuk Skripsi & Tesis",
	"author": "Erwin Widiasworo, S.pd",
	"Jumlah Halaman": "240.0",
	"Tanggal Terbit": "14 Okt 2019",
	"ISBN": "9786237145875",
	"Bahasa": "Indonesia",
	"Penerbit": "Araska Publisher",
	"Berat": "0.213 kg",
	"Lebar": "14.0 cm",
	"Panjang": "20.5 cm"
},
{
	"page": 62,
	"kategori 1": "non-fiksi",
	"kategori 2": "pendidikan",
	"book_url": "https://www.gramedia.com/products/siap-100-lolos-sbmptn-saintek-2017",
	"title": "Siap 100% Lolos Sbmptn Saintek 2017",
	"author": "Tim Studi Guru",
	"Jumlah Halaman": "498",
	"Tanggal Terbit": "14 Nov 2016",
	"ISBN": "9789797752934",
	"Bahasa": "Indonesia",
	"Penerbit": "Indonesia Tera",
	"Berat": "0.7500 kg",
	"Lebar": "19 cm"
},
{
	"page": 62,
	"kategori 1": "non-fiksi",
	"kategori 2": "pendidikan",
	"book_url": "https://www.gramedia.com/products/sdmi-klii-pend-lingkbudaya-jakarta-plbj-jl2-k13n-rev",
	"title": "Sd/Mi Kelas II Pendidikan Lingkungan&Budaya Jakarta (PLBJ) Jilid 2 Kurikulum 2013",
	"author": "Tim Bina Karya Guru",
	"Jumlah Halaman": "128.0",
	"Tanggal Terbit": "25 Jun 2019",
	"ISBN": "9786024862114",
	"Bahasa": "Indonesia",
	"Penerbit": "Penerbit Erlangga",
	"Berat": "0.22 kg",
	"Lebar": "17.0 cm",
	"Panjang": "25.0 cm"
},
{
	"page": 62,
	"kategori 1": "non-fiksi",
	"kategori 2": "pendidikan",
	"book_url": "https://www.gramedia.com/products/smama-kl-12-buku-guru-bahasasastra-arab-3-kelompok-peminat",
	"title": "SMA/MA Kelas 12 Buku Guru Bahasa & Sastra Arab 3 Kelompok Peminatan Ilmu-Ilmu Bahasa dan Budaya",
	"author": "Nurlailah",
	"Jumlah Halaman": "192",
	"Tanggal Terbit": "4 Jul 2015",
	"ISBN": "9786022774808",
	"Bahasa": "Indonesia",
	"Penerbit": "Yrama Widya",
	"Berat": "0.35 kg",
	"Lebar": "19 cm",
	"Panjang": "25 cm"
},
{
	"page": 62,
	"kategori 1": "non-fiksi",
	"kategori 2": "pendidikan",
	"book_url": "https://www.gramedia.com/products/bedah-kisi2-un-smp-mts-2018-the-king",
	"title": "Bedah Kisi2 Un Smp/Mts 2018 : The King",
	"author": "Forum Tentor Indonesia",
	"Jumlah Halaman": "764",
	"Tanggal Terbit": "18 Mei 2017",
	"ISBN": "9786026064080",
	"Bahasa": "Indonesia",
	"Penerbit": "Solusi Distribusi",
	"Berat": "1.1000 kg",
	"Lebar": "19 cm"
},
{
	"page": 62,
	"kategori 1": "non-fiksi",
	"kategori 2": "pendidikan",
	"book_url": "https://www.gramedia.com/products/sma-kelas-xii-jelajah-matematika-jilid-3-program-wajib-kurikulum-2013-revisi-2016",
	"title": "SMA Kelas XII Jelajah Matematika Jilid 3 Program Wajib Kurikulum 2013 Revisi 2016",
	"author": "S. N. Sharma, Niken Widiastuti, Dkk",
	"Jumlah Halaman": "120",
	"Tanggal Terbit": "1 Jan 2018",
	"ISBN": "9786022995081",
	"Bahasa": "Indonesia",
	"Penerbit": "Pt Yudhistira Ghalia Indonesia",
	"Berat": "0.350 kg",
	"Lebar": "20 cm",
	"Panjang": "27 cm"
},
{
	"page": 62,
	"kategori 1": "non-fiksi",
	"kategori 2": "pendidikan",
	"book_url": "https://www.gramedia.com/products/conf-super-100-aku-juara-kelas-sd-mi-kelas-1",
	"title": "Super 100! Aku Juara Kelas SD/MI Kelas 1",
	"author": "Tumijan P.",
	"Jumlah Halaman": "220",
	"Tanggal Terbit": "31 Okt 2016",
	"ISBN": "9786023757206",
	"Bahasa": "Indonesia",
	"Penerbit": "Gramedia Widiasarana Indonesia",
	"Berat": "0.2900 kg",
	"Lebar": "17 cm"
},
{
	"page": 62,
	"kategori 1": "non-fiksi",
	"kategori 2": "pendidikan",
	"book_url": "https://www.gramedia.com/products/genius-pocket-book-biologi-sma-kl-10-11-12",
	"title": "Genius Pocket Book Biologi SMA Kelas X, XI, XII",
	"author": "Doni Rusmansyah",
	"Jumlah Halaman": "416",
	"Tanggal Terbit": "21 Jul 2016",
	"ISBN": "9786027258990",
	"Bahasa": "Indonesia",
	"Penerbit": "Caesar Media Pustaka",
	"Berat": "1.0000 kg",
	"Lebar": "11 cm"
},
{
	"page": 62,
	"kategori 1": "non-fiksi",
	"kategori 2": "pendidikan",
	"book_url": "https://www.gramedia.com/products/sma-kelas-x-pendidikan-agama-islam-budi-pekerti-jilid-1b-semester-2-kurikulum-2013-revisi",
	"title": "SMA Kelas X Pendidikan Agama Islam & Budi Pekerti Jilid 1B Semester 2 - Kurikulum 2013 Revisi",
	"author": "Heni Wahyu Widayati, Erni Musyahadah, Dkk",
	"Jumlah Halaman": "86",
	"Tanggal Terbit": "1 Feb 2018",
	"ISBN": "9786024451516",
	"Bahasa": "Indonesia",
	"Penerbit": "Yudhistira Ghalia Indonesia",
	"Berat": "0.1 kg",
	"Lebar": "20.5 cm",
	"Panjang": "26.5 cm"
},
{
	"page": 62,
	"kategori 1": "non-fiksi",
	"kategori 2": "pendidikan",
	"book_url": "https://www.gramedia.com/products/smama-kelas-xi-saintek-super-modul-pembelajaran-cara-bimbel-semester-1",
	"title": "SMA/MA Kelas XI SAINTEK Super Modul Pembelajaran Cara Bimbel Semester 1",
	"author": "Tim Quantum Research",
	"Jumlah Halaman": "440",
	"Tanggal Terbit": "19 Jun 2019",
	"ISBN": "9786020907499",
	"Bahasa": "Indonesia",
	"Penerbit": "Yrama Widya",
	"Berat": "0.600 kg",
	"Lebar": "19 cm",
	"Panjang": "26 cm"
},
{
	"page": 62,
	"kategori 1": "non-fiksi",
	"kategori 2": "pendidikan",
	"book_url": "https://www.gramedia.com/products/sdmi-kli-siap-penilaian-ulangan-update-8-tema-in-1",
	"title": "Sd/Mi Kl.I Siap Penilaian Ulangan Update 8 Tema In 1",
	"author": "AZIZAH NURULAINI, S.PD.SI.,S.PD. & ELMA NURKHASANAH, S.PD.",
	"Jumlah Halaman": "544.0",
	"Tanggal Terbit": "22 Okt 2019",
	"ISBN": "9786023433568",
	"Bahasa": "Indonesia",
	"Penerbit": "TIM KOMPAS ILMU",
	"Berat": "0.728 kg",
	"Lebar": "19.3 cm",
	"Panjang": "26.3 cm"
},
{
	"page": 62,
	"kategori 1": "non-fiksi",
	"kategori 2": "pendidikan",
	"book_url": "https://www.gramedia.com/products/sma-kl-10-12-top-sukses-matematika-edisi-lengkap-cd",
	"title": "Sma Kl 10-12 Top Sukses Matematika Edisi Lengkap + Cd",
	"author": "Tim Presiden Eduka",
	"Jumlah Halaman": "608",
	"Tanggal Terbit": "19 Okt 2015",
	"ISBN": "9786026991201",
	"Bahasa": "Indonesia",
	"Penerbit": "Genta Group",
	"Berat": "0.7100 kg",
	"Lebar": "15 cm"
},
{
	"page": 62,
	"kategori 1": "non-fiksi",
	"kategori 2": "pendidikan",
	"book_url": "https://www.gramedia.com/products/buku-tematik-terpadu-sd-mi-kl-iii-jl-3a-k2013",
	"title": "Buku Tematik Terpadu Sd/Mi Kl.Iii /Jl.3A/K2013",
	"author": "Dwi Tyas Utami",
	"Jumlah Halaman": "104",
	"Tanggal Terbit": "1 Jun 2015",
	"ISBN": "9786022984467",
	"Bahasa": "Indonesia",
	"Penerbit": "Erlangga",
	"Berat": "0.3200 kg",
	"Lebar": "21 cm"
},
{
	"page": 62,
	"kategori 1": "non-fiksi",
	"kategori 2": "pendidikan",
	"book_url": "https://www.gramedia.com/products/smpmts-erlangga-x-press-usbn-2020-ppkn",
	"title": "Smp/Mts Erlangga X-Press Usbn 2020 Ppkn",
	"author": "Tim Progresif",
	"Jumlah Halaman": "152.0",
	"Tanggal Terbit": "23 Agt 2019",
	"ISBN": "9786024866747",
	"Penerbit": "Penerbit Erlangga",
	"Berat": "0.309 kg",
	"Lebar": "26.0 cm",
	"Panjang": "21.0 cm"
},
{
	"page": 62,
	"kategori 1": "non-fiksi",
	"kategori 2": "pendidikan",
	"book_url": "https://www.gramedia.com/products/cara-kekinian-belajar-grammar",
	"title": "Cara Kekinian Belajar Grammar",
	"author": "Ulin Nuha Masruchin",
	"Jumlah Halaman": "220",
	"Tanggal Terbit": "1 Jan 2001",
	"ISBN": "9786027485204",
	"Bahasa": "Indonesia",
	"Penerbit": "Pusat Kajian Bahasa",
	"Berat": "0.15 kg",
	"Lebar": "14 cm",
	"Panjang": "20 cm"
},
{
	"page": 62,
	"kategori 1": "non-fiksi",
	"kategori 2": "pendidikan",
	"book_url": "https://www.gramedia.com/products/sma-ma-smk-excellent-fisika",
	"title": "SMA/MA/SMK Excellent Fisika",
	"author": "Setyadi Markus",
	"Jumlah Halaman": "261",
	"Tanggal Terbit": "8 Des 2015",
	"ISBN": "9786023741946",
	"Bahasa": "Indonesia",
	"Penerbit": "Yrama Widya",
	"Berat": "0.22 kg",
	"Lebar": "21 cm",
	"Panjang": "28 cm"
},
{
	"page": 62,
	"kategori 1": "non-fiksi",
	"kategori 2": "pendidikan",
	"book_url": "https://www.gramedia.com/products/smp-kl-vii-passport-to-the-world-english-book",
	"title": "SMP Kelas VII Passport To The World : English Book",
	"author": "Djamika",
	"Jumlah Halaman": "226",
	"Tanggal Terbit": "1 Jan 2017",
	"ISBN": "9786023201426",
	"Bahasa": "Indonesia",
	"Penerbit": "Tiga Serangkai",
	"Berat": "0.4700 kg",
	"Lebar": "20 cm",
	"Panjang": "26 cm"
},
{
	"page": 62,
	"kategori 1": "non-fiksi",
	"kategori 2": "pendidikan",
	"book_url": "https://www.gramedia.com/products/smp-kelas-vi-viii-ix-panduan-pintar-rumus2-matematika",
	"title": "Smp Kelas Vi,Viii,Ix :Panduan Pintar Rumus-rumus Matematika",
	"author": "Triyoga Budi Widodo",
	"Jumlah Halaman": "200",
	"Tanggal Terbit": "10 Feb 2016",
	"ISBN": "9786029508963",
	"Bahasa": "Indonesia",
	"Penerbit": "Sinarsindo Utama",
	"Berat": "0.2500 kg",
	"Lebar": "15 cm"
},
{
	"page": 62,
	"kategori 1": "non-fiksi",
	"kategori 2": "pendidikan",
	"book_url": "https://www.gramedia.com/products/sd-mi-kl-1-matematika-1-kur-2013-bk-pendamping-tematik-terpadu",
	"title": "SD/Mi Kl 1 Matematika 1 Kur 2013 Bk Pendamping Tematik Terpadu",
	"author": "Dhesy A",
	"Tanggal Terbit": "17 Jun 2013",
	"Penerbit": "Erlangga",
	"Berat": "0.3500 kg",
	"Lebar": "26 cm",
	"Panjang": "0 cm"
},
{
	"page": 62,
	"kategori 1": "non-fiksi",
	"kategori 2": "pendidikan",
	"book_url": "https://www.gramedia.com/products/sma-kl-10-11-12-jawara-ujian-matematika",
	"title": "Sma Kl.10,11 12 Jawara Ujian Matematika",
	"author": "Purie Anggita",
	"Jumlah Halaman": "322",
	"Tanggal Terbit": "22 Mei 2015",
	"ISBN": "9789790831032",
	"Bahasa": "Indonesia",
	"Penerbit": "Tangga Pustaka",
	"Berat": "0.2000 kg",
	"Lebar": "10 cm"
},
{
	"page": 62,
	"kategori 1": "non-fiksi",
	"kategori 2": "pendidikan",
	"book_url": "https://www.gramedia.com/products/sma-ma-ipa-strategi-kupas-tuntas-skl-un-2017",
	"title": "Sma/Ma Ipa Strategi &Kupas Tuntas Skl Un 2017",
	"author": "Tim Master Eduka",
	"Jumlah Halaman": "1030",
	"Tanggal Terbit": "18 Mei 2016",
	"ISBN": "9786026991744",
	"Bahasa": "Indonesia",
	"Penerbit": "Genta Smart Publisher",
	"Berat": "1.2800 kg",
	"Lebar": "19 cm"
},
{
	"page": 62,
	"kategori 1": "non-fiksi",
	"kategori 2": "pendidikan",
	"book_url": "https://www.gramedia.com/products/smp-kelas-viii-passport-to-the-world-jilid-2-k13-revisi",
	"title": "SMP Kelas VIII Passport To The World Jilid 2 K/13 Revisi",
	"author": "Djatmika / Agus Dwi Priyanto",
	"Jumlah Halaman": "None",
	"Tanggal Terbit": "1 Apr 2018",
	"ISBN": "9786023201433",
	"Bahasa": "Indonesia",
	"Penerbit": "Tiga Serangkai",
	"Berat": "1.0 kg",
	"Lebar": "20 cm",
	"Panjang": "27 cm"
},
{
	"page": 62,
	"kategori 1": "non-fiksi",
	"kategori 2": "pendidikan",
	"book_url": "https://www.gramedia.com/products/sma-ma-kl-12-buku-guru-matematika-3-peminatan-matematika-ipa",
	"title": "Sma/Ma Kl 12 Buku Guru Matematika 3 Peminatan Matematika & Ipa",
	"author": "Marthen Kanginan &hadi Nurdiansyah",
	"Jumlah Halaman": "228",
	"Tanggal Terbit": "15 Apr 2016",
	"ISBN": "9786022774716",
	"Penerbit": "Yrama Widya",
	"Berat": "0.3400 kg",
	"Lebar": "18 cm"
},
{
	"page": 62,
	"kategori 1": "non-fiksi",
	"kategori 2": "pendidikan",
	"book_url": "https://www.gramedia.com/products/mi-kl-i-membina-akidah-akhlak-1-aqila",
	"title": "MI Kelas I Membina Akidah & Akhlak 1 :Aqila",
	"author": "Wiyadi",
	"Jumlah Halaman": "178",
	"Tanggal Terbit": "1 Mei 2017",
	"ISBN": "9786022575962",
	"Bahasa": "Indonesia",
	"Penerbit": "Tiga Serangkai",
	"Berat": "0.35 kg",
	"Lebar": "18 cm",
	"Panjang": "25 cm"
},
{
	"page": 62,
	"kategori 1": "non-fiksi",
	"kategori 2": "pendidikan",
	"book_url": "https://www.gramedia.com/products/membaca-kritis-dan-literasi-kritis",
	"title": "Membaca Kritis dan Literasi Kritis",
	"author": "Nurhadi",
	"Jumlah Halaman": "304",
	"Tanggal Terbit": "11 Agt 2017",
	"ISBN": "9786026696083",
	"Penerbit": "Tsmart",
	"Berat": "0.345 kg",
	"Lebar": "15 cm",
	"Panjang": "23 cm"
},
{
	"page": 62,
	"kategori 1": "non-fiksi",
	"kategori 2": "pendidikan",
	"book_url": "https://www.gramedia.com/products/top-peringkat-1-sbmptn-saintek-2018",
	"title": "Top Peringkat 1 SBMPTN SAINTEK 2018",
	"author": "Tim Guru Dan Tentor",
	"Jumlah Halaman": "664",
	"Tanggal Terbit": "15 Okt 2017",
	"ISBN": "9786025406102",
	"Bahasa": "Indonesia",
	"Penerbit": "Asoka",
	"Berat": "1.035 kg",
	"Lebar": "19 cm",
	"Panjang": "26 cm"
},
{
	"page": 62,
	"kategori 1": "non-fiksi",
	"kategori 2": "pendidikan",
	"book_url": "https://www.gramedia.com/products/sapu-bersih-ujian-ipa-smp-mts-pasti-masuk-sma-favorit-kelas-7-8-9-edisi-lengkap",
	"title": "Sapu Bersih Ujian IPA SMP/MTS, Pasti Masuk SMA Favorit Kelas 7,8,9 Edisi Lengkap",
	"author": "Examaster",
	"Jumlah Halaman": "282",
	"Tanggal Terbit": "8 Des 2016",
	"ISBN": "9789792959864",
	"Bahasa": "Indonesia",
	"Penerbit": "Andi Offset",
	"Berat": "0.6000 kg",
	"Lebar": "17.5 cm"
},
{
	"page": 62,
	"kategori 1": "non-fiksi",
	"kategori 2": "pendidikan",
	"book_url": "https://www.gramedia.com/products/sdmi-kl2-siap-penilaian-ulangan-update-8-tema-in-1-k13",
	"title": "Sd/Mi Kl.2 Siap Penilaian Ulangan Update 8 Tema In 1 K/13",
	"author": "Tim Kompas Ilmu",
	"Jumlah Halaman": "556.0",
	"Tanggal Terbit": "9 Sep 2019",
	"ISBN": "9786023433575",
	"Bahasa": "Indonesia",
	"Penerbit": "Tim Kompas Ilmu",
	"Berat": "0.74 kg",
	"Lebar": "26.2 cm",
	"Panjang": "19.0 cm"
},
{
	"page": 62,
	"kategori 1": "non-fiksi",
	"kategori 2": "pendidikan",
	"book_url": "https://www.gramedia.com/products/sdmi-kl5-master-ulangan-harian-tematik-k13",
	"title": "Master Ulangan Harian Tematik SD/MI Kelas 5 Kurikulum 2013",
	"author": "Tim Sinar Pustaka",
	"Jumlah Halaman": "None",
	"Tanggal Terbit": "20 Mar 2019",
	"ISBN": "9786025992339",
	"Bahasa": "Indonesia",
	"Penerbit": "C-Klik Media",
	"Berat": "0.450 kg",
	"Lebar": "14 cm",
	"Panjang": "26 cm"
},
{
	"page": 62,
	"kategori 1": "non-fiksi",
	"kategori 2": "pendidikan",
	"book_url": "https://www.gramedia.com/products/sd-mi-kl-4-6-rumus-sakti-pintar-mengerjakan-soal-matematika",
	"title": "Sd/Mi Kl 4-6 Rumus Sakti Pintar Mengerjakan Soal Matematika",
	"author": "M Januar Alfa & Irwan Arbi",
	"Jumlah Halaman": "226",
	"Tanggal Terbit": "4 Agt 2015",
	"ISBN": "9786027235113",
	"Bahasa": "Indonesia",
	"Penerbit": "Pena Mas Publisher",
	"Berat": "0.1500 kg",
	"Lebar": "13 cm"
},
{
	"page": 62,
	"kategori 1": "non-fiksi",
	"kategori 2": "pendidikan",
	"book_url": "https://www.gramedia.com/products/smk-kl-12-mandiri-pendidikan-agama-islam-budi-pekerti-3-kur-2013",
	"title": "Smk Kl 12 Mandiri Pendidikan Agama Islam&Budi Pekerti 3 Kur 2013",
	"author": "Iim Halimah Dkk",
	"Jumlah Halaman": "114",
	"Tanggal Terbit": "15 Sep 2015",
	"ISBN": "9786022980612",
	"Bahasa": "Indonesia",
	"Penerbit": "Erlangga",
	"Berat": "0.3500 kg",
	"Lebar": "21 cm"
},
{
	"page": 62,
	"kategori 1": "non-fiksi",
	"kategori 2": "pendidikan",
	"book_url": "https://www.gramedia.com/products/sd-kl4-seri-soal-aku-siap-aku-bisa-4a",
	"title": "SD Kelas 4 Seri Soal Aku Siap Aku Bisa 4A",
	"author": "Bambang Sutejo",
	"Jumlah Halaman": "161",
	"Tanggal Terbit": "1 Jan 2008",
	"ISBN": "9789790333437",
	"Bahasa": "Indonesia",
	"Penerbit": "Penerbit Erlangga",
	"Berat": "0.350 kg",
	"Lebar": "19.5 cm",
	"Panjang": "25.5 cm"
},
{
	"page": 62,
	"kategori 1": "non-fiksi",
	"kategori 2": "pendidikan",
	"book_url": "https://www.gramedia.com/products/critical-discourse-analysis",
	"title": "Critical Discourse Analysis",
	"author": "Haryatmoko",
	"Jumlah Halaman": "270",
	"Tanggal Terbit": "5 Des 2016",
	"ISBN": "9786024250737",
	"Bahasa": "Indonesia",
	"Penerbit": "Rajawali Pers",
	"Berat": "0.35 kg",
	"Lebar": "16 cm",
	"Panjang": "24 cm"
},
{
	"page": 62,
	"kategori 1": "non-fiksi",
	"kategori 2": "pendidikan",
	"book_url": "https://www.gramedia.com/products/sdmi-kl-4-prima-penilaian-harian-4a-kur-2013",
	"title": "Sd/Mi Kl 4 Prima Penilaian Harian 4A Kur 2013",
	"author": "Tim Mitra Guru",
	"Jumlah Halaman": "238.0",
	"Tanggal Terbit": "2 Mar 2017",
	"ISBN": "9786024340841",
	"Bahasa": "Indonesia",
	"Penerbit": "Erlangga",
	"Berat": "0.455 kg",
	"Lebar": "17.5 cm",
	"Panjang": "25.0 cm"
},
{
	"page": 62,
	"kategori 1": "non-fiksi",
	"kategori 2": "pendidikan",
	"book_url": "https://www.gramedia.com/products/wacana-dan-pragmatik",
	"title": "Wacana Dan Pragmatik",
	"author": "Prof. Dr. Hj. T. Fatimah Djajasudarma",
	"Jumlah Halaman": "98",
	"Tanggal Terbit": "21 Okt 2017",
	"ISBN": "9786026322562",
	"Bahasa": "Indonesia",
	"Penerbit": "Refika Aditama",
	"Berat": "0.20 kg",
	"Lebar": "16 cm",
	"Panjang": "24 cm"
},
{
	"page": 62,
	"kategori 1": "non-fiksi",
	"kategori 2": "pendidikan",
	"book_url": "https://www.gramedia.com/products/smpmts-klvii-informatika-jl1-k13n-rev",
	"title": "Smp/Mts Kelas VII Informatika Jilid 1 Kurikulum 2013",
	"author": "Henry Pandia",
	"Jumlah Halaman": "256.0",
	"Tanggal Terbit": "30 Mei 2019",
	"ISBN": "9786024864309",
	"Bahasa": "Indonesia",
	"Penerbit": "Penerbit Erlangga",
	"Berat": "0.41 kg",
	"Lebar": "17.0 cm",
	"Panjang": "25.0 cm"
},
{
	"page": 62,
	"kategori 1": "non-fiksi",
	"kategori 2": "pendidikan",
	"book_url": "https://www.gramedia.com/products/sma-smk-9-buku-guru-pendidikan-agama-islam-budi-pekerti",
	"title": "Sma/Smk 9 Buku Guru Pendidikan Agama Islam & Budi Pekerti",
	"author": "Nurlaila",
	"Jumlah Halaman": "178",
	"Tanggal Terbit": "26 Feb 2016",
	"ISBN": "9786022775348",
	"Bahasa": "Indonesia",
	"Penerbit": "Yrama Widya",
	"Berat": "0.3100 kg",
	"Lebar": "18 cm"
},
{
	"page": 62,
	"kategori 1": "non-fiksi",
	"kategori 2": "pendidikan",
	"book_url": "https://www.gramedia.com/products/sintaksis-memahami-kalimat-tunggal",
	"title": "Sintaksis Memahami Kalimat Tunggal",
	"author": "Ida Bagus Putrayasa",
	"Jumlah Halaman": "202",
	"Tanggal Terbit": "12 Jul 2017",
	"ISBN": "9786026322425",
	"Penerbit": "Refika Aditama",
	"Berat": "0.38 kg",
	"Lebar": "17.5 cm",
	"Panjang": "25.5 cm"
},
{
	"page": 62,
	"kategori 1": "non-fiksi",
	"kategori 2": "pendidikan",
	"book_url": "https://www.gramedia.com/products/sma-ma-kl-x-xi-xii-king-cerdik-matematika",
	"title": "Sma/Ma Kl. X,Xi.Xii King Cerdik Matematika",
	"author": "Forum Tentor Indonesia",
	"Jumlah Halaman": "616",
	"Tanggal Terbit": "6 Mei 2017",
	"ISBN": "9786026122445",
	"Bahasa": "Indonesia",
	"Penerbit": "Forum Edukasi",
	"Berat": "0.3950 kg",
	"Lebar": "13 cm"
},
{
	"page": 62,
	"kategori 1": "non-fiksi",
	"kategori 2": "pendidikan",
	"book_url": "https://www.gramedia.com/products/sd-kl3-bina-bahasa-indonesia-3a-ktps-2006",
	"title": "SD Kelas 3 Bina Bahasa Indonesia 3A KTSP 2006",
	"author": "Tim Bina",
	"Jumlah Halaman": "165",
	"Tanggal Terbit": "1 Jan 2010",
	"ISBN": "9789797819071",
	"Bahasa": "Indonesia",
	"Penerbit": "Penerbit Erlangga",
	"Berat": "0.300 kg",
	"Lebar": "19 cm",
	"Panjang": "25 cm"
},
{
	"page": 62,
	"kategori 1": "non-fiksi",
	"kategori 2": "pendidikan",
	"book_url": "https://www.gramedia.com/products/al-qur-an-hadis-untuk-ma-kelas-x-k-2013",
	"title": "AL-QUR'AN HADIS Untuk MA Kelas X Kurikulum 2013",
	"author": "Farhan",
	"Jumlah Halaman": "164",
	"Tanggal Terbit": "22 Agt 2016",
	"ISBN": "9786023821945",
	"Bahasa": "Indonesia",
	"Penerbit": "Srikandi Empat",
	"Berat": "0.35 kg",
	"Lebar": "20 cm",
	"Panjang": "27 cm"
},
{
	"page": 62,
	"kategori 1": "non-fiksi",
	"kategori 2": "pendidikan",
	"book_url": "https://www.gramedia.com/products/sd-kl-1-tematik-3-kegiatanku",
	"title": "Sd Kl.1 Tematik 3 : Kegiatanku",
	"author": "Barmin",
	"Jumlah Halaman": "179",
	"Tanggal Terbit": "1 Mei 2017",
	"ISBN": "9786023204175",
	"Bahasa": "Indonesia",
	"Penerbit": "Tiga Serangkai",
	"Berat": "0.3750 kg",
	"Lebar": "20 cm"
},
{
	"page": 62,
	"kategori 1": "non-fiksi",
	"kategori 2": "pendidikan",
	"book_url": "https://www.gramedia.com/products/smama-klx-xi-xii-smart-pocket-biologi-new",
	"title": "SMA/MA Kelas X, XI, XII Smart Pocket Biologi (New)",
	"author": "Desi Wijaya, S. Si.",
	"Jumlah Halaman": "506",
	"Tanggal Terbit": "2 Jul 2019",
	"ISBN": "9786025480768",
	"Bahasa": "Indonesia",
	"Penerbit": "Charissa Publisher",
	"Berat": "0.30 kg",
	"Lebar": "11 cm",
	"Panjang": "18 cm"
},
{
	"page": 62,
	"kategori 1": "non-fiksi",
	"kategori 2": "pendidikan",
	"book_url": "https://www.gramedia.com/products/siswa-di-atas-garis-7-rahasia-menjadi-pelajar-sukses",
	"title": "Siswa Di Atas Garis: 7 Rahasia Menjadi Pelajar Sukses",
	"author": "Sabam Sopian Silaban",
	"Jumlah Halaman": "148.0",
	"Tanggal Terbit": "2 Sep 2019",
	"ISBN": "9786020633527",
	"Bahasa": "Indonesia",
	"Penerbit": "Gramedia Pustaka Utama",
	"Berat": "0.25 kg",
	"Lebar": "14.0 cm",
	"Panjang": "21.0 cm"
},
{
	"page": 62,
	"kategori 1": "non-fiksi",
	"kategori 2": "pendidikan",
	"book_url": "https://www.gramedia.com/products/mi-kl6-cinta-al-quran-dan-hadis-aqila",
	"title": "Mi Kl.6 Cinta Al-Qur`An Dan Hadis Aqila",
	"author": "Choirul Fata",
	"Jumlah Halaman": "112.0",
	"Tanggal Terbit": "1 Mar 2017",
	"ISBN": "9786022577522",
	"Bahasa": "Indonesia",
	"Penerbit": "Tiga Serangkai",
	"Berat": "0.215 kg",
	"Lebar": "17.5 cm",
	"Panjang": "23.0 cm"
},
{
	"page": 62,
	"kategori 1": "non-fiksi",
	"kategori 2": "pendidikan",
	"book_url": "https://www.gramedia.com/products/the-best-english-conversation-kumpulan-pertcakapan-bhs-inggris",
	"title": "The Best English Conversation Kumpulan Pertcakapan Bhs.Inggris",
	"author": "Dini Irawati S.pd.",
	"Jumlah Halaman": "384",
	"Tanggal Terbit": "23 Sep 2016",
	"ISBN": "9786029508970",
	"Bahasa": "Indonesia",
	"Penerbit": "Sinarsindo Utama",
	"Berat": "0.3500 kg",
	"Lebar": "20.5 cm"
},
{
	"page": 62,
	"kategori 1": "non-fiksi",
	"kategori 2": "pendidikan",
	"book_url": "https://www.gramedia.com/products/smama-kl-10-cerdas-berbahasa-indonesia-1-kel-wajib-kur-201",
	"title": "SMA/MA Kelas 10 Cerdas Berbahasa Indonesia 1 Kelompok Wajib Kurikulum 2013",
	"author": "Engkos Kosasih",
	"Jumlah Halaman": "None",
	"Tanggal Terbit": "25 Agt 2016",
	"ISBN": "9786022989370",
	"Bahasa": "Indonesia",
	"Penerbit": "Erlangga",
	"Berat": "0.5 kg",
	"Lebar": "19 cm",
	"Panjang": "25 cm"
},
{
	"page": 62,
	"kategori 1": "non-fiksi",
	"kategori 2": "pendidikan",
	"book_url": "https://www.gramedia.com/products/smama-kl-10-pr-geografi-smt-2-peminatan-ilmu2-sosial-kur-20",
	"title": "SMA/MA Kelas 10 PR Geografi Semester 2 Peminatan Ilmu-Ilmu Sosial Kurikulum 2013",
	"author": "Tri Haryanto",
	"Jumlah Halaman": "114",
	"Tanggal Terbit": "31 Okt 2016",
	"ISBN": "9632231020161",
	"Bahasa": "Indonesia",
	"Penerbit": "Intan Pariwara",
	"Berat": "0.18 kg",
	"Lebar": "20 cm",
	"Panjang": "30 cm"
},
{
	"page": 62,
	"kategori 1": "non-fiksi",
	"kategori 2": "pendidikan",
	"book_url": "https://www.gramedia.com/products/soshum-2017-mega-bank-soal-sbmptn",
	"title": "Soshum 2017: Mega Bank Soal Sbmptn",
	"author": "Mujiyati, S.si",
	"Jumlah Halaman": "372",
	"Tanggal Terbit": "31 Okt 2016",
	"ISBN": "9786021142752",
	"Bahasa": "Indonesia",
	"Penerbit": "Bright Publisher",
	"Berat": "1.0000 kg",
	"Lebar": "18.5 cm"
},
{
	"page": 62,
	"kategori 1": "non-fiksi",
	"kategori 2": "pendidikan",
	"book_url": "https://www.gramedia.com/products/bahasa-indonesia-serba-serbi-problematik-penggunaannya",
	"title": "Bahasa Indonesia Serba-Serbi Problematik Penggunaannya",
	"author": "Iyo Mulyono",
	"Jumlah Halaman": "120",
	"Tanggal Terbit": "24 Mei 2016",
	"ISBN": "9786023743759",
	"Bahasa": "Indonesia",
	"Penerbit": "Yrama Widya",
	"Berat": "0.16 kg",
	"Lebar": "15.5 cm",
	"Panjang": "24 cm"
},
{
	"page": 62,
	"kategori 1": "non-fiksi",
	"kategori 2": "pendidikan",
	"book_url": "https://www.gramedia.com/products/handbook-metodologi-studi-islam",
	"title": "Handbook Metodologi Studi Islam",
	"author": "Chuzaimah Batubara",
	"Jumlah Halaman": "None",
	"Tanggal Terbit": "1 Jan 2018",
	"ISBN": "9786024222031",
	"Bahasa": "Indonesia",
	"Penerbit": "Prenadamedia Group",
	"Berat": "0.37 kg"
},
{
	"page": 62,
	"kategori 1": "non-fiksi",
	"kategori 2": "pendidikan",
	"book_url": "https://www.gramedia.com/products/101-jurus-jitu-menjadi-guru-hebat",
	"title": "101 Jurus Jitu Menjadi Guru Hebat",
	"author": "Haryono",
	"Jumlah Halaman": "320",
	"Tanggal Terbit": "15 Jul 2017",
	"ISBN": "9786023131280",
	"Bahasa": "Indonesia",
	"Penerbit": "Arruzz Media",
	"Berat": "0.4000 kg",
	"Lebar": "15 cm"
},
