{
	"page": 27,
	"kategori 1": "non-fiksi",
	"kategori 2": "pendidikan",
	"book_url": "https://www.gramedia.com/products/sma-kl-xi-ilmu-ekonomi-2-platinum",
	"title": "Sma Kl.Xi Ilmu Ekonomi 2 Platinum",
	"author": "Endang Mulyani",
	"Jumlah Halaman": "328",
	"Tanggal Terbit": "1 Mei 2017",
	"ISBN": "9786023203437",
	"Bahasa": "Indonesia",
	"Penerbit": "Tiga Serangkai",
	"Berat": "0.65 kg",
	"Lebar": "20 cm",
	"Panjang": "26 cm"
},
{
	"page": 27,
	"kategori 1": "non-fiksi",
	"kategori 2": "pendidikan",
	"book_url": "https://www.gramedia.com/products/top-sukses-juara-matematika-sdmi-kelas-4-5-6",
	"title": "Top Sukses Juara Matematika SD/MI Kelas 4, 5, 6",
	"author": "Jonathan Hoseana",
	"Jumlah Halaman": "108",
	"Tanggal Terbit": "9 Jul 2018",
	"ISBN": "9786020504223",
	"Penerbit": "Gramedia Widiasarana Indonesia",
	"Berat": "0.1 kg",
	"Lebar": "14.0 cm",
	"Panjang": "21.0 cm"
},
{
	"page": 27,
	"kategori 1": "non-fiksi",
	"kategori 2": "pendidikan",
	"book_url": "https://www.gramedia.com/products/buku-pintar-rpal-untuk-sd-mi-edisi-revisi",
	"title": "Buku Pintar RPAL untuk SD/MI Edisi Revisi",
	"author": "Laras Safitri & Lari A. Sanjaya",
	"Tanggal Terbit": "25 Jul 2016",
	"ISBN": "9786023942084",
	"Bahasa": "Indonesia",
	"Penerbit": "Bhuana Ilmu Populer",
	"Berat": "0.3500 kg",
	"Lebar": "14 cm"
},
{
	"page": 27,
	"kategori 1": "non-fiksi",
	"kategori 2": "pendidikan",
	"book_url": "https://www.gramedia.com/products/practical-grammarconversations-englishcd",
	"title": "Practical Grammar&Conversations English+Cd",
	"author": "Ahmad Izzan",
	"Jumlah Halaman": "296.0",
	"Tanggal Terbit": "19 Mar 2015",
	"ISBN": "9789795936855",
	"Bahasa": "Indonesia",
	"Penerbit": "Kesaint Blanc",
	"Berat": "0.3 kg",
	"Lebar": "20.0 cm",
	"Panjang": "13.0 cm"
},
{
	"page": 27,
	"kategori 1": "non-fiksi",
	"kategori 2": "pendidikan",
	"book_url": "https://www.gramedia.com/products/smp-mts-target-nilai-10-un-2017",
	"title": "SMP/MTs Target Nilai 10 UN 2017",
	"author": "Idhoofiyatul Fatin Dkk",
	"Jumlah Halaman": "450",
	"Tanggal Terbit": "16 Jun 2016",
	"ISBN": "9786026992383",
	"Bahasa": "Indonesia",
	"Penerbit": "Cmedia",
	"Berat": "0.6000 kg",
	"Lebar": "19 cm"
},
{
	"page": 27,
	"kategori 1": "non-fiksi",
	"kategori 2": "pendidikan",
	"book_url": "https://www.gramedia.com/products/smp-kelas-viii-pbt-matematika-jilid-2b-semester-2-kurikulum-2013-revisi",
	"title": "SMP Kelas VIII PBT Matematika Jilid 2B Semester 2 - Kurikulum 2013 Revisi",
	"author": "Ifni M, Abdul Karim, Dkk",
	"Jumlah Halaman": "70",
	"Tanggal Terbit": "1 Mar 2018",
	"ISBN": "9786022998341",
	"Bahasa": "Indonesia",
	"Penerbit": "Yudhistira Ghalia Indonesia",
	"Berat": "0.12 kg",
	"Lebar": "20 cm",
	"Panjang": "26.5 cm"
},
{
	"page": 27,
	"kategori 1": "non-fiksi",
	"kategori 2": "pendidikan",
	"book_url": "https://www.gramedia.com/products/sdmi-kl-6-lebih-dekat-dunia-tik-6-ktsp",
	"title": "SD/MI Kelas 6 Lebih Dekat Dunia TIK 6 KTSP",
	"author": "Sri Huning",
	"Jumlah Halaman": "146",
	"Tanggal Terbit": "25 Mei 2010",
	"ISBN": "9789790840324",
	"Bahasa": "Indonesia",
	"Penerbit": "Platinum",
	"Berat": "0.200 kg",
	"Lebar": "20 cm",
	"Panjang": "25.5 cm"
},
{
	"page": 27,
	"kategori 1": "non-fiksi",
	"kategori 2": "pendidikan",
	"book_url": "https://www.gramedia.com/products/smkmak-klx-mandiri-sejarah-indonesia-k13-kikd2018",
	"title": "SMK/MAK Kelas X Mandiri Sejarah Indonesia Kurikulum 2013 KI-KD 2018",
	"author": "M. Adil",
	"Jumlah Halaman": "256",
	"Tanggal Terbit": "3 Mar 2019",
	"ISBN": "9786024860837",
	"Bahasa": "Indonesia",
	"Penerbit": "Penerbit Erlangga",
	"Berat": "0.608 kg",
	"Lebar": "21 cm",
	"Panjang": "26 cm"
},
{
	"page": 27,
	"kategori 1": "non-fiksi",
	"kategori 2": "pendidikan",
	"book_url": "https://www.gramedia.com/products/sdmi-kl-4-tematik-indahnya-kebersamaan-4-tema-1-kur-2013",
	"title": "SD/MI Kelas 4 Tematik Indahnya Kebersamaan 4 Tema 1 Kurikulum 2013",
	"author": "Samidi",
	"Jumlah Halaman": "166",
	"Tanggal Terbit": "6 Feb 2016",
	"ISBN": "9786022174707",
	"Bahasa": "Indonesia",
	"Penerbit": "Bailmu",
	"Berat": "0.5 kg",
	"Lebar": "20 cm",
	"Panjang": "27 cm"
},
{
	"page": 27,
	"kategori 1": "non-fiksi",
	"kategori 2": "pendidikan",
	"book_url": "https://www.gramedia.com/products/smkmak-klxi-penjasorkes-k13-rev",
	"title": "SMK/MAK Kl.XI Penjasorkes K/13 Rev",
	"author": "Zainul Furqon",
	"Jumlah Halaman": "170",
	"Tanggal Terbit": "1 Jun 2019",
	"ISBN": "9786024443658",
	"Bahasa": "Indonesia",
	"Penerbit": "Bumi Aksara Group",
	"Berat": "0.289 kg",
	"Lebar": "17.5 cm",
	"Panjang": "25 cm"
},
{
	"page": 27,
	"kategori 1": "non-fiksi",
	"kategori 2": "pendidikan",
	"book_url": "https://www.gramedia.com/products/sd-kl3-pelajaran-matematika-3b",
	"title": "SD Kelas 3 Pelajaran Matematika 3B",
	"author": "Khafid",
	"Jumlah Halaman": "99",
	"Tanggal Terbit": "1 Jan 2007",
	"ISBN": "9789797818449",
	"Bahasa": "Indonesia",
	"Penerbit": "Penerbit Erlangga",
	"Berat": "0.14 kg",
	"Lebar": "18 cm",
	"Panjang": "25 cm"
},
{
	"page": 27,
	"kategori 1": "non-fiksi",
	"kategori 2": "pendidikan",
	"book_url": "https://www.gramedia.com/products/sd-kl3-buku-pintar-ulangan",
	"title": "SD Kelas 3 Buku Pintar Ulangan",
	"author": "Tim Pustaka Agung Harapan",
	"Jumlah Halaman": "160",
	"Tanggal Terbit": "1 Nov 2012",
	"ISBN": "9789799991515",
	"Bahasa": "Indonesia",
	"Penerbit": "Pustaka Agung Harapan",
	"Berat": "0.28 kg",
	"Lebar": "21 cm",
	"Panjang": "29 cm"
},
{
	"page": 27,
	"kategori 1": "non-fiksi",
	"kategori 2": "pendidikan",
	"book_url": "https://www.gramedia.com/products/pocket-edition-kamus-bahasa-jerman",
	"title": "Pocket Edition Kamus Bahasa Jerman",
	"author": "Pusat Pengkajian Bahasa Populer, R. Setyasari",
	"Jumlah Halaman": "312",
	"Tanggal Terbit": "17 Okt 2016",
	"ISBN": "9786026008510",
	"Bahasa": "Indonesia",
	"Penerbit": "Serambi Ilmu Semesta",
	"Berat": "0.25 kg",
	"Lebar": "13 cm",
	"Panjang": "19 cm"
},
{
	"page": 27,
	"kategori 1": "non-fiksi",
	"kategori 2": "pendidikan",
	"book_url": "https://www.gramedia.com/products/smama-kelas-xi-bupena-matematika-jilid-2-kurikulum-2013-revisi-wajib",
	"title": "SMA/MA Kelas XI Bupena Matematika Jilid 2 Kurikulum 2013 Revisi Wajib",
	"author": "Wono Setya Budhi",
	"Jumlah Halaman": "171",
	"Tanggal Terbit": "16 Mei 2018",
	"ISBN": "9786022989714",
	"Bahasa": "Indonesia",
	"Penerbit": "Penerbit Erlangga",
	"Berat": "0.42 kg",
	"Lebar": "21 cm",
	"Panjang": "26 cm"
},
{
	"page": 27,
	"kategori 1": "non-fiksi",
	"kategori 2": "pendidikan",
	"book_url": "https://www.gramedia.com/products/komunikasi-pendidikan-0",
	"title": "Komunikasi Pendidikan",
	"author": "Deni Darmawan",
	"Jumlah Halaman": "316",
	"Tanggal Terbit": "6 Apr 2016",
	"ISBN": "9789796926404",
	"Bahasa": "Indonesia",
	"Penerbit": "Rosda",
	"Berat": "0.4800 kg",
	"Lebar": "16 cm"
},
{
	"page": 27,
	"kategori 1": "non-fiksi",
	"kategori 2": "pendidikan",
	"book_url": "https://www.gramedia.com/products/sdmi-klvi-selamatkan-makhluk-hidup-tema-1-k13-rev18",
	"title": "SD/MI KL.VI Selamatkan Makhluk Hidup Tema 1 K/13 Rev. 2018 BSE",
	"author": "ANGI ST. ANGGARI, AFRIKI,DKK.",
	"Jumlah Halaman": "178",
	"Tanggal Terbit": "12 Mar 2019",
	"ISBN": "9786024272128",
	"Bahasa": "Indonesia",
	"Penerbit": "PT EDU PENGUIN",
	"Berat": "0.342 kg",
	"Lebar": "21 cm",
	"Panjang": "29.7 cm"
},
{
	"page": 27,
	"kategori 1": "non-fiksi",
	"kategori 2": "pendidikan",
	"book_url": "https://www.gramedia.com/products/manajemen-kurikulum-pendidikan-mipa",
	"title": "Manajemen Kurikulum Pendidikan MIPA",
	"author": "Virgana",
	"Jumlah Halaman": "414",
	"Tanggal Terbit": "5 Mar 2018",
	"ISBN": "9786023590711",
	"Bahasa": "Indonesia",
	"Penerbit": "Pustaka Mandiri",
	"Berat": "0.37 kg",
	"Lebar": "14 cm",
	"Panjang": "21 cm"
},
{
	"page": 27,
	"kategori 1": "non-fiksi",
	"kategori 2": "pendidikan",
	"book_url": "https://www.gramedia.com/products/jurus-sakti-menjadi-guru-humoris",
	"title": "Jurus Sakti Menjadi Guru Humoris",
	"author": "Deni Damayanti, S.pd",
	"Jumlah Halaman": "204",
	"Tanggal Terbit": "4 Jul 2017",
	"ISBN": "9786026210302",
	"Bahasa": "Indonesia",
	"Penerbit": "Araska Publisher",
	"Berat": "0.1840 kg",
	"Lebar": "14 cm"
},
{
	"page": 27,
	"kategori 1": "non-fiksi",
	"kategori 2": "pendidikan",
	"book_url": "https://www.gramedia.com/products/buku-pintar-ulangan-terlengkap-sd-kl-3",
	"title": "Buku Pintar Ulangan Terlengkap SD Kelas 3",
	"author": "Aziz Saefudin & Tim Guru",
	"Jumlah Halaman": "416",
	"Tanggal Terbit": "23 Jun 2016",
	"ISBN": "9786026758583",
	"Bahasa": "Indonesia",
	"Penerbit": "Penerbit Forum Edukasi",
	"Berat": "0.5500 kg",
	"Lebar": "19 cm"
},
{
	"page": 27,
	"kategori 1": "non-fiksi",
	"kategori 2": "pendidikan",
	"book_url": "https://www.gramedia.com/products/smp-kl1-pendidikan-agama-islam-dan-budi-pekerti-1-hvs-rev2",
	"title": "Smp Kl.1 Pendidikan Agama Islam Dan Budi Pekerti 1 Hvs Rev.2",
	"author": "Drs.H. Multahim M.Pd.I",
	"Jumlah Halaman": "200.0",
	"Tanggal Terbit": "9 Okt 2016",
	"ISBN": "9786022997788",
	"Bahasa": "Indonesia",
	"Penerbit": "Pt. Yudhistira Ghalia Indonesia",
	"Berat": "0.3 kg",
	"Lebar": "19.0 cm",
	"Panjang": "26.0 cm"
},
{
	"page": 27,
	"kategori 1": "non-fiksi",
	"kategori 2": "pendidikan",
	"book_url": "https://www.gramedia.com/products/smpmts-kelas-viii-seni-budaya-kurikulum-revisi-2013",
	"title": "SMP/Mts Kelas VIII Seni Budaya Kurikulum Revisi 2013",
	"author": "EKO PURNOMO & TATANG SUBAGYO",
	"Jumlah Halaman": "196",
	"Tanggal Terbit": "1 Apr 2018",
	"ISBN": "9786024443368",
	"Bahasa": "Indonesia",
	"Penerbit": "Bumi Aksara",
	"Berat": "0.400 kg",
	"Lebar": "17 cm",
	"Panjang": "25 cm"
},
{
	"page": 27,
	"kategori 1": "non-fiksi",
	"kategori 2": "pendidikan",
	"book_url": "https://www.gramedia.com/products/bahasa-jepang-sistem-52m-volume-2",
	"title": "Bahasa Jepang Sistem 52M Volume 2",
	"author": "Drs. Sudjianto, M.hum",
	"Jumlah Halaman": "160",
	"Tanggal Terbit": "6 Feb 2017",
	"ISBN": "9789795938569",
	"Bahasa": "Indonesia",
	"Penerbit": "Kesaint Blanc",
	"Berat": "0.3520 kg",
	"Lebar": "13 cm",
	"Panjang": "20 cm"
},
{
	"page": 27,
	"kategori 1": "non-fiksi",
	"kategori 2": "pendidikan",
	"book_url": "https://www.gramedia.com/products/the-master-sbmptn-saintek-2017",
	"title": "The Master SBMPTN SAINTEK 2017",
	"author": "Tentor Genius Nusantara",
	"Jumlah Halaman": "888",
	"Tanggal Terbit": "17 Nov 2016",
	"ISBN": "9786023173396",
	"Bahasa": "Indonesia",
	"Penerbit": "Solusi Distribusi",
	"Berat": "1.0000 kg",
	"Lebar": "18.5 cm"
},
{
	"page": 27,
	"kategori 1": "non-fiksi",
	"kategori 2": "pendidikan",
	"book_url": "https://www.gramedia.com/products/redesain-pendidikan-guru",
	"title": "Redesain Pendidikan Guru",
	"author": "Jejen Musfah",
	"Jumlah Halaman": "292",
	"Tanggal Terbit": "28 Jan 2016",
	"ISBN": "9786020895086",
	"Bahasa": "Indonesia",
	"Penerbit": "Kencana",
	"Berat": "0.3000 kg",
	"Lebar": "15 cm",
	"Panjang": "23 cm"
},
{
	"page": 27,
	"kategori 1": "non-fiksi",
	"kategori 2": "pendidikan",
	"book_url": "https://www.gramedia.com/products/wonderful-world-1-ensiklopedia-tempat-tempat-indah-dan-mena",
	"title": "Wonderful World 1",
	"author": "Tim Penulis Worldbook",
	"Jumlah Halaman": "292",
	"Tanggal Terbit": "1 Jan 1900",
	"ISBN": "9789792961058",
	"Bahasa": "Indonesia",
	"Penerbit": "Andi Offset",
	"Berat": "0.4500 kg",
	"Lebar": "23 cm"
},
{
	"page": 27,
	"kategori 1": "non-fiksi",
	"kategori 2": "pendidikan",
	"book_url": "https://www.gramedia.com/products/bank-soal-super-lengkap-fisika-sma-kl-1-2-3",
	"title": "Bank Soal Super Lengkap Fisika SMA Kl 1,2,&3",
	"author": "Ir. Sahat Nainggolan",
	"Tanggal Terbit": "17 Apr 2014",
	"Penerbit": "Cmedia",
	"Berat": "0.3000 kg",
	"Lebar": "0 cm",
	"Panjang": "0 cm"
},
{
	"page": 27,
	"kategori 1": "non-fiksi",
	"kategori 2": "pendidikan",
	"book_url": "https://www.gramedia.com/products/mts-kl-ix-tonggak-sejarah-kebudayaan-islam-3-aqila",
	"title": "Mts Kl. Ix Tonggak Sejarah Kebudayaan Islam 3 :Aqila",
	"author": "H.darsono/t.ibrahim",
	"Jumlah Halaman": "113",
	"Tanggal Terbit": "1 Mei 2017",
	"ISBN": "9786022576365",
	"Bahasa": "Indonesia",
	"Penerbit": "Tiga Serangkai",
	"Berat": "0.2250 kg",
	"Lebar": "17.5 cm"
},
{
	"page": 27,
	"kategori 1": "non-fiksi",
	"kategori 2": "pendidikan",
	"book_url": "https://www.gramedia.com/products/sd-mi-kl-6-tematik-6-tema-9-menjelajah-angkasa-luar",
	"title": "SD/MI Kelas 6 Tematik 6 Tema 9 : Menjelajah Angkasa Luar",
	"author": "Karsidi",
	"Jumlah Halaman": "186",
	"Tanggal Terbit": "17 Nov 2015",
	"ISBN": "9786023200252",
	"Bahasa": "Indonesia",
	"Penerbit": "Tiga Serangkai",
	"Berat": "0.4000 kg",
	"Lebar": "20 cm",
	"Panjang": "26 cm"
},
{
	"page": 27,
	"kategori 1": "non-fiksi",
	"kategori 2": "pendidikan",
	"book_url": "https://www.gramedia.com/products/jari-pintarku-aku-lancar-berhitung-dengan-jari-perkalian-dan-pembagian",
	"title": "Jari Pintarku Aku Lancar Berhitung Dengan Jari (Perkalian dan Pembagian)",
	"author": "Kak Nur",
	"Jumlah Halaman": "70",
	"Tanggal Terbit": "4 Jul 2017",
	"ISBN": "9786026122858",
	"Bahasa": "Indonesia",
	"Penerbit": "Sahabat Anak",
	"Berat": "0.1480 kg",
	"Lebar": "19 cm"
},
{
	"page": 27,
	"kategori 1": "non-fiksi",
	"kategori 2": "pendidikan",
	"book_url": "https://www.gramedia.com/products/matematika-sma-privat-tips-trik-praktis-ala-tentor",
	"title": "Matematika Sma: Privat Tips Trik Praktis Ala Tentor",
	"author": "Forum Tentor Indonesia",
	"Jumlah Halaman": "484",
	"Tanggal Terbit": "9 Jun 2016",
	"ISBN": "9786026758378",
	"Bahasa": "Indonesia",
	"Penerbit": "Penerbit Forum Edukasi",
	"Berat": "1.0000 kg",
	"Lebar": "14 cm"
},
{
	"page": 27,
	"kategori 1": "non-fiksi",
	"kategori 2": "pendidikan",
	"book_url": "https://www.gramedia.com/products/sdmi-klvi-bk-pendamping-tematik-ppkn-jl6-k13n-rev",
	"title": "Sd/Mi Kelas VI Buku Pendamping Tematik PPKN Jilid 6 Kurikulum 2013",
	"author": "Dwi Tyas Utami",
	"Jumlah Halaman": "256",
	"Tanggal Terbit": "3 Jul 2019",
	"ISBN": "9786024341350",
	"Bahasa": "Indonesia",
	"Penerbit": "Penerbit Erlangga",
	"Berat": "0.49 kg",
	"Lebar": "21 cm",
	"Panjang": "26 cm"
},
{
	"page": 27,
	"kategori 1": "non-fiksi",
	"kategori 2": "pendidikan",
	"book_url": "https://www.gramedia.com/products/sd-kl2-buku-pintar-ulangan",
	"title": "SD Kelas 2 Buku Pintar Ulangan",
	"author": "Tim Pustaka Agung Harapan",
	"Jumlah Halaman": "148",
	"Tanggal Terbit": "18 Jan 2012",
	"ISBN": "9789799991492",
	"Bahasa": "Indonesia",
	"Penerbit": "Pustaka Agung Harapan",
	"Berat": "0.250 kg",
	"Lebar": "20 cm",
	"Panjang": "27 cm"
},
{
	"page": 27,
	"kategori 1": "non-fiksi",
	"kategori 2": "pendidikan",
	"book_url": "https://www.gramedia.com/products/revolusi-mental-pengawas-sekolah",
	"title": "Revolusi Mental Pengawas Sekolah",
	"author": "Hendarman",
	"Jumlah Halaman": "120",
	"Tanggal Terbit": "20 Nov 2015",
	"ISBN": "9789796926398",
	"Bahasa": "Indonesia",
	"Penerbit": "Rosda",
	"Berat": "0.2000 kg",
	"Lebar": "16 cm"
},
{
	"page": 27,
	"kategori 1": "non-fiksi",
	"kategori 2": "pendidikan",
	"book_url": "https://www.gramedia.com/products/memulihkan-sekolah-memulihkan-manusia",
	"title": "Memulihkan Sekolah Memulihkan Manusia",
	"author": "Haidar Bagir",
	"Jumlah Halaman": "212.0",
	"Tanggal Terbit": "25 Sep 2019",
	"ISBN": "9786024411350",
	"Bahasa": "Indonesia",
	"Penerbit": "Mizan Media Utama Pt",
	"Berat": "0.171 kg",
	"Lebar": "12.8 cm",
	"Panjang": "20.6 cm"
},
{
	"page": 27,
	"kategori 1": "non-fiksi",
	"kategori 2": "pendidikan",
	"book_url": "https://www.gramedia.com/products/sd-kl-4-pintar-bahasa-indonesia-4b-kur-2006-ktsp",
	"title": "SD Kelas 4 Pintar Bahasa Indonesia 4B Kurikulum 2006 KTSP",
	"author": "Gilang Marsudi Dkk",
	"Jumlah Halaman": "123",
	"Tanggal Terbit": "31 Mar 2016",
	"ISBN": "9786022994541",
	"Bahasa": "Indonesia",
	"Penerbit": "Yudhistira Ghalia Indonesia",
	"Berat": "0.350 kg",
	"Lebar": "20 cm",
	"Panjang": "27 cm"
},
{
	"page": 27,
	"kategori 1": "non-fiksi",
	"kategori 2": "pendidikan",
	"book_url": "https://www.gramedia.com/products/sekolah-kapitalisme-yang-licik",
	"title": "Sekolah Kapitalisme Yang Licik",
	"author": "Paulo Freire",
	"Jumlah Halaman": "256",
	"Tanggal Terbit": "29 Sep 2016",
	"ISBN": "9786022792383",
	"Bahasa": "Indonesia",
	"Penerbit": "Lkis",
	"Berat": "0.2000 kg",
	"Lebar": "18 cm"
},
{
	"page": 27,
	"kategori 1": "non-fiksi",
	"kategori 2": "pendidikan",
	"book_url": "https://www.gramedia.com/products/smp-mts-fokus-skl-bank-soal-un-2018",
	"title": "Smp/Mts Fokus Skl & Bank Soal Un 2018",
	"author": "Tim Tentor Himalaya",
	"Jumlah Halaman": "480",
	"Tanggal Terbit": "1 Jul 2017",
	"ISBN": "9786026359780",
	"Bahasa": "Indonesia",
	"Penerbit": "Genta Group Production",
	"Berat": "0.8080 kg",
	"Lebar": "19 cm"
},
{
	"page": 27,
	"kategori 1": "non-fiksi",
	"kategori 2": "pendidikan",
	"book_url": "https://www.gramedia.com/products/sma-ma-kl-11-bupena-kimia-2-kur-2013",
	"title": "SMA/MA Kelas 11 Bupena Kimia 2 Kurikulum 2013",
	"author": "Ari Damari",
	"Jumlah Halaman": "211",
	"Tanggal Terbit": "28 Agt 2015",
	"ISBN": "9786022981558",
	"Bahasa": "Indonesia",
	"Penerbit": "Erlangga",
	"Berat": "0.50 kg",
	"Lebar": "21 cm",
	"Panjang": "26 cm"
},
{
	"page": 27,
	"kategori 1": "non-fiksi",
	"kategori 2": "pendidikan",
	"book_url": "https://www.gramedia.com/products/smpmts-klviii-pr-bahasa-inggris-smt2-rev2019-k13",
	"title": "Smp/Mts Kl.Viii Pr Bahasa Inggris Smt.2 Rev.2019 K/13",
	"author": "DEBY SELVIA R.N., PRASETYA ADHI WARDHANA, YUNIARTI DWI ARINI",
	"Jumlah Halaman": "138.0",
	"Tanggal Terbit": "8 Nov 2019",
	"ISBN": "9789792829563",
	"Bahasa": "Indonesia",
	"Penerbit": "PENERBIT INTAN PARIWARA",
	"Berat": "0.211 kg",
	"Lebar": "20.5 cm",
	"Panjang": "27.8 cm"
},
{
	"page": 27,
	"kategori 1": "non-fiksi",
	"kategori 2": "pendidikan",
	"book_url": "https://www.gramedia.com/products/sdmi-kl-4-buku-penilaian-bupena-4c-pttpkur-2013",
	"title": "Buku Penilaian Bupena 4C Pttp/Kur 2013 SD/MI Kls.4",
	"author": "Irene Mua Dkk",
	"Jumlah Halaman": "192.0",
	"Tanggal Terbit": "16 Jan 2017",
	"ISBN": "9786022988625",
	"Bahasa": "Indonesia",
	"Penerbit": "Penerbit Erlangga",
	"Berat": "0.4 kg",
	"Lebar": "21.0 cm",
	"Panjang": "26.0 cm"
},
{
	"page": 27,
	"kategori 1": "non-fiksi",
	"kategori 2": "pendidikan",
	"book_url": "https://www.gramedia.com/products/teori-kurikulum",
	"title": "Teori Kurikulum",
	"author": "Michael Stephen Schiro",
	"Jumlah Halaman": "341",
	"Tanggal Terbit": "1 Mei 2017",
	"ISBN": "9789790625150",
	"Bahasa": "Indonesia",
	"Penerbit": "Penerbit Indeks",
	"Berat": "0.60 kg",
	"Lebar": "17.5 cm",
	"Panjang": "25 cm"
},
{
	"page": 27,
	"kategori 1": "non-fiksi",
	"kategori 2": "pendidikan",
	"book_url": "https://www.gramedia.com/products/bedah-tuntas-skl-un-sma-ips-2017-the-king",
	"title": "The King Bedah Tuntas SKL UN SMA IPS 2017",
	"author": "Forum Tentor Indonesia",
	"Jumlah Halaman": "800",
	"Tanggal Terbit": "24 Jun 2016",
	"ISBN": "9786026758552",
	"Bahasa": "Indonesia",
	"Penerbit": "Solusi Distribusi",
	"Berat": "1.1000 kg",
	"Lebar": "19 cm"
},
{
	"page": 27,
	"kategori 1": "non-fiksi",
	"kategori 2": "pendidikan",
	"book_url": "https://www.gramedia.com/products/kamus-lengkap-inggris-indonesia-plus",
	"title": "Kamus Lengkap Inggris><Indonesia - Plus!!",
	"author": "Sutrisno",
	"Jumlah Halaman": "868",
	"Tanggal Terbit": "13 Jul 2016",
	"ISBN": "9786027341494",
	"Bahasa": "Indonesia",
	"Penerbit": "Senja Media Utama",
	"Berat": "1.2000 kg",
	"Lebar": "14 cm"
},
{
	"page": 27,
	"kategori 1": "non-fiksi",
	"kategori 2": "pendidikan",
	"book_url": "https://www.gramedia.com/products/sd-mi-kl-2-tematik-terpadu-tema-2-bermain-di-lingkunganku",
	"title": "Sd/Mi Kl 2 Tematik Terpadu Tema 2 Bermain Di Lingkunganku",
	"author": "Ratna Sari Utami,kus Dwiyatmo,desriana Dwi Soraya",
	"Jumlah Halaman": "108",
	"Tanggal Terbit": "12 Agt 2015",
	"ISBN": "9789792817539",
	"Bahasa": "Indonesia",
	"Penerbit": "Intan Pariwara",
	"Berat": "0.2000 kg",
	"Lebar": "21 cm"
},
{
	"page": 27,
	"kategori 1": "non-fiksi",
	"kategori 2": "pendidikan",
	"book_url": "https://www.gramedia.com/products/top-fokus-sbmptn-saintek-2017-gr-active-12-paket-prediksi",
	"title": "Top Fokus Sbmptn Saintek 2017 Gr Active 12 Paket Prediksi",
	"author": "Tim Maestro Eduka",
	"Jumlah Halaman": "842",
	"Tanggal Terbit": "14 Nov 2016",
	"ISBN": "9786026359087",
	"Bahasa": "Indonesia",
	"Penerbit": "Genta Group Production",
	"Berat": "0.1350 kg",
	"Lebar": "19 cm"
},
{
	"page": 27,
	"kategori 1": "non-fiksi",
	"kategori 2": "pendidikan",
	"book_url": "https://www.gramedia.com/products/sd-kelas-iv-tematik-indahnya-kebersamaan-k13-revisi-2016",
	"title": "SD Kelas IV Tematik Indahnya Kebersamaan K13 Revisi 2016",
	"author": "Dhiah Saptorini & Lili Nurlaili",
	"Jumlah Halaman": "None",
	"Tanggal Terbit": "1 Apr 2018",
	"ISBN": "9786024451363",
	"Bahasa": "Indonesia",
	"Penerbit": "Pt Yudhistira Ghalia Indonesia",
	"Berat": "0.380 kg",
	"Lebar": "20 cm",
	"Panjang": "26 cm"
},
{
	"page": 27,
	"kategori 1": "non-fiksi",
	"kategori 2": "pendidikan",
	"book_url": "https://www.gramedia.com/products/serba-maut",
	"title": "Serba Maut!",
	"author": "Crispin Boyer",
	"Jumlah Halaman": "178",
	"Tanggal Terbit": "4 Apr 2016",
	"ISBN": "9786026208132",
	"Bahasa": "Indonesia",
	"Penerbit": "Kepustakaan Populer Gramedia",
	"Berat": "0.5000 kg",
	"Lebar": "15 cm"
},
{
	"page": 27,
	"kategori 1": "non-fiksi",
	"kategori 2": "pendidikan",
	"book_url": "https://www.gramedia.com/products/smama-kelas-12-buku-siswa-ekonomi-3-sma-kur-2013",
	"title": "SMA/MA Kelas 12 Buku Siswa Ekonomi 3 SMA Kurikulum 2013",
	"author": "Dkk",
	"Jumlah Halaman": "278",
	"Tanggal Terbit": "28 Apr 2015",
	"ISBN": "9789796625635",
	"Bahasa": "Indonesia",
	"Penerbit": "Cempaka Putih",
	"Berat": "0.47 kg",
	"Lebar": "17.5 cm",
	"Panjang": "25 cm"
},
{
	"page": 27,
	"kategori 1": "non-fiksi",
	"kategori 2": "pendidikan",
	"book_url": "https://www.gramedia.com/products/sma-kls-11-kimia-2-b-semester-2-ktsp",
	"title": "Kimia Untuk SMA Kelas XI Semester 2",
	"author": "Michael Purba",
	"Jumlah Halaman": "211",
	"Tanggal Terbit": "1 Jan 2007",
	"ISBN": "9789790152663",
	"Bahasa": "Indonesia",
	"Penerbit": "Penerbit Erlangga",
	"Berat": "0.4000 kg",
	"Lebar": "25 cm",
	"Panjang": "32 cm"
},
{
	"page": 27,
	"kategori 1": "non-fiksi",
	"kategori 2": "pendidikan",
	"book_url": "https://www.gramedia.com/products/strategi-kuasai-ipa-kelas-4-5-6",
	"title": "Strategi Kuasai Ipa Kelas 4, 5, 6",
	"author": "Tim Smart Nusantara",
	"Jumlah Halaman": "498.0",
	"Tanggal Terbit": "20 Feb 2017",
	"ISBN": "9786023758418",
	"Bahasa": "Indonesia",
	"Penerbit": "Gramedia Widiasarana Indonesia",
	"Berat": "0.5 kg",
	"Lebar": "17.0 cm",
	"Panjang": "26.0 cm"
},
{
	"page": 27,
	"kategori 1": "non-fiksi",
	"kategori 2": "pendidikan",
	"book_url": "https://www.gramedia.com/products/smpmts-klix-mandiri-biologi",
	"title": "SMP/MTS Kelas IX Mandiri Biologi",
	"author": "Yukaliana Dkk",
	"Jumlah Halaman": "122",
	"Tanggal Terbit": "29 Sep 2009",
	"ISBN": "9789790337183",
	"Bahasa": "Indonesia",
	"Penerbit": "Penerbit Erlangga",
	"Berat": "0.16 kg",
	"Lebar": "17.5 cm",
	"Panjang": "24.5 cm"
},
{
	"page": 27,
	"kategori 1": "non-fiksi",
	"kategori 2": "pendidikan",
	"book_url": "https://www.gramedia.com/products/namaku-wanita",
	"title": "Namaku Wanita",
	"author": "Virgie  Hutahuruk",
	"Jumlah Halaman": "0",
	"Tanggal Terbit": "21 Nov 2016",
	"ISBN": "9789790013872",
	"Penerbit": "Metanoia",
	"Berat": "0 kg",
	"Lebar": "0 cm",
	"Panjang": "1 cm"
},
{
	"page": 27,
	"kategori 1": "non-fiksi",
	"kategori 2": "pendidikan",
	"book_url": "https://www.gramedia.com/products/kamus-al-hasan-arab-indonesia-indonesia-arab",
	"title": "Kamus Al Hasan Arab Indonesia Indonesia Arab",
	"author": "Abu Shofiyah Nashir",
	"Jumlah Halaman": "750",
	"Tanggal Terbit": "25 Jan 2016",
	"ISBN": "9786020874357",
	"Bahasa": "Indonesia",
	"Penerbit": "Mahkota Kita",
	"Berat": "0.8500 kg",
	"Lebar": "16 cm"
},
{
	"page": 27,
	"kategori 1": "non-fiksi",
	"kategori 2": "pendidikan",
	"book_url": "https://www.gramedia.com/products/smkmak-kl-11-biologi-2-bidang-keahlian-kesehatan-kur-2013",
	"title": "SMK/MAK Kelas 11 Biologi 2 Bidang Keahlian Kesehatan Kurikulum 2013",
	"author": "Nurmasari Sartono Dkk",
	"Jumlah Halaman": "220",
	"Tanggal Terbit": "6 Okt 2015",
	"ISBN": "9786022980322",
	"Bahasa": "Indonesia",
	"Penerbit": "Erlangga",
	"Berat": "0.38 kg",
	"Lebar": "19 cm",
	"Panjang": "25 cm"
},
{
	"page": 27,
	"kategori 1": "non-fiksi",
	"kategori 2": "pendidikan",
	"book_url": "https://www.gramedia.com/products/aku-anak-saleh-belajar-shalat",
	"title": "Aku Anak Saleh : Belajar Shalat",
	"author": "DEWANTI NURCAHYANI",
	"Jumlah Halaman": "12.0",
	"Tanggal Terbit": "3 Okt 2019",
	"ISBN": "9789797886875",
	"Bahasa": "Indonesia",
	"Penerbit": "Cerdas Interaktif",
	"Berat": "0.254 kg",
	"Lebar": "14.0 cm",
	"Panjang": "20.0 cm"
},
{
	"page": 27,
	"kategori 1": "non-fiksi",
	"kategori 2": "pendidikan",
	"book_url": "https://www.gramedia.com/products/sbmptn-soshum-2019-9999-sukses-cbt",
	"title": "SBMPTN SOSHUM 2019 99,99% SUKSES + CBT",
	"author": "Tim Tentor Master",
	"Jumlah Halaman": "704",
	"Tanggal Terbit": "21 Jul 2018",
	"ISBN": "9786025454424",
	"Bahasa": "Indonesia",
	"Penerbit": "Forum Edukasi",
	"Berat": "0.7 kg",
	"Lebar": "19 cm",
	"Panjang": "26 cm"
},
{
	"page": 27,
	"kategori 1": "non-fiksi",
	"kategori 2": "pendidikan",
	"book_url": "https://www.gramedia.com/products/metodologi-penelitian-pendidikan",
	"title": "Metodologi Penelitian Pendidikan",
	"author": "Sukardi",
	"Jumlah Halaman": "234",
	"Tanggal Terbit": "1 Jan 2008",
	"ISBN": "9789795268529",
	"Penerbit": "Bumi Aksara",
	"Berat": "0.3000 kg",
	"Lebar": "23 cm",
	"Panjang": "0 cm"
},
{
	"page": 27,
	"kategori 1": "non-fiksi",
	"kategori 2": "pendidikan",
	"book_url": "https://www.gramedia.com/products/mengkaji-ilmu-geografi-untuk-kelas-xii-sma-dan-ma-kurikulum-2013-edisi-revisi-2016",
	"title": "Mengkaji Ilmu Geografi untuk Kelas XII SMA dan MA kurikulum 2013 Edisi Revisi 2016",
	"author": "Sugiyanto,dkk",
	"Jumlah Halaman": "183",
	"Tanggal Terbit": "24 Jul 2017",
	"ISBN": "9786023203482",
	"Penerbit": "Tiga Serangkai",
	"Berat": "0.41 kg",
	"Lebar": "20 cm",
	"Panjang": "25.5 cm"
},
{
	"page": 27,
	"kategori 1": "non-fiksi",
	"kategori 2": "pendidikan",
	"book_url": "https://www.gramedia.com/products/sma-ma-kl-10-sejarah-1-ips-k-2013",
	"title": "SMA/MA Kelas 10 Sejarah 1 IPS Kurikulum 2013",
	"author": "Ratna Hapsari - M. Adil",
	"Jumlah Halaman": "388",
	"Tanggal Terbit": "29 Mar 2017",
	"ISBN": "9786024341770",
	"Bahasa": "Indonesia",
	"Penerbit": "Erlangga",
	"Berat": "0.65 kg",
	"Lebar": "18 cm",
	"Panjang": "25 cm"
},
{
	"page": 27,
	"kategori 1": "non-fiksi",
	"kategori 2": "pendidikan",
	"book_url": "https://www.gramedia.com/products/kamus-superlengkap-arab-indonesia-indonesia-arab",
	"title": "Kamus Superlengkap Arab-Indonesia Indonesia-Arab",
	"author": "Nita Rohmawati",
	"Jumlah Halaman": "444",
	"Tanggal Terbit": "10 Nov 2016",
	"ISBN": "9786021659816",
	"Bahasa": "Indonesia",
	"Penerbit": "Scritto Books Publisher",
	"Berat": "0.30 kg",
	"Lebar": "13 cm",
	"Panjang": "19 cm"
},
{
	"page": 27,
	"kategori 1": "non-fiksi",
	"kategori 2": "pendidikan",
	"book_url": "https://www.gramedia.com/products/smasmk-erlangga-x-press-usbn-2018-pend-agama-islam",
	"title": "Erlangga X-Press USBN SMA/SMK 2018 Pendidikan Agama Islam dan Budi Pekerti",
	"author": "Tim Progresif",
	"Jumlah Halaman": "136",
	"Tanggal Terbit": "23 Des 2017",
	"ISBN": "9786024346164",
	"Bahasa": "Indonesia",
	"Penerbit": "Penerbit Erlangga",
	"Berat": "0.32 kg",
	"Lebar": "26 cm",
	"Panjang": "21 cm"
},
{
	"page": 27,
	"kategori 1": "non-fiksi",
	"kategori 2": "pendidikan",
	"book_url": "https://www.gramedia.com/products/permainan-angka-untuk-kecerdasan-matematika-anak",
	"title": "Permainan Angka Untuk Kecerdasan Matematika Anak",
	"author": "Heru Kurniawan",
	"Jumlah Halaman": "72",
	"Tanggal Terbit": "27 Nov 2015",
	"ISBN": "9786022559160",
	"Bahasa": "Indonesia",
	"Penerbit": "Laksana Kidz",
	"Berat": "0.17 kg",
	"Lebar": "20.5 cm",
	"Panjang": "27 cm"
},
{
	"page": 27,
	"kategori 1": "non-fiksi",
	"kategori 2": "pendidikan",
	"book_url": "https://www.gramedia.com/products/cara-dahsyat-mengajar-belajar-beyond-teaching-learning",
	"title": "Cara Dahsyat Mengajar & Belajar : Beyond Teaching & Learning",
	"author": "Win Wenger",
	"Jumlah Halaman": "448",
	"Tanggal Terbit": "21 Des 2015",
	"ISBN": "9786023500550",
	"Bahasa": "Indonesia",
	"Penerbit": "Nuansa Cendekia",
	"Berat": "0.5000 kg",
	"Lebar": "15 cm"
},
