{
	"page": 28,
	"kategori 1": "non-fiksi",
	"kategori 2": "pengembangan-diri",
	"book_url": "https://www.gramedia.com/products/conf-meraih-jabatan-chief-information-officer-dalam-12-tahun",
	"title": "Meraih Jabatan Chief Information Officer Dalam 12 Tahun",
	"author": "Anjar Kuncoro",
	"Jumlah Halaman": "272",
	"Tanggal Terbit": "26 Mei 2014",
	"ISBN": "978602024132",
	"Penerbit": "Elex Media Komputindo",
	"Berat": "0.23 kg",
	"Lebar": "14.0 cm",
	"Panjang": "21.0 cm"
},
{
	"page": 28,
	"kategori 1": "non-fiksi",
	"kategori 2": "pengembangan-diri",
	"book_url": "https://www.gramedia.com/products/iron-bird-monika",
	"title": "IRON BIRD MONIKA",
	"author": "Monika Anggreini",
	"Jumlah Halaman": "220",
	"Tanggal Terbit": "27 Nov 2017",
	"ISBN": "0.160",
	"Penerbit": "Gramedia Pustaka Utama",
	"Berat": "0.150 kg",
	"Lebar": "13.5 cm",
	"Panjang": "20 cm"
},
{
	"page": 28,
	"kategori 1": "non-fiksi",
	"kategori 2": "pengembangan-diri",
	"book_url": "https://www.gramedia.com/products/101-problem-solving-for-entrepreneur",
	"title": "101 Problem Solving for Entrepreneur",
	"author": "Eugenia Rakhma & Monica Anggen",
	"Jumlah Halaman": "348",
	"Tanggal Terbit": "13 Nov 2017",
	"ISBN": "9786024524210",
	"Bahasa": "Indonesia",
	"Penerbit": "Gramedia Widiasarana Indonesia",
	"Berat": "0.220 kg",
	"Panjang": "20 cm"
},
{
	"page": 28,
	"kategori 1": "non-fiksi",
	"kategori 2": "pengembangan-diri",
	"book_url": "https://www.gramedia.com/products/mami-bangga-jess",
	"title": "Mami Bangga, Jess!",
	"author": "Anita Ratna Sari",
	"Jumlah Halaman": "96.0",
	"Tanggal Terbit": "28 Okt 2019",
	"ISBN": "9786230008009",
	"Bahasa": "Indonesia",
	"Penerbit": "Elex Media Komputindo",
	"Berat": "0.15 kg",
	"Lebar": "19.0 cm",
	"Panjang": "23.0 cm"
},
{
	"page": 28,
	"kategori 1": "non-fiksi",
	"kategori 2": "pengembangan-diri",
	"book_url": "https://www.gramedia.com/products/wisdom-healing-cultivating-chi-and-mind",
	"title": "Wisdom Healing Cultivating Chi And Mind",
	"author": "Dr. Ir. Akino W. Azzario M.M.,S.Pd.",
	"Jumlah Halaman": "148",
	"Tanggal Terbit": "9 Jan 2019",
	"ISBN": "9786025235269",
	"Bahasa": "Indonesia",
	"Penerbit": "Plp Books",
	"Berat": "0.250 kg"
},
