{
	"page": 46,
	"kategori 1": "non-fiksi",
	"kategori 2": "pengembangan-diri",
	"book_url": "https://www.gramedia.com/products/kisah-cokelat-klasik-tradisi-nyokelat-asyik-ala-linda-lal",
	"title": "Kisah Cokelat Klasik Tradisi Nyokelat Asyik Ala Linda Lal",
	"author": "Martalinda Basuku",
	"Jumlah Halaman": "109",
	"Tanggal Terbit": "29 Nov 2018",
	"ISBN": "9786026328717",
	"Bahasa": "Indonesia",
	"Penerbit": "Tiga Serangkai",
	"Berat": "0.162 kg",
	"Lebar": "17 cm",
	"Panjang": "24 cm"
},
{
	"page": 46,
	"kategori 1": "non-fiksi",
	"kategori 2": "pengembangan-diri",
	"book_url": "https://www.gramedia.com/products/kerja-cerdas-dong-2",
	"title": "Kerja Cerdas Dong! 2",
	"author": "Prabu Ganendra",
	"Jumlah Halaman": "210",
	"Tanggal Terbit": "27 Agt 2015",
	"ISBN": "9786027701809",
	"Bahasa": "Indonesia",
	"Penerbit": "Real Books",
	"Berat": "0.2000 kg",
	"Lebar": "14 cm"
},
