{
	"page": 96,
	"kategori 1": "non-fiksi",
	"kategori 2": "pengembangan-diri",
	"book_url": "https://www.gramedia.com/products/franky-kengkang-kowaas",
	"title": "Franky \"Kengkang\" Kowaas",
	"author": "Anang Yb",
	"Jumlah Halaman": "312.0",
	"Tanggal Terbit": "7 Okt 2019",
	"ISBN": "9786230007040",
	"Bahasa": "Indonesia",
	"Penerbit": "Elex Media Komputindo",
	"Berat": "0.6 kg",
	"Lebar": "15.0 cm",
	"Panjang": "23.0 cm"
},
{
	"page": 96,
	"kategori 1": "non-fiksi",
	"kategori 2": "pengembangan-diri",
	"book_url": "https://www.gramedia.com/products/tabah-sampai-akhir",
	"title": "Tabah Sampai Akhir",
	"author": "Irfan Ramdhani",
	"Tanggal Terbit": "15 Apr 2015",
	"ISBN": "9789797807993",
	"Bahasa": "Indonesia",
	"Penerbit": "Gagas Media",
	"Berat": "0.2500 kg",
	"Lebar": "13 cm"
},
{
	"page": 96,
	"kategori 1": "non-fiksi",
	"kategori 2": "pengembangan-diri",
	"book_url": "https://www.gramedia.com/products/berhenti-berharap-mulailah-bertindak-1",
	"title": "Berhenti Berharap Mulailah Bertindak",
	"author": "M. SETO CAHYADI, DKK",
	"Jumlah Halaman": "186",
	"Tanggal Terbit": "18 Mei 2019",
	"ISBN": "9786025964060",
	"Bahasa": "Indonesia",
	"Penerbit": "CAESAR MEDIA PUSTAKA",
	"Berat": "0.162 kg",
	"Lebar": "13.5 cm",
	"Panjang": "20 cm"
},
{
	"page": 96,
	"kategori 1": "non-fiksi",
	"kategori 2": "pengembangan-diri",
	"book_url": "https://www.gramedia.com/products/humanoid-communication-transformasi-komunikasi-internapers",
	"title": "Humanoid Communication : Transformasi Komunikasi Internapers",
	"author": "DR. HUSNITA, S.E., M.SI., CPR",
	"Jumlah Halaman": "142.0",
	"Tanggal Terbit": "1 Okt 2019",
	"ISBN": "9786027973886",
	"Bahasa": "Indonesia",
	"Penerbit": "Simbiosa Rekatama Media Cv",
	"Berat": "0.269 kg",
	"Lebar": "17.5 cm",
	"Panjang": "25.0 cm"
},
{
	"page": 96,
	"kategori 1": "non-fiksi",
	"kategori 2": "pengembangan-diri",
	"book_url": "https://www.gramedia.com/products/berani-tampil-beda-dan-percaya-diri",
	"title": "Berani Tampil Beda Dan Percaya Diri",
	"author": "Hendra Widjaja",
	"Jumlah Halaman": "212",
	"Tanggal Terbit": "20 Mei 2016",
	"ISBN": "9786023002498",
	"Bahasa": "Indonesia",
	"Penerbit": "Araska",
	"Berat": "0.1500 kg",
	"Lebar": "14 cm"
},
{
	"page": 96,
	"kategori 1": "non-fiksi",
	"kategori 2": "pengembangan-diri",
	"book_url": "https://www.gramedia.com/products/sekolah-adiwiyata",
	"title": "Sekolah Adiwiyata",
	"author": "",
	"Jumlah Halaman": "152.0",
	"Tanggal Terbit": "23 Mei 2019",
	"ISBN": "9786026847706",
	"Penerbit": "Erlangga",
	"Berat": "0.205 kg",
	"Lebar": "15.0 cm",
	"Panjang": "20.0 cm"
},
{
	"page": 96,
	"kategori 1": "non-fiksi",
	"kategori 2": "pengembangan-diri",
	"book_url": "https://www.gramedia.com/products/17-ko-kunci-sukses-memimpin",
	"title": "17 KO Kunci Sukses Memimpin",
	"author": "Aloysius Giyai",
	"Jumlah Halaman": "272",
	"Tanggal Terbit": "22 Jul 2017",
	"ISBN": "9786021417577",
	"Penerbit": "Altheras",
	"Berat": "0.36 kg",
	"Lebar": "15 cm",
	"Panjang": "21 cm"
},
{
	"page": 96,
	"kategori 1": "non-fiksi",
	"kategori 2": "pengembangan-diri",
	"book_url": "https://www.gramedia.com/products/waking-hypnosis",
	"title": "Waking Hypnosis",
	"author": "Amir Faisal",
	"Jumlah Halaman": "184",
	"Tanggal Terbit": "18 Feb 2019",
	"ISBN": "9786020489476",
	"Bahasa": "Indonesia",
	"Penerbit": "Elex Media Komputindo",
	"Berat": "0.280 kg",
	"Lebar": "21 cm",
	"Panjang": "14 cm"
},
{
	"page": 96,
	"kategori 1": "non-fiksi",
	"kategori 2": "pengembangan-diri",
	"book_url": "https://www.gramedia.com/products/kuliahnya-biasa-hasilnya-luar-biasa-panduan-kuliah-no-1",
	"title": "Kuliahnya Biasa, Hasilnya Luar Biasa :#Panduan Kuliah No.1",
	"author": "Yoga Pratma",
	"Jumlah Halaman": "168",
	"Tanggal Terbit": "27 Agt 2015",
	"ISBN": "9786027701816",
	"Bahasa": "Indonesia",
	"Penerbit": "Semesta Hikmah",
	"Berat": "0.1500 kg",
	"Lebar": "14 cm"
},
{
	"page": 96,
	"kategori 1": "non-fiksi",
	"kategori 2": "pengembangan-diri",
	"book_url": "https://www.gramedia.com/products/para-pemburu-masa-depan",
	"title": "Para Pemburu Masa Depan",
	"author": "Surya Burhanuddin & Tony Hendroyono",
	"Jumlah Halaman": "188",
	"Tanggal Terbit": "6 Jun 2016",
	"ISBN": "9786022912149",
	"Bahasa": "Indonesia",
	"Penerbit": "Mizan",
	"Berat": "0.1500 kg",
	"Lebar": "13 cm"
},
{
	"page": 96,
	"kategori 1": "non-fiksi",
	"kategori 2": "pengembangan-diri",
	"book_url": "https://www.gramedia.com/products/jatuh-bangun-bos-bos-starup",
	"title": "Jatuh-Bangun Bos-Bos Startup",
	"author": "Lauma Kiwe",
	"Jumlah Halaman": "168",
	"Tanggal Terbit": "15 Nov 2017",
	"ISBN": "9786025479069",
	"Penerbit": "Checklist",
	"Berat": "0.185 kg",
	"Lebar": "14 cm",
	"Panjang": "20 cm"
},
{
	"page": 96,
	"kategori 1": "non-fiksi",
	"kategori 2": "pengembangan-diri",
	"book_url": "https://www.gramedia.com/products/101-cara-mengubah-kebiasaan-buruk",
	"title": "101 Cara Mengubah Kebiasaan Buruk",
	"author": "Farizza Noor Amalia",
	"Jumlah Halaman": "252",
	"Tanggal Terbit": "5 Mar 2018",
	"ISBN": "9786025469176",
	"Bahasa": "Indonesia",
	"Penerbit": "Anak Hebat Indonesia",
	"Berat": "0.20 kg",
	"Lebar": "12 cm",
	"Panjang": "19 cm"
},
{
	"page": 96,
	"kategori 1": "non-fiksi",
	"kategori 2": "pengembangan-diri",
	"book_url": "https://www.gramedia.com/products/happy-soul-of-a-woman",
	"title": "Happy Soul Of A Woman",
	"author": "Muhajjah Saratini",
	"Jumlah Halaman": "178.0",
	"Tanggal Terbit": "21 Feb 2020",
	"ISBN": "9786237333203",
	"Bahasa": "Indonesia",
	"Penerbit": "C-Klik Media",
	"Berat": "0.161 kg",
	"Lebar": "14.0 cm",
	"Panjang": "20.0 cm"
},
{
	"page": 96,
	"kategori 1": "non-fiksi",
	"kategori 2": "pengembangan-diri",
	"book_url": "https://www.gramedia.com/products/berdamai-dengan-emosi",
	"title": "Berdamai Dengan Emosi",
	"author": "Asti Musman",
	"Jumlah Halaman": "177",
	"Tanggal Terbit": "19 Mar 2018",
	"ISBN": "9786027483187",
	"Bahasa": "Indonesia",
	"Penerbit": "Psikologi Corner",
	"Berat": "0.15 kg",
	"Lebar": "14 cm",
	"Panjang": "20 cm"
},
{
	"page": 96,
	"kategori 1": "non-fiksi",
	"kategori 2": "pengembangan-diri",
	"book_url": "https://www.gramedia.com/products/se7en-decision-codes",
	"title": "Seven Decision Codes",
	"author": "Timotius Adi Tan",
	"Jumlah Halaman": "234",
	"Tanggal Terbit": "18 Des 2017",
	"ISBN": "9789792964196",
	"Bahasa": "Indonesia",
	"Penerbit": "Andi Publisher",
	"Berat": "0.25 kg",
	"Lebar": "15 cm",
	"Panjang": "23 cm"
},
{
	"page": 96,
	"kategori 1": "non-fiksi",
	"kategori 2": "pengembangan-diri",
	"book_url": "https://www.gramedia.com/products/life-in-my-hand",
	"title": "Life In My Hand",
	"author": "Eric Siregar",
	"Jumlah Halaman": "250",
	"Tanggal Terbit": "10 Sep 2018",
	"ISBN": "9786025752063",
	"Bahasa": "Indonesia",
	"Penerbit": "Media Pressindo",
	"Berat": "0.18 kg",
	"Lebar": "13 cm",
	"Panjang": "19 cm"
},
{
	"page": 96,
	"kategori 1": "non-fiksi",
	"kategori 2": "pengembangan-diri",
	"book_url": "https://www.gramedia.com/products/conf-metamorfosis-refleksi-perjalanan-hidup-dalam-menggapai-impian",
	"title": "Metamorfosis: Refleksi Perjalanan Hidup dalam Menggapai Impian",
	"author": "Indra Sosrodjojo",
	"Jumlah Halaman": "332",
	"Tanggal Terbit": "23 Jul 2015",
	"ISBN": "9786020267616",
	"Bahasa": "Indonesia",
	"Penerbit": "Elex Media Komputindo",
	"Berat": "0.1000 kg",
	"Lebar": "0 cm"
},
{
	"page": 96,
	"kategori 1": "non-fiksi",
	"kategori 2": "pengembangan-diri",
	"book_url": "https://www.gramedia.com/products/the-alpha-girls-guide",
	"title": "The Alpha Girls Guide",
	"author": "Henry Manampiring",
	"Jumlah Halaman": "254",
	"Tanggal Terbit": "2 Des 2015",
	"ISBN": "9789797808488",
	"Bahasa": "Indonesia",
	"Penerbit": "Gagas Media",
	"Berat": "0.2000 kg",
	"Lebar": "13 cm"
},
{
	"page": 96,
	"kategori 1": "non-fiksi",
	"kategori 2": "pengembangan-diri",
	"book_url": "https://www.gramedia.com/products/super-briefing-for-super-team",
	"title": "Super Briefing For Super Team",
	"author": "Agus Andrianto, CHT",
	"Jumlah Halaman": "None",
	"Tanggal Terbit": "12 Okt 2018",
	"ISBN": "9786027258938",
	"Bahasa": "Indonesia",
	"Penerbit": "Nusantara",
	"Berat": "0.2 kg",
	"Lebar": "14 cm",
	"Panjang": "21 cm"
},
{
	"page": 96,
	"kategori 1": "non-fiksi",
	"kategori 2": "pengembangan-diri",
	"book_url": "https://www.gramedia.com/products/the-power-of-planning-gagal-merencanakan-merencanakan-keg",
	"title": "The Power Of Planning: Gagal Merencanakan = Merencanakan Keg",
	"author": "Karina Nurin",
	"Jumlah Halaman": "236.0",
	"Tanggal Terbit": "3 Sep 2019",
	"ISBN": "9786237115632",
	"Bahasa": "Indonesia",
	"Penerbit": "Psikologi Corner",
	"Berat": "0.2 kg",
	"Lebar": "20.0 cm",
	"Panjang": "14.0 cm"
},
{
	"page": 96,
	"kategori 1": "non-fiksi",
	"kategori 2": "pengembangan-diri",
	"book_url": "https://www.gramedia.com/products/melawan-miskin-pikiran-memenangkan-pertarungan-hidup-ala-ka",
	"title": "Melawan Miskin Pikiran; Memenangkan Pertarungan Hidup Ala Ka",
	"author": "Hasanudin Abdurakhman",
	"Jumlah Halaman": "276.0",
	"Tanggal Terbit": "15 Nov 2019",
	"ISBN": "9786023505036",
	"Bahasa": "Indonesia",
	"Penerbit": "NUANSA CENDEKIA",
	"Berat": "0.23 kg",
	"Lebar": "14.0 cm",
	"Panjang": "20.0 cm"
},
{
	"page": 96,
	"kategori 1": "non-fiksi",
	"kategori 2": "pengembangan-diri",
	"book_url": "https://www.gramedia.com/products/samurai-blasteran",
	"title": "Samurai Blasteran",
	"author": "Yunitha Fairani",
	"Jumlah Halaman": "280",
	"Tanggal Terbit": "14 Jan 2019",
	"ISBN": "9786020621685",
	"Bahasa": "Indonesia",
	"Penerbit": "Gramedia Pustaka Utama",
	"Berat": "0.180 kg",
	"Lebar": "20 cm",
	"Panjang": "13.5 cm"
},
{
	"page": 96,
	"kategori 1": "non-fiksi",
	"kategori 2": "pengembangan-diri",
	"book_url": "https://www.gramedia.com/products/relationship-101-reprint-edition",
	"title": "Relationship 101 Reprint Edition",
	"author": "John C. Maxwell",
	"Jumlah Halaman": "144.0",
	"Tanggal Terbit": "6 Okt 2015",
	"ISBN": "9786020956152",
	"Penerbit": "Mic Publishing",
	"Berat": "0.3 kg",
	"Lebar": "12.0 cm",
	"Panjang": "17.0 cm"
},
{
	"page": 96,
	"kategori 1": "non-fiksi",
	"kategori 2": "pengembangan-diri",
	"book_url": "https://www.gramedia.com/products/experience-book-love-series",
	"title": "Experience Book: Love Series",
	"author": "Bunga Mega",
	"Jumlah Halaman": "128",
	"Tanggal Terbit": "14 Mar 2016",
	"ISBN": "9786020281209",
	"Bahasa": "Indonesia",
	"Penerbit": "Elex Media Komputindo",
	"Berat": "0.1500 kg",
	"Lebar": "12 cm"
},
{
	"page": 96,
	"kategori 1": "non-fiksi",
	"kategori 2": "pengembangan-diri",
	"book_url": "https://www.gramedia.com/products/your-kids-are-your-own-fault",
	"title": "Your Kids Are Your Own Fault",
	"author": "Larry Winget",
	"Jumlah Halaman": "320.0",
	"Tanggal Terbit": "11 Okt 2019",
	"ISBN": "9786020956879",
	"Bahasa": "Indonesia",
	"Penerbit": "Mic Publishing",
	"Berat": "0.344 kg",
	"Lebar": "15.0 cm",
	"Panjang": "23.0 cm"
},
