{
	"page": 25,
	"kategori 1": "non-fiksi",
	"kategori 2": "pengembangan-diri",
	"book_url": "https://www.gramedia.com/products/rahasia-di-balik-mimpi-orang-sukses",
	"title": "Rahasia Di Balik Mimpi Orang Sukses",
	"author": "Eko Budi Sulistiyo",
	"Jumlah Halaman": "136",
	"Tanggal Terbit": "11 Jun 2015",
	"ISBN": "9786027227835",
	"Bahasa": "Indonesia",
	"Penerbit": "Solusi",
	"Berat": "0.2000 kg",
	"Lebar": "13 cm"
},
{
	"page": 25,
	"kategori 1": "non-fiksi",
	"kategori 2": "pengembangan-diri",
	"book_url": "https://www.gramedia.com/products/life-of-pi-kisah-pi",
	"title": "Life of Pi ( Kisah Pi )",
	"author": "Yann Martel",
	"Jumlah Halaman": "448",
	"Tanggal Terbit": "10 Jul 2017",
	"ISBN": "9789792289008",
	"Bahasa": "Indonesia",
	"Penerbit": "Gramedia Pustaka Utama",
	"Berat": "0.3500 kg",
	"Lebar": "13.5 cm"
},
{
	"page": 25,
	"kategori 1": "non-fiksi",
	"kategori 2": "pengembangan-diri",
	"book_url": "https://www.gramedia.com/products/manusia-militan",
	"title": "Manusia Militan",
	"author": "Saleh, Drs (Abu Aly) Mahayana SR",
	"Jumlah Halaman": "192",
	"Tanggal Terbit": "10 Jul 2017",
	"ISBN": "9786020433806",
	"Bahasa": "Indonesia",
	"Penerbit": "Elex Media Komputindo",
	"Berat": "0.3000 kg",
	"Lebar": "14 cm"
},
{
	"page": 25,
	"kategori 1": "non-fiksi",
	"kategori 2": "pengembangan-diri",
	"book_url": "https://www.gramedia.com/products/conf-managing-people-kiat-praktis-mengelola-manusia-bagi-supervisor-dan-manajer",
	"title": "Managing People: Kiat Praktis Mengelola Manusia bagi Supervisor dan Manajer",
	"author": "A.m. Lilik Agung",
	"Jumlah Halaman": "214",
	"Tanggal Terbit": "23 Sep 2014",
	"ISBN": "9786020248820",
	"Bahasa": "Indonesia",
	"Penerbit": "Elex Media Komputindo",
	"Berat": "0.3000 kg",
	"Lebar": "14 cm",
	"Panjang": "20 cm"
},
{
	"page": 25,
	"kategori 1": "non-fiksi",
	"kategori 2": "pengembangan-diri",
	"book_url": "https://www.gramedia.com/products/conf-grow-beyond-your-limits-lampaui-batasan-dan-jadilah-pemenang",
	"title": "Grow Beyond Your Limits: Lampaui Batasan dan Jadilah Pemenang!",
	"author": "E. Widijo Hari Murdoko",
	"Jumlah Halaman": "124",
	"Tanggal Terbit": "23 Des 2015",
	"ISBN": "9786020273211",
	"Bahasa": "Indonesia",
	"Penerbit": "Elex Media Komputindo",
	"Berat": "0.3000 kg",
	"Lebar": "14 cm"
},
{
	"page": 25,
	"kategori 1": "non-fiksi",
	"kategori 2": "pengembangan-diri",
	"book_url": "https://www.gramedia.com/products/marvella-bayi-trisomy-18-ku-tercinta-keajaiban-yang-tidak-pernah",
	"title": "Marvella Bayi Trisomy 18 Ku Tercinta : Keajaiban Yang Tidak Pernah",
	"author": "Ani Widia",
	"Jumlah Halaman": "220",
	"Tanggal Terbit": "27 Agt 2015",
	"ISBN": "9786021659618",
	"Bahasa": "Indonesia",
	"Penerbit": "Cv.solusi",
	"Berat": "0.2000 kg",
	"Lebar": "14 cm"
},
{
	"page": 25,
	"kategori 1": "non-fiksi",
	"kategori 2": "pengembangan-diri",
	"book_url": "https://www.gramedia.com/products/conf-mendobrak-pola-pikir-kolot-blueprint-menuju-kerajaan-bisnis",
	"title": "Mendobrak Pola Pikir Kolot? - Blueprint menuju Kerajaan Bisnis",
	"author": "Ben Abadi",
	"Jumlah Halaman": "219",
	"Tanggal Terbit": "17 Jun 2014",
	"ISBN": "978602024239",
	"Penerbit": "Elex Media Komputindo",
	"Berat": "0.22 kg",
	"Lebar": "15.0 cm",
	"Panjang": "23.0 cm"
},
