{
	"page": 42,
	"kategori 1": "non-fiksi",
	"kategori 2": "pengembangan-diri",
	"book_url": "https://www.gramedia.com/products/dahsyatnya-bangun-pagi-bagi-usaha-karier",
	"title": "Dahsyatnya Bangun Pagi Bagi Usaha & Karier",
	"author": "Bella Nuriyanti",
	"Jumlah Halaman": "180",
	"Tanggal Terbit": "3 Nov 2015",
	"ISBN": "9786022961697",
	"Bahasa": "Indonesia",
	"Penerbit": "Flashbooks",
	"Berat": "0.2000 kg",
	"Lebar": "14 cm"
},
{
	"page": 42,
	"kategori 1": "non-fiksi",
	"kategori 2": "pengembangan-diri",
	"book_url": "https://www.gramedia.com/products/sukses-berkarier-tanpa-bekerja",
	"title": "Sukses Berkarier Tanpa Bekerja",
	"author": "Mia Marianne",
	"Jumlah Halaman": "144",
	"Tanggal Terbit": "15 Des 2015",
	"ISBN": "9786023420285",
	"Bahasa": "Indonesia",
	"Penerbit": "Bestari Buana",
	"Berat": "0.1500 kg",
	"Lebar": "15 cm"
},
{
	"page": 42,
	"kategori 1": "non-fiksi",
	"kategori 2": "pengembangan-diri",
	"book_url": "https://www.gramedia.com/products/100-cara-mengenali-karakter-dia-berdasarkan-bulan-hari-lahir-numerologi-abjad-awalan-nama",
	"title": "100 Cara Mengenali Karakter `Dia` Berdasarkan Bulan , Hari Lahir, Numerologi & Abjad Awalan Nama",
	"author": "Sienta Sasika Novel",
	"Jumlah Halaman": "224",
	"Tanggal Terbit": "7 Nov 2014",
	"ISBN": "9786022517528",
	"Bahasa": "Indonesia",
	"Penerbit": "Gramedia Widiasarana Indonesia",
	"Berat": "0.2 kg",
	"Lebar": "13 cm",
	"Panjang": "19 cm"
},
