{
	"page": 41,
	"kategori 1": "non-fiksi",
	"kategori 2": "pengembangan-diri",
	"book_url": "https://www.gramedia.com/products/corporate-heroes",
	"title": "Corporate Heroes",
	"author": "Fauzi Rachmanto, Ferlita Sari, Indrawan Nugroho",
	"Jumlah Halaman": "240",
	"Tanggal Terbit": "1 Feb 2016",
	"ISBN": "9786020324814",
	"Bahasa": "Indonesia",
	"Penerbit": "Gramedia Pustaka Utama",
	"Berat": "0.2000 kg",
	"Lebar": "14 cm"
},
{
	"page": 41,
	"kategori 1": "non-fiksi",
	"kategori 2": "pengembangan-diri",
	"book_url": "https://www.gramedia.com/products/transformasi-diri",
	"title": "Transformasi Diri",
	"author": "Heru K. Wibawa",
	"Jumlah Halaman": "224",
	"Tanggal Terbit": "24 Jul 2017",
	"ISBN": "9786020366425",
	"Bahasa": "Indonesia",
	"Penerbit": "Gramedia Pustaka Utama",
	"Berat": "0.3000 kg",
	"Lebar": "14 cm"
},
{
	"page": 41,
	"kategori 1": "non-fiksi",
	"kategori 2": "pengembangan-diri",
	"book_url": "https://www.gramedia.com/products/mencari-uban-kumpulan-permenungan2-singkat-ringan",
	"title": "Mencari Uban: Kumpulan Permenungan2 Singkat&Ringan",
	"author": "Irfantinus Tarigan",
	"Jumlah Halaman": "176",
	"Tanggal Terbit": "20 Agt 2015",
	"ISBN": "9786027739543",
	"Bahasa": "Indonesia",
	"Penerbit": "Lestari Kiranatama",
	"Berat": "0.1500 kg",
	"Lebar": "11 cm"
},
{
	"page": 41,
	"kategori 1": "non-fiksi",
	"kategori 2": "pengembangan-diri",
	"book_url": "https://www.gramedia.com/products/conf-filosofi-laris-manis-menjual-properti-selaras-membina-keluarga-harmonis",
	"title": "Filosofi Laris Manis Menjual Properti & Selaras Membina Keluarga Harmonis",
	"author": "Lisa Kuntjoro",
	"Jumlah Halaman": "190",
	"Tanggal Terbit": "27 Des 2016",
	"ISBN": "978602029844",
	"Penerbit": "Elex Media Komputindo",
	"Berat": "0.17 kg",
	"Lebar": "14.0 cm",
	"Panjang": "21.0 cm"
},
