{
	"page": 20,
	"kategori 1": "buku-anak",
	"kategori 2": "pra-remaja",
	"book_url": "https://www.gramedia.com/products/things-i-love-record-book-hc",
	"title": "Things I Love Record Book",
	"author": "Trace Moroney",
	"Jumlah Halaman": "None",
	"Tanggal Terbit": "1 Jan 2015",
	"ISBN": "9781743630952",
	"Bahasa": "English",
	"Penerbit": "Sinar Star Book",
	"Berat": "0.60 kg",
	"Lebar": "25 cm",
	"Panjang": "26 cm"
},
{
	"page": 20,
	"kategori 1": "buku-anak",
	"kategori 2": "pra-remaja",
	"book_url": "https://www.gramedia.com/products/seri-fais-kecerdikan-burung-hud-hud",
	"title": "Seri Fais : Kecerdikan Burung Hud-Hud",
	"author": "Yoli Hemdi",
	"Jumlah Halaman": "35",
	"Tanggal Terbit": "22 Mar 2018",
	"ISBN": "9786022681939",
	"Bahasa": "Indonesia",
	"Penerbit": "Luxima Metro Media",
	"Berat": "0.10 kg",
	"Lebar": "19 cm",
	"Panjang": "19 cm"
},
{
	"page": 20,
	"kategori 1": "buku-anak",
	"kategori 2": "pra-remaja",
	"book_url": "https://www.gramedia.com/products/cepat-hafal-doa-anak-muslim-cerdas",
	"title": "Cepat Hafal Doa: Anak Muslim Cerdas",
	"author": "Ahmad Ghilman",
	"Jumlah Halaman": "58",
	"Tanggal Terbit": "14 Des 2018",
	"ISBN": "9786025226854",
	"Bahasa": "Indonesia",
	"Penerbit": "Efde Media Publisher",
	"Berat": "0.19 kg",
	"Lebar": "18 cm",
	"Panjang": "18 cm"
},
{
	"page": 20,
	"kategori 1": "buku-anak",
	"kategori 2": "pra-remaja",
	"book_url": "https://www.gramedia.com/products/geronimo-stilton-spacemice-12invisible-planet",
	"title": "Geronimo Stilton Spacemice #12 : The Invisible Planet",
	"author": "Geronimo Stilton",
	"Jumlah Halaman": "113",
	"Tanggal Terbit": "2 Feb 2018",
	"ISBN": "9781338215045",
	"Bahasa": "English",
	"Penerbit": "Scholastic",
	"Berat": "0.20 kg",
	"Lebar": "13 cm",
	"Panjang": "19 cm"
},
{
	"page": 20,
	"kategori 1": "buku-anak",
	"kategori 2": "pra-remaja",
	"book_url": "https://www.gramedia.com/products/kkpk-tragedi-behel-new",
	"title": "KKPK Tragedi Behel - New",
	"author": "Nabila",
	"Jumlah Halaman": "112",
	"Tanggal Terbit": "31 Mar 2017",
	"ISBN": "9786024203931",
	"Bahasa": "Indonesia",
	"Penerbit": "Mizan Publishing",
	"Berat": "0.15 kg",
	"Lebar": "14 cm",
	"Panjang": "21 cm"
},
{
	"page": 20,
	"kategori 1": "buku-anak",
	"kategori 2": "pra-remaja",
	"book_url": "https://www.gramedia.com/products/geronimo-stilton-heromics-10-sweet-dreams-sewer-rats",
	"title": "Geronimo Stilton : Heromice #10 : Sweet Dreams, Sewer Rats!",
	"author": "Geronimo Stilton",
	"Jumlah Halaman": "111",
	"Tanggal Terbit": "24 Agt 2017",
	"ISBN": "9781338182729",
	"Bahasa": "English",
	"Penerbit": "Scholastic",
	"Berat": "0.20 kg",
	"Lebar": "13 cm",
	"Panjang": "19 cm"
},
{
	"page": 20,
	"kategori 1": "buku-anak",
	"kategori 2": "pra-remaja",
	"book_url": "https://www.gramedia.com/products/kkpk-rahasia-mama-2",
	"title": "KKPK Rahasia Mama #2",
	"author": "Zella",
	"Jumlah Halaman": "96",
	"Tanggal Terbit": "20 Apr 2017",
	"ISBN": "9786024203207",
	"Bahasa": "Indonesia",
	"Penerbit": "Mizan Publishing",
	"Berat": "0.15 kg",
	"Lebar": "14 cm",
	"Panjang": "21 cm"
},
{
	"page": 20,
	"kategori 1": "buku-anak",
	"kategori 2": "pra-remaja",
	"book_url": "https://www.gramedia.com/products/tangled2-memecahkan-tekateki-opposites-attract",
	"title": "Tangled#2: Memecahkan TekaTeki (Opposites Attract)",
	"author": "Disney",
	"Jumlah Halaman": "120",
	"Tanggal Terbit": "7 Mei 2018",
	"ISBN": "9786020384542",
	"Bahasa": "Indonesia",
	"Penerbit": "Gramedia Pustaka Utama",
	"Berat": "0.15 kg",
	"Lebar": "13.5 cm",
	"Panjang": "20 cm"
},
{
	"page": 20,
	"kategori 1": "buku-anak",
	"kategori 2": "pra-remaja",
	"book_url": "https://www.gramedia.com/products/marvel-super-hero-adventures-save-the-day-bb",
	"title": "Marvel Super Hero Adventures: Save The Day!",
	"author": "Alexandra West",
	"Jumlah Halaman": "14",
	"Tanggal Terbit": "28 Jan 2019",
	"ISBN": "9781484788592",
	"Bahasa": "English",
	"Penerbit": "Marvel Press",
	"Berat": "0.58 kg",
	"Lebar": "24 cm",
	"Panjang": "29 cm"
},
{
	"page": 20,
	"kategori 1": "buku-anak",
	"kategori 2": "pra-remaja",
	"book_url": "https://www.gramedia.com/products/farm-sticker-book",
	"title": "Farm Sticker Book",
	"author": "",
	"Jumlah Halaman": "20",
	"Tanggal Terbit": "1 Okt 2018",
	"ISBN": "9781786903051",
	"Bahasa": "English",
	"Penerbit": "Sinar Star Book",
	"Berat": "0.1 kg",
	"Lebar": "21.5 cm",
	"Panjang": "27.5 cm"
},
{
	"page": 20,
	"kategori 1": "buku-anak",
	"kategori 2": "pra-remaja",
	"book_url": "https://www.gramedia.com/products/classic-startgullivers-travel",
	"title": "Classic Start : Gullivers Travel",
	"author": "Jonathan Swift",
	"Jumlah Halaman": "149",
	"Tanggal Terbit": "28 Sep 2009",
	"ISBN": "9781402726620",
	"Bahasa": "English",
	"Penerbit": "Sinar Star Book",
	"Berat": "0.30 kg",
	"Lebar": "14 cm",
	"Panjang": "20 cm"
},
{
	"page": 20,
	"kategori 1": "buku-anak",
	"kategori 2": "pra-remaja",
	"book_url": "https://www.gramedia.com/products/25-kisah-abadi-nabi-dan-rasul",
	"title": "25 Kisah Abadi Nabi Dan Rasul",
	"author": "Bambang Joko Susilo",
	"Jumlah Halaman": "190",
	"Tanggal Terbit": "15 Mei 2018",
	"ISBN": "9786026587060",
	"Bahasa": "Indonesia",
	"Penerbit": "Niaga Swadaya",
	"Berat": "0.48 kg",
	"Lebar": "21 cm",
	"Panjang": "29 cm"
},
{
	"page": 20,
	"kategori 1": "buku-anak",
	"kategori 2": "pra-remaja",
	"book_url": "https://www.gramedia.com/products/tales-of-sasha-10-a-mystery-message-sc",
	"title": "Tales Of Sasha #10: A Mystery Message",
	"author": "Alexa Pearl",
	"Jumlah Halaman": "112",
	"Tanggal Terbit": "12 Des 2018",
	"ISBN": "9781499806083",
	"Bahasa": "English",
	"Penerbit": "Simon & Schuster",
	"Berat": "0.09 kg",
	"Lebar": "12 cm",
	"Panjang": "17 cm"
},
{
	"page": 20,
	"kategori 1": "buku-anak",
	"kategori 2": "pra-remaja",
	"book_url": "https://www.gramedia.com/products/50-dongeng-fabel-motivasi-untuk-buah-hati",
	"title": "50+ Dongeng Fabel Motivasi Untuk Buah Hati",
	"author": "Heru Kurniawan",
	"Jumlah Halaman": "104",
	"Tanggal Terbit": "22 Okt 2018",
	"ISBN": "9786025256721",
	"Bahasa": "Indonesia",
	"Penerbit": "Media Inspirasi",
	"Berat": "0.25 kg",
	"Lebar": "18 cm",
	"Panjang": "24 cm"
},
{
	"page": 20,
	"kategori 1": "buku-anak",
	"kategori 2": "pra-remaja",
	"book_url": "https://www.gramedia.com/products/mata-dan-manusia-laut",
	"title": "Mata Dan Manusia Laut",
	"author": "Okky Madasary",
	"Jumlah Halaman": "232",
	"Tanggal Terbit": "20 Mei 2019",
	"ISBN": "9786020630281",
	"Bahasa": "Indonesia",
	"Penerbit": "Gramedia Pustaka Utama",
	"Berat": "0.160 kg",
	"Lebar": "13.5 cm",
	"Panjang": "20 cm"
},
{
	"page": 20,
	"kategori 1": "buku-anak",
	"kategori 2": "pra-remaja",
	"book_url": "https://www.gramedia.com/products/belajar-shalat-yuk",
	"title": "Belajar Shalat, Yuk!",
	"author": "Aba Mehmed Agha",
	"Jumlah Halaman": "86",
	"Tanggal Terbit": "23 Okt 2018",
	"ISBN": "9786025479724",
	"Bahasa": "Indonesia",
	"Penerbit": "Checklist",
	"Berat": "0.21 kg",
	"Lebar": "18 cm",
	"Panjang": "24 cm"
},
{
	"page": 20,
	"kategori 1": "buku-anak",
	"kategori 2": "pra-remaja",
	"book_url": "https://www.gramedia.com/products/cepat-lancar-membaca-aku-ingin-sekolah",
	"title": "CEPAT LANCAR MEMBACA: Aku Ingin Sekolah!",
	"author": "Heru Kurniawan",
	"Jumlah Halaman": "102",
	"Tanggal Terbit": "25 Mei 2018",
	"ISBN": "9786025479434",
	"Bahasa": "Indonesia",
	"Penerbit": "Checklist",
	"Berat": "0.22 kg",
	"Lebar": "18 cm",
	"Panjang": "24.5 cm"
},
{
	"page": 20,
	"kategori 1": "buku-anak",
	"kategori 2": "pra-remaja",
	"book_url": "https://www.gramedia.com/products/aku-ingin-menjadi-pianis",
	"title": "Aku Ingin Menjadi Pianis",
	"author": "Insan Mulyardewi",
	"Jumlah Halaman": "33",
	"Tanggal Terbit": "12 Jan 2018",
	"ISBN": "9786026847577",
	"Bahasa": "Indonesia",
	"Penerbit": "Penerbit Erlangga",
	"Berat": "0.15 kg",
	"Lebar": "21 cm",
	"Panjang": "24 cm"
},
