{
	"page": 99,
	"kategori 1": "buku-anak",
	"kategori 2": "remaja",
	"book_url": "https://www.gramedia.com/products/my-shikigami-lover-04-tamat",
	"title": "My Shikigami Lover 04 - tamat",
	"author": "Mio Nanao",
	"Jumlah Halaman": "184",
	"Tanggal Terbit": "22 Feb 2017",
	"ISBN": "9786024281366",
	"Bahasa": "Indonesia",
	"Penerbit": "m&c!",
	"Berat": "0.1220 kg",
	"Lebar": "11.4 cm"
},
{
	"page": 99,
	"kategori 1": "buku-anak",
	"kategori 2": "remaja",
	"book_url": "https://www.gramedia.com/products/barbie-sisters-mystery-club-1-bandit-pantai",
	"title": "Barbie Sisters Mystery Club#1: Bandit Pantai",
	"author": "Mattel",
	"Jumlah Halaman": "64",
	"Tanggal Terbit": "26 Sep 2016",
	"ISBN": "9786020334226",
	"Bahasa": "Indonesia",
	"Penerbit": "Gramedia Pustaka Utama",
	"Berat": "0.1000 kg",
	"Lebar": "13.5 cm"
},
{
	"page": 99,
	"kategori 1": "buku-anak",
	"kategori 2": "remaja",
	"book_url": "https://www.gramedia.com/products/angel-voice-16-lc",
	"title": "Angel Voice 16: Lc",
	"author": "Takao Koyano",
	"Tanggal Terbit": "15 Des 2014",
	"ISBN": "9786020255125",
	"Penerbit": "Elex Media Komputindo",
	"Berat": "0.1000 kg",
	"Lebar": "12 cm",
	"Panjang": "0 cm"
},
{
	"page": 99,
	"kategori 1": "buku-anak",
	"kategori 2": "remaja",
	"book_url": "https://www.gramedia.com/products/knight-in-the-area-37",
	"title": "Knight In The Area 37",
	"author": "Hiroaki Igano",
	"Jumlah Halaman": "200",
	"Tanggal Terbit": "13 Jan 2016",
	"ISBN": "9786020279015",
	"Bahasa": "Indonesia",
	"Penerbit": "Elex Media Komputindo",
	"Berat": "0.1000 kg",
	"Lebar": "11.4 cm",
	"Panjang": "18 cm"
},
{
	"page": 99,
	"kategori 1": "buku-anak",
	"kategori 2": "remaja",
	"book_url": "https://www.gramedia.com/products/fortress-of-apocalypse-09",
	"title": "Fortress Of Apocalypse 09",
	"author": "Yu Kuraishi / Kazu Inabe",
	"Jumlah Halaman": "192",
	"Tanggal Terbit": "3 Agt 2016",
	"ISBN": "9786023399796",
	"Bahasa": "Indonesia",
	"Penerbit": "Kodansha",
	"Berat": "0.1000 kg",
	"Lebar": "11.4 cm"
},
{
	"page": 99,
	"kategori 1": "buku-anak",
	"kategori 2": "remaja",
	"book_url": "https://www.gramedia.com/products/pbc-my-brother-and-a-flower",
	"title": "Pbc.My Brother And A Flower",
	"author": "Rizka Alfira",
	"Jumlah Halaman": "180",
	"Tanggal Terbit": "22 Feb 2016",
	"ISBN": "9786022426318",
	"Bahasa": "Indonesia",
	"Penerbit": "Mizan",
	"Berat": "0.4000 kg",
	"Lebar": "13 cm"
},
{
	"page": 99,
	"kategori 1": "buku-anak",
	"kategori 2": "remaja",
	"book_url": "https://www.gramedia.com/products/fish-for-it-02",
	"title": "Fish For It 02",
	"author": "Noriko Ohtani",
	"Jumlah Halaman": "160",
	"Tanggal Terbit": "19 Apr 2017",
	"ISBN": "9786020413587",
	"Bahasa": "Indonesia",
	"Penerbit": "Elex Media Komputindo",
	"Berat": "0.1200 kg",
	"Lebar": "11.4 cm"
},
{
	"page": 99,
	"kategori 1": "buku-anak",
	"kategori 2": "remaja",
	"book_url": "https://www.gramedia.com/products/k-fantasteen-54manekin-ruang-22",
	"title": "Fantasteen #54: Manekin Ruang 22",
	"author": "Melissa Kristin, dkk.",
	"Jumlah Halaman": "101",
	"Tanggal Terbit": "2 Des 2017",
	"ISBN": "9786024205010",
	"Bahasa": "Indonesia",
	"Penerbit": "Mizan Publishing",
	"Berat": "0.1 kg",
	"Lebar": "13 cm",
	"Panjang": "19 cm"
},
{
	"page": 99,
	"kategori 1": "buku-anak",
	"kategori 2": "remaja",
	"book_url": "https://www.gramedia.com/products/why-blossoming-democracy-the-revolution-era",
	"title": "Why? Blossoming Democracy & The Revolution Era",
	"author": "Grimnamu",
	"Jumlah Halaman": "200",
	"Tanggal Terbit": "23 Mar 2013",
	"ISBN": "9786020208152",
	"Bahasa": "Indonesia",
	"Penerbit": "Elex Media Komputindo",
	"Berat": "0.5 kg",
	"Lebar": "18 cm",
	"Panjang": "24 cm"
},
{
	"page": 99,
	"kategori 1": "buku-anak",
	"kategori 2": "remaja",
	"book_url": "https://www.gramedia.com/products/yugioh-gx-9-end",
	"title": "Yugioh Gx 9 (End)",
	"author": "Kazuki Takahashi, Naoyuki Kageyama",
	"Jumlah Halaman": "262",
	"Tanggal Terbit": "7 Sep 2016",
	"ISBN": "9786020292632",
	"Bahasa": "Indonesia",
	"Penerbit": "Elex Media Komputindo",
	"Berat": "0.1000 kg",
	"Lebar": "11 cm"
},
{
	"page": 99,
	"kategori 1": "buku-anak",
	"kategori 2": "remaja",
	"book_url": "https://www.gramedia.com/products/pandava-novel-1-aru-shah-and-the-end-of-time-sc",
	"title": "Pandava Novel 1#: Aru Shah And The End Of Time",
	"author": "Roshani Chokshi",
	"Jumlah Halaman": "384",
	"Tanggal Terbit": "19 Mar 2019",
	"ISBN": "9781368023566",
	"Bahasa": "English",
	"Penerbit": "Hachette Book",
	"Berat": "0.26 kg",
	"Lebar": "13 cm",
	"Panjang": "19 cm"
},
{
	"page": 99,
	"kategori 1": "buku-anak",
	"kategori 2": "remaja",
	"book_url": "https://www.gramedia.com/products/chocotan-chocolate-tan-05",
	"title": "Chocotan - Chocolate & Tan - 05",
	"author": "Kozue Takeuchi",
	"Jumlah Halaman": "192",
	"Tanggal Terbit": "8 Feb 2017",
	"ISBN": "9786024282479",
	"Bahasa": "Indonesia",
	"Penerbit": "m&c!",
	"Berat": "0.1300 kg",
	"Lebar": "11.4 cm"
},
{
	"page": 99,
	"kategori 1": "buku-anak",
	"kategori 2": "remaja",
	"book_url": "https://www.gramedia.com/products/im-growing-up-aku-berkembang-series-i-am-me",
	"title": "Im Growing Up 'Aku Berkembang' : Series I Am Me",
	"author": "Robyn Soetikno",
	"Jumlah Halaman": "28",
	"Tanggal Terbit": "1 Des 2016",
	"ISBN": "9786027323094",
	"Bahasa": "Indonesia",
	"Penerbit": "Cahaya Duabelas Semesta",
	"Berat": "0.2000 kg",
	"Lebar": "21 cm"
},
{
	"page": 99,
	"kategori 1": "buku-anak",
	"kategori 2": "remaja",
	"book_url": "https://www.gramedia.com/products/s-the-last-policeman-11-lc",
	"title": "Lc: S - The Last Policeman 11",
	"author": "Komori Yoichi,toudou Yutaka",
	"Jumlah Halaman": "200",
	"Tanggal Terbit": "14 Sep 2016",
	"ISBN": "9786020293226",
	"Bahasa": "Indonesia",
	"Penerbit": "Elex Media Komputindo",
	"Berat": "0.1000 kg",
	"Lebar": "13 cm"
},
{
	"page": 99,
	"kategori 1": "buku-anak",
	"kategori 2": "remaja",
	"book_url": "https://www.gramedia.com/products/fantasteen-the-cursed-george",
	"title": "FANTASTEEN.THE CURSED GEORGE",
	"author": "Akbar Suganda Jp",
	"Jumlah Halaman": "168",
	"Tanggal Terbit": "29 Nov 2016",
	"ISBN": "9786024202583",
	"Bahasa": "Indonesia",
	"Penerbit": "Mizan",
	"Berat": "0.1400 kg",
	"Lebar": "13.5 cm"
},
{
	"page": 99,
	"kategori 1": "buku-anak",
	"kategori 2": "remaja",
	"book_url": "https://www.gramedia.com/products/seri-anak-hebat-aku-senang-bersedekah-board-book",
	"title": "Seri Anak Hebat: Aku Senang Bersedekah (Board Book)",
	"author": "Lya Astika",
	"Jumlah Halaman": "20",
	"Tanggal Terbit": "12 Apr 2018",
	"ISBN": "9786023853601",
	"Bahasa": "Indonesia",
	"Penerbit": "Noura Publishing",
	"Berat": "0.35 kg",
	"Lebar": "17.5 cm",
	"Panjang": "17.5 cm"
},
{
	"page": 99,
	"kategori 1": "buku-anak",
	"kategori 2": "remaja",
	"book_url": "https://www.gramedia.com/products/boyfriend-recipe",
	"title": "Boyfriend Recipe",
	"author": "Konomi Wagata",
	"Jumlah Halaman": "184",
	"Tanggal Terbit": "10 Agt 2016",
	"ISBN": "9786024280772",
	"Bahasa": "Indonesia",
	"Penerbit": "m&c!",
	"Berat": "0.1000 kg",
	"Lebar": "11.4 cm"
},
{
	"page": 99,
	"kategori 1": "buku-anak",
	"kategori 2": "remaja",
	"book_url": "https://www.gramedia.com/products/asal-mula-pulau-sikintan-dan-kisah-kisah-lainnya",
	"title": "Asal Mula Pulau Sikintan Dan Kisah-Kisah Lainnya",
	"author": "Gin Subiharso",
	"Jumlah Halaman": "88",
	"Tanggal Terbit": "30 Jan 2017",
	"ISBN": "9786023500994",
	"Bahasa": "Indonesia",
	"Penerbit": "Nuansa Cendekia",
	"Berat": "0.2140 kg",
	"Lebar": "17 cm"
},
{
	"page": 99,
	"kategori 1": "buku-anak",
	"kategori 2": "remaja",
	"book_url": "https://www.gramedia.com/products/next-g-kena-batunya",
	"title": "NEXT G KENA BATUNYA",
	"author": "Miftahul Rizky & Andhika, Dkk",
	"Jumlah Halaman": "104",
	"Tanggal Terbit": "17 Jan 2017",
	"ISBN": "9786023672820",
	"Bahasa": "Indonesia",
	"Penerbit": "Mizan",
	"Berat": "0.1000 kg",
	"Lebar": "14.5 cm"
},
{
	"page": 99,
	"kategori 1": "buku-anak",
	"kategori 2": "remaja",
	"book_url": "https://www.gramedia.com/products/is-this-feeling-love-01",
	"title": "Is This Feeling Love? 01",
	"author": "Saki Aikawa",
	"Jumlah Halaman": "192",
	"Tanggal Terbit": "24 Feb 2016",
	"ISBN": "9786023392964",
	"Bahasa": "Indonesia",
	"Penerbit": "m&c!",
	"Berat": "0.1000 kg",
	"Lebar": "11 cm"
},
{
	"page": 99,
	"kategori 1": "buku-anak",
	"kategori 2": "remaja",
	"book_url": "https://www.gramedia.com/products/adventures-of-ook-and-gluk-kung-fu-cavemen-sc",
	"title": "Adventures Of Ook And Gluk: Kung Fu Cavemen",
	"author": "Dav Pilkey",
	"Jumlah Halaman": "175",
	"Tanggal Terbit": "10 Agt 2010",
	"ISBN": "9780545385770",
	"Bahasa": "Indonesia",
	"Penerbit": "Sinar Star Book",
	"Berat": "0.4 kg",
	"Lebar": "13 cm",
	"Panjang": "19 cm"
},
{
	"page": 99,
	"kategori 1": "buku-anak",
	"kategori 2": "remaja",
	"book_url": "https://www.gramedia.com/products/james-patterson-red-alert-sc",
	"title": "James Patterson Red Alert",
	"author": "James Patterson",
	"Jumlah Halaman": "368",
	"Tanggal Terbit": "1 Nov 2018",
	"ISBN": "9781538713686",
	"Bahasa": "Indonesia",
	"Penerbit": "Mitra Pelita Internusa",
	"Berat": "0.81 kg",
	"Lebar": "10 cm",
	"Panjang": "17 cm"
},
{
	"page": 99,
	"kategori 1": "buku-anak",
	"kategori 2": "remaja",
	"book_url": "https://www.gramedia.com/products/prince-of-tennis-the-ii-vol-13",
	"title": "Prince Of Tennis,The II Vol. 13",
	"author": "Takeshi Konomi",
	"Jumlah Halaman": "168",
	"Tanggal Terbit": "23 Des 2015",
	"ISBN": "9786023396320",
	"Bahasa": "Indonesia",
	"Penerbit": "m&c!",
	"Berat": "0.1000 kg",
	"Lebar": "11 cm"
},
{
	"page": 99,
	"kategori 1": "buku-anak",
	"kategori 2": "remaja",
	"book_url": "https://www.gramedia.com/products/astronaut-in-training-sc",
	"title": "Astronaut In Training",
	"author": "Catherine ARD",
	"Jumlah Halaman": "48",
	"Tanggal Terbit": "25 Sep 2018",
	"ISBN": "9780753474426",
	"Bahasa": "Indonesia",
	"Penerbit": "Macmillan",
	"Berat": "0.22 kg",
	"Lebar": "20 cm",
	"Panjang": "25 cm"
},
{
	"page": 99,
	"kategori 1": "buku-anak",
	"kategori 2": "remaja",
	"book_url": "https://www.gramedia.com/products/yu-gi-oh-premium-09",
	"title": "Yu-Gi-Oh (Premium) 09",
	"author": "Kazuki Takahashi",
	"Jumlah Halaman": "360",
	"Tanggal Terbit": "11 Mei 2016",
	"ISBN": "9786020280448",
	"Bahasa": "Indonesia",
	"Penerbit": "Elex Media Komputindo",
	"Berat": "0.1000 kg",
	"Lebar": "11 cm"
},
{
	"page": 99,
	"kategori 1": "buku-anak",
	"kategori 2": "remaja",
	"book_url": "https://www.gramedia.com/products/sc-a-bouquet-for-my-slepless-knight",
	"title": "Sc: A Bouquet For My Slepless Knight",
	"author": "Kiiro Yumi",
	"Jumlah Halaman": "192",
	"Tanggal Terbit": "10 Agt 2016",
	"ISBN": "9786020290539",
	"Bahasa": "Indonesia",
	"Penerbit": "Elex Media Komputindo",
	"Berat": "0.1000 kg",
	"Lebar": "11.4 cm"
},
{
	"page": 99,
	"kategori 1": "buku-anak",
	"kategori 2": "remaja",
	"book_url": "https://www.gramedia.com/products/kkpk-next-g-selebgram-new",
	"title": "Kkpk.Next G Selebgram-New",
	"author": "Aryasatya Malik A & Indha, Dkk",
	"Jumlah Halaman": "104",
	"Tanggal Terbit": "30 Mei 2016",
	"ISBN": "9786023671991",
	"Bahasa": "Indonesia",
	"Penerbit": "Mizan",
	"Berat": "0.1000 kg",
	"Lebar": "14 cm"
},
{
	"page": 99,
	"kategori 1": "buku-anak",
	"kategori 2": "remaja",
	"book_url": "https://www.gramedia.com/products/lego-ninjago-school-for-crooks-sc",
	"title": "Lego Ninjago School For Crooks (SC)",
	"author": "Scholastic Us",
	"Jumlah Halaman": "64",
	"Tanggal Terbit": "1 Okt 2018",
	"ISBN": "9781338262490",
	"Bahasa": "English",
	"Penerbit": "Scholastic Us",
	"Berat": "0.10 kg",
	"Lebar": "13 cm",
	"Panjang": "19 cm"
},
{
	"page": 99,
	"kategori 1": "buku-anak",
	"kategori 2": "remaja",
	"book_url": "https://www.gramedia.com/products/beautiful-egg",
	"title": "Beautiful Egg",
	"author": "Kaori",
	"Jumlah Halaman": "192",
	"Tanggal Terbit": "27 Jun 2016",
	"ISBN": "9786023950416",
	"Bahasa": "Indonesia",
	"Penerbit": "Tiga Lancar Semesta",
	"Berat": "0.1000 kg",
	"Lebar": "12 cm",
	"Panjang": "18 cm"
},
{
	"page": 99,
	"kategori 1": "buku-anak",
	"kategori 2": "remaja",
	"book_url": "https://www.gramedia.com/products/naughty-boyfriend",
	"title": "Naughty Boyfriend",
	"author": "Natsumi Seki",
	"Jumlah Halaman": "192",
	"Tanggal Terbit": "18 Des 2015",
	"ISBN": "9786023950140",
	"Bahasa": "Indonesia",
	"Penerbit": "Tiga Lancar",
	"Berat": "0.1000 kg",
	"Lebar": "12 cm"
},
{
	"page": 99,
	"kategori 1": "buku-anak",
	"kategori 2": "remaja",
	"book_url": "https://www.gramedia.com/products/hunter-x-hunter-25",
	"title": "Hunter X Hunter 25",
	"author": "Yoshihiro Togashi",
	"Jumlah Halaman": "208",
	"Tanggal Terbit": "18 Nov 2015",
	"ISBN": "9786020276588",
	"Bahasa": "Indonesia",
	"Penerbit": "Elex Media Komputindo",
	"Berat": "0.1000 kg",
	"Lebar": "11.4 cm",
	"Panjang": "17.2 cm"
},
{
	"page": 99,
	"kategori 1": "buku-anak",
	"kategori 2": "remaja",
	"book_url": "https://www.gramedia.com/products/cerita-spesial-doraemon-cerita-masa-lalu",
	"title": "Cerita Spesial Doraemon : Cerita Masa Lalu",
	"author": "Fujiko F. Fujio",
	"Jumlah Halaman": "232",
	"Tanggal Terbit": "9 Nov 2016",
	"ISBN": "9786020296302",
	"Bahasa": "Indonesia",
	"Penerbit": "Elex Media Komputindo",
	"Berat": "0.1500 kg",
	"Lebar": "11.4 cm"
},
{
	"page": 99,
	"kategori 1": "buku-anak",
	"kategori 2": "remaja",
	"book_url": "https://www.gramedia.com/products/teladan-kepemimpinan-dalam-alkitab-paulus",
	"title": "Teladan Kepemimpinan Dalam Alkitab : Paulus",
	"author": "Seong-gu Kim Dan Jung-geol Ahn",
	"Jumlah Halaman": "212",
	"Tanggal Terbit": "16 Jan 2017",
	"ISBN": "9786023943906",
	"Bahasa": "Indonesia",
	"Penerbit": "Bhuana Ilmu Populer",
	"Berat": "0.2800 kg",
	"Lebar": "18 cm"
},
{
	"page": 99,
	"kategori 1": "buku-anak",
	"kategori 2": "remaja",
	"book_url": "https://www.gramedia.com/products/drown-by-the-first-love",
	"title": "Drown By The First Love",
	"author": "Hina Sakurada",
	"Jumlah Halaman": "192",
	"Tanggal Terbit": "27 Jun 2016",
	"ISBN": "9786023950423",
	"Bahasa": "Indonesia",
	"Penerbit": "Tiga Lancar Semesta",
	"Berat": "0.1000 kg",
	"Lebar": "12 cm"
},
{
	"page": 99,
	"kategori 1": "buku-anak",
	"kategori 2": "remaja",
	"book_url": "https://www.gramedia.com/products/ruler-of-the-land-60",
	"title": "Ruler Of The Land 60",
	"author": "Jeon Keuk Jin & Yang Jae Hyun",
	"Jumlah Halaman": "192",
	"Tanggal Terbit": "10 Jun 2015",
	"ISBN": "9786020266022",
	"Bahasa": "Indonesia",
	"Penerbit": "Elex Media Komputindo",
	"Berat": "0.1000 kg",
	"Lebar": "11 cm",
	"Panjang": "17 cm"
},
{
	"page": 99,
	"kategori 1": "buku-anak",
	"kategori 2": "remaja",
	"book_url": "https://www.gramedia.com/products/barista-10",
	"title": "Barista 10",
	"author": "Kumi Muronaga & Rei Hanagata",
	"Jumlah Halaman": "200",
	"Tanggal Terbit": "2 Jan 2018",
	"ISBN": "9786020450629",
	"Penerbit": "Elex Media Komputindo",
	"Berat": "0.115 kg",
	"Lebar": "11.4 cm",
	"Panjang": "17.2 cm"
},
{
	"page": 99,
	"kategori 1": "buku-anak",
	"kategori 2": "remaja",
	"book_url": "https://www.gramedia.com/products/ace-of-diamond-12",
	"title": "Ace of Diamond 12",
	"author": "Yuji Terajima",
	"Jumlah Halaman": "192",
	"Tanggal Terbit": "21 Des 2016",
	"ISBN": "9786020298184",
	"Bahasa": "Indonesia",
	"Penerbit": "Elex Media Komputindo",
	"Berat": "0.1200 kg",
	"Lebar": "11.4 cm"
},
{
	"page": 99,
	"kategori 1": "buku-anak",
	"kategori 2": "remaja",
	"book_url": "https://www.gramedia.com/products/why-clothes-and-fashion-pakaian-modelnya",
	"title": "Why? Clothes And Fashion - Pakaian & Modelnya",
	"author": "Yearimdang",
	"Jumlah Halaman": "184",
	"Tanggal Terbit": "29 Agt 2014",
	"ISBN": "9786020247984",
	"Bahasa": "Indonesia",
	"Penerbit": "Elex Media Komputindo",
	"Berat": "0.5 kg",
	"Lebar": "18 cm",
	"Panjang": "24 cm"
},
{
	"page": 99,
	"kategori 1": "buku-anak",
	"kategori 2": "remaja",
	"book_url": "https://www.gramedia.com/products/doraemon-petualangan-3-terbit-ulang",
	"title": "Doraemon Petualangan 3 (Terbit Ulang)",
	"author": "Fujiko F. Fujio",
	"Jumlah Halaman": "None",
	"Tanggal Terbit": "11 Mar 2015",
	"ISBN": "9786020260174",
	"Bahasa": "Indonesia",
	"Penerbit": "Elex Media Komputindo",
	"Berat": "0.1000 kg",
	"Lebar": "11 cm"
},
{
	"page": 99,
	"kategori 1": "buku-anak",
	"kategori 2": "remaja",
	"book_url": "https://www.gramedia.com/products/kroma-magic-1-comic-anthology",
	"title": "Kroma Magic 1 : Comic Anthology",
	"author": "Mukhlis Nur,ann Maulina & Dewitri V",
	"Jumlah Halaman": "116",
	"Tanggal Terbit": "16 Jun 2016",
	"ISBN": "9786021383889",
	"Bahasa": "Indonesia",
	"Penerbit": "Mizan Media Utama",
	"Berat": "0.2500 kg",
	"Lebar": "17 cm"
},
{
	"page": 99,
	"kategori 1": "buku-anak",
	"kategori 2": "remaja",
	"book_url": "https://www.gramedia.com/products/why-people-gengis-khan",
	"title": "Why?: People - Gengis Khan",
	"author": "Yearimdang",
	"Jumlah Halaman": "176",
	"Tanggal Terbit": "20 Apr 2016",
	"ISBN": "9786020282695",
	"Bahasa": "Indonesia",
	"Penerbit": "Elex Media Komputindo",
	"Berat": "0.3000 kg",
	"Lebar": "18 cm"
},
{
	"page": 99,
	"kategori 1": "buku-anak",
	"kategori 2": "remaja",
	"book_url": "https://www.gramedia.com/products/assassination-classroom-08",
	"title": "Assassination Classroom 08",
	"author": "Yusei Matsui",
	"Jumlah Halaman": "192",
	"Tanggal Terbit": "18 Mei 2016",
	"ISBN": "9786020285955",
	"Bahasa": "Indonesia",
	"Penerbit": "Elex Media Komputindo",
	"Berat": "0.1000 kg",
	"Lebar": "14 cm"
},
{
	"page": 99,
	"kategori 1": "buku-anak",
	"kategori 2": "remaja",
	"book_url": "https://www.gramedia.com/products/pasti-pintar-di-setiap-mata-pelajaran",
	"title": "Pasti Pintar di Setiap Mata Pelajaran",
	"author": "Bagus Styoko Purwo",
	"Jumlah Halaman": "None",
	"Tanggal Terbit": "28 Agt 2018",
	"ISBN": "9786023916139",
	"Bahasa": "Indonesia",
	"Penerbit": "DivaPress",
	"Berat": "0.3 kg",
	"Lebar": "14 cm",
	"Panjang": "21 cm"
},
{
	"page": 99,
	"kategori 1": "buku-anak",
	"kategori 2": "remaja",
	"book_url": "https://www.gramedia.com/products/barakamon-vol-13",
	"title": "Barakamon Vol. 13",
	"author": "Satsuki Yoshino",
	"Jumlah Halaman": "224",
	"Tanggal Terbit": "28 Des 2016",
	"ISBN": "9786020298597",
	"Bahasa": "Indonesia",
	"Penerbit": "Elex Media Komputindo",
	"Berat": "0.1300 kg",
	"Lebar": "11.4 cm"
},
{
	"page": 99,
	"kategori 1": "buku-anak",
	"kategori 2": "remaja",
	"book_url": "https://www.gramedia.com/products/wipe-clean-workbook-numbers-1-20-sc",
	"title": "Wipe Clean Workbook: Numbers 1-20",
	"author": "Roger Priddy",
	"Jumlah Halaman": "28",
	"Tanggal Terbit": "6 Agt 2010",
	"ISBN": "9780312508692",
	"Bahasa": "Indonesia",
	"Penerbit": "Priddy Books Us",
	"Berat": "0.32 kg",
	"Lebar": "20 cm",
	"Panjang": "27 cm"
},
{
	"page": 99,
	"kategori 1": "buku-anak",
	"kategori 2": "remaja",
	"book_url": "https://www.gramedia.com/products/seven-deadly-sins-07",
	"title": "Seven Deadly Sins 07",
	"author": "Nakaba Suzuki",
	"Jumlah Halaman": "192",
	"Tanggal Terbit": "15 Jun 2016",
	"ISBN": "9786020287669",
	"Bahasa": "Indonesia",
	"Penerbit": "Elex Media Komputindo",
	"Berat": "0.1000 kg",
	"Lebar": "11 cm"
},
{
	"page": 99,
	"kategori 1": "buku-anak",
	"kategori 2": "remaja",
	"book_url": "https://www.gramedia.com/products/diary-persahabatan-10-berbagi-rezeki",
	"title": "Diary Persahabatan #10: Berbagi Rezeki",
	"author": "Rae Sita Patappa",
	"Jumlah Halaman": "87",
	"Tanggal Terbit": "9 Mei 2018",
	"ISBN": "9786023675159",
	"Bahasa": "Indonesia",
	"Penerbit": "Muffin Graphics",
	"Berat": "0.10 kg",
	"Lebar": "14 cm",
	"Panjang": "20 cm"
},
{
	"page": 99,
	"kategori 1": "buku-anak",
	"kategori 2": "remaja",
	"book_url": "https://www.gramedia.com/products/why-movie-film",
	"title": "Why? Movie - Film",
	"author": "Yearimdang",
	"Tanggal Terbit": "25 Agt 2014",
	"ISBN": "9786020247632",
	"Penerbit": "Elex Media Komputindo",
	"Berat": "0.2500 kg"
},
{
	"page": 99,
	"kategori 1": "buku-anak",
	"kategori 2": "remaja",
	"book_url": "https://www.gramedia.com/products/larva-komik-tertawa-gembira",
	"title": "Larva Komik : Tertawa Gembira",
	"author": "Tuban Co Ltd",
	"Jumlah Halaman": "216",
	"Tanggal Terbit": "24 Okt 2016",
	"ISBN": "9786023943067",
	"Bahasa": "Indonesia",
	"Penerbit": "Bhuana Ilmu Populer",
	"Berat": "0.2800 kg",
	"Lebar": "18 cm"
},
{
	"page": 99,
	"kategori 1": "buku-anak",
	"kategori 2": "remaja",
	"book_url": "https://www.gramedia.com/products/my-dear-prince-01",
	"title": "My Dear Prince 01",
	"author": "Min Xuan Lin",
	"Jumlah Halaman": "160",
	"Tanggal Terbit": "15 Jun 2016",
	"ISBN": "9786023399833",
	"Bahasa": "Indonesia",
	"Penerbit": "m&c!",
	"Berat": "0.1000 kg",
	"Lebar": "11 cm"
},
{
	"page": 99,
	"kategori 1": "buku-anak",
	"kategori 2": "remaja",
	"book_url": "https://www.gramedia.com/products/hijab-lover-kkpk-next-g",
	"title": "Hijab Lover : Kkpk.Next G",
	"author": "Aminah Hafidztunnisa & Fia, Dkk",
	"Jumlah Halaman": "104",
	"Tanggal Terbit": "24 Mei 2016",
	"ISBN": "9786023671953",
	"Bahasa": "Indonesia",
	"Penerbit": "Mizan",
	"Berat": "0.1000 kg",
	"Lebar": "14 cm"
},
{
	"page": 99,
	"kategori 1": "buku-anak",
	"kategori 2": "remaja",
	"book_url": "https://www.gramedia.com/products/our-magical-love-01",
	"title": "Our Magical Love 01",
	"author": "Yuka Shibano",
	"Jumlah Halaman": "192",
	"Tanggal Terbit": "2 Nov 2016",
	"ISBN": "9786024281427",
	"Bahasa": "Indonesia",
	"Penerbit": "m&c!",
	"Berat": "0.1300 kg",
	"Lebar": "11.4 cm"
},
{
	"page": 99,
	"kategori 1": "buku-anak",
	"kategori 2": "remaja",
	"book_url": "https://www.gramedia.com/products/fairy-tail-37",
	"title": "Fairy Tail 37",
	"author": "Hiro Mashima",
	"Jumlah Halaman": "208",
	"Tanggal Terbit": "20 Jan 2016",
	"ISBN": "9786020279343",
	"Bahasa": "Indonesia",
	"Penerbit": "Elex Media Komputindo",
	"Berat": "0.1000 kg",
	"Lebar": "11.4 cm"
},
{
	"page": 99,
	"kategori 1": "buku-anak",
	"kategori 2": "remaja",
	"book_url": "https://www.gramedia.com/products/boys-next-door-02-tamat",
	"title": "Boys Next Door 02 - Tamat",
	"author": "Hara Yui",
	"Jumlah Halaman": "136",
	"Tanggal Terbit": "2 Nov 2016",
	"ISBN": "9786024281113",
	"Penerbit": "Elex Media Komputindo",
	"Berat": "0.1100 kg",
	"Lebar": "11.4 cm"
},
{
	"page": 99,
	"kategori 1": "buku-anak",
	"kategori 2": "remaja",
	"book_url": "https://www.gramedia.com/products/seri-utak-atik-memecahkan-masalah-aku-benci-nama-julukanku",
	"title": "Seri Utak-Atik Memecahkan Masalah : Aku Benci Nama Julukanku",
	"author": "Ryu Sun hee",
	"Jumlah Halaman": "96",
	"Tanggal Terbit": "17 Sep 2018",
	"ISBN": "9786024801755",
	"Bahasa": "Indonesia",
	"Penerbit": "m&c!",
	"Berat": "0.18 kg",
	"Lebar": "18 cm",
	"Panjang": "24 cm"
},
{
	"page": 99,
	"kategori 1": "buku-anak",
	"kategori 2": "remaja",
	"book_url": "https://www.gramedia.com/products/enid-blyton-find-outers-mystery-of-banshee-towers-sc",
	"title": "Enid Blyton Find Outers: Mystery Of Banshee Towers",
	"author": "Enid Blyton",
	"Jumlah Halaman": "0",
	"Tanggal Terbit": "1 Jan 2019",
	"ISBN": "9781444930917",
	"Bahasa": "Indonesia",
	"Penerbit": "Mitra Pelita Internusa",
	"Berat": "0.18 kg",
	"Lebar": "12 cm",
	"Panjang": "17 cm"
},
{
	"page": 99,
	"kategori 1": "buku-anak",
	"kategori 2": "remaja",
	"book_url": "https://www.gramedia.com/products/perfect-illusion",
	"title": "Perfect Illusion",
	"author": "Flara Deviana",
	"Jumlah Halaman": "376",
	"Tanggal Terbit": "30 Apr 2019",
	"ISBN": "9786025508790",
	"Bahasa": "Indonesia",
	"Penerbit": "Coconut Books",
	"Berat": "0.48 kg",
	"Lebar": "14 cm",
	"Panjang": "20 cm"
},
{
	"page": 99,
	"kategori 1": "buku-anak",
	"kategori 2": "remaja",
	"book_url": "https://www.gramedia.com/products/fantasteen-junior-2-si-icut-bocah-iseng",
	"title": "Fantasteen Junior #2: Si Icut Bocah Iseng",
	"author": "Agung Rangga L, Estu Sekar, Dkk",
	"Jumlah Halaman": "108",
	"Tanggal Terbit": "25 Mei 2016",
	"ISBN": "9786024200435",
	"Bahasa": "Indonesia",
	"Penerbit": "Mizan",
	"Berat": "0.1000 kg",
	"Lebar": "14 cm"
},
{
	"page": 99,
	"kategori 1": "buku-anak",
	"kategori 2": "remaja",
	"book_url": "https://www.gramedia.com/products/harry-potter-and-the-philosophers-stone-ravenclaw-sc",
	"title": "Harry Potter And The Philosophers Stone - Ravenclaw (Sc)",
	"author": "J.K. Rowling",
	"Jumlah Halaman": "350",
	"Tanggal Terbit": "1 Jun 2017",
	"ISBN": "9781408883778",
	"Bahasa": "English",
	"Penerbit": "Bloomsbury",
	"Berat": "0.30 kg",
	"Lebar": "13 cm",
	"Panjang": "19.5 cm"
},
{
	"page": 99,
	"kategori 1": "buku-anak",
	"kategori 2": "remaja",
	"book_url": "https://www.gramedia.com/products/princess-academy-mix-edition-musim-bunga",
	"title": "Princess Academy Mix Edition: Musim Bunga",
	"author": "Bintang Nurul H & Assyifa S. Arum",
	"Jumlah Halaman": "96",
	"Tanggal Terbit": "30 Mar 2016",
	"ISBN": "9786023671571",
	"Bahasa": "Indonesia",
	"Penerbit": "Mizan",
	"Berat": "0.1200 kg",
	"Lebar": "15 cm"
},
{
	"page": 99,
	"kategori 1": "buku-anak",
	"kategori 2": "remaja",
	"book_url": "https://www.gramedia.com/products/gg-stories-of-edo-1",
	"title": "GG stories of Edo 1",
	"author": "Ai Takahashi",
	"Jumlah Halaman": "224",
	"Tanggal Terbit": "26 Sep 2018",
	"ISBN": "9786020479668",
	"Bahasa": "Indonesia",
	"Penerbit": "Elex Media Komputindo",
	"Berat": "0.12 kg",
	"Lebar": "11.4 cm",
	"Panjang": "17.2 cm"
},
{
	"page": 99,
	"kategori 1": "buku-anak",
	"kategori 2": "remaja",
	"book_url": "https://www.gramedia.com/products/sweet-bitter-bloody-kiss",
	"title": "Sweet Bitter Bloody Kiss",
	"author": "Miki Hattori",
	"Jumlah Halaman": "192",
	"Tanggal Terbit": "31 Jul 2015",
	"ISBN": "9786021122839",
	"Bahasa": "Indonesia",
	"Penerbit": "Tiga Lancar",
	"Berat": "0.2000 kg",
	"Lebar": "12 cm"
},
{
	"page": 99,
	"kategori 1": "buku-anak",
	"kategori 2": "remaja",
	"book_url": "https://www.gramedia.com/products/petualangan-sinbad-07",
	"title": "Petualangan Sinbad 07",
	"author": "Shinobu Ohtaka",
	"Jumlah Halaman": "184",
	"Tanggal Terbit": "20 Jul 2016",
	"ISBN": "9786020289526",
	"Bahasa": "Indonesia",
	"Penerbit": "Elex Media Komputindo",
	"Berat": "0.1000 kg",
	"Lebar": "11 cm"
},
{
	"page": 99,
	"kategori 1": "buku-anak",
	"kategori 2": "remaja",
	"book_url": "https://www.gramedia.com/products/acorn-unicorn-and-yeti-1-sc",
	"title": "Acorn: Unicorn And Yeti #1",
	"author": "Heather Ayris Burnell",
	"Jumlah Halaman": "64",
	"Tanggal Terbit": "20 Jun 2019",
	"ISBN": "9781338329018",
	"Bahasa": "Indonesia",
	"Penerbit": "Sinar Star Book",
	"Berat": "0.1 kg",
	"Lebar": "12 cm",
	"Panjang": "15 cm"
},
{
	"page": 99,
	"kategori 1": "buku-anak",
	"kategori 2": "remaja",
	"book_url": "https://www.gramedia.com/products/lc-attack-on-titan-junior-high-school-8",
	"title": "LC: Attack On Titan - Junior High School 8",
	"author": "Hajime Isayama",
	"Jumlah Halaman": "168",
	"Tanggal Terbit": "16 Agt 2017",
	"ISBN": "9786020434223",
	"Bahasa": "Indonesia",
	"Penerbit": "Elex Media Komputindo",
	"Berat": "0.1250 kg",
	"Lebar": "12 cm"
},
{
	"page": 99,
	"kategori 1": "buku-anak",
	"kategori 2": "remaja",
	"book_url": "https://www.gramedia.com/products/dear-boys-overtime-vol-1",
	"title": "Dear Boys Overtime Vol. 1",
	"author": "Hiroki Yagami",
	"Jumlah Halaman": "192",
	"Tanggal Terbit": "26 Feb 2018",
	"ISBN": "9786020455532",
	"Bahasa": "Indonesia",
	"Penerbit": "Elex Media Komputindo",
	"Berat": "0.120 kg",
	"Lebar": "11.4 cm",
	"Panjang": "17.2 cm"
},
{
	"page": 99,
	"kategori 1": "buku-anak",
	"kategori 2": "remaja",
	"book_url": "https://www.gramedia.com/products/ghost-school-days-darko-robot-intelek",
	"title": "Ghost School Days Darko: Robot Intelek",
	"author": "Citra Mustikawati, dkk",
	"Jumlah Halaman": "96",
	"Tanggal Terbit": "24 Jan 2017",
	"ISBN": "9786023672912",
	"Bahasa": "Indonesia",
	"Penerbit": "Mizan",
	"Berat": "0.1000 kg",
	"Lebar": "14.5 cm"
},
{
	"page": 99,
	"kategori 1": "buku-anak",
	"kategori 2": "remaja",
	"book_url": "https://www.gramedia.com/products/the-next-creator",
	"title": "THE NEXT CREATOR",
	"author": "Elsina Puspita Ningrum, Dkk",
	"Jumlah Halaman": "140",
	"Tanggal Terbit": "29 Nov 2016",
	"ISBN": "9786024202200",
	"Bahasa": "Indonesia",
	"Penerbit": "Mizan",
	"Berat": "0.1300 kg",
	"Lebar": "14.5 cm"
},
{
	"page": 99,
	"kategori 1": "buku-anak",
	"kategori 2": "remaja",
	"book_url": "https://www.gramedia.com/products/kkm-cerita-seru-25-nabi-dan-rasul-rpl",
	"title": "KKM: Cerita Seru 25 Nabi dan Rasul",
	"author": "Ririn Astutiningrum",
	"Jumlah Halaman": "120",
	"Tanggal Terbit": "27 Des 2018",
	"ISBN": "9786024207021",
	"Bahasa": "Indonesia",
	"Penerbit": "Mizan Publishing",
	"Berat": "0.26 kg",
	"Lebar": "19 cm",
	"Panjang": "24 cm"
},
{
	"page": 99,
	"kategori 1": "buku-anak",
	"kategori 2": "remaja",
	"book_url": "https://www.gramedia.com/products/granny-hinako-amazing-days-01",
	"title": "Granny Hinako Amazing Days 01",
	"author": "Megumi Mizusawa",
	"Jumlah Halaman": "192",
	"Tanggal Terbit": "31 Mei 2017",
	"ISBN": "9786024283742",
	"Bahasa": "Indonesia",
	"Penerbit": "m&c!",
	"Berat": "0.1300 kg",
	"Lebar": "11.4 cm"
},
