{
	"page": 41,
	"kategori 1": "buku-anak",
	"kategori 2": "remaja",
	"book_url": "https://www.gramedia.com/products/fun-cican-1-bingkisan-bernyanyi",
	"title": "Fun Cican 1: Bingkisan Bernyanyi",
	"author": "Romy Hernadi & Assyifa S. Arum",
	"Jumlah Halaman": "96",
	"Tanggal Terbit": "15 Des 2015",
	"ISBN": "9786022428800",
	"Bahasa": "Indonesia",
	"Penerbit": "Mizan",
	"Berat": "0.1000 kg",
	"Lebar": "15 cm"
},
{
	"page": 41,
	"kategori 1": "buku-anak",
	"kategori 2": "remaja",
	"book_url": "https://www.gramedia.com/products/attack-on-titan-junior-high-school-2-lc",
	"title": "Attack On Titan - Junior High School 2: Lc",
	"author": "Hajime Isayama",
	"Jumlah Halaman": "170",
	"Tanggal Terbit": "4 Nov 2015",
	"ISBN": "9786020273587",
	"Bahasa": "Indonesia",
	"Penerbit": "Elex Media Komputindo",
	"Berat": "0.1000 kg",
	"Lebar": "12 cm"
},
{
	"page": 41,
	"kategori 1": "buku-anak",
	"kategori 2": "remaja",
	"book_url": "https://www.gramedia.com/products/monster-mitos-legenda-makhluk-pengisap-darah",
	"title": "Monster, Mitos & Legenda: Makhluk Pengisap Darah",
	"author": "Amber Books",
	"Jumlah Halaman": "48",
	"Tanggal Terbit": "9 Nov 2015",
	"ISBN": "9786020276076",
	"Bahasa": "Indonesia",
	"Penerbit": "Elex Media Komputindo",
	"Berat": "0.2000 kg",
	"Lebar": "21.5 cm",
	"Panjang": "27.5 cm"
},
