{
	"page": 49,
	"kategori 1": "buku-anak",
	"kategori 2": "remaja",
	"book_url": "https://www.gramedia.com/products/detektif-conan-super-digest-book-30-plus-terbit-ulang",
	"title": "Detektif Conan Super Digest Book 30 Plus (Terbit Ulang)",
	"author": "Aoyama Gosho",
	"Jumlah Halaman": "236",
	"Tanggal Terbit": "2 Mar 2016",
	"ISBN": "9786020281773",
	"Bahasa": "Indonesia",
	"Penerbit": "Elex Media Komputindo",
	"Berat": "0.1000 kg",
	"Lebar": "11 cm"
},
