{
	"page": 94,
	"kategori 1": "buku-anak",
	"kategori 2": "remaja",
	"book_url": "https://www.gramedia.com/products/fun-abc-aku-bermain-sambil-belajar-garis-bentuk-warna-huruf-angka",
	"title": "Fun Abc Aku Bermain Sambil Belajar Garis, Bentuk, Warna, Huruf, & Angka",
	"author": "Ida Cendrawati Noviar",
	"Jumlah Halaman": "144",
	"Tanggal Terbit": "3 Okt 2016",
	"ISBN": "9786023756834",
	"Bahasa": "Indonesia",
	"Penerbit": "Gramedia Widiasarana Indonesia",
	"Berat": "0.2000 kg",
	"Lebar": "20.5 cm"
},
{
	"page": 94,
	"kategori 1": "buku-anak",
	"kategori 2": "remaja",
	"book_url": "https://www.gramedia.com/products/beelzebub-28",
	"title": "Beelzebub 28",
	"author": "Ryuhei Tamura",
	"Jumlah Halaman": "208",
	"Tanggal Terbit": "4 Mei 2016",
	"ISBN": "9786020285078",
	"Bahasa": "Indonesia",
	"Penerbit": "Elex Media Komputindo",
	"Berat": "0.1000 kg",
	"Lebar": "11 cm"
},
{
	"page": 94,
	"kategori 1": "buku-anak",
	"kategori 2": "remaja",
	"book_url": "https://www.gramedia.com/products/lady-detective-01",
	"title": "Lady Detective 01",
	"author": "Jeon Hye Jin",
	"Jumlah Halaman": "152",
	"Tanggal Terbit": "6 Apr 2016",
	"ISBN": "9786023398324",
	"Penerbit": "m&c!",
	"Berat": "0.1500 kg",
	"Lebar": "13 cm"
},
{
	"page": 94,
	"kategori 1": "buku-anak",
	"kategori 2": "remaja",
	"book_url": "https://www.gramedia.com/products/bride-of-the-water-god-18",
	"title": "Bride Of The Water God 18",
	"author": "Yun Mi-kyung",
	"Jumlah Halaman": "-",
	"Tanggal Terbit": "30 Sep 2015",
	"ISBN": "9786020273273",
	"Bahasa": "Indonesia",
	"Penerbit": "Elex Media Komputindo",
	"Berat": "0.1000 kg",
	"Lebar": "11 cm"
},
{
	"page": 94,
	"kategori 1": "buku-anak",
	"kategori 2": "remaja",
	"book_url": "https://www.gramedia.com/products/vongola-grand-prix-03-tamat",
	"title": "Vongola Grand Prix 03 - Tamat",
	"author": "Akira Amano / Toshinori Takaya",
	"Jumlah Halaman": "160",
	"Tanggal Terbit": "16 Nov 2016",
	"ISBN": "9786024281601",
	"Bahasa": "Indonesia",
	"Penerbit": "m&c!",
	"Berat": "0.1100 kg",
	"Lebar": "11.4 cm"
},
{
	"page": 94,
	"kategori 1": "buku-anak",
	"kategori 2": "remaja",
	"book_url": "https://www.gramedia.com/products/fantastic-cosmetic-for-men",
	"title": "Fantastic Cosmetic For Men",
	"author": "Kim Mi-kyeon",
	"Jumlah Halaman": "200",
	"Tanggal Terbit": "11 Feb 2013",
	"ISBN": "9786020205991",
	"Bahasa": "Indonesia",
	"Penerbit": "Elex Media Komputindo",
	"Berat": "0.3000 kg",
	"Lebar": "15 cm"
},
{
	"page": 94,
	"kategori 1": "buku-anak",
	"kategori 2": "remaja",
	"book_url": "https://www.gramedia.com/products/ping-pong-drive-3",
	"title": "Ping - Pong Drive 3",
	"author": "Haruyuki Yoshida",
	"Jumlah Halaman": "168",
	"Tanggal Terbit": "2 Mei 2018",
	"ISBN": "9786020459318",
	"Bahasa": "Indonesia",
	"Penerbit": "Elex Media Komputindo",
	"Berat": "0.1 kg",
	"Lebar": "11.4 cm",
	"Panjang": "17.2 cm"
},
{
	"page": 94,
	"kategori 1": "buku-anak",
	"kategori 2": "remaja",
	"book_url": "https://www.gramedia.com/products/vampire-of-the-east-07",
	"title": "Vampire Of The East 07",
	"author": "Jo Joo Hee / Han Seung Hee",
	"Jumlah Halaman": "176",
	"Tanggal Terbit": "27 Jan 2016",
	"ISBN": "9786023397082",
	"Bahasa": "Indonesia",
	"Penerbit": "m&c!",
	"Berat": "0.1000 kg",
	"Lebar": "11 cm"
},
{
	"page": 94,
	"kategori 1": "buku-anak",
	"kategori 2": "remaja",
	"book_url": "https://www.gramedia.com/products/a-shy-girl-in-love-11",
	"title": "A Shy Girl in Love 11",
	"author": "Moe Yukimaru",
	"Jumlah Halaman": "184",
	"Tanggal Terbit": "24 Mei 2017",
	"ISBN": "9786024283384",
	"Bahasa": "Indonesia",
	"Penerbit": "m&c!",
	"Berat": "0.1800 kg",
	"Lebar": "11.4 cm"
},
{
	"page": 94,
	"kategori 1": "buku-anak",
	"kategori 2": "remaja",
	"book_url": "https://www.gramedia.com/products/haru-and-the-magic-key-02-tamat",
	"title": "Haru And The Magic Key 02 - Tamat",
	"author": "Bambi Shirayuki / Masami Takeuchi",
	"Jumlah Halaman": "192",
	"Tanggal Terbit": "5 Okt 2016",
	"ISBN": "9786024281502",
	"Bahasa": "Indonesia",
	"Penerbit": "m&c!",
	"Berat": "0.115 kg",
	"Lebar": "11.2 cm",
	"Panjang": "17.2 cm"
},
{
	"page": 94,
	"kategori 1": "buku-anak",
	"kategori 2": "remaja",
	"book_url": "https://www.gramedia.com/products/yu-gi-oh-premium-05",
	"title": "Yu-Gi-Oh (Premium) 05",
	"author": "Kazuki Takahashi",
	"Jumlah Halaman": "304",
	"Tanggal Terbit": "9 Sep 2015",
	"ISBN": "9786020269849",
	"Bahasa": "Indonesia",
	"Penerbit": "Elex Media Komputindo",
	"Berat": "0.1000 kg",
	"Lebar": "11 cm"
},
{
	"page": 94,
	"kategori 1": "buku-anak",
	"kategori 2": "remaja",
	"book_url": "https://www.gramedia.com/products/7-seeds-27",
	"title": "7 Seeds 27",
	"author": "Yumi Tamura",
	"Jumlah Halaman": "200",
	"Tanggal Terbit": "9 Nov 2016",
	"ISBN": "9786020296258",
	"Bahasa": "Indonesia",
	"Penerbit": "Elex Media Komputindo",
	"Berat": "0.1400 kg",
	"Lebar": "11.4 cm"
},
{
	"page": 94,
	"kategori 1": "buku-anak",
	"kategori 2": "remaja",
	"book_url": "https://www.gramedia.com/products/pink-cupcake-new-kkpk",
	"title": "Pink Cupcake-New : Kkpk",
	"author": "Ramya Hayasrestha Sukardi",
	"Jumlah Halaman": "132",
	"Tanggal Terbit": "28 Apr 2016",
	"ISBN": "9786024200022",
	"Bahasa": "Indonesia",
	"Penerbit": "Mizan",
	"Berat": "0.1000 kg",
	"Lebar": "14 cm"
},
{
	"page": 94,
	"kategori 1": "buku-anak",
	"kategori 2": "remaja",
	"book_url": "https://www.gramedia.com/products/natsumeki-03",
	"title": "Natsumeki! 03",
	"author": "Kana Nanajima",
	"Jumlah Halaman": "189",
	"Tanggal Terbit": "17 Jun 2015",
	"ISBN": "9786023393367",
	"Bahasa": "Indonesia",
	"Penerbit": "m&c!",
	"Berat": "0.1000 kg",
	"Lebar": "11 cm"
},
{
	"page": 94,
	"kategori 1": "buku-anak",
	"kategori 2": "remaja",
	"book_url": "https://www.gramedia.com/products/silver-spoon-09",
	"title": "Silver Spoon 09",
	"author": "Hiromu Arakawa",
	"Jumlah Halaman": "192",
	"Tanggal Terbit": "18 Nov 2015",
	"ISBN": "9786020276458",
	"Bahasa": "Indonesia",
	"Penerbit": "Elex Media Komputindo",
	"Berat": "0.1000 kg",
	"Lebar": "11.4 cm"
},
{
	"page": 94,
	"kategori 1": "buku-anak",
	"kategori 2": "remaja",
	"book_url": "https://www.gramedia.com/products/when-the-wolf-boy-meets-the-lamb-girl-03-tamat",
	"title": "When The Wolf Boy Meets The Lamb Girl 03 (Tamat)",
	"author": "Konomi Wagata",
	"Jumlah Halaman": "192",
	"Tanggal Terbit": "22 Apr 2015",
	"ISBN": "9786023392506",
	"Bahasa": "Indonesia",
	"Penerbit": "m&c!",
	"Berat": "0.1000 kg",
	"Lebar": "11 cm"
},
{
	"page": 94,
	"kategori 1": "buku-anak",
	"kategori 2": "remaja",
	"book_url": "https://www.gramedia.com/products/kumpulan-cerita-rahasia-anak-hebat",
	"title": "Kumpulan Cerita : Rahasia Anak Hebat",
	"author": "Firmanawaty Sutan",
	"Jumlah Halaman": "128",
	"Tanggal Terbit": "13 Jan 2016",
	"ISBN": "9786023661046",
	"Bahasa": "Indonesia",
	"Penerbit": "Tiga Ananda",
	"Berat": "0.2500 kg",
	"Lebar": "19 cm"
},
{
	"page": 94,
	"kategori 1": "buku-anak",
	"kategori 2": "remaja",
	"book_url": "https://www.gramedia.com/products/knight-in-the-area-34",
	"title": "Knight In The Area 34",
	"author": "Hiroaki Igano",
	"Jumlah Halaman": "-",
	"Tanggal Terbit": "29 Jul 2015",
	"ISBN": "9786020269368",
	"Bahasa": "Indonesia",
	"Penerbit": "Elex Media Komputindo",
	"Berat": "0.1000 kg",
	"Lebar": "11 cm"
},
{
	"page": 94,
	"kategori 1": "buku-anak",
	"kategori 2": "remaja",
	"book_url": "https://www.gramedia.com/products/giant-killing-30-lc",
	"title": "Giant Killing 30: Lc",
	"author": "Masaya Tsunamoto, Tsujitomo",
	"Jumlah Halaman": "232",
	"Tanggal Terbit": "20 Jul 2016",
	"ISBN": "9786020289625",
	"Bahasa": "Indonesia",
	"Penerbit": "Elex Media Komputindo",
	"Berat": "0.1300 kg",
	"Lebar": "13 cm"
},
{
	"page": 94,
	"kategori 1": "buku-anak",
	"kategori 2": "remaja",
	"book_url": "https://www.gramedia.com/products/you-are-like-flower-terbit-ulang",
	"title": "You Are Like Flower (Terbit Ulang)",
	"author": "Misaki Goto",
	"Jumlah Halaman": "192",
	"Tanggal Terbit": "25 Jan 2017",
	"ISBN": "9786024282356",
	"Bahasa": "Indonesia",
	"Penerbit": "m&c!",
	"Berat": "0.1300 kg",
	"Lebar": "11.2 cm"
},
{
	"page": 94,
	"kategori 1": "buku-anak",
	"kategori 2": "remaja",
	"book_url": "https://www.gramedia.com/products/drops-of-god-the-32-lc",
	"title": "Drops Of God,The 32: Lc",
	"author": "Agi Tadashi,shu Okimoto",
	"Jumlah Halaman": "224",
	"Tanggal Terbit": "25 Mei 2016",
	"ISBN": "9786020282046",
	"Bahasa": "Indonesia",
	"Penerbit": "Elex Media Komputindo",
	"Berat": "0.1000 kg",
	"Lebar": "13 cm"
},
{
	"page": 94,
	"kategori 1": "buku-anak",
	"kategori 2": "remaja",
	"book_url": "https://www.gramedia.com/products/vanilla-kiss-05",
	"title": "Vanilla Kiss 05",
	"author": "Io Sakisaka",
	"Jumlah Halaman": "192",
	"Tanggal Terbit": "2 Nov 2016",
	"ISBN": "9786024281120",
	"Bahasa": "Indonesia",
	"Penerbit": "m&c!",
	"Berat": "0.1300 kg",
	"Lebar": "11.2 cm"
},
{
	"page": 94,
	"kategori 1": "buku-anak",
	"kategori 2": "remaja",
	"book_url": "https://www.gramedia.com/products/sket-dance-07",
	"title": "Sket Dance 07",
	"author": "Kenta Shinohara",
	"Jumlah Halaman": "192",
	"Tanggal Terbit": "16 Mar 2016",
	"ISBN": "9786020282329",
	"Bahasa": "Indonesia",
	"Penerbit": "Elex Media Komputindo",
	"Berat": "0.1000 kg",
	"Lebar": "11 cm"
},
{
	"page": 94,
	"kategori 1": "buku-anak",
	"kategori 2": "remaja",
	"book_url": "https://www.gramedia.com/products/mushibugyo-11",
	"title": "Mushibugyo 11",
	"author": "Hiroshi Fukuda",
	"Jumlah Halaman": "192",
	"Tanggal Terbit": "7 Des 2016",
	"ISBN": "9786020297385",
	"Bahasa": "Indonesia",
	"Penerbit": "Elex Media Komputindo",
	"Berat": "0.1200 kg",
	"Lebar": "11.4 cm"
},
{
	"page": 94,
	"kategori 1": "buku-anak",
	"kategori 2": "remaja",
	"book_url": "https://www.gramedia.com/products/jerit-malam-komik-horor",
	"title": "Jerit Malam: Komik Horor",
	"author": "Novian-mage-lewi",
	"Jumlah Halaman": "190",
	"Tanggal Terbit": "6 Jul 2015",
	"ISBN": "9786021383568",
	"Bahasa": "Indonesia",
	"Penerbit": "Bentang Pustaka",
	"Berat": "0.2000 kg",
	"Lebar": "0 cm"
},
{
	"page": 94,
	"kategori 1": "buku-anak",
	"kategori 2": "remaja",
	"book_url": "https://www.gramedia.com/products/daydreaming-05-lc",
	"title": "Daydreaming 05: Lc",
	"author": "Yoshimura Akemi",
	"Jumlah Halaman": "192",
	"Tanggal Terbit": "17 Jun 2015",
	"ISBN": "9786020267227",
	"Bahasa": "Indonesia",
	"Penerbit": "Elex Media Komputindo",
	"Berat": "0.1000 kg",
	"Lebar": "12 cm"
},
{
	"page": 94,
	"kategori 1": "buku-anak",
	"kategori 2": "remaja",
	"book_url": "https://www.gramedia.com/products/princess-family-new-kkpk",
	"title": "Kkpk : Princess Family-New",
	"author": "Riza",
	"Jumlah Halaman": "144",
	"Tanggal Terbit": "18 Jul 2016",
	"ISBN": "9786024200367",
	"Bahasa": "Indonesia",
	"Penerbit": "Mizan",
	"Berat": "0.1500 kg",
	"Lebar": "21 cm"
},
{
	"page": 94,
	"kategori 1": "buku-anak",
	"kategori 2": "remaja",
	"book_url": "https://www.gramedia.com/products/fobia-sate-ghost-school-days-ed-cerpen",
	"title": "Fobia Sate : Ghost School Days Ed Cerpen",
	"author": "Andi Tenribali Hikmah N",
	"Jumlah Halaman": "96",
	"Tanggal Terbit": "16 Mei 2016",
	"ISBN": "9786023671816",
	"Bahasa": "Indonesia",
	"Penerbit": "Mizan",
	"Berat": "0.1200 kg",
	"Lebar": "15 cm"
},
{
	"page": 94,
	"kategori 1": "buku-anak",
	"kategori 2": "remaja",
	"book_url": "https://www.gramedia.com/products/sekotak-cinta-untuk-sakina-edisi-baru",
	"title": "Sekotak Cinta Untuk Sakina (Edisi Baru)",
	"author": "Irma Irawati",
	"Jumlah Halaman": "148",
	"Tanggal Terbit": "10 Okt 2016",
	"ISBN": "9786023942732",
	"Bahasa": "Indonesia",
	"Penerbit": "Bhuana Ilmu Populer",
	"Berat": "0.1000 kg",
	"Lebar": "13 cm"
},
{
	"page": 94,
	"kategori 1": "buku-anak",
	"kategori 2": "remaja",
	"book_url": "https://www.gramedia.com/products/kkpk-orator-cilik",
	"title": "Kkpk.Orator Cilik",
	"author": "Meiza Maulida Munawaroh",
	"Jumlah Halaman": "112",
	"Tanggal Terbit": "21 Mar 2016",
	"ISBN": "9786022428602",
	"Penerbit": "Mizan",
	"Berat": "0.1400 kg",
	"Lebar": "14 cm"
},
{
	"page": 94,
	"kategori 1": "buku-anak",
	"kategori 2": "remaja",
	"book_url": "https://www.gramedia.com/products/inari-konkon-syllabary-of-love-08",
	"title": "Inari, Konkon, Syllabary Of Love 08",
	"author": "Morohe Yoshida",
	"Jumlah Halaman": "200",
	"Tanggal Terbit": "11 Nov 2015",
	"ISBN": "9786023395811",
	"Bahasa": "Indonesia",
	"Penerbit": "m&c!",
	"Berat": "0.1000 kg",
	"Lebar": "11 cm"
},
{
	"page": 94,
	"kategori 1": "buku-anak",
	"kategori 2": "remaja",
	"book_url": "https://www.gramedia.com/products/harlem-beat-15-premium",
	"title": "Harlem Beat 15 (Premium)",
	"author": "Yuriko Nishiyama",
	"Jumlah Halaman": "150",
	"Tanggal Terbit": "21 Okt 2015",
	"ISBN": "9786020274676",
	"Bahasa": "Indonesia",
	"Penerbit": "Elex Media Komputindo",
	"Berat": "0.1000 kg",
	"Lebar": "11.4 cm"
},
{
	"page": 94,
	"kategori 1": "buku-anak",
	"kategori 2": "remaja",
	"book_url": "https://www.gramedia.com/products/hakoniwa-royale-2-tamat",
	"title": "Hakoniwa Royale 2 - Tamat",
	"author": "Enika Kani",
	"Jumlah Halaman": "192",
	"Tanggal Terbit": "27 Jul 2016",
	"ISBN": "9786024280116",
	"Bahasa": "Indonesia",
	"Penerbit": "m&c!",
	"Berat": "0.1500 kg",
	"Lebar": "11 cm",
	"Panjang": "18 cm"
},
{
	"page": 94,
	"kategori 1": "buku-anak",
	"kategori 2": "remaja",
	"book_url": "https://www.gramedia.com/products/happy-cooking-graffiti-01",
	"title": "Happy Cooking Graffiti 01",
	"author": "Makoto Kawai",
	"Jumlah Halaman": "120",
	"Tanggal Terbit": "2 Mar 2016",
	"ISBN": "9786023397570",
	"Bahasa": "Indonesia",
	"Penerbit": "m&c!",
	"Berat": "0.1000 kg",
	"Lebar": "11 cm"
},
{
	"page": 94,
	"kategori 1": "buku-anak",
	"kategori 2": "remaja",
	"book_url": "https://www.gramedia.com/products/love-cotton-04",
	"title": "Love Cotton 04",
	"author": "Chan Kashinoki",
	"Jumlah Halaman": "176",
	"Tanggal Terbit": "21 Okt 2015",
	"ISBN": "9786023395453",
	"Bahasa": "Indonesia",
	"Penerbit": "m&c!",
	"Berat": "0.1000 kg",
	"Lebar": "11 cm"
},
{
	"page": 94,
	"kategori 1": "buku-anak",
	"kategori 2": "remaja",
	"book_url": "https://www.gramedia.com/products/komik-next-g-gamis-untuk-mama",
	"title": "Komik Next G: Gamis Untuk Mama",
	"author": "Davina Maritza Bastiti & Rendra, Dkk",
	"Jumlah Halaman": "104",
	"Tanggal Terbit": "13 Apr 2016",
	"ISBN": "9786023671632",
	"Penerbit": "Mizan",
	"Berat": "0.1000 kg",
	"Lebar": "14 cm"
},
{
	"page": 94,
	"kategori 1": "buku-anak",
	"kategori 2": "remaja",
	"book_url": "https://www.gramedia.com/products/bride-of-the-water-god-20",
	"title": "Bride Of The Water God 20",
	"author": "Yun Mi-kyung",
	"Jumlah Halaman": "184",
	"Tanggal Terbit": "27 Jul 2016",
	"ISBN": "9786020280646",
	"Bahasa": "Indonesia",
	"Penerbit": "Elex Media Komputindo",
	"Berat": "0.1000 kg",
	"Lebar": "11.4 cm"
},
{
	"page": 94,
	"kategori 1": "buku-anak",
	"kategori 2": "remaja",
	"book_url": "https://www.gramedia.com/products/komik-next-g-trouble-in-paris",
	"title": "Komik Next G Trouble In Paris",
	"author": "Althafia Siti Aishalya & Mei, Dkk",
	"Jumlah Halaman": "104",
	"Tanggal Terbit": "16 Mar 2016",
	"ISBN": "9786023671434",
	"Bahasa": "Indonesia",
	"Penerbit": "Mizan",
	"Berat": "0.1000 kg",
	"Lebar": "14 cm"
},
{
	"page": 94,
	"kategori 1": "buku-anak",
	"kategori 2": "remaja",
	"book_url": "https://www.gramedia.com/products/brave-10-s-vol-3-lc",
	"title": "Lc: Brave 10 S Vol. 3",
	"author": "Kairi Shimotsuki",
	"Jumlah Halaman": "168",
	"Tanggal Terbit": "12 Okt 2016",
	"ISBN": "9786020294117",
	"Bahasa": "Indonesia",
	"Penerbit": "Elex Media Komputindo",
	"Berat": "0.1000 kg",
	"Lebar": "13 cm"
},
{
	"page": 94,
	"kategori 1": "buku-anak",
	"kategori 2": "remaja",
	"book_url": "https://www.gramedia.com/products/scary-lessons-12",
	"title": "Scary Lessons 12",
	"author": "Emi Ishikawa",
	"Jumlah Halaman": "180",
	"Tanggal Terbit": "21 Okt 2015",
	"ISBN": "9786020274751",
	"Bahasa": "Indonesia",
	"Penerbit": "Elex Media Komputindo",
	"Berat": "0.1000 kg",
	"Lebar": "11.4 cm"
},
{
	"page": 94,
	"kategori 1": "buku-anak",
	"kategori 2": "remaja",
	"book_url": "https://www.gramedia.com/products/tanguy-malaikat-hitam-lc",
	"title": "Tanguy - Malaikat Hitam: Lc",
	"author": "Charlier - Jije",
	"Jumlah Halaman": "-",
	"Tanggal Terbit": "2 Sep 2015",
	"ISBN": "9786020271491",
	"Bahasa": "Indonesia",
	"Penerbit": "Elex Media Komputindo",
	"Berat": "0.1500 kg",
	"Lebar": "18 cm"
},
{
	"page": 94,
	"kategori 1": "buku-anak",
	"kategori 2": "remaja",
	"book_url": "https://www.gramedia.com/products/girl-s-encyclopedia-girl-s-style",
	"title": "Girl`s Encyclopedia: Girl`s Style",
	"author": "Kim, Da-jung",
	"Jumlah Halaman": "176",
	"Tanggal Terbit": "17 Jul 2017",
	"ISBN": "9786020421759",
	"Bahasa": "Indonesia",
	"Penerbit": "Elex Media Komputindo",
	"Berat": "0.4000 kg",
	"Lebar": "15 cm"
},
{
	"page": 94,
	"kategori 1": "buku-anak",
	"kategori 2": "remaja",
	"book_url": "https://www.gramedia.com/products/top-princess-model",
	"title": "Top Princess Model",
	"author": "Tim Anomik",
	"Jumlah Halaman": "80",
	"Tanggal Terbit": "25 Apr 2016",
	"ISBN": "9786023941223",
	"Bahasa": "Indonesia",
	"Penerbit": "Bhuana Ilmu Populer",
	"Berat": "0.3000 kg",
	"Lebar": "18 cm"
},
{
	"page": 94,
	"kategori 1": "buku-anak",
	"kategori 2": "remaja",
	"book_url": "https://www.gramedia.com/products/yoimachi-overlord-02",
	"title": "Yoimachi Overlord 02",
	"author": "Ida Tatsuhiko, Asashi Mizutani",
	"Jumlah Halaman": "208",
	"Tanggal Terbit": "8 Mar 2017",
	"ISBN": "9786020401621",
	"Bahasa": "Indonesia",
	"Penerbit": "Elex Media Komputindo",
	"Berat": "0.1300 kg",
	"Lebar": "11.4 cm"
},
{
	"page": 94,
	"kategori 1": "buku-anak",
	"kategori 2": "remaja",
	"book_url": "https://www.gramedia.com/products/shivers-antologi-komik-misteri-01",
	"title": "Shivers Antologi Komik Misteri 01",
	"author": "Team Reon",
	"Jumlah Halaman": "192",
	"Tanggal Terbit": "20 Mei 2016",
	"ISBN": "9786020892146",
	"Bahasa": "Indonesia",
	"Penerbit": "Buku Pintar Indonesia",
	"Berat": "0.1800 kg",
	"Lebar": "14 cm"
},
{
	"page": 94,
	"kategori 1": "buku-anak",
	"kategori 2": "remaja",
	"book_url": "https://www.gramedia.com/products/shi-heilong-iii-vol-6",
	"title": "Shi Heilong III vol. 6",
	"author": "Tony Wong",
	"Jumlah Halaman": "96",
	"Tanggal Terbit": "19 Jun 2017",
	"ISBN": "9786024283469",
	"Bahasa": "Indonesia",
	"Penerbit": "m&c!",
	"Berat": "0.1000 kg",
	"Lebar": "17 cm"
},
{
	"page": 94,
	"kategori 1": "buku-anak",
	"kategori 2": "remaja",
	"book_url": "https://www.gramedia.com/products/strange-dragon-02",
	"title": "Strange Dragon 02",
	"author": "Kaede Kouchi",
	"Jumlah Halaman": "192",
	"Tanggal Terbit": "23 Des 2015",
	"ISBN": "9786023396474",
	"Bahasa": "Indonesia",
	"Penerbit": "m&c!",
	"Berat": "0.1000 kg",
	"Lebar": "11 cm"
},
{
	"page": 94,
	"kategori 1": "buku-anak",
	"kategori 2": "remaja",
	"book_url": "https://www.gramedia.com/products/last-game-01",
	"title": "Last Game 01",
	"author": "Shinobu Amano",
	"Jumlah Halaman": "192",
	"Tanggal Terbit": "28 Des 2014",
	"ISBN": "9786022668756",
	"Penerbit": "Hakusensha",
	"Berat": "0.1000 kg",
	"Lebar": "11 cm",
	"Panjang": "0 cm"
},
{
	"page": 94,
	"kategori 1": "buku-anak",
	"kategori 2": "remaja",
	"book_url": "https://www.gramedia.com/products/phantom-tower-the-02-lc",
	"title": "Phantom Tower,The 02: Lc",
	"author": "Nogizaka Taro",
	"Jumlah Halaman": "224",
	"Tanggal Terbit": "9 Des 2015",
	"ISBN": "9786020277400",
	"Bahasa": "Indonesia",
	"Penerbit": "Elex Media Komputindo",
	"Berat": "0.2000 kg",
	"Lebar": "13 cm"
},
{
	"page": 94,
	"kategori 1": "buku-anak",
	"kategori 2": "remaja",
	"book_url": "https://www.gramedia.com/products/fantasteen-kastil-hovel",
	"title": "Fantasteen: Kastil Hovel",
	"author": "Nima Churia Salma",
	"Jumlah Halaman": "148",
	"Tanggal Terbit": "1 Mar 2016",
	"ISBN": "9786022428237",
	"Bahasa": "Indonesia",
	"Penerbit": "Mizan",
	"Berat": "0.1200 kg",
	"Lebar": "13 cm"
},
{
	"page": 94,
	"kategori 1": "buku-anak",
	"kategori 2": "remaja",
	"book_url": "https://www.gramedia.com/products/countryside-marriage-the-01",
	"title": "The Countryside Marriage 01",
	"author": "Chiaki Karawasa",
	"Jumlah Halaman": "192",
	"Tanggal Terbit": "8 Mar 2017",
	"ISBN": "9786023398058",
	"Bahasa": "Indonesia",
	"Penerbit": "m&c!",
	"Berat": "0.1300 kg",
	"Lebar": "11.4 cm"
},
{
	"page": 94,
	"kategori 1": "buku-anak",
	"kategori 2": "remaja",
	"book_url": "https://www.gramedia.com/products/rosario-vampire-02-lc",
	"title": "Rosario Vampire 02: Lc",
	"author": "Akihisa Ikeda",
	"Tanggal Terbit": "27 Okt 2014",
	"ISBN": "9786020251639",
	"Bahasa": "Indonesia",
	"Penerbit": "Elex Media Komputindo",
	"Berat": "0.3000 kg",
	"Lebar": "0 cm",
	"Panjang": "0 cm"
},
{
	"page": 94,
	"kategori 1": "buku-anak",
	"kategori 2": "remaja",
	"book_url": "https://www.gramedia.com/products/scary-lessons-13",
	"title": "Scary Lessons 13",
	"author": "Emi Ishikawa",
	"Jumlah Halaman": "180",
	"Tanggal Terbit": "11 Nov 2015",
	"ISBN": "9786020276199",
	"Bahasa": "Indonesia",
	"Penerbit": "Elex Media Komputindo",
	"Berat": "0.1000 kg",
	"Lebar": "11.4 cm"
},
{
	"page": 94,
	"kategori 1": "buku-anak",
	"kategori 2": "remaja",
	"book_url": "https://www.gramedia.com/products/mira-kuru",
	"title": "Mira Kuru",
	"author": "Fujiko F. Fujio",
	"Jumlah Halaman": "336",
	"Tanggal Terbit": "20 Jul 2016",
	"ISBN": "9786020286556",
	"Bahasa": "Indonesia",
	"Penerbit": "Elex Media Komputindo",
	"Berat": "0.4000 kg",
	"Lebar": "15 cm"
},
{
	"page": 94,
	"kategori 1": "buku-anak",
	"kategori 2": "remaja",
	"book_url": "https://www.gramedia.com/products/shiranui-s-horror-stories",
	"title": "Shiranui`S Horror Stories",
	"author": "Kaoru Inai",
	"Jumlah Halaman": "160",
	"Tanggal Terbit": "17 Feb 2016",
	"ISBN": "9786023397624",
	"Bahasa": "Indonesia",
	"Penerbit": "Hakusensha",
	"Berat": "0.1000 kg",
	"Lebar": "11 cm"
},
{
	"page": 94,
	"kategori 1": "buku-anak",
	"kategori 2": "remaja",
	"book_url": "https://www.gramedia.com/products/crayon-shinchan-43",
	"title": "Crayon Shinchan 43",
	"author": "Yoshito Usui",
	"Jumlah Halaman": "120",
	"Tanggal Terbit": "30 Des 2015",
	"ISBN": "9786020278490",
	"Bahasa": "Indonesia",
	"Penerbit": "Elex Media Komputindo",
	"Berat": "0.2000 kg",
	"Lebar": "14 cm"
},
{
	"page": 94,
	"kategori 1": "buku-anak",
	"kategori 2": "remaja",
	"book_url": "https://www.gramedia.com/products/world-god-only-knows-the-23",
	"title": "The World God Only Knows 23",
	"author": "Wakaki Tamiki",
	"Jumlah Halaman": "200",
	"Tanggal Terbit": "14 Des 2016",
	"ISBN": "9786020297576",
	"Bahasa": "Indonesia",
	"Penerbit": "Elex Media Komputindo",
	"Berat": "0.1300 kg",
	"Lebar": "11.4 cm"
},
{
	"page": 94,
	"kategori 1": "buku-anak",
	"kategori 2": "remaja",
	"book_url": "https://www.gramedia.com/products/chimpui-01",
	"title": "Chimpui 01",
	"author": "Fujiko F. Fujio",
	"Jumlah Halaman": "240",
	"Tanggal Terbit": "17 Agt 2016",
	"ISBN": "9786020291406",
	"Bahasa": "Indonesia",
	"Penerbit": "Elex Media Komputindo",
	"Berat": "0.5500 kg",
	"Lebar": "15 cm"
},
{
	"page": 94,
	"kategori 1": "buku-anak",
	"kategori 2": "remaja",
	"book_url": "https://www.gramedia.com/products/kungfu-boy-legends-11",
	"title": "Kungfu Boy Legends 11",
	"author": "Takeshi Maekawa",
	"Jumlah Halaman": "0",
	"Tanggal Terbit": "1 Mei 2012",
	"ISBN": "9786020026336",
	"Penerbit": "Elex Media Komputindo",
	"Berat": "0.1000 kg",
	"Lebar": "11 cm",
	"Panjang": "0 cm"
},
{
	"page": 94,
	"kategori 1": "buku-anak",
	"kategori 2": "remaja",
	"book_url": "https://www.gramedia.com/products/long-hu-men-the-vengeance-continues-22",
	"title": "Long Hu Men The Vengeance Continues 22",
	"author": "Tony Wong",
	"Jumlah Halaman": "184",
	"Tanggal Terbit": "18 Mei 2016",
	"ISBN": "9786023399413",
	"Bahasa": "Indonesia",
	"Penerbit": "m&c!",
	"Berat": "0.2000 kg",
	"Lebar": "17 cm"
},
{
	"page": 94,
	"kategori 1": "buku-anak",
	"kategori 2": "remaja",
	"book_url": "https://www.gramedia.com/products/testament-of-black-the-01",
	"title": "The Testament Of Black 01",
	"author": "Kouhei Hanao",
	"Jumlah Halaman": "176",
	"Tanggal Terbit": "4 Jan 2017",
	"ISBN": "9786023397464",
	"Bahasa": "Indonesia",
	"Penerbit": "m&c!",
	"Berat": "0.1200 kg",
	"Lebar": "11.4 cm"
},
{
	"page": 94,
	"kategori 1": "buku-anak",
	"kategori 2": "remaja",
	"book_url": "https://www.gramedia.com/products/komik-fantasteen-26-rumah-horor",
	"title": "Komik Fantasteen #26: Rumah Horor",
	"author": "Himajinator Dkk",
	"Jumlah Halaman": "120",
	"Tanggal Terbit": "6 Jul 2015",
	"ISBN": "9786022427834",
	"Bahasa": "Indonesia",
	"Penerbit": "Mizan Publishing",
	"Berat": "0.2000 kg",
	"Lebar": "0 cm"
},
{
	"page": 94,
	"kategori 1": "buku-anak",
	"kategori 2": "remaja",
	"book_url": "https://www.gramedia.com/products/orange-03",
	"title": "Orange 03",
	"author": "Ichigo Takano",
	"Jumlah Halaman": "192",
	"Tanggal Terbit": "4 Nov 2015",
	"ISBN": "9786023395736",
	"Bahasa": "Indonesia",
	"Penerbit": "m&c!",
	"Berat": "0.1000 kg",
	"Lebar": "11 cm"
},
{
	"page": 94,
	"kategori 1": "buku-anak",
	"kategori 2": "remaja",
	"book_url": "https://www.gramedia.com/products/love-lullaby-02-tamat",
	"title": "Love Lullaby 02 - Tamat",
	"author": "Kana Nanajima",
	"Jumlah Halaman": "192",
	"Tanggal Terbit": "10 Agt 2016",
	"ISBN": "9786024280277",
	"Penerbit": "m&c!",
	"Berat": "0.1000 kg",
	"Lebar": "11.2 cm"
},
{
	"page": 94,
	"kategori 1": "buku-anak",
	"kategori 2": "remaja",
	"book_url": "https://www.gramedia.com/products/soul-eater-not-05-lc",
	"title": "Lc: Soul Eater Not! 05",
	"author": "Atsushi Ohkubo",
	"Jumlah Halaman": "216",
	"Tanggal Terbit": "17 Agt 2016",
	"ISBN": "9786020291451",
	"Bahasa": "Indonesia",
	"Penerbit": "Elex Media Komputindo",
	"Berat": "0.1000 kg",
	"Lebar": "13 cm"
},
{
	"page": 94,
	"kategori 1": "buku-anak",
	"kategori 2": "remaja",
	"book_url": "https://www.gramedia.com/products/friday-i-am-in-love",
	"title": "Friday I Am In Love",
	"author": "Yukichi Nakamura",
	"Jumlah Halaman": "184",
	"Tanggal Terbit": "27 Jan 2016",
	"ISBN": "9786023397112",
	"Bahasa": "Indonesia",
	"Penerbit": "m&c!",
	"Berat": "0.1000 kg",
	"Lebar": "11 cm"
},
{
	"page": 94,
	"kategori 1": "buku-anak",
	"kategori 2": "remaja",
	"book_url": "https://www.gramedia.com/products/september-1st-sunny-03-tamat",
	"title": "September 1St, Sunny 03 - Tamat",
	"author": "Selena Lin",
	"Jumlah Halaman": "168",
	"Tanggal Terbit": "19 Okt 2016",
	"ISBN": "9786024281304",
	"Bahasa": "Indonesia",
	"Penerbit": "m&c!",
	"Berat": "0.1100 kg",
	"Lebar": "11.4 cm"
},
{
	"page": 94,
	"kategori 1": "buku-anak",
	"kategori 2": "remaja",
	"book_url": "https://www.gramedia.com/products/samurai-drive-07",
	"title": "Samurai Drive 07",
	"author": "Fujiko Kosumi",
	"Jumlah Halaman": "176",
	"Tanggal Terbit": "13 Apr 2016",
	"ISBN": "9786023398577",
	"Penerbit": "m&c!",
	"Berat": "0.1000 kg",
	"Lebar": "11 cm"
},
{
	"page": 94,
	"kategori 1": "buku-anak",
	"kategori 2": "remaja",
	"book_url": "https://www.gramedia.com/products/yotsuba-08-terbit-ulang",
	"title": "Yotsuba&! 08 (Terbit Ulang)",
	"author": "Kiyohiko Azuma",
	"Jumlah Halaman": "-",
	"Tanggal Terbit": "16 Sep 2015",
	"ISBN": "9786020271910",
	"Bahasa": "Indonesia",
	"Penerbit": "Elex Media Komputindo",
	"Berat": "0.1000 kg",
	"Lebar": "11 cm"
},
{
	"page": 94,
	"kategori 1": "buku-anak",
	"kategori 2": "remaja",
	"book_url": "https://www.gramedia.com/products/friendless-yugami-03",
	"title": "Friendless Yugami 03",
	"author": "Jun Sakura",
	"Jumlah Halaman": "168",
	"Tanggal Terbit": "18 Nov 2015",
	"ISBN": "9786023395972",
	"Bahasa": "Indonesia",
	"Penerbit": "m&c!",
	"Berat": "0.1000 kg",
	"Lebar": "11 cm"
},
{
	"page": 94,
	"kategori 1": "buku-anak",
	"kategori 2": "remaja",
	"book_url": "https://www.gramedia.com/products/when-the-wolf-boy-meets-the-lamb-girl-05",
	"title": "When The Wolf Boy Meets The Lamb Girl 05",
	"author": "Konomi Wagata",
	"Jumlah Halaman": "192",
	"Tanggal Terbit": "10 Mei 2017",
	"ISBN": "9786024283520",
	"Bahasa": "Indonesia",
	"Penerbit": "m&c!",
	"Berat": "0.1300 kg",
	"Lebar": "11.5 cm"
},
{
	"page": 94,
	"kategori 1": "buku-anak",
	"kategori 2": "remaja",
	"book_url": "https://www.gramedia.com/products/kashimashi-house-2",
	"title": "Kashimashi House 2",
	"author": "Risu Akizuki",
	"Jumlah Halaman": "208",
	"Tanggal Terbit": "4 Nov 2015",
	"ISBN": "9786021383063",
	"Bahasa": "Indonesia",
	"Penerbit": "Bentang Pustaka",
	"Berat": "0.1000 kg",
	"Lebar": "12 cm"
},
{
	"page": 94,
	"kategori 1": "buku-anak",
	"kategori 2": "remaja",
	"book_url": "https://www.gramedia.com/products/kosmik-mook-08",
	"title": "KOSMIK Mook 08",
	"author": "Kosmik",
	"Jumlah Halaman": "168",
	"Tanggal Terbit": "8 Jun 2016",
	"ISBN": "9786023399635",
	"Bahasa": "Indonesia",
	"Penerbit": "m&c!",
	"Berat": "0.3000 kg",
	"Lebar": "14.5 cm"
},
{
	"page": 94,
	"kategori 1": "buku-anak",
	"kategori 2": "remaja",
	"book_url": "https://www.gramedia.com/products/demon-king-46",
	"title": "Demon King 46",
	"author": "Ra In-soo, Kim Jae-hwan",
	"Jumlah Halaman": "-",
	"Tanggal Terbit": "26 Agt 2015",
	"ISBN": "9786020271354",
	"Bahasa": "Indonesia",
	"Penerbit": "Elex Media Komputindo",
	"Berat": "0.1000 kg",
	"Lebar": "11 cm"
},
{
	"page": 94,
	"kategori 1": "buku-anak",
	"kategori 2": "remaja",
	"book_url": "https://www.gramedia.com/products/lc-attack-on-titan-lost-girl-1",
	"title": "LC: Attack On Titan Lost Girl 1",
	"author": "Hajime Isayama,hiroshi Seko,ryosuke Fuji",
	"Jumlah Halaman": "200",
	"Tanggal Terbit": "19 Jul 2017",
	"ISBN": "9786020431710",
	"Bahasa": "Indonesia",
	"Penerbit": "Elex Media Komputindo",
	"Berat": "0.1300 kg",
	"Lebar": "12 cm"
},
{
	"page": 94,
	"kategori 1": "buku-anak",
	"kategori 2": "remaja",
	"book_url": "https://www.gramedia.com/products/lc-smurf-smurf-bind-up-1-edisi-2017",
	"title": "LC: Smurf - Smurf Bind Up 1 (Edisi 2017)",
	"author": "Peyo",
	"Jumlah Halaman": "156",
	"Tanggal Terbit": "27 Des 2017",
	"ISBN": "9786020270395",
	"Penerbit": "Elex Media Komputindo",
	"Berat": "0.150 kg",
	"Lebar": "18 cm",
	"Panjang": "24 cm"
},
{
	"page": 94,
	"kategori 1": "buku-anak",
	"kategori 2": "remaja",
	"book_url": "https://www.gramedia.com/products/hope-04",
	"title": "Hope 04",
	"author": "Keiko Suenobu",
	"Jumlah Halaman": "-",
	"Tanggal Terbit": "2 Sep 2015",
	"ISBN": "9786023394630",
	"Bahasa": "Indonesia",
	"Penerbit": "Kodansha",
	"Berat": "0.1000 kg",
	"Lebar": "11 cm"
},
