{
	"page": 82,
	"kategori 1": "fiksi-sastra",
	"kategori 2": "sastra",
	"book_url": "https://www.gramedia.com/products/lukisan-kaligrafi-edisi-baru",
	"title": "Lukisan Kaligrafi Edisi Baru",
	"author": "Mustofa Bisri",
	"Jumlah Halaman": "144",
	"Tanggal Terbit": "5 Apr 2017",
	"ISBN": "9786024122294",
	"Bahasa": "Indonesia",
	"Penerbit": "Penerbit Buku Kompas",
	"Berat": "0.3000 kg",
	"Lebar": "14 cm"
},
{
	"page": 82,
	"kategori 1": "fiksi-sastra",
	"kategori 2": "sastra",
	"book_url": "https://www.gramedia.com/products/zeros-familiar",
	"title": "Zeros Familiar",
	"author": "Yamaguchi Noboru",
	"Jumlah Halaman": "290",
	"Tanggal Terbit": "21 Mar 2016",
	"ISBN": "9786027358423",
	"Penerbit": "Shining Rose",
	"Berat": "0.1500 kg",
	"Lebar": "10 cm"
},
{
	"page": 82,
	"kategori 1": "fiksi-sastra",
	"kategori 2": "sastra",
	"book_url": "https://www.gramedia.com/products/demian-the-story-of-emil-sinclairs-youth",
	"title": "Demian : The Story Of Emil Sinclairs Youth",
	"author": "Herman Hesse",
	"Jumlah Halaman": "326",
	"Tanggal Terbit": "8 Mar 2017",
	"ISBN": "9786026033277",
	"Bahasa": "Indonesia",
	"Penerbit": "Mata Aksara",
	"Berat": "0.3 kg",
	"Lebar": "13 cm",
	"Panjang": "19 cm"
},
{
	"page": 82,
	"kategori 1": "fiksi-sastra",
	"kategori 2": "sastra",
	"book_url": "https://www.gramedia.com/products/into-the-water",
	"title": "Into The Water",
	"author": "Paula Hawkins",
	"Jumlah Halaman": "480",
	"Tanggal Terbit": "10 Okt 2017",
	"ISBN": "9786023853366",
	"Bahasa": "Indonesia",
	"Penerbit": "Noura Books Publishing",
	"Berat": "0.405 kg",
	"Lebar": "14 cm",
	"Panjang": "21 cm"
},
{
	"page": 82,
	"kategori 1": "fiksi-sastra",
	"kategori 2": "sastra",
	"book_url": "https://www.gramedia.com/products/not-if-i-see-you-first",
	"title": "Not If I See You First",
	"author": "Eric Lindstrom",
	"Jumlah Halaman": "376",
	"Tanggal Terbit": "8 Feb 2018",
	"ISBN": "9786026682154",
	"Bahasa": "Indonesia",
	"Penerbit": "Penerbit Spring",
	"Berat": "0.28 kg",
	"Lebar": "13 cm",
	"Panjang": "19 cm"
},
{
	"page": 82,
	"kategori 1": "fiksi-sastra",
	"kategori 2": "sastra",
	"book_url": "https://www.gramedia.com/products/melodies",
	"title": "Melodies",
	"author": "Temillasari Dwenti",
	"Jumlah Halaman": "350",
	"Tanggal Terbit": "5 Sep 2018",
	"ISBN": "9786022202820",
	"Bahasa": "Indonesia",
	"Penerbit": "Bukune",
	"Berat": "0.350 kg",
	"Lebar": "14 cm",
	"Panjang": "20 cm"
},
{
	"page": 82,
	"kategori 1": "fiksi-sastra",
	"kategori 2": "sastra",
	"book_url": "https://www.gramedia.com/products/luka-kata",
	"title": "Luka Kata",
	"author": "Candra Malik",
	"Jumlah Halaman": "160",
	"Tanggal Terbit": "17 Jun 2019",
	"ISBN": "9786020520797",
	"Bahasa": "Indonesia",
	"Penerbit": "Gramedia Widiasarana Indonesia",
	"Berat": "0.165 kg",
	"Lebar": "11 cm",
	"Panjang": "15.5 cm"
},
{
	"page": 82,
	"kategori 1": "fiksi-sastra",
	"kategori 2": "sastra",
	"book_url": "https://www.gramedia.com/products/dating-journey",
	"title": "Dating Journey",
	"author": "Ally Jane",
	"Jumlah Halaman": "276",
	"Tanggal Terbit": "6 Mar 2017",
	"ISBN": "9786023944675",
	"Bahasa": "Indonesia",
	"Penerbit": "Bhuana Ilmu Populer",
	"Berat": "0.2000 kg",
	"Lebar": "14 cm"
},
{
	"page": 82,
	"kategori 1": "fiksi-sastra",
	"kategori 2": "sastra",
	"book_url": "https://www.gramedia.com/products/train-to-krakow",
	"title": "Train To Krakow",
	"author": "Qaisra Shahraz",
	"Jumlah Halaman": "320",
	"Tanggal Terbit": "10 Okt 2017",
	"ISBN": "9786023853731",
	"Bahasa": "Indonesia",
	"Penerbit": "Noura Publishing",
	"Berat": "0.28 kg",
	"Lebar": "14 cm",
	"Panjang": "21 cm"
},
{
	"page": 82,
	"kategori 1": "fiksi-sastra",
	"kategori 2": "sastra",
	"book_url": "https://www.gramedia.com/products/ha-nahnu-dza",
	"title": "Ha Nahnu Dza",
	"author": "Ira Madanisa",
	"Jumlah Halaman": "448",
	"Tanggal Terbit": "7 Apr 2017",
	"ISBN": "9786020894645",
	"Bahasa": "Indonesia",
	"Penerbit": "Tiga Serangkai",
	"Berat": "0.3600 kg",
	"Lebar": "13.5 cm"
},
{
	"page": 82,
	"kategori 1": "fiksi-sastra",
	"kategori 2": "sastra",
	"book_url": "https://www.gramedia.com/products/realize",
	"title": "Realize",
	"author": "Louisse Carreon",
	"Jumlah Halaman": "280",
	"Tanggal Terbit": "12 Des 2017",
	"ISBN": "9786026383266",
	"Bahasa": "Indonesia",
	"Penerbit": "Penerbit Haru",
	"Berat": "0.25 kg",
	"Lebar": "13 cm",
	"Panjang": "19 cm"
},
{
	"page": 82,
	"kategori 1": "fiksi-sastra",
	"kategori 2": "sastra",
	"book_url": "https://www.gramedia.com/products/fantasteencharlie-can-we-play",
	"title": "Fantasteen:Charlie Can We Play",
	"author": "Fransisca Intan Devi",
	"Jumlah Halaman": "187",
	"Tanggal Terbit": "29 Jan 2018",
	"ISBN": "9786024205706",
	"Bahasa": "Indonesia",
	"Penerbit": "Mizan Publishing",
	"Berat": "0.15 kg",
	"Lebar": "13.5 cm",
	"Panjang": "19.5 cm"
},
{
	"page": 82,
	"kategori 1": "fiksi-sastra",
	"kategori 2": "sastra",
	"book_url": "https://www.gramedia.com/products/pusadaka",
	"title": "Pusadaka",
	"author": "Dwiky Arsa",
	"Jumlah Halaman": "109",
	"Tanggal Terbit": "30 Jan 2019",
	"ISBN": "9786020722092",
	"Bahasa": "Indonesia",
	"Penerbit": "Growing Publishing",
	"Berat": "0.300 kg",
	"Lebar": "21 cm",
	"Panjang": "14 cm"
},
{
	"page": 82,
	"kategori 1": "fiksi-sastra",
	"kategori 2": "sastra",
	"book_url": "https://www.gramedia.com/products/the-bond-ikatan",
	"title": "The Bond ( Ikatan )",
	"author": "Eve Shi",
	"Jumlah Halaman": "248",
	"Tanggal Terbit": "26 Agt 2016",
	"ISBN": "9786027492400",
	"Bahasa": "Indonesia",
	"Penerbit": "Twigora",
	"Berat": "0.2000 kg",
	"Lebar": "13 cm"
},
{
	"page": 82,
	"kategori 1": "fiksi-sastra",
	"kategori 2": "sastra",
	"book_url": "https://www.gramedia.com/products/never-gonna-leave-you",
	"title": "Never Gonna Leave You",
	"author": "Sienta Sasika Novel",
	"Jumlah Halaman": "223",
	"Tanggal Terbit": "22 Agt 2014",
	"ISBN": "9786020247298",
	"Penerbit": "No Publisher",
	"Berat": "0.3000 kg",
	"Lebar": "13 cm",
	"Panjang": "0 cm"
},
{
	"page": 82,
	"kategori 1": "fiksi-sastra",
	"kategori 2": "sastra",
	"book_url": "https://www.gramedia.com/products/scarlet-the-lunar-chronicles",
	"title": "Scarlet The Lunar Chronicles",
	"author": "Marissa Meyer",
	"Jumlah Halaman": "444",
	"Tanggal Terbit": "1 Mar 2016",
	"ISBN": "9786027150560",
	"Bahasa": "Indonesia",
	"Penerbit": "Penerbit Spring",
	"Berat": "0.4000 kg",
	"Lebar": "14 cm"
},
{
	"page": 82,
	"kategori 1": "fiksi-sastra",
	"kategori 2": "sastra",
	"book_url": "https://www.gramedia.com/products/yang-kedua",
	"title": "Yang Kedua",
	"author": "Lani Utami",
	"Jumlah Halaman": "100.0",
	"Tanggal Terbit": "4 Mar 2012",
	"ISBN": "9789797945916",
	"Bahasa": "Indonesia",
	"Penerbit": "Bukune",
	"Berat": "0.3 kg",
	"Lebar": "13.0 cm",
	"Panjang": "19.0 cm"
},
{
	"page": 82,
	"kategori 1": "fiksi-sastra",
	"kategori 2": "sastra",
	"book_url": "https://www.gramedia.com/products/the-secret-garden-new",
	"title": "The Secret Garden-New",
	"author": "Frances Hodgson Burnett",
	"Jumlah Halaman": "456",
	"Tanggal Terbit": "10 Okt 2016",
	"ISBN": "9786024020446",
	"Bahasa": "Indonesia",
	"Penerbit": "Qanita",
	"Berat": "0.40 kg",
	"Lebar": "13 cm",
	"Panjang": "20 cm"
},
{
	"page": 82,
	"kategori 1": "fiksi-sastra",
	"kategori 2": "sastra",
	"book_url": "https://www.gramedia.com/products/bluestroberi-11-spacious-love",
	"title": "Bluestroberi 11: Spacious Love",
	"author": "Citra Rizcha",
	"Jumlah Halaman": "0",
	"Tanggal Terbit": "13 Jun 2014",
	"ISBN": "9789799107268",
	"Bahasa": "Indonesia",
	"Penerbit": "Kepustakaan Populer Gramedia",
	"Berat": "0.180 kg"
},
{
	"page": 82,
	"kategori 1": "fiksi-sastra",
	"kategori 2": "sastra",
	"book_url": "https://www.gramedia.com/products/marry-me-olivia",
	"title": "Marry Me, Olivia!",
	"author": "Gunan Ariani",
	"Jumlah Halaman": "228",
	"Tanggal Terbit": "1 Okt 2017",
	"ISBN": "9786026648136",
	"Bahasa": "Indonesia",
	"Penerbit": "Stiletto Book",
	"Berat": "0.208 kg",
	"Lebar": "14 cm",
	"Panjang": "20 cm"
},
{
	"page": 82,
	"kategori 1": "fiksi-sastra",
	"kategori 2": "sastra",
	"book_url": "https://www.gramedia.com/products/catastrophy",
	"title": "Catastrophy",
	"author": "Melanie Jung",
	"Jumlah Halaman": "302",
	"Tanggal Terbit": "21 Nov 2018",
	"ISBN": "9786026100030",
	"Bahasa": "Indonesia",
	"Penerbit": "Kubus Media",
	"Berat": "0.200 kg",
	"Lebar": "20 cm",
	"Panjang": "14 cm"
},
{
	"page": 82,
	"kategori 1": "fiksi-sastra",
	"kategori 2": "sastra",
	"book_url": "https://www.gramedia.com/products/allegiant-the-divergen-series-movie-tie-in",
	"title": "Allegiant : The Divergen Series (Movie Tie-In)",
	"author": "Veronica Roth",
	"Jumlah Halaman": "496",
	"Tanggal Terbit": "13 Apr 2016",
	"ISBN": "9789794339435",
	"Penerbit": "Mizan",
	"Berat": "0.3600 kg",
	"Lebar": "13 cm"
},
{
	"page": 82,
	"kategori 1": "fiksi-sastra",
	"kategori 2": "sastra",
	"book_url": "https://www.gramedia.com/products/last-love-story-of-walden-brothers",
	"title": "Last Love Story Of Walden Brothers",
	"author": "Jung Eun Gwol",
	"Jumlah Halaman": "312",
	"Tanggal Terbit": "17 Nov 2018",
	"ISBN": "9786025254741",
	"Bahasa": "Indonesia",
	"Penerbit": "Penerbit Haru",
	"Berat": "0.35 kg",
	"Lebar": "14 cm",
	"Panjang": "30 cm"
},
{
	"page": 82,
	"kategori 1": "fiksi-sastra",
	"kategori 2": "sastra",
	"book_url": "https://www.gramedia.com/products/kisah-1001-malam-5",
	"title": "Kisah 1001 Malam 5",
	"author": "Alfu Lailah Wa Lailah",
	"Jumlah Halaman": "588",
	"Tanggal Terbit": "25 Mar 2019",
	"ISBN": "9786023915804",
	"Bahasa": "Indonesia",
	"Penerbit": "Divapress",
	"Berat": "0.661 kg"
},
{
	"page": 82,
	"kategori 1": "fiksi-sastra",
	"kategori 2": "sastra",
	"book_url": "https://www.gramedia.com/products/citylite-yang-disimpan-kenangan-di-lubuk-hati-terdalam",
	"title": "Citylite: Yang Disimpan Kenangan Di Lubuk Hati Terdalam",
	"author": "Tarina Arkad",
	"Jumlah Halaman": "248",
	"Tanggal Terbit": "30 Mei 2019",
	"ISBN": "9786020499550",
	"Bahasa": "Indonesia",
	"Penerbit": "Elex Media Komputindo",
	"Berat": "0.100 kg",
	"Lebar": "12.5 cm",
	"Panjang": "19.5 cm"
},
{
	"page": 82,
	"kategori 1": "fiksi-sastra",
	"kategori 2": "sastra",
	"book_url": "https://www.gramedia.com/products/cerita-mamah-muda-yang-ketiga",
	"title": "Cerita Mamah Muda: Yang Ketiga",
	"author": "Niken Terate Sekar,MIA ASRIYANI HASANAH (MIA ARSJAD), A. Citra Ayuningtyas (Lea Agustina Citra),Donna Widjajanto,Ruwi Meita,Christina Tirta",
	"Jumlah Halaman": "320.0",
	"Tanggal Terbit": "29 Agt 2019",
	"ISBN": "9786020632629",
	"Penerbit": "GRAMEDIA PUSTAKA UTAMA",
	"Berat": "0.12 kg",
	"Lebar": "13.5 cm",
	"Panjang": "20.0 cm"
},
{
	"page": 82,
	"kategori 1": "fiksi-sastra",
	"kategori 2": "sastra",
	"book_url": "https://www.gramedia.com/products/beyond-the-wall",
	"title": "Beyond The Wall",
	"author": "Sabrina Zee",
	"Jumlah Halaman": "426",
	"Tanggal Terbit": "19 Apr 2016",
	"ISBN": "9786027122048",
	"Bahasa": "Indonesia",
	"Penerbit": "Kosa Media Utama",
	"Berat": "0.3200 kg",
	"Lebar": "14 cm"
},
{
	"page": 82,
	"kategori 1": "fiksi-sastra",
	"kategori 2": "sastra",
	"book_url": "https://www.gramedia.com/products/a-aku-benci-cinta-1",
	"title": "A: Aku, Benci, & Cinta",
	"author": "Wulan Fadila Fatia",
	"Jumlah Halaman": "456",
	"Tanggal Terbit": "21 Nov 2017",
	"ISBN": "9786027330337",
	"Bahasa": "Indonesia",
	"Penerbit": "Best Media",
	"Berat": "0.57 kg",
	"Lebar": "14 cm",
	"Panjang": "20 cm"
},
{
	"page": 82,
	"kategori 1": "fiksi-sastra",
	"kategori 2": "sastra",
	"book_url": "https://www.gramedia.com/products/nayla-ed-inggris",
	"title": "Nayla (Ed. Inggris)",
	"author": "Djenar Maesa Ayu",
	"Jumlah Halaman": "192",
	"Tanggal Terbit": "12 Nov 2018",
	"ISBN": "9786020614182",
	"Bahasa": "English",
	"Penerbit": "Gramedia Pustaka Utama",
	"Berat": "0.173 kg",
	"Lebar": "21 cm",
	"Panjang": "14 cm"
},
{
	"page": 82,
	"kategori 1": "fiksi-sastra",
	"kategori 2": "sastra",
	"book_url": "https://www.gramedia.com/products/kunamai-bintang-itu-namamu",
	"title": "Kunamai Bintang Itu Namamu",
	"author": "Cindy Joviand",
	"Jumlah Halaman": "187",
	"Tanggal Terbit": "21 Des 2017",
	"ISBN": "9789797945510",
	"Bahasa": "Indonesia",
	"Penerbit": "Media Kita",
	"Berat": "0.155 kg",
	"Lebar": "13 cm",
	"Panjang": "19 cm"
},
{
	"page": 82,
	"kategori 1": "fiksi-sastra",
	"kategori 2": "sastra",
	"book_url": "https://www.gramedia.com/products/emoticon",
	"title": "Emoticon",
	"author": "Ricky Cuaca",
	"Jumlah Halaman": "176",
	"Tanggal Terbit": "18 Mei 2015",
	"ISBN": "9786021010747",
	"Bahasa": "Indonesia",
	"Penerbit": "Euthenia",
	"Berat": "0.2000 kg",
	"Lebar": "13 cm"
},
{
	"page": 82,
	"kategori 1": "fiksi-sastra",
	"kategori 2": "sastra",
	"book_url": "https://www.gramedia.com/products/rahasia-cinta-kahlil-gibran",
	"title": "Rahasia Cinta Kahlil Gibran",
	"author": "Kahlil Gibran",
	"Jumlah Halaman": "168",
	"Tanggal Terbit": "12 Okt 2015",
	"ISBN": "9786020273051",
	"Bahasa": "Indonesia",
	"Penerbit": "Elex Media Komputindo",
	"Berat": "0.2500 kg",
	"Lebar": "15 cm"
},
{
	"page": 82,
	"kategori 1": "fiksi-sastra",
	"kategori 2": "sastra",
	"book_url": "https://www.gramedia.com/products/fp-hq-tempt-remember-me-cowboy",
	"title": "HQ Tempt: Remember Me, Cowboy",
	"author": "C.j. Carmichael",
	"Jumlah Halaman": "296",
	"Tanggal Terbit": "14 Agt 2014",
	"ISBN": "9786020246413",
	"Bahasa": "Indonesia",
	"Penerbit": "Elex Media Komputindo",
	"Berat": "0.150 kg",
	"Lebar": "11 cm",
	"Panjang": "18 cm"
},
{
	"page": 82,
	"kategori 1": "fiksi-sastra",
	"kategori 2": "sastra",
	"book_url": "https://www.gramedia.com/products/nicola-yoon-sun-is-also-a-star-sc",
	"title": "Nicola Yoon: Sun Is Also A Star",
	"author": "Random House Us",
	"Jumlah Halaman": "384",
	"Tanggal Terbit": "4 Nov 2017",
	"ISBN": "9781524716301",
	"Bahasa": "Indonesia",
	"Penerbit": "Sinar Star Book",
	"Berat": "0.250 kg",
	"Lebar": "13.5 cm",
	"Panjang": "20 cm"
},
{
	"page": 82,
	"kategori 1": "fiksi-sastra",
	"kategori 2": "sastra",
	"book_url": "https://www.gramedia.com/products/perempuan-penggenggam-rindu",
	"title": "Perempuan Penggenggam Rindu",
	"author": "Tia Setiawati",
	"Jumlah Halaman": "242",
	"Tanggal Terbit": "13 Feb 2017",
	"ISBN": "9789797945336",
	"Bahasa": "Indonesia",
	"Penerbit": "Mediakita",
	"Berat": "0.300 kg",
	"Lebar": "13 cm",
	"Panjang": "19 cm"
},
{
	"page": 82,
	"kategori 1": "fiksi-sastra",
	"kategori 2": "sastra",
	"book_url": "https://www.gramedia.com/products/cinta-yang-kupeluk-sepanjang-waktu",
	"title": "CINTA YANG KUPELUK, SEPANJANG WAKTU",
	"author": "Lumatul Fitria",
	"Jumlah Halaman": "252",
	"Tanggal Terbit": "16 Jul 2018",
	"ISBN": "9786021036853",
	"Bahasa": "Indonesia",
	"Penerbit": "TRANSMEDIA",
	"Berat": "0.189 kg",
	"Lebar": "13 cm",
	"Panjang": "19 cm"
},
{
	"page": 82,
	"kategori 1": "fiksi-sastra",
	"kategori 2": "sastra",
	"book_url": "https://www.gramedia.com/products/pendidikan-islam-di-indonesia-historis-dan-eksistensi",
	"title": "Pendidikan Islam Di Indonesia: Historis Dan Eksistensi",
	"author": "PROF. DR. H. HAIDAR PUTRA DAULAY, M.A.",
	"Jumlah Halaman": "282.0",
	"Tanggal Terbit": "1 Sep 2019",
	"ISBN": "9786024222437",
	"Bahasa": "Indonesia",
	"Penerbit": "Prenadamedia Group",
	"Berat": "0.274 kg",
	"Lebar": "15.0 cm",
	"Panjang": "23.0 cm"
},
{
	"page": 82,
	"kategori 1": "fiksi-sastra",
	"kategori 2": "sastra",
	"book_url": "https://www.gramedia.com/products/seoulmate",
	"title": "Seoulmate",
	"author": "Lia Indra Andriana",
	"Jumlah Halaman": "324",
	"Tanggal Terbit": "6 Des 2016",
	"ISBN": "9786026383099",
	"Bahasa": "Indonesia",
	"Penerbit": "Penerbit Haru",
	"Berat": "0.2500 kg",
	"Lebar": "13 cm"
},
{
	"page": 82,
	"kategori 1": "fiksi-sastra",
	"kategori 2": "sastra",
	"book_url": "https://www.gramedia.com/products/locked-rooms-sherlock-holmes",
	"title": "Locked Rooms : Sherlock Holmes",
	"author": "Laurie R. King",
	"Jumlah Halaman": "508",
	"Tanggal Terbit": "19 Sep 2016",
	"ISBN": "9789794339640",
	"Bahasa": "Indonesia",
	"Penerbit": "Qanita",
	"Berat": "0.3500 kg",
	"Lebar": "20 cm"
},
{
	"page": 82,
	"kategori 1": "fiksi-sastra",
	"kategori 2": "sastra",
	"book_url": "https://www.gramedia.com/products/sayap-surgaku",
	"title": "Sayap Surgaku",
	"author": "Mellyana",
	"Jumlah Halaman": "392",
	"Tanggal Terbit": "30 Jan 2018",
	"ISBN": "9786025508141",
	"Bahasa": "Indonesia",
	"Penerbit": "Coconut Books",
	"Berat": "0.23 kg",
	"Lebar": "14 cm",
	"Panjang": "20 cm"
},
{
	"page": 82,
	"kategori 1": "fiksi-sastra",
	"kategori 2": "sastra",
	"book_url": "https://www.gramedia.com/products/ketika-cinta-belum-menyapa",
	"title": "Ketika Cinta Belum Menyapa",
	"author": "Intan Daswan Dan Didik Abidin",
	"Jumlah Halaman": "204",
	"Tanggal Terbit": "24 Mei 2017",
	"ISBN": "9786024071356",
	"Bahasa": "Indonesia",
	"Penerbit": "Sabil",
	"Berat": "0.1900 kg",
	"Lebar": "13 cm"
},
{
	"page": 82,
	"kategori 1": "fiksi-sastra",
	"kategori 2": "sastra",
	"book_url": "https://www.gramedia.com/products/senyum-sahabat",
	"title": "Senyum Sahabat",
	"author": "Eidelweis Almira",
	"Jumlah Halaman": "152",
	"Tanggal Terbit": "11 Agt 2016",
	"ISBN": "9786021010204",
	"Bahasa": "Indonesia",
	"Penerbit": "Euthenia",
	"Berat": "0.1500 kg",
	"Lebar": "13 cm"
},
