{
	"page": 77,
	"kategori 1": "fiksi-sastra",
	"kategori 2": "sastra",
	"book_url": "https://www.gramedia.com/products/rhett-rhett-butler-s-people-kisah-cinta-abadi-rhett-butle",
	"title": "Rhett (Rhett Butler'S People) - Kisah Cinta Abadi Rhett Butle",
	"author": "Donald Mccaig",
},
{
	"page": 77,
	"kategori 1": "fiksi-sastra",
	"kategori 2": "sastra",
	"book_url": "https://www.gramedia.com/products/mr-a-vs-ms-ab-a-wo-man-s-scent",
	"title": "Mr.A vs Ms.AB: A(Wo)Man`s Scent",
	"author": "Yuli Pritania",
	"Jumlah Halaman": "201",
	"Tanggal Terbit": "19 Jan 2015",
	"ISBN": "9786022518570",
	"Bahasa": "Indonesia",
	"Penerbit": "Gramedia Widiasarana Indonesia",
	"Berat": "0.1860 kg",
	"Lebar": "13 cm",
	"Panjang": "0 cm"
},
{
	"page": 77,
	"kategori 1": "fiksi-sastra",
	"kategori 2": "sastra",
	"book_url": "https://www.gramedia.com/products/hr-the-switch",
	"title": "Hr: The Switch",
	"author": "Lynsay Sands",
	"Jumlah Halaman": "489",
	"Tanggal Terbit": "25 Mei 2015",
	"ISBN": "9786020264844",
	"Bahasa": "Indonesia",
	"Penerbit": "Elex Media Komputindo",
	"Berat": "0.3490 kg",
	"Lebar": "11 cm"
},
{
	"page": 77,
	"kategori 1": "fiksi-sastra",
	"kategori 2": "sastra",
	"book_url": "https://www.gramedia.com/products/presents-from-the-past-a",
	"title": "Presents From The Past, A",
	"author": "Leonna Amorette",
	"Jumlah Halaman": "297",
	"Tanggal Terbit": "18 Agt 2015",
	"ISBN": "9786020270708",
	"Penerbit": "+++",
	"Berat": "0.2840 kg",
	"Lebar": "13 cm"
},
{
	"page": 77,
	"kategori 1": "fiksi-sastra",
	"kategori 2": "sastra",
	"book_url": "https://www.gramedia.com/products/cinta-yang-hilang",
	"title": "Cinta Yang Hilang",
	"author": "Masriadi Sambo",
	"Jumlah Halaman": "190",
	"Tanggal Terbit": "5 Agt 2015",
	"ISBN": "9786028556507",
	"Bahasa": "Indonesia",
	"Penerbit": "Kakilangit Kencana",
	"Berat": "0.2000 kg",
	"Lebar": "13 cm"
},
{
	"page": 77,
	"kategori 1": "fiksi-sastra",
	"kategori 2": "sastra",
	"book_url": "https://www.gramedia.com/products/love-lang-syne",
	"title": "Love Lang Syne",
	"author": "Ridisa",
	"Tanggal Terbit": "16 Jan 2015",
	"ISBN": "9789799108128",
	"Bahasa": "Indonesia",
	"Penerbit": "Kepustakaan Populer Gramedia",
	"Berat": "0.3000 kg",
	"Lebar": "0 cm",
	"Panjang": "0 cm"
},
{
	"page": 77,
	"kategori 1": "fiksi-sastra",
	"kategori 2": "sastra",
	"book_url": "https://www.gramedia.com/products/hr-tapestry",
	"title": "Hr: Tapestry",
	"author": "Karen Ranney",
	"Jumlah Halaman": "538",
	"Tanggal Terbit": "25 Mei 2015",
	"ISBN": "9786020265438",
	"Bahasa": "Indonesia",
	"Penerbit": "Elex Media Komputindo",
	"Berat": "0.3880 kg",
	"Lebar": "11 cm",
	"Panjang": "18 cm"
},
{
	"page": 77,
	"kategori 1": "fiksi-sastra",
	"kategori 2": "sastra",
	"book_url": "https://www.gramedia.com/products/historical-romance-siasat-sang-lady-the-brazen-bride",
	"title": "Historical Romance: Siasat Sang Lady (The Brazen Bride)",
	"author": "Stephanie Laurens",
	"Jumlah Halaman": "608",
	"Tanggal Terbit": "29 Feb 2016",
	"ISBN": "9786020324975",
	"Bahasa": "Indonesia",
	"Penerbit": "Gramedia Pustaka Utama",
	"Berat": "0.3000 kg",
	"Lebar": "11 cm"
},
{
	"page": 77,
	"kategori 1": "fiksi-sastra",
	"kategori 2": "sastra",
	"book_url": "https://www.gramedia.com/products/conf-a-wedding-after-story-cover-baru",
	"title": "A Wedding after Story (Cover Baru)",
	"author": "Merry Maeta Sari",
	"Jumlah Halaman": "0",
	"Tanggal Terbit": "23 Apr 2015",
	"ISBN": "9786020257624",
	"Penerbit": "Elex Media Komputindo",
	"Berat": "0.9119 kg",
	"Lebar": "0 cm"
},
{
	"page": 77,
	"kategori 1": "fiksi-sastra",
	"kategori 2": "sastra",
	"book_url": "https://www.gramedia.com/products/147-letters-hatiku-kusimpan-dlm-amplopmu",
	"title": "147 Letters: Hatiku Kusimpan Dlm Amplopmu",
	"author": "Achi Tm",
	"Jumlah Halaman": "228",
	"Tanggal Terbit": "16 Mar 2016",
	"ISBN": "9786027870697",
	"Bahasa": "Indonesia",
	"Penerbit": "Mizan",
	"Berat": "0.2000 kg",
	"Lebar": "14 cm"
},
{
	"page": 77,
	"kategori 1": "fiksi-sastra",
	"kategori 2": "sastra",
	"book_url": "https://www.gramedia.com/products/cr-single-white-vampire",
	"title": "Cr: Single White Vampire",
	"author": "Lynsay Sands",
	"Jumlah Halaman": "440",
	"Tanggal Terbit": "14 Des 2015",
	"ISBN": "9786020277493",
	"Bahasa": "Indonesia",
	"Penerbit": "Elex Media Komputindo",
	"Berat": "0.5500 kg",
	"Lebar": "11 cm"
},
{
	"page": 77,
	"kategori 1": "fiksi-sastra",
	"kategori 2": "sastra",
	"book_url": "https://www.gramedia.com/products/konsierto-di-kyoto",
	"title": "Konsierto Di Kyoto",
	"author": "Mochtar Pabottingi",
	"Jumlah Halaman": "102",
	"Tanggal Terbit": "18 Agt 2015",
	"ISBN": "9786022911005",
	"Bahasa": "Indonesia",
	"Penerbit": "Bentang Pustaka",
	"Berat": "0.1000 kg",
	"Lebar": "13 cm"
},
{
	"page": 77,
	"kategori 1": "fiksi-sastra",
	"kategori 2": "sastra",
	"book_url": "https://www.gramedia.com/products/historical-romance-pengawal-tercinta-dearest-rogue",
	"title": "Historical Romance: Pengawal Tercinta (Dearest Rogue)",
	"author": "Elizabeth Hoyt",
	"Jumlah Halaman": "432",
	"Tanggal Terbit": "19 Jun 2017",
	"ISBN": "9786020338989",
	"Bahasa": "Indonesia",
	"Penerbit": "Gramedia Pustaka Utama",
	"Berat": "0.2200 kg",
	"Lebar": "11 cm"
},
{
	"page": 77,
	"kategori 1": "fiksi-sastra",
	"kategori 2": "sastra",
	"book_url": "https://www.gramedia.com/products/cr-her-secret-fling",
	"title": "CR: Her Secret Fling",
	"author": "Sarah Mayberry",
	"Jumlah Halaman": "346",
	"Tanggal Terbit": "17 Jul 2017",
	"ISBN": "9786020434049",
	"Bahasa": "Indonesia",
	"Penerbit": "Elex Media Komputindo",
	"Berat": "0.1300 kg",
	"Lebar": "11 cm"
},
{
	"page": 77,
	"kategori 1": "fiksi-sastra",
	"kategori 2": "sastra",
	"book_url": "https://www.gramedia.com/products/cermin-saat-bayangan-merenggut-cinta",
	"title": "Cermin",
	"author": "Minona",
	"Jumlah Halaman": "212",
	"Tanggal Terbit": "16 Mar 2015",
	"ISBN": "9786022498483",
	"Bahasa": "Indonesia",
	"Penerbit": "Bhuana Ilmu Populer",
	"Berat": "0.15 kg",
	"Lebar": "13 cm",
	"Panjang": "19 cm"
},
{
	"page": 77,
	"kategori 1": "fiksi-sastra",
	"kategori 2": "sastra",
	"book_url": "https://www.gramedia.com/products/conf-harlequin-sentuhan-terkasih-a-touch-of-silk",
	"title": "Harlequin: Sentuhan Terkasih (A Touch of Silk)",
	"author": "Lori Wilde",
	"Jumlah Halaman": "280",
	"Tanggal Terbit": "4 Sep 2016",
	"ISBN": "9786020328553",
	"Bahasa": "Indonesia",
	"Penerbit": "Gramedia Pustaka Utama",
	"Berat": "0.1000 kg",
	"Lebar": "11 cm"
},
{
	"page": 77,
	"kategori 1": "fiksi-sastra",
	"kategori 2": "sastra",
	"book_url": "https://www.gramedia.com/products/the-ideal-man-kekasih-sempurna",
	"title": "The Ideal Man: Kekasih Sempurna",
	"author": "Julie Garwood",
	"Jumlah Halaman": "392",
	"Tanggal Terbit": "20 Mei 2015",
	"ISBN": "9786022472209",
	"Bahasa": "Indonesia",
	"Penerbit": "Dasta Books",
	"Berat": "0.3000 kg",
	"Lebar": "11 cm"
},
{
	"page": 77,
	"kategori 1": "fiksi-sastra",
	"kategori 2": "sastra",
	"book_url": "https://www.gramedia.com/products/napoli-ketika-jatuh-di-pelukanmu",
	"title": "Napoli: Ketika Jatuh Di Pelukanmu",
	"author": "Riskaninda Maharani",
	"Jumlah Halaman": "268",
	"Tanggal Terbit": "26 Mei 2015",
	"ISBN": "9786022558934",
	"Bahasa": "Indonesia",
	"Penerbit": "Diva Press",
	"Berat": "0.3000 kg",
	"Lebar": "14 cm"
},
{
	"page": 77,
	"kategori 1": "fiksi-sastra",
	"kategori 2": "sastra",
	"book_url": "https://www.gramedia.com/products/conf-cr-wallbanger-editors-pick",
	"title": "CR: Wallbanger (Editors` Pick)",
	"author": "Alice Clayton",
	"Jumlah Halaman": "520",
	"Tanggal Terbit": "27 Des 2016",
	"ISBN": "9786020298283",
	"Bahasa": "Indonesia",
	"Penerbit": "Elex Media Komputindo",
	"Berat": "0.2600 kg",
	"Lebar": "11 cm"
},
{
	"page": 77,
	"kategori 1": "fiksi-sastra",
	"kategori 2": "sastra",
	"book_url": "https://www.gramedia.com/products/sesaat-di-keabadian",
	"title": "Sesaat Di Keabadian",
	"author": "Mezty Mez",
	"Jumlah Halaman": "130",
	"Tanggal Terbit": "28 Okt 2015",
	"ISBN": "9789797808358",
	"Bahasa": "Indonesia",
	"Penerbit": "Entermedia",
	"Berat": "0.1000 kg",
	"Lebar": "12 cm"
},
{
	"page": 77,
	"kategori 1": "fiksi-sastra",
	"kategori 2": "sastra",
	"book_url": "https://www.gramedia.com/products/conf-terpikat-sang-playboy",
	"title": "Amore: Terpikat sang Playboy",
	"author": "Astrid Zeng",
	"Jumlah Halaman": "248",
	"Tanggal Terbit": "24 Jul 2016",
	"ISBN": "978602033277",
	"Penerbit": "Gramedia Pustaka Utama",
	"Berat": "0.2 kg",
	"Lebar": "13.5 cm",
	"Panjang": "20.0 cm"
},
{
	"page": 77,
	"kategori 1": "fiksi-sastra",
	"kategori 2": "sastra",
	"book_url": "https://www.gramedia.com/products/historical-romance-suatu-hari-di-musim-gugur-it-happened-one-autumn-cover-baru",
	"title": "Historical Romance: Suatu Hari Di Musim Gugur (It Happened One Autumn) - Cover Baru",
	"author": "Lisa Kleypas",
	"Jumlah Halaman": "424",
	"Tanggal Terbit": "23 Jan 2017",
	"ISBN": "9786020337470",
	"Bahasa": "Indonesia",
	"Penerbit": "Gramedia Pustaka Utama",
	"Berat": "0.2100 kg",
	"Lebar": "11 cm"
},
{
	"page": 77,
	"kategori 1": "fiksi-sastra",
	"kategori 2": "sastra",
	"book_url": "https://www.gramedia.com/products/conf-hr-an-heir-of-deception",
	"title": "HR: An Heir of Deception",
	"author": "Beverley Kendall",
	"Jumlah Halaman": "480",
	"Tanggal Terbit": "26 Okt 2016",
	"ISBN": "9786020287072",
	"Bahasa": "Indonesia",
	"Penerbit": "Elex Media Komputindo",
	"Berat": "0.1000 kg",
	"Lebar": "11 cm"
},
{
	"page": 77,
	"kategori 1": "fiksi-sastra",
	"kategori 2": "sastra",
	"book_url": "https://www.gramedia.com/products/my-twin-s-secret",
	"title": "My Twin's Secret",
	"author": "Cho Park-ha",
	"Jumlah Halaman": "248",
	"Tanggal Terbit": "14 Agt 2017",
	"ISBN": "9786024523190",
	"Bahasa": "Indonesia",
	"Penerbit": "Gramedia Widiasarana Indonesia",
	"Berat": "0.1800 kg",
	"Lebar": "13 cm"
},
{
	"page": 77,
	"kategori 1": "fiksi-sastra",
	"kategori 2": "sastra",
	"book_url": "https://www.gramedia.com/products/first-fall",
	"title": "First Fall",
	"author": "Irin Sintriana",
	"Jumlah Halaman": "176",
	"Tanggal Terbit": "31 Jul 2017",
	"ISBN": "9786024521127",
	"Bahasa": "Indonesia",
	"Penerbit": "Gramedia Widiasarana Indonesia",
	"Berat": "0.1800 kg",
	"Lebar": "13 cm"
},
{
	"page": 77,
	"kategori 1": "fiksi-sastra",
	"kategori 2": "sastra",
	"book_url": "https://www.gramedia.com/products/menikah-titik-dua",
	"title": "Menikah Titik Dua",
	"author": "Agustina K.dewi Iskandar",
	"Jumlah Halaman": "200",
	"Tanggal Terbit": "19 Sep 2014",
	"ISBN": "9786022517023",
	"Penerbit": "Gramedia Widiasarana Indonesia",
	"Berat": "0.3000 kg",
	"Lebar": "13 cm",
	"Panjang": "0 cm"
},
{
	"page": 77,
	"kategori 1": "fiksi-sastra",
	"kategori 2": "sastra",
	"book_url": "https://www.gramedia.com/products/melangkah-ke-seberang",
	"title": "Melangkah ke Seberang",
	"author": "Karina Nurherbyanti Herbowo",
	"Jumlah Halaman": "200",
	"Tanggal Terbit": "11 Sep 2017",
	"ISBN": "9786020445564",
	"Bahasa": "Indonesia",
	"Penerbit": "Elex Media Komputindo",
	"Berat": "0.1300 kg",
	"Lebar": "12.5 cm"
},
{
	"page": 77,
	"kategori 1": "fiksi-sastra",
	"kategori 2": "sastra",
	"book_url": "https://www.gramedia.com/products/bride-by-mistake-hr",
	"title": "Bride By Mistake: Hr",
	"author": "Anne Gracie",
	"Tanggal Terbit": "19 Jul 2013",
	"ISBN": "9786020216973",
	"Penerbit": "Elex Media Komputindo",
	"Berat": "0.2100 kg",
	"Lebar": "11 cm",
	"Panjang": "0 cm"
},
{
	"page": 77,
	"kategori 1": "fiksi-sastra",
	"kategori 2": "sastra",
	"book_url": "https://www.gramedia.com/products/fantasteen-the-end",
	"title": "Fantasteen The End",
	"author": "Atikah Az Zahidah",
	"Jumlah Halaman": "180",
	"Tanggal Terbit": "29 Apr 2015",
	"ISBN": "XXX",
	"Bahasa": "Indonesia",
	"Penerbit": "Dar Mizan",
	"Berat": "0.1500 kg",
	"Lebar": "13 cm"
},
{
	"page": 77,
	"kategori 1": "fiksi-sastra",
	"kategori 2": "sastra",
	"book_url": "https://www.gramedia.com/products/bapangku-bapangkku",
	"title": "Bapangku Bapangkku",
	"author": "Pago Hardian",
	"Jumlah Halaman": "232",
	"Tanggal Terbit": "29 Apr 2015",
	"ISBN": "9786021614471",
	"Bahasa": "Indonesia",
	"Penerbit": "Indiva Media Kreasi",
	"Berat": "0.3000 kg",
	"Lebar": "14 cm"
},
{
	"page": 77,
	"kategori 1": "fiksi-sastra",
	"kategori 2": "sastra",
	"book_url": "https://www.gramedia.com/products/conf-hr-the-duchess-diaries",
	"title": "HR: The Duchess Diaries",
	"author": "Jillian Hunter",
	"Jumlah Halaman": "416",
	"Tanggal Terbit": "30 Jan 2017",
	"ISBN": "9786020400020",
	"Bahasa": "Indonesia",
	"Penerbit": "Elex Media Komputindo",
	"Berat": "0.2100 kg",
	"Lebar": "11 cm"
},
{
	"page": 77,
	"kategori 1": "fiksi-sastra",
	"kategori 2": "sastra",
	"book_url": "https://www.gramedia.com/products/aku-akan-datang-i-ll-be-right-there",
	"title": "Aku Akan Datang (I`ll Be Right There)",
	"author": "Kyung Sook Shin",
	"Jumlah Halaman": "400",
	"Tanggal Terbit": "23 Mei 2016",
	"ISBN": "9786020329185",
	"Bahasa": "Indonesia",
	"Penerbit": "Gramedia Pustaka Utama",
	"Berat": "0.5000 kg",
	"Lebar": "14 cm"
},
{
	"page": 77,
	"kategori 1": "fiksi-sastra",
	"kategori 2": "sastra",
	"book_url": "https://www.gramedia.com/products/hr-what-a-rogue-desires",
	"title": "Hr: What A Rogue Desires",
	"author": "Caroline Linden",
	"Jumlah Halaman": "404",
	"Tanggal Terbit": "16 Mar 2015",
	"ISBN": "9786020260235",
	"Bahasa": "Indonesia",
	"Penerbit": "Elex Media Komputindo",
	"Berat": "0.2900 kg",
	"Lebar": "11 cm"
},
{
	"page": 77,
	"kategori 1": "fiksi-sastra",
	"kategori 2": "sastra",
	"book_url": "https://www.gramedia.com/products/one-autumn",
	"title": "One Autumn",
	"author": "Dian Agustin",
	"Jumlah Halaman": "188",
	"Tanggal Terbit": "23 Feb 2015",
	"ISBN": "9789792947014",
	"Bahasa": "Indonesia",
	"Penerbit": "Andi Publisher",
	"Berat": "0.3000 kg",
	"Lebar": "13 cm"
},
{
	"page": 77,
	"kategori 1": "fiksi-sastra",
	"kategori 2": "sastra",
	"book_url": "https://www.gramedia.com/products/crystal-stairs",
	"title": "Crystal Stairs",
	"author": "Amaliah Black",
	"Jumlah Halaman": "248",
	"Tanggal Terbit": "30 Nov 2015",
	"ISBN": "9786023752683",
	"Bahasa": "Indonesia",
	"Penerbit": "Gramedia Widiasarana Indonesia",
	"Berat": "0.3 kg",
	"Lebar": "13 cm",
	"Panjang": "20 cm"
},
{
	"page": 77,
	"kategori 1": "fiksi-sastra",
	"kategori 2": "sastra",
	"book_url": "https://www.gramedia.com/products/no-greater-love-yang-terkasih",
	"title": "No Greater Love ( Yang Terkasih )",
	"author": "Danielle Steel",
	"Jumlah Halaman": "624",
	"Tanggal Terbit": "2 Okt 2017",
	"ISBN": "9786020339306",
	"Penerbit": "Gramedia Pustaka Utama",
	"Berat": "0.5100 kg",
	"Lebar": "13.5 cm",
	"Panjang": "20 cm"
},
{
	"page": 77,
	"kategori 1": "fiksi-sastra",
	"kategori 2": "sastra",
	"book_url": "https://www.gramedia.com/products/the-last-star",
	"title": "The Last Star ( Bintang Terkahir )",
	"author": "Rick Yancey",
	"Jumlah Halaman": "400",
	"Tanggal Terbit": "10 Jul 2017",
	"ISBN": "9786020361208",
	"Bahasa": "Indonesia",
	"Penerbit": "Gramedia Pustaka Utama",
	"Berat": "0.3500 kg",
	"Lebar": "13.5 cm"
},
{
	"page": 77,
	"kategori 1": "fiksi-sastra",
	"kategori 2": "sastra",
	"book_url": "https://www.gramedia.com/products/girl-s-corner-rahasia-audrey-cover-baru",
	"title": "Girls' Corner: Rahasia Audrey - Cover Baru",
	"author": "Ristee",
	"Jumlah Halaman": "240",
	"Tanggal Terbit": "9 Jan 2017",
	"ISBN": "9786020337319",
	"Bahasa": "Indonesia",
	"Penerbit": "Gramedia Pustaka Utama",
	"Berat": "0.1700 kg",
	"Lebar": "13.5 cm"
},
{
	"page": 77,
	"kategori 1": "fiksi-sastra",
	"kategori 2": "sastra",
	"book_url": "https://www.gramedia.com/products/conf-arai",
	"title": "Arai",
	"author": "Ian Sancin",
	"Jumlah Halaman": "494",
	"Tanggal Terbit": "15 Okt 2016",
	"ISBN": "9786022900481",
	"Bahasa": "Indonesia",
	"Penerbit": "Serambi Ilmu Semesta",
	"Berat": "0.4000 kg",
	"Lebar": "13 cm"
},
{
	"page": 77,
	"kategori 1": "fiksi-sastra",
	"kategori 2": "sastra",
	"book_url": "https://www.gramedia.com/products/cr-beautiful-stranger",
	"title": "Cr: Beautiful Stranger",
	"author": "Christina Lauren",
	"Jumlah Halaman": "444",
	"Tanggal Terbit": "28 Sep 2015",
	"ISBN": "9786020273181",
	"Bahasa": "Indonesia",
	"Penerbit": "Elex Media Komputindo",
	"Berat": "0.4000 kg",
	"Lebar": "11 cm"
},
{
	"page": 77,
	"kategori 1": "fiksi-sastra",
	"kategori 2": "sastra",
	"book_url": "https://www.gramedia.com/products/dandelion-lover-cinta-yang-tertunda",
	"title": "Dandelion Lover : Cinta Yang Tertunda",
	"author": "Fahrul Khakim",
	"Jumlah Halaman": "298",
	"Tanggal Terbit": "3 Jul 2015",
	"ISBN": "9789792951264",
	"Bahasa": "Indonesia",
	"Penerbit": "Andi Publisher",
	"Berat": "0.3000 kg",
	"Lebar": "13 cm"
},
