{
	"page": 75,
	"kategori 1": "fiksi-sastra",
	"kategori 2": "sastra",
	"book_url": "https://www.gramedia.com/products/konstantinopel-misteri-di-balik-jari-kelingking-yang-hilang",
	"title": "Konstantinopel: Misteri Di Balik Jari Kelingking Yang Hilang",
	"author": "Sugha",
	"Jumlah Halaman": "272",
	"Tanggal Terbit": "27 Mei 2015",
	"ISBN": "9786022960881",
	"Bahasa": "Indonesia",
	"Penerbit": "Diva Press",
	"Berat": "0.9119 kg",
	"Lebar": "14 cm"
},
{
	"page": 75,
	"kategori 1": "fiksi-sastra",
	"kategori 2": "sastra",
	"book_url": "https://www.gramedia.com/products/berlin-proposal",
	"title": "Berlin Proposal",
	"author": "Afrizal Malna",
	"Jumlah Halaman": "220",
	"Tanggal Terbit": "25 Jun 2015",
	"ISBN": "9786023500260",
	"Bahasa": "Indonesia",
	"Penerbit": "Nuansa Cendikia",
	"Berat": "0.2590 kg",
	"Lebar": "15 cm"
},
{
	"page": 75,
	"kategori 1": "fiksi-sastra",
	"kategori 2": "sastra",
	"book_url": "https://www.gramedia.com/products/bilang-begini-maksudnya-begitu",
	"title": "Bilang Begini, Maksudnya Begitu",
	"author": "Sapardi Djoko Damono",
	"Jumlah Halaman": "144",
	"Tanggal Terbit": "15 Des 2014",
	"ISBN": "9786020311227",
	"Penerbit": "Gramedia Pustaka Utama",
	"Berat": "0.1560 kg",
	"Lebar": "14 cm"
},
{
	"page": 75,
	"kategori 1": "fiksi-sastra",
	"kategori 2": "sastra",
	"book_url": "https://www.gramedia.com/products/bongkar-pasang",
	"title": "Bongkar Pasang",
	"author": "Clarasia Kiky, Dan Lea Setyaningrum S.",
	"Jumlah Halaman": "None",
	"Tanggal Terbit": "27 Mar 2015",
	"ISBN": "9786020313702",
	"Bahasa": "Indonesia",
	"Penerbit": "Gramedia Pustaka Utama",
	"Berat": "0.250 kg",
	"Lebar": "15 cm",
	"Panjang": "23 cm"
},
{
	"page": 75,
	"kategori 1": "fiksi-sastra",
	"kategori 2": "sastra",
	"book_url": "https://www.gramedia.com/products/the-girl-who-saved-the-king-of-sweden",
	"title": "The Girl Who Saved The King Of Sweden",
	"author": "Jonas Jonasson",
	"Jumlah Halaman": "0",
	"Tanggal Terbit": "3 Mei 2015",
	"ISBN": "9786022910718",
	"Penerbit": "Bentang",
	"Berat": "0 kg",
	"Lebar": "0 cm",
	"Panjang": "1 cm"
},
{
	"page": 75,
	"kategori 1": "fiksi-sastra",
	"kategori 2": "sastra",
	"book_url": "https://www.gramedia.com/products/fp-dunia-duniya-ganti-cover",
	"title": "Dunia Duniya (Ganti Cover)",
	"author": "Dewi Sartika",
	"Jumlah Halaman": "192",
	"Tanggal Terbit": "9 Des 2014",
	"ISBN": "9786022516460",
	"Bahasa": "Indonesia",
	"Penerbit": "Gramedia Widiasarana Indonesia",
	"Berat": "0.200 kg",
	"Lebar": "13 cm",
	"Panjang": "19 cm"
},
{
	"page": 75,
	"kategori 1": "fiksi-sastra",
	"kategori 2": "sastra",
	"book_url": "https://www.gramedia.com/products/piano-di-kotak-kaca-1",
	"title": "Piano Di Kotak Kaca",
	"author": "Agnes Jessica",
	"Jumlah Halaman": "376",
	"Tanggal Terbit": "25 Sep 2017",
	"ISBN": "9786020376189",
	"Bahasa": "Indonesia",
	"Penerbit": "Gramedia Pustaka Utama",
	"Berat": "0.270 kg",
	"Lebar": "13.5 cm",
	"Panjang": "20 cm"
},
{
	"page": 75,
	"kategori 1": "fiksi-sastra",
	"kategori 2": "sastra",
	"book_url": "https://www.gramedia.com/products/torn",
	"title": "Torn",
	"author": "Amanda Hocking",
	"Jumlah Halaman": "0",
	"Tanggal Terbit": "3 Jan 2012",
	"ISBN": "9781447210306",
	"Penerbit": "Mitra Pelita Internusa",
	"Berat": "0 kg",
	"Lebar": "0 cm",
	"Panjang": "1 cm"
},
{
	"page": 75,
	"kategori 1": "fiksi-sastra",
	"kategori 2": "sastra",
	"book_url": "https://www.gramedia.com/products/young-adult-kiss-me-in-new-york",
	"title": "Young Adult: Kiss Me in New York",
	"author": "Catherine Rider",
	"Jumlah Halaman": "264",
	"Tanggal Terbit": "14 Mei 2018",
	"ISBN": "9786020380247",
	"Bahasa": "Indonesia",
	"Penerbit": "Gramedia Pustaka Utama",
	"Berat": "0.3 kg",
	"Lebar": "14 cm",
	"Panjang": "20 cm"
},
{
	"page": 75,
	"kategori 1": "fiksi-sastra",
	"kategori 2": "sastra",
	"book_url": "https://www.gramedia.com/products/hr-the-perils-of-pleasure",
	"title": "Hr: The Perils Of Pleasure",
	"author": "Julie Anne Long",
	"Jumlah Halaman": "470.0",
	"Tanggal Terbit": "29 Mei 2017",
	"ISBN": "9786020422435",
	"Bahasa": "Indonesia",
	"Penerbit": "Elex Media Komputindo",
	"Berat": "0.2 kg",
	"Lebar": "11.0 cm",
	"Panjang": "18.0 cm"
},
{
	"page": 75,
	"kategori 1": "fiksi-sastra",
	"kategori 2": "sastra",
	"book_url": "https://www.gramedia.com/products/semburat-putih-pelangi-kasih",
	"title": "Semburat Putih Pelangi Kasih",
	"author": "Monic De Blor",
	"Jumlah Halaman": "224",
	"Tanggal Terbit": "5 Jun 2017",
	"ISBN": "9786020422640",
	"Bahasa": "Indonesia",
	"Penerbit": "Elex Media Komputindo",
	"Berat": "0.1500 kg",
	"Lebar": "12.5 cm"
},
{
	"page": 75,
	"kategori 1": "fiksi-sastra",
	"kategori 2": "sastra",
	"book_url": "https://www.gramedia.com/products/hr-no-longer-a-gentleman-seri-the-lost-lord-4",
	"title": "HR: No Longer a Gentleman (Seri The Lost Lord #4)",
	"author": "Mary Jo Putney",
	"Jumlah Halaman": "536",
	"Tanggal Terbit": "16 Okt 2017",
	"ISBN": "9786020447216",
	"Bahasa": "Indonesia",
	"Penerbit": "Elex Media Komputindo",
	"Berat": "0.2600 kg",
	"Lebar": "11 cm",
	"Panjang": "18 cm"
},
{
	"page": 75,
	"kategori 1": "fiksi-sastra",
	"kategori 2": "sastra",
	"book_url": "https://www.gramedia.com/products/conf-cinta-penuh-skandal-simply-scandalous",
	"title": "Cinta Penuh Skandal (Simply Scandalous)",
	"author": "Carly Phillips",
	"Jumlah Halaman": "240",
	"Tanggal Terbit": "25 Sep 2013",
	"ISBN": "978979228172",
	"Penerbit": "Gramedia Pustaka Utama",
	"Berat": "0.14 kg",
	"Lebar": "11.0 cm",
	"Panjang": "18.0 cm"
},
{
	"page": 75,
	"kategori 1": "fiksi-sastra",
	"kategori 2": "sastra",
	"book_url": "https://www.gramedia.com/products/jro-lalung-ngutah",
	"title": "Jro Lalung Ngutah",
	"author": "Ibw Widiasa Keniten",
	"Jumlah Halaman": "136",
	"Tanggal Terbit": "4 Jun 2015",
	"ISBN": "9789791145893",
	"Bahasa": "Indonesia",
	"Penerbit": "Buku Arti",
	"Berat": "0.1500 kg",
	"Lebar": "14 cm"
},
{
	"page": 75,
	"kategori 1": "fiksi-sastra",
	"kategori 2": "sastra",
	"book_url": "https://www.gramedia.com/products/hr-the-courtesan-duchess",
	"title": "Hr: The Courtesan Duchess",
	"author": "Joanna Shupe",
	"Jumlah Halaman": "408",
	"Tanggal Terbit": "14 Mar 2016",
	"ISBN": "9786020281957",
	"Bahasa": "Indonesia",
	"Penerbit": "Elex Media Komputindo",
	"Berat": "0.2500 kg",
	"Lebar": "11 cm"
},
{
	"page": 75,
	"kategori 1": "fiksi-sastra",
	"kategori 2": "sastra",
	"book_url": "https://www.gramedia.com/products/historical-romance-pengantin-sang-pangeran-taken-by-the-prince",
	"title": "Historical Romance: Pengantin Sang Pangeran (Taken By The Prince)",
	"author": "Christina Dodd",
	"Jumlah Halaman": "472",
	"Tanggal Terbit": "15 Feb 2016",
	"ISBN": "9786020325507",
	"Bahasa": "Indonesia",
	"Penerbit": "Gramedia Pustaka Utama",
	"Berat": "0.2500 kg",
	"Lebar": "11 cm",
	"Panjang": "18 cm"
},
{
	"page": 75,
	"kategori 1": "fiksi-sastra",
	"kategori 2": "sastra",
	"book_url": "https://www.gramedia.com/products/winter-people-ketika-yang-mati-bangkit-kembali",
	"title": "Winter People : Ketika Yang Mati Bangkit Kembali",
	"author": "Jennifer Mcmahon",
	"Jumlah Halaman": "448",
	"Tanggal Terbit": "8 Jun 2015",
	"ISBN": "9786021637746",
	"Bahasa": "Indonesia",
	"Penerbit": "Mizan Publishing",
	"Berat": "0.3000 kg",
	"Lebar": "13 cm"
},
{
	"page": 75,
	"kategori 1": "fiksi-sastra",
	"kategori 2": "sastra",
	"book_url": "https://www.gramedia.com/products/hr-surprising-lord-jack",
	"title": "Hr: Surprising Lord Jack",
	"author": "Sally Mackenzie",
	"Jumlah Halaman": "464",
	"Tanggal Terbit": "1 Feb 2016",
	"ISBN": "9786020279305",
	"Bahasa": "Indonesia",
	"Penerbit": "Elex Media Komputindo",
	"Berat": "0.5000 kg",
	"Lebar": "11 cm",
	"Panjang": "18 cm"
},
{
	"page": 75,
	"kategori 1": "fiksi-sastra",
	"kategori 2": "sastra",
	"book_url": "https://www.gramedia.com/products/dunia-tanpa-air-mata-0",
	"title": "Dunia Tanpa Air Mata",
	"author": "Pipiet Senja",
	"Jumlah Halaman": "448",
	"Tanggal Terbit": "29 Jan 2016",
	"ISBN": "9786021695289",
	"Bahasa": "Indonesia",
	"Penerbit": "Salsabila",
	"Berat": "0.3500 kg",
	"Lebar": "14 cm"
},
{
	"page": 75,
	"kategori 1": "fiksi-sastra",
	"kategori 2": "sastra",
	"book_url": "https://www.gramedia.com/products/i-need-you-i-just-cant-show-you",
	"title": "I Need You: I Just Cant Show You",
	"author": "Yoana Dianika",
	"Jumlah Halaman": "230",
	"Tanggal Terbit": "8 Jun 2015",
	"ISBN": "9789797808105",
	"Bahasa": "Indonesia",
	"Penerbit": "Gagas Media",
	"Berat": "0.2500 kg",
	"Lebar": "23 cm"
},
{
	"page": 75,
	"kategori 1": "fiksi-sastra",
	"kategori 2": "sastra",
	"book_url": "https://www.gramedia.com/products/sayap-anjing",
	"title": "Sayap Anjing",
	"author": "Triyanto Triwikromo",
	"Jumlah Halaman": "152",
	"Tanggal Terbit": "31 Mei 2017",
	"ISBN": "9786024122607",
	"Bahasa": "Indonesia",
	"Penerbit": "Penerbit Buku Kompas",
	"Berat": "0.2000 kg",
	"Lebar": "14 cm",
	"Panjang": "21 cm"
},
{
	"page": 75,
	"kategori 1": "fiksi-sastra",
	"kategori 2": "sastra",
	"book_url": "https://www.gramedia.com/products/silent-heart-kesunyian-hati",
	"title": "Silent Heart: Kesunyian Hati",
	"author": "Rudiyant",
	"Jumlah Halaman": "336",
	"Tanggal Terbit": "11 Agt 2015",
	"ISBN": "9786027993730",
	"Bahasa": "Indonesia",
	"Penerbit": "Kunci Aksara",
	"Berat": "0.3000 kg",
	"Lebar": "13 cm"
},
{
	"page": 75,
	"kategori 1": "fiksi-sastra",
	"kategori 2": "sastra",
	"book_url": "https://www.gramedia.com/products/harlequin-koleksi-istimewa-pengantin-pemberontak-sang-count",
	"title": "Harlequin Koleksi Istimewa: Pengantin Pemberontak Sang Count (The Italian Count's Defiant Bride)",
	"author": "Catherine George",
	"Jumlah Halaman": "272",
	"Tanggal Terbit": "2 Okt 2017",
	"ISBN": "9786020376691",
	"Penerbit": "Gramedia Pustaka Utama",
	"Berat": "0.1300 kg",
	"Lebar": "11 cm",
	"Panjang": "18 cm"
},
