{
	"page": 84,
	"kategori 1": "fiksi-sastra",
	"kategori 2": "sastra",
	"book_url": "https://www.gramedia.com/products/the-bond-ikatan",
	"title": "The Bond ( Ikatan )",
	"author": "Eve Shi",
	"Jumlah Halaman": "248",
	"Tanggal Terbit": "26 Agt 2016",
	"ISBN": "9786027492400",
	"Bahasa": "Indonesia",
	"Penerbit": "Twigora",
	"Berat": "0.2000 kg",
	"Lebar": "13 cm"
},
{
	"page": 84,
	"kategori 1": "fiksi-sastra",
	"kategori 2": "sastra",
	"book_url": "https://www.gramedia.com/products/potret",
	"title": "Potret",
	"author": "Aditia Yudis",
	"Jumlah Halaman": "386",
	"Tanggal Terbit": "25 Okt 2017",
	"ISBN": "9789797945473",
	"Bahasa": "Indonesia",
	"Penerbit": "Medan Kita",
	"Berat": "0.27 kg",
	"Lebar": "13 cm",
	"Panjang": "19 cm"
},
{
	"page": 84,
	"kategori 1": "fiksi-sastra",
	"kategori 2": "sastra",
	"book_url": "https://www.gramedia.com/products/conf-young-adult-two-lost-souls",
	"title": "Young Adult: Two Lost Souls",
	"author": "Pia Devina",
	"Jumlah Halaman": "208",
	"Tanggal Terbit": "13 Jan 2015",
	"ISBN": "978602031235",
	"Penerbit": "Gramedia Pustaka Utama",
	"Berat": "0.17 kg",
	"Lebar": "13.5 cm",
	"Panjang": "20.0 cm"
},
{
	"page": 84,
	"kategori 1": "fiksi-sastra",
	"kategori 2": "sastra",
	"book_url": "https://www.gramedia.com/products/conf-hq-blush-my-boyfriend-and-other-enemies",
	"title": "HQ Blush: My Boyfriend and Other Enemies",
	"author": "Nikki Logan",
	"Jumlah Halaman": "304",
	"Tanggal Terbit": "27 Sep 2016",
	"ISBN": "9786020251547",
	"Bahasa": "Indonesia",
	"Penerbit": "Elex Media Komputindo",
	"Berat": "0.3000 kg",
	"Lebar": "11 cm",
	"Panjang": "0 cm"
},
{
	"page": 84,
	"kategori 1": "fiksi-sastra",
	"kategori 2": "sastra",
	"book_url": "https://www.gramedia.com/products/goosebumps-misteri-manusia-salju-the-abominable-snowman-at-pasadena",
	"title": "Goosebumps: Misteri Manusia Salju (The Abominable Snowman at Pasadena)",
	"author": "R.l. Stine",
	"Jumlah Halaman": "168",
	"Tanggal Terbit": "26 Nov 2018",
	"ISBN": "9786020317069",
	"Bahasa": "Indonesia",
	"Penerbit": "Gramedia Pustaka Utama",
	"Berat": "0.112 kg",
	"Lebar": "13.5 cm",
	"Panjang": "20 cm"
},
{
	"page": 84,
	"kategori 1": "fiksi-sastra",
	"kategori 2": "sastra",
	"book_url": "https://www.gramedia.com/products/scarlet-the-lunar-chronicles",
	"title": "Scarlet The Lunar Chronicles",
	"author": "Marissa Meyer",
	"Jumlah Halaman": "444",
	"Tanggal Terbit": "1 Mar 2016",
	"ISBN": "9786027150560",
	"Bahasa": "Indonesia",
	"Penerbit": "Penerbit Spring",
	"Berat": "0.4000 kg",
	"Lebar": "14 cm"
},
{
	"page": 84,
	"kategori 1": "fiksi-sastra",
	"kategori 2": "sastra",
	"book_url": "https://www.gramedia.com/products/conf-love-and-miss-communication",
	"title": "ChickLit: Love and Miss Communication",
	"author": "Elyssa Friedland",
	"Jumlah Halaman": "464",
	"Tanggal Terbit": "30 Agt 2016",
	"ISBN": "9786020328898",
	"Bahasa": "Indonesia",
	"Penerbit": "Gramedia Pustaka Utama",
	"Berat": "0.5000 kg",
	"Lebar": "14 cm"
},
{
	"page": 84,
	"kategori 1": "fiksi-sastra",
	"kategori 2": "sastra",
	"book_url": "https://www.gramedia.com/products/marry-now-sorry-later",
	"title": "Marry Now, Sorry Later",
	"author": "Christian Simamora",
	"Jumlah Halaman": "-",
	"Tanggal Terbit": "6 Mei 2015",
	"ISBN": "9786027036222",
	"Bahasa": "Indonesia",
	"Penerbit": "Twigora",
	"Berat": "0.2500 kg",
	"Lebar": "13 cm"
},
{
	"page": 84,
	"kategori 1": "fiksi-sastra",
	"kategori 2": "sastra",
	"book_url": "https://www.gramedia.com/products/marry-me-olivia",
	"title": "Marry Me, Olivia!",
	"author": "Gunan Ariani",
	"Jumlah Halaman": "228",
	"Tanggal Terbit": "1 Okt 2017",
	"ISBN": "9786026648136",
	"Bahasa": "Indonesia",
	"Penerbit": "Stiletto Book",
	"Berat": "0.208 kg",
	"Lebar": "14 cm",
	"Panjang": "20 cm"
},
{
	"page": 84,
	"kategori 1": "fiksi-sastra",
	"kategori 2": "sastra",
	"book_url": "https://www.gramedia.com/products/conf-belenggu-merah-muda-single-edition",
	"title": "Belenggu Merah Muda",
	"author": "Tyas Damaria",
	"Jumlah Halaman": "200",
	"Tanggal Terbit": "4 Jun 2016",
	"ISBN": "978602032980",
	"Penerbit": "Gramedia Pustaka Utama",
	"Berat": "0.17 kg",
	"Lebar": "14.0 cm",
	"Panjang": "20.0 cm"
},
{
	"page": 84,
	"kategori 1": "fiksi-sastra",
	"kategori 2": "sastra",
	"book_url": "https://www.gramedia.com/products/allegiant-the-divergen-series-movie-tie-in",
	"title": "Allegiant : The Divergen Series (Movie Tie-In)",
	"author": "Veronica Roth",
	"Jumlah Halaman": "496",
	"Tanggal Terbit": "13 Apr 2016",
	"ISBN": "9789794339435",
	"Penerbit": "Mizan",
	"Berat": "0.3600 kg",
	"Lebar": "13 cm"
},
{
	"page": 84,
	"kategori 1": "fiksi-sastra",
	"kategori 2": "sastra",
	"book_url": "https://www.gramedia.com/products/cerita-mamah-muda-yang-ketiga",
	"title": "Cerita Mamah Muda: Yang Ketiga",
	"author": "Niken Terate Sekar,MIA ASRIYANI HASANAH (MIA ARSJAD), A. Citra Ayuningtyas (Lea Agustina Citra),Donna Widjajanto,Ruwi Meita,Christina Tirta",
	"Jumlah Halaman": "320.0",
	"Tanggal Terbit": "29 Agt 2019",
	"ISBN": "9786020632629",
	"Penerbit": "GRAMEDIA PUSTAKA UTAMA",
	"Berat": "0.12 kg",
	"Lebar": "13.5 cm",
	"Panjang": "20.0 cm"
},
{
	"page": 84,
	"kategori 1": "fiksi-sastra",
	"kategori 2": "sastra",
	"book_url": "https://www.gramedia.com/products/legacy",
	"title": "Legacy",
	"author": "Pratiwi Mayasari",
	"Jumlah Halaman": "355",
	"Tanggal Terbit": "16 Nov 2017",
	"ISBN": "9786025469503",
	"Bahasa": "Indonesia",
	"Penerbit": "Histeria",
	"Berat": "0.29 kg",
	"Lebar": "14 cm",
	"Panjang": "20 cm"
},
{
	"page": 84,
	"kategori 1": "fiksi-sastra",
	"kategori 2": "sastra",
	"book_url": "https://www.gramedia.com/products/100-soneta-cinta-1",
	"title": "100 Soneta Cinta",
	"author": "Pablo Neruda",
	"Jumlah Halaman": "120",
	"Tanggal Terbit": "27 Mei 2019",
	"ISBN": "9786020627762",
	"Bahasa": "Indonesia",
	"Penerbit": "Gramedia Pustaka Utama",
	"Berat": "0.100 kg",
	"Lebar": "12 cm",
	"Panjang": "18 cm"
},
{
	"page": 84,
	"kategori 1": "fiksi-sastra",
	"kategori 2": "sastra",
	"book_url": "https://www.gramedia.com/products/fp-hq-tempt-remember-me-cowboy",
	"title": "HQ Tempt: Remember Me, Cowboy",
	"author": "C.j. Carmichael",
	"Jumlah Halaman": "296",
	"Tanggal Terbit": "14 Agt 2014",
	"ISBN": "9786020246413",
	"Bahasa": "Indonesia",
	"Penerbit": "Elex Media Komputindo",
	"Berat": "0.150 kg",
	"Lebar": "11 cm",
	"Panjang": "18 cm"
},
{
	"page": 84,
	"kategori 1": "fiksi-sastra",
	"kategori 2": "sastra",
	"book_url": "https://www.gramedia.com/products/dilwale",
	"title": "Dilwale",
	"author": "Vivie Hardika",
	"Jumlah Halaman": "324",
	"Tanggal Terbit": "27 Sep 2016",
	"ISBN": "9786029458220",
	"Bahasa": "Indonesia",
	"Penerbit": "Universa Nikko",
	"Berat": "0.2500 kg",
	"Lebar": "13 cm"
},
{
	"page": 84,
	"kategori 1": "fiksi-sastra",
	"kategori 2": "sastra",
	"book_url": "https://www.gramedia.com/products/the-last-2",
	"title": "The Last 2%",
	"author": "Kim Rang",
	"Jumlah Halaman": "440",
	"Tanggal Terbit": "13 Jun 2016",
	"ISBN": "9786027742901",
	"Bahasa": "Indonesia",
	"Penerbit": "Haru",
	"Berat": "0.4500 kg",
	"Lebar": "15 cm"
},
{
	"page": 84,
	"kategori 1": "fiksi-sastra",
	"kategori 2": "sastra",
	"book_url": "https://www.gramedia.com/products/reaper",
	"title": "Reaper",
	"author": "YUME YUN",
	"Jumlah Halaman": "374",
	"Tanggal Terbit": "14 Nov 2018",
	"ISBN": "9786025199325",
	"Bahasa": "Indonesia",
	"Penerbit": "Moka Media",
	"Berat": "0.290 kg",
	"Lebar": "20 cm",
	"Panjang": "13 cm"
},
{
	"page": 84,
	"kategori 1": "fiksi-sastra",
	"kategori 2": "sastra",
	"book_url": "https://www.gramedia.com/products/ill-be-your-wife",
	"title": "Ill Be Your Wife",
	"author": "Jho Hyo Eun",
	"Jumlah Halaman": "412",
	"Tanggal Terbit": "12 Feb 2016",
	"ISBN": "9786027742482",
	"Bahasa": "Indonesia",
	"Penerbit": "Huta Parhapuran",
	"Berat": "0.3000 kg",
	"Lebar": "14 cm"
},
{
	"page": 84,
	"kategori 1": "fiksi-sastra",
	"kategori 2": "sastra",
	"book_url": "https://www.gramedia.com/products/sayap-besi-vol-3",
	"title": "Sayap Besi Vol. 3",
	"author": "Ikhromi Oktafaindi & Anggaditya Putra",
	"Jumlah Halaman": "350",
	"Tanggal Terbit": "30 Mei 2017",
	"ISBN": "9789797945404",
	"Bahasa": "Indonesia",
	"Penerbit": "Media Kita",
	"Berat": "0.3500 kg",
	"Lebar": "14.5 cm"
},
{
	"page": 84,
	"kategori 1": "fiksi-sastra",
	"kategori 2": "sastra",
	"book_url": "https://www.gramedia.com/products/archers-voice-dalam-hening",
	"title": "Archers Voice: Dalam Hening...",
	"author": "Mia Sheridan",
	"Jumlah Halaman": "354",
	"Tanggal Terbit": "26 Agt 2016",
	"ISBN": "9786027036284",
	"Bahasa": "Indonesia",
	"Penerbit": "Twigora",
	"Berat": "0.3000 kg",
	"Lebar": "14 cm"
},
{
	"page": 84,
	"kategori 1": "fiksi-sastra",
	"kategori 2": "sastra",
	"book_url": "https://www.gramedia.com/products/the-dark-between-stars",
	"title": "The Dark Between Stars",
	"author": "Atticus",
	"Jumlah Halaman": "240",
	"Tanggal Terbit": "27 Mei 2019",
	"ISBN": "9786020630380",
	"Bahasa": "Indonesia",
	"Penerbit": "Gramedia Pustaka Utama",
	"Berat": "0.180 kg",
	"Lebar": "13.5 cm",
	"Panjang": "20 cm"
},
{
	"page": 84,
	"kategori 1": "fiksi-sastra",
	"kategori 2": "sastra",
	"book_url": "https://www.gramedia.com/products/kristus-tuhan-meninggalkan-mesir-christ-the-lord-out-of-egypt-revisi-cover",
	"title": "Kristus Tuhan: Meninggalkan Mesir (Christ The Lord: Out of Egypt) - Revisi Cover",
	"author": "Anne Rice",
	"Jumlah Halaman": "None",
	"Tanggal Terbit": "30 Mar 2016",
	"ISBN": "9786020327327",
	"Bahasa": "Indonesia",
	"Penerbit": "Gramedia Pustaka Utama",
	"Berat": "0.3000 kg",
	"Lebar": "13.5 cm"
},
{
	"page": 84,
	"kategori 1": "fiksi-sastra",
	"kategori 2": "sastra",
	"book_url": "https://www.gramedia.com/products/my-protective-billionaire",
	"title": "My Protective Billionaire",
	"author": "Eka Aryani",
	"Jumlah Halaman": "272",
	"Tanggal Terbit": "22 Jan 2018",
	"ISBN": "9786025508264",
	"Bahasa": "Indonesia",
	"Penerbit": "Bintang Media",
	"Berat": "0.35 kg",
	"Lebar": "14 cm",
	"Panjang": "20 cm"
},
{
	"page": 84,
	"kategori 1": "fiksi-sastra",
	"kategori 2": "sastra",
	"book_url": "https://www.gramedia.com/products/cinta-yang-kupeluk-sepanjang-waktu",
	"title": "CINTA YANG KUPELUK, SEPANJANG WAKTU",
	"author": "Lumatul Fitria",
	"Jumlah Halaman": "252",
	"Tanggal Terbit": "16 Jul 2018",
	"ISBN": "9786021036853",
	"Bahasa": "Indonesia",
	"Penerbit": "TRANSMEDIA",
	"Berat": "0.189 kg",
	"Lebar": "13 cm",
	"Panjang": "19 cm"
},
{
	"page": 84,
	"kategori 1": "fiksi-sastra",
	"kategori 2": "sastra",
	"book_url": "https://www.gramedia.com/products/seoulmate",
	"title": "Seoulmate",
	"author": "Lia Indra Andriana",
	"Jumlah Halaman": "324",
	"Tanggal Terbit": "6 Des 2016",
	"ISBN": "9786026383099",
	"Bahasa": "Indonesia",
	"Penerbit": "Penerbit Haru",
	"Berat": "0.2500 kg",
	"Lebar": "13 cm"
},
{
	"page": 84,
	"kategori 1": "fiksi-sastra",
	"kategori 2": "sastra",
	"book_url": "https://www.gramedia.com/products/a-bian-ca",
	"title": "A Bian Ca",
	"author": "Radin Azkia",
	"Jumlah Halaman": "310",
	"Tanggal Terbit": "30 Mei 2016",
	"ISBN": "9786022201861",
	"Bahasa": "Indonesia",
	"Penerbit": "Bukune",
	"Berat": "0.2900 kg",
	"Lebar": "14 cm",
	"Panjang": "20 cm"
},
{
	"page": 84,
	"kategori 1": "fiksi-sastra",
	"kategori 2": "sastra",
	"book_url": "https://www.gramedia.com/products/kersik-luai",
	"title": "Kersik Luai",
	"author": "Lm Cendana",
	"Jumlah Halaman": "508",
	"Tanggal Terbit": "3 Agt 2017",
	"ISBN": "9786026380982",
	"Bahasa": "Indonesia",
	"Penerbit": "Anak Hebat Indonesia",
	"Berat": "0.5 kg",
	"Lebar": "14 cm",
	"Panjang": "20 cm"
},
{
	"page": 84,
	"kategori 1": "fiksi-sastra",
	"kategori 2": "sastra",
	"book_url": "https://www.gramedia.com/products/conf-rembang-jingga",
	"title": "Rembang Jingga",
	"author": "Tj Oetoro & Dwiyana Premadi",
	"Jumlah Halaman": "232",
	"Tanggal Terbit": "8 Jan 2015",
	"ISBN": "9786020311272",
	"Penerbit": "Gramedia Pustaka Utama",
	"Berat": "0.3000 kg",
	"Lebar": "14 cm"
},
{
	"page": 84,
	"kategori 1": "fiksi-sastra",
	"kategori 2": "sastra",
	"book_url": "https://www.gramedia.com/products/norwegian-wood",
	"title": "Norwegian Wood",
	"author": "Haruki Murakami",
	"Jumlah Halaman": "554",
	"Tanggal Terbit": "27 Feb 2015",
	"ISBN": "9786026208941",
	"Bahasa": "Indonesia",
	"Penerbit": "Kepustakaan Populer Gramedia",
	"Berat": "0.5000 kg",
	"Lebar": "13.5 cm",
	"Panjang": "20 cm"
},
{
	"page": 84,
	"kategori 1": "fiksi-sastra",
	"kategori 2": "sastra",
	"book_url": "https://www.gramedia.com/products/the-prisoner-cinta-yang-terpenjara-oleh-masa-lalu",
	"title": "The Prisoner : Cinta Yang Terpenjara Oleh Masa Lalu",
	"author": "Loryta Chai",
	"Jumlah Halaman": "280",
	"Tanggal Terbit": "8 Nov 2018",
	"ISBN": "9789792967821",
	"Bahasa": "Indonesia",
	"Penerbit": "Andi Publisher",
	"Berat": "0.220 kg",
	"Lebar": "19 cm",
	"Panjang": "13 cm"
},
{
	"page": 84,
	"kategori 1": "fiksi-sastra",
	"kategori 2": "sastra",
	"book_url": "https://www.gramedia.com/products/last-dragonslayer-the",
	"title": "Last Dragonslayer,The",
	"author": "Jasper Fforde",
	"Jumlah Halaman": "268",
	"Tanggal Terbit": "13 Okt 2015",
	"ISBN": "9789794339046",
	"Bahasa": "Indonesia",
	"Penerbit": "Mizan Media Utama",
	"Berat": "0.2000 kg",
	"Lebar": "13 cm"
},
{
	"page": 84,
	"kategori 1": "fiksi-sastra",
	"kategori 2": "sastra",
	"book_url": "https://www.gramedia.com/products/spammer-dalam-perang-dunia-maya",
	"title": "Spammer: Dalam Perang Dunia Maya",
	"author": "Ronny Mailindra",
	"Jumlah Halaman": "320",
	"Tanggal Terbit": "3 Agt 2016",
	"ISBN": "9786022911890",
	"Bahasa": "Indonesia",
	"Penerbit": "Mizan",
	"Berat": "0.3000 kg",
	"Lebar": "13 cm"
},
{
	"page": 84,
	"kategori 1": "fiksi-sastra",
	"kategori 2": "sastra",
	"book_url": "https://www.gramedia.com/products/misi-terakhir-rafael",
	"title": "Misi Terakhir Rafael",
	"author": "Nuel Lubis",
	"Jumlah Halaman": "172",
	"Tanggal Terbit": "22 Mar 2016",
	"ISBN": "9786023910922",
	"Penerbit": "Serambi",
	"Berat": "0.1300 kg",
	"Lebar": "13 cm"
},
{
	"page": 84,
	"kategori 1": "fiksi-sastra",
	"kategori 2": "sastra",
	"book_url": "https://www.gramedia.com/products/khadijah-ketika-rahasia-mim-tersingkap",
	"title": "Khadijah : Ketika Rahasia Mim Tersingkap",
	"author": "Sibel Eraslan",
	"Jumlah Halaman": "388",
	"Tanggal Terbit": "15 Feb 2013",
	"ISBN": "9789791479639",
	"Bahasa": "Indonesia",
	"Penerbit": "Kaysa Media",
	"Berat": "0.34 kg",
	"Lebar": "13.5 cm",
	"Panjang": "20 cm"
},
{
	"page": 84,
	"kategori 1": "fiksi-sastra",
	"kategori 2": "sastra",
	"book_url": "https://www.gramedia.com/products/misteri-penginapan-tua-the-pale-horse",
	"title": "The Pale Horse (Misteri Penginapan Tua) - Cover Baru",
	"author": "Agatha Christie",
	"Jumlah Halaman": "336",
	"Tanggal Terbit": "22 Jan 2018",
	"ISBN": "9789792280142",
	"Penerbit": "Gramedia Pustaka Utama",
	"Berat": "0.125 kg",
	"Lebar": "11 cm",
	"Panjang": "18 cm"
},
{
	"page": 84,
	"kategori 1": "fiksi-sastra",
	"kategori 2": "sastra",
	"book_url": "https://www.gramedia.com/products/satu-dua-pasang-gesper-sepatunya-one-two-buckle-my-shoe",
	"title": "One, Two, Buckle My Shoe (Satu, Dua, Pasang Gesper Sepatunya) - Cover Baru",
	"author": "Agatha Christie",
	"Jumlah Halaman": "280",
	"Tanggal Terbit": "25 Sep 2017",
	"ISBN": "9789792238365",
	"Bahasa": "Indonesia",
	"Penerbit": "Gramedia Pustaka Utama",
	"Berat": "0.1310 kg",
	"Lebar": "11 cm"
},
{
	"page": 84,
	"kategori 1": "fiksi-sastra",
	"kategori 2": "sastra",
	"book_url": "https://www.gramedia.com/products/sutra-soma-bahtera-nusantara",
	"title": "Sutra Soma: Bahtera Nusantara",
	"author": "Moch. Indra Purnama",
	"Jumlah Halaman": "260",
	"Tanggal Terbit": "20 Mei 2019",
	"ISBN": "9786020629100",
	"Bahasa": "Indonesia",
	"Penerbit": "Gramedia Pustaka Utama",
	"Berat": "0.180 kg",
	"Lebar": "13.5 cm",
	"Panjang": "20 cm"
},
{
	"page": 84,
	"kategori 1": "fiksi-sastra",
	"kategori 2": "sastra",
	"book_url": "https://www.gramedia.com/products/kami-indonesia-antologi-puisi-penjaga-nkri",
	"title": "Kami Indonesia Antologi Puisi Penjaga NKRI",
	"author": "-",
	"Jumlah Halaman": "178",
	"Tanggal Terbit": "1 Okt 2017",
	"ISBN": "9786026447289",
	"Bahasa": "Indonesia",
	"Penerbit": "Kosakatakita",
	"Berat": "0.17 kg",
	"Lebar": "13.5 cm",
	"Panjang": "20.5 cm"
},
{
	"page": 84,
	"kategori 1": "fiksi-sastra",
	"kategori 2": "sastra",
	"book_url": "https://www.gramedia.com/products/gue-mah-jomblo-aja",
	"title": "Gue Mah Jomblo Aja !",
	"author": "Noe R Noegroho",
	"Jumlah Halaman": "278",
	"Tanggal Terbit": "27 Jan 2016",
	"ISBN": "9786022883074",
	"Bahasa": "Indonesia",
	"Penerbit": "King Kong",
	"Berat": "0.2500 kg",
	"Lebar": "13 cm"
},
{
	"page": 84,
	"kategori 1": "fiksi-sastra",
	"kategori 2": "sastra",
	"book_url": "https://www.gramedia.com/products/cinta-tak-bisa-salah",
	"title": "Cinta (Tak) Bisa Salah",
	"author": "Dimas Aditya",
	"Jumlah Halaman": "224",
	"Tanggal Terbit": "29 Sep 2016",
	"ISBN": "9786026805973",
	"Bahasa": "Indonesia",
	"Penerbit": "Huta Parhapuran",
	"Berat": "0.2000 kg",
	"Lebar": "13 cm"
},
