{
	"page": 65,
	"kategori 1": "fiksi-sastra",
	"kategori 2": "sastra",
	"book_url": "https://www.gramedia.com/products/cahaya-cinta-pesantren",
	"title": "Cahaya Cinta Pesantren",
	"author": "Ira Madan",
	"Jumlah Halaman": "292",
	"Tanggal Terbit": "9 Jun 2014",
	"Bahasa": "Indonesia",
	"Penerbit": "Tinta Medina",
	"Berat": "0.3000 kg",
	"Lebar": "14 cm",
	"Panjang": "0 cm"
},
{
	"page": 65,
	"kategori 1": "fiksi-sastra",
	"kategori 2": "sastra",
	"book_url": "https://www.gramedia.com/products/insya-allah-sah-2",
	"title": "Insya Allah Sah 2",
	"author": "Achi TM",
	"Jumlah Halaman": "244",
	"Tanggal Terbit": "26 Mar 2018",
	"ISBN": "9786025112164",
	"Bahasa": "Indonesia",
	"Penerbit": "Rdm Publishers",
	"Berat": "0.22 kg",
	"Lebar": "14 cm",
	"Panjang": "20 cm"
},
{
	"page": 65,
	"kategori 1": "fiksi-sastra",
	"kategori 2": "sastra",
	"book_url": "https://www.gramedia.com/products/survival-guide-for-moslem-girl-in-uk",
	"title": "Survival Guide For Moslem Girl In Uk",
	"author": "Maria Ahmed",
	"Jumlah Halaman": "204",
	"Tanggal Terbit": "5 Jan 2016",
	"ISBN": "9786022428251",
	"Bahasa": "Indonesia",
	"Penerbit": "Mizan",
	"Berat": "0.1500 kg",
	"Lebar": "11 cm"
},
{
	"page": 65,
	"kategori 1": "fiksi-sastra",
	"kategori 2": "sastra",
	"book_url": "https://www.gramedia.com/products/holy-mother",
	"title": "Holy Mother",
	"author": "Akiyoshi Rikako",
	"Jumlah Halaman": "280",
	"Tanggal Terbit": "7 Okt 2016",
	"ISBN": "9786027742963",
	"Bahasa": "Indonesia",
	"Penerbit": "Haru",
	"Berat": "0.2000 kg",
	"Lebar": "13 cm",
	"Panjang": "19 cm"
},
{
	"page": 65,
	"kategori 1": "fiksi-sastra",
	"kategori 2": "sastra",
	"book_url": "https://www.gramedia.com/products/ada-cinta-di-sma-cjr",
	"title": "Ada Cinta Di SMA Cjr",
	"author": "Haqi Achmad",
	"Jumlah Halaman": "248",
	"Tanggal Terbit": "4 Agt 2016",
	"ISBN": "9789797808655",
	"Bahasa": "Indonesia",
	"Penerbit": "Gagas Media",
	"Berat": "0.20 kg",
	"Lebar": "13 cm",
	"Panjang": "19 cm"
},
{
	"page": 65,
	"kategori 1": "fiksi-sastra",
	"kategori 2": "sastra",
	"book_url": "https://www.gramedia.com/products/seri-cerdas-hukum-awas-hoax-cerdas-menghadapi-pencemaran-nama-baik-ujaran-kebencian-hoax",
	"title": "Seri Cerdas Hukum: Awas Hoax! Cerdas Menghadapi Pencemaran Nama Baik, Ujaran Kebencian & Hoax",
	"author": "Sahrul Mauludi",
	"Jumlah Halaman": "428",
	"Tanggal Terbit": "11 Mar 2019",
	"ISBN": "9786020491363",
	"Bahasa": "Indonesia",
	"Penerbit": "Elex Media Komputindo",
	"Berat": "0.5 kg",
	"Lebar": "14 cm",
	"Panjang": "21 cm"
},
{
	"page": 65,
	"kategori 1": "fiksi-sastra",
	"kategori 2": "sastra",
	"book_url": "https://www.gramedia.com/products/harry-potter-2-chamber-of-secrets-20-years-sc",
	"title": "Harry Potter #2: Chamber Of Secrets 20 Years (Sc)",
	"author": "J.k.rowling",
	"Jumlah Halaman": "384",
	"Tanggal Terbit": "3 Mei 2019",
	"ISBN": "9781408855669",
	"Bahasa": "Indonesia",
	"Penerbit": "Bloomsbury",
	"Berat": "0.400 kg",
	"Lebar": "13 cm",
	"Panjang": "19 cm"
},
{
	"page": 65,
	"kategori 1": "fiksi-sastra",
	"kategori 2": "sastra",
	"book_url": "https://www.gramedia.com/products/wbs-whittaker-brothers-series",
	"title": "Wbs (Whittaker Brothers Series)",
	"author": "",
	"Jumlah Halaman": "574",
	"Tanggal Terbit": "1 Jan 2001",
	"ISBN": "9786027396098",
	"Bahasa": "Indonesia",
	"Penerbit": "Kubus Media",
	"Berat": "0.5000 kg",
	"Lebar": "14 cm"
},
{
	"page": 65,
	"kategori 1": "fiksi-sastra",
	"kategori 2": "sastra",
	"book_url": "https://www.gramedia.com/products/in-the-sea-of-stars",
	"title": "In The Sea of Stars",
	"author": "Citra Prima",
	"Jumlah Halaman": "232",
	"Tanggal Terbit": "10 Jul 2017",
	"ISBN": "9786023948345",
	"Bahasa": "Indonesia",
	"Penerbit": "Bhuana Ilmu Populer",
	"Berat": "0.1500 kg",
	"Lebar": "13 cm"
},
{
	"page": 65,
	"kategori 1": "fiksi-sastra",
	"kategori 2": "sastra",
	"book_url": "https://www.gramedia.com/products/bara-kirana-semarang-dan-perth",
	"title": "Bara, Kirana, Semarang, Dan Perth",
	"author": "Hardanto Raditya",
	"Jumlah Halaman": "276",
	"Tanggal Terbit": "31 Jan 2018",
	"ISBN": "9786025416194",
	"Bahasa": "Indonesia",
	"Penerbit": "Phoenix Publisher",
	"Berat": "0.245 kg",
	"Lebar": "14 cm",
	"Panjang": "20 cm"
},
{
	"page": 65,
	"kategori 1": "fiksi-sastra",
	"kategori 2": "sastra",
	"book_url": "https://www.gramedia.com/products/conf-a-scent-of-love-in-london",
	"title": "A Scent of Love in London",
	"author": "Indah Hanaco",
	"Jumlah Halaman": "374",
	"Tanggal Terbit": "16 Feb 2015",
	"ISBN": "9786020257754",
	"Bahasa": "Indonesia",
	"Penerbit": "Elex Media Komputindo",
	"Berat": "0.3530 kg",
	"Lebar": "13 cm"
},
{
	"page": 65,
	"kategori 1": "fiksi-sastra",
	"kategori 2": "sastra",
	"book_url": "https://www.gramedia.com/products/cinta-dalam-ikhlas",
	"title": "Cinta Dalam Ikhlas",
	"author": "Kang Abay",
	"Jumlah Halaman": "380",
	"Tanggal Terbit": "1 Mar 2017",
	"ISBN": "9786022913641",
	"Bahasa": "Indonesia",
	"Penerbit": "Bentang Pustaka",
	"Berat": "0.400 kg",
	"Lebar": "14 cm",
	"Panjang": "21 cm"
},
{
	"page": 65,
	"kategori 1": "fiksi-sastra",
	"kategori 2": "sastra",
	"book_url": "https://www.gramedia.com/products/ngedate-bareng-exo",
	"title": "Ngedate Bareng Exo",
	"author": "Riskaninda Maharani",
	"Jumlah Halaman": "312.0",
	"Tanggal Terbit": "18 Sep 2019",
	"ISBN": "9786237145820",
	"Bahasa": "Indonesia",
	"Penerbit": "Solusi Mitra Media Cv/Nusantara Cv",
	"Berat": "0.244 kg",
	"Lebar": "13.0 cm",
	"Panjang": "19.6 cm"
},
{
	"page": 65,
	"kategori 1": "fiksi-sastra",
	"kategori 2": "sastra",
	"book_url": "https://www.gramedia.com/products/flora",
	"title": "Flora",
	"author": "Agnes Shintyas",
	"Jumlah Halaman": "472",
	"Tanggal Terbit": "18 Jul 2018",
	"ISBN": "9786025508417",
	"Bahasa": "Indonesia",
	"Penerbit": "Coconut Books",
	"Berat": "0.350 kg",
	"Lebar": "14 cm",
	"Panjang": "20 cm"
},
{
	"page": 65,
	"kategori 1": "fiksi-sastra",
	"kategori 2": "sastra",
	"book_url": "https://www.gramedia.com/products/a-moment-to-decide",
	"title": "A Moment To Decide",
	"author": "Dian Dhie",
	"Jumlah Halaman": "284",
	"Tanggal Terbit": "2 Des 2018",
	"ISBN": "9786025701085",
	"Bahasa": "Indonesia",
	"Penerbit": "Indiva Media Kreasi",
	"Berat": "0.21 kg",
	"Lebar": "13 cm",
	"Panjang": "19 cm"
},
{
	"page": 65,
	"kategori 1": "fiksi-sastra",
	"kategori 2": "sastra",
	"book_url": "https://www.gramedia.com/products/historical-romance-tambatan-hati-sang-highlander-hard-hear",
	"title": "Historical Romance: Tambatan Hati sang Highlander (Hard-Hearted Highlander)",
	"author": "Julia London",
	"Jumlah Halaman": "456",
	"Tanggal Terbit": "13 Mei 2019",
	"ISBN": "9786020628684",
	"Bahasa": "Indonesia",
	"Penerbit": "Gramedia Pustaka Utama",
	"Berat": "0.2 kg",
	"Lebar": "11 cm",
	"Panjang": "18 cm"
},
{
	"page": 65,
	"kategori 1": "fiksi-sastra",
	"kategori 2": "sastra",
	"book_url": "https://www.gramedia.com/products/wedding-debt-karena-cinta-tak-pernah-bisa",
	"title": "Wedding Debt : Karena Cinta Tak Pernah Bisa",
	"author": "Ratinatif",
	"Jumlah Halaman": "316",
	"Tanggal Terbit": "24 Jun 2016",
	"ISBN": "9786026805829",
	"Bahasa": "Indonesia",
	"Penerbit": "Huta Parhapuran",
	"Berat": "0.3000 kg",
	"Lebar": "14 cm"
},
{
	"page": 65,
	"kategori 1": "fiksi-sastra",
	"kategori 2": "sastra",
	"book_url": "https://www.gramedia.com/products/the-pain-of-love-rasa-sakit-cinta",
	"title": "The Pain of Love (Rasa Sakit Cinta)",
	"author": "Arini Ramadhanti",
	"Jumlah Halaman": "343",
	"Tanggal Terbit": "11 Jan 2018",
	"ISBN": "9786022081630",
	"Bahasa": "Indonesia",
	"Penerbit": "Gradien Mediatama",
	"Berat": "0.25 kg",
	"Lebar": "13 cm",
	"Panjang": "19 cm"
},
{
	"page": 65,
	"kategori 1": "fiksi-sastra",
	"kategori 2": "sastra",
	"book_url": "https://www.gramedia.com/products/dont-do-questioning",
	"title": "Dont Do Questioning",
	"author": "Salma Nabila",
	"Jumlah Halaman": "196",
	"Tanggal Terbit": "18 Sep 2017",
	"ISBN": "9786024072001",
	"Bahasa": "Indonesia",
	"Penerbit": "Laksana",
	"Berat": "0.15 kg",
	"Lebar": "13 cm",
	"Panjang": "19 cm"
},
{
	"page": 65,
	"kategori 1": "fiksi-sastra",
	"kategori 2": "sastra",
	"book_url": "https://www.gramedia.com/products/strawberry-cheesecake",
	"title": "Strawberry Cheesecake",
	"author": "Ayuwidya",
	"Jumlah Halaman": "304",
	"Tanggal Terbit": "7 Apr 2016",
	"ISBN": "9786022911388",
	"Penerbit": "Mizan",
	"Berat": "0.2600 kg",
	"Lebar": "13 cm"
},
{
	"page": 65,
	"kategori 1": "fiksi-sastra",
	"kategori 2": "sastra",
	"book_url": "https://www.gramedia.com/products/mr-baihaqi",
	"title": "Mr. Baihaqi",
	"author": "Shisakatya",
	"Jumlah Halaman": "319",
	"Tanggal Terbit": "13 Jan 2018",
	"ISBN": "9786025023484",
	"Bahasa": "Indonesia",
	"Penerbit": "Rdm Publishers",
	"Berat": "0.300 kg",
	"Lebar": "14 cm",
	"Panjang": "20.5 cm"
},
{
	"page": 65,
	"kategori 1": "fiksi-sastra",
	"kategori 2": "sastra",
	"book_url": "https://www.gramedia.com/products/the-feelings",
	"title": "The Feelings",
	"author": "Vanillametzy",
	"Jumlah Halaman": "360",
	"Tanggal Terbit": "21 Nov 2017",
	"ISBN": "9786026940391",
	"Bahasa": "Indonesia",
	"Penerbit": "Best Media",
	"Berat": "0.30 kg",
	"Lebar": "14 cm",
	"Panjang": "20.5 cm"
},
{
	"page": 65,
	"kategori 1": "fiksi-sastra",
	"kategori 2": "sastra",
	"book_url": "https://www.gramedia.com/products/conf-le-mariage-wedding-with-converse",
	"title": "Le Mariage: Wedding with Converse",
	"author": "Inggrid Sonya",
	"Jumlah Halaman": "436",
	"Tanggal Terbit": "10 Mar 2017",
	"ISBN": "9786020400952",
	"Bahasa": "Indonesia",
	"Penerbit": "Elex Media Komputindo",
	"Berat": "0.4200 kg",
	"Lebar": "12.5 cm"
},
{
	"page": 65,
	"kategori 1": "fiksi-sastra",
	"kategori 2": "sastra",
	"book_url": "https://www.gramedia.com/products/room",
	"title": "Room",
	"author": "Emma Donnoghue",
	"Jumlah Halaman": "412",
	"Tanggal Terbit": "15 Agt 2016",
	"ISBN": "9786023851362",
	"Bahasa": "Indonesia",
	"Penerbit": "Noura",
	"Berat": "0.4000 kg",
	"Lebar": "14 cm"
},
{
	"page": 65,
	"kategori 1": "fiksi-sastra",
	"kategori 2": "sastra",
	"book_url": "https://www.gramedia.com/products/asmara-bukan-ramayana",
	"title": "Asmara Bukan Ramayana",
	"author": "Nimas Aksan",
	"Jumlah Halaman": "328.0",
	"Tanggal Terbit": "1 Jul 2019",
	"ISBN": "9786239053420",
	"Bahasa": "Indonesia",
	"Penerbit": "REYNARA",
	"Berat": "0.28 kg",
	"Lebar": "14.0 cm",
	"Panjang": "20.0 cm"
},
{
	"page": 65,
	"kategori 1": "fiksi-sastra",
	"kategori 2": "sastra",
	"book_url": "https://www.gramedia.com/products/hr-captives-of-the-night-tawanan-sang-malam",
	"title": "Hr: Captives Of The Night: Tawanan Sang Malam",
	"author": "Loretta Chase",
	"Jumlah Halaman": "512",
	"Tanggal Terbit": "23 Mei 2014",
	"ISBN": "9786020241357",
	"Bahasa": "Indonesia",
	"Penerbit": "Elex Media Komputindo",
	"Berat": "0.3000 kg",
	"Lebar": "11 cm",
	"Panjang": "18 cm"
},
{
	"page": 65,
	"kategori 1": "fiksi-sastra",
	"kategori 2": "sastra",
	"book_url": "https://www.gramedia.com/products/be-beautiful",
	"title": "Be Beautiful",
	"author": "Aninesca",
	"Jumlah Halaman": "304",
	"Tanggal Terbit": "1 Feb 2017",
	"ISBN": "9786026922694",
	"Bahasa": "Indonesia",
	"Penerbit": "Romancious",
	"Berat": "0.2500 kg",
	"Lebar": "13 cm",
	"Panjang": "19 cm"
},
{
	"page": 65,
	"kategori 1": "fiksi-sastra",
	"kategori 2": "sastra",
	"book_url": "https://www.gramedia.com/products/kuajak-kau-ke-hutan-dan-tersesat-berdua",
	"title": "Kuajak Kau Ke Hutan Dan Tersesat Berdua",
	"author": "Boy Candra",
	"Jumlah Halaman": "128",
	"Tanggal Terbit": "2 Feb 2017",
	"ISBN": "9789797945305",
	"Bahasa": "Indonesia",
	"Penerbit": "Mediakita",
	"Berat": "0.2 kg"
},
{
	"page": 65,
	"kategori 1": "fiksi-sastra",
	"kategori 2": "sastra",
	"book_url": "https://www.gramedia.com/products/the-girl-with-all-the-gifts",
	"title": "The Girl With All The Gifts",
	"author": "M.r. Carey",
	"Jumlah Halaman": "480",
	"Tanggal Terbit": "3 Jul 2017",
	"ISBN": "9786026109941",
	"Bahasa": "Indonesia",
	"Penerbit": "Mizan Publishing",
	"Berat": "0.3800 kg",
	"Lebar": "20.5 cm"
},
{
	"page": 65,
	"kategori 1": "fiksi-sastra",
	"kategori 2": "sastra",
	"book_url": "https://www.gramedia.com/products/calmity-3-the-reckoners-trilogy",
	"title": "Calmity 3 :The Reckoners Trilogy",
	"author": "Bandon Sanderson",
	"Jumlah Halaman": "571",
	"Tanggal Terbit": "5 Jan 2017",
	"ISBN": "9786023851669",
	"Bahasa": "Indonesia",
	"Penerbit": "Noura Publishing House",
	"Berat": "0.5000 kg",
	"Lebar": "14 cm"
},
{
	"page": 65,
	"kategori 1": "fiksi-sastra",
	"kategori 2": "sastra",
	"book_url": "https://www.gramedia.com/products/sepiring-mie-aceh-secangkir-kopi-gayo-bertalam-giok-nagam",
	"title": "Sepiring Mie Aceh Secangkir Kopi Gayo Bertalam Giok Nagam",
	"author": "Fikar W Eda",
	"Jumlah Halaman": "158",
	"Tanggal Terbit": "20 Okt 2016",
	"ISBN": "9786027142022",
	"Bahasa": "Indonesia",
	"Penerbit": "Batavia Publishing",
	"Berat": "0.3000 kg",
	"Lebar": "14 cm"
},
{
	"page": 65,
	"kategori 1": "fiksi-sastra",
	"kategori 2": "sastra",
	"book_url": "https://www.gramedia.com/products/when-the-heart-cant-move",
	"title": "When The Heart Cant Move",
	"author": "Indria",
	"Jumlah Halaman": "220",
	"Tanggal Terbit": "18 Mar 2016",
	"ISBN": "9786023002368",
	"Penerbit": "Araska",
	"Berat": "0.2000 kg",
	"Lebar": "13 cm"
},
{
	"page": 65,
	"kategori 1": "fiksi-sastra",
	"kategori 2": "sastra",
	"book_url": "https://www.gramedia.com/products/the-boss-next-door",
	"title": "The Boss Next Door",
	"author": "Despersa",
	"Jumlah Halaman": "420.0",
	"Tanggal Terbit": "13 Sep 2019",
	"ISBN": "9786237078067",
	"Bahasa": "Indonesia",
	"Penerbit": "Buku Kita Pt",
	"Berat": "0.45 kg",
	"Lebar": "20.0 cm",
	"Panjang": "14.0 cm"
},
{
	"page": 65,
	"kategori 1": "fiksi-sastra",
	"kategori 2": "sastra",
	"book_url": "https://www.gramedia.com/products/purple-eyes",
	"title": "Purple Eyes",
	"author": "Prisca Primasari",
	"Jumlah Halaman": "144",
	"Tanggal Terbit": "20 Apr 2016",
	"ISBN": "9786027432208",
	"Bahasa": "Indonesia",
	"Penerbit": "Inari",
	"Berat": "0.1300 kg",
	"Lebar": "13 cm"
},
{
	"page": 65,
	"kategori 1": "fiksi-sastra",
	"kategori 2": "sastra",
	"book_url": "https://www.gramedia.com/products/conf-le-mariage-jodoh-untuk-naina",
	"title": "Le Mariage: Jodoh Untuk Naina",
	"author": "Nima Mumtaz",
	"Jumlah Halaman": "254",
	"Tanggal Terbit": "5 Mei 2015",
	"ISBN": "9786020263489",
	"Bahasa": "Indonesia",
	"Penerbit": "Elex Media Komputindo",
	"Berat": "0.2450 kg",
	"Lebar": "13 cm"
},
{
	"page": 65,
	"kategori 1": "fiksi-sastra",
	"kategori 2": "sastra",
	"book_url": "https://www.gramedia.com/products/rocket-rockers",
	"title": "Rocket Rockers",
	"author": "Rocket Rocker",
	"Jumlah Halaman": "319",
	"Tanggal Terbit": "1 Feb 2018",
	"ISBN": "9786026716156",
	"Bahasa": "Indonesia",
	"Penerbit": "Mizan Publishing",
	"Berat": "0.30 kg",
	"Lebar": "13 cm",
	"Panjang": "20.5 cm"
},
{
	"page": 65,
	"kategori 1": "fiksi-sastra",
	"kategori 2": "sastra",
	"book_url": "https://www.gramedia.com/products/senandung-di-kota-bandung",
	"title": "Senandung Di Kota Bandung",
	"author": "Tiyas Puspita Sari",
	"Jumlah Halaman": "528",
	"Tanggal Terbit": "15 Jan 2018",
	"ISBN": "9786025508035",
	"Bahasa": "Indonesia",
	"Penerbit": "Coconut Book",
	"Berat": "0.45 kg",
	"Lebar": "14 cm",
	"Panjang": "21 cm"
},
{
	"page": 65,
	"kategori 1": "fiksi-sastra",
	"kategori 2": "sastra",
	"book_url": "https://www.gramedia.com/products/apa-pun-selain-hujan",
	"title": "Apa Pun Selain Hujan",
	"author": "Orizuka",
	"Jumlah Halaman": "288",
	"Tanggal Terbit": "13 Apr 2016",
	"ISBN": "9789797808501",
	"Bahasa": "Indonesia",
	"Penerbit": "Gagas Media",
	"Berat": "0.2300 kg",
	"Lebar": "13 cm"
},
{
	"page": 65,
	"kategori 1": "fiksi-sastra",
	"kategori 2": "sastra",
	"book_url": "https://www.gramedia.com/products/pernikahan-status",
	"title": "Pernikahan Status",
	"author": "Lanavay",
	"Jumlah Halaman": "218",
	"Tanggal Terbit": "1 Feb 2018",
	"ISBN": "9786025713002",
	"Bahasa": "Indonesia",
	"Penerbit": "Penerbit Nauli Media",
	"Berat": "0.20 kg",
	"Lebar": "14 cm",
	"Panjang": "20 cm"
},
{
	"page": 65,
	"kategori 1": "fiksi-sastra",
	"kategori 2": "sastra",
	"book_url": "https://www.gramedia.com/products/sebelum",
	"title": "Sebelum",
	"author": "Wafda Saifan Lubis",
	"Jumlah Halaman": "192.0",
	"Tanggal Terbit": "26 Nov 2019",
	"ISBN": "9786237211396",
	"Bahasa": "Indonesia",
	"Penerbit": "Romancious",
	"Berat": "0.143 kg",
	"Lebar": "13.0 cm",
	"Panjang": "19.0 cm"
},
{
	"page": 65,
	"kategori 1": "fiksi-sastra",
	"kategori 2": "sastra",
	"book_url": "https://www.gramedia.com/products/the-holy-child",
	"title": "The Holy Child",
	"author": "Mujahidin Nur",
	"Jumlah Halaman": "264",
	"Tanggal Terbit": "25 Apr 2016",
	"ISBN": "9786026940100",
	"Bahasa": "Indonesia",
	"Penerbit": "Melvana",
	"Berat": "0.2900 kg",
	"Lebar": "15 cm"
},
{
	"page": 65,
	"kategori 1": "fiksi-sastra",
	"kategori 2": "sastra",
	"book_url": "https://www.gramedia.com/products/chrysalis",
	"title": "Chrysalis",
	"author": "Pepakomi",
	"Jumlah Halaman": "140",
	"Tanggal Terbit": "7 Mei 2019",
	"ISBN": "9786022203186",
	"Bahasa": "Indonesia",
	"Penerbit": "Bukune",
	"Berat": "0.18 kg",
	"Lebar": "14 cm",
	"Panjang": "20 cm"
},
