{
	"page": 49,
	"kategori 1": "fiksi-sastra",
	"kategori 2": "sastra",
	"book_url": "https://www.gramedia.com/products/mr-mrs-writer-kata-orang-mimpi-itu-harus-dikayuh",
	"title": "Mr & Mrs Writer : Kata Orang Mimpi Itu Harus Dikayuh",
	"author": "Achi Tm",
	"Jumlah Halaman": "408",
	"Tanggal Terbit": "22 Feb 2016",
	"ISBN": "9789792953534",
	"Bahasa": "Indonesia",
	"Penerbit": "Andi Offset",
	"Berat": "0.4000 kg",
	"Lebar": "14 cm"
},
{
	"page": 49,
	"kategori 1": "fiksi-sastra",
	"kategori 2": "sastra",
	"book_url": "https://www.gramedia.com/products/stories-of-naked-travelers-the-kisah2-haru-horor-lucu-romantis",
	"title": "Stories Of Naked Travelers,The : Kisah-kisah Haru, Horor, Lucu, Romantis",
	"author": "Ranti Anugerah",
	"Jumlah Halaman": "208",
	"Tanggal Terbit": "23 Feb 2016",
	"ISBN": "9786023002313",
	"Bahasa": "Indonesia",
	"Penerbit": "Araska",
	"Berat": "0.2000 kg",
	"Lebar": "14 cm"
},
{
	"page": 49,
	"kategori 1": "fiksi-sastra",
	"kategori 2": "sastra",
	"book_url": "https://www.gramedia.com/products/double-u-karena-cinta-datang-tiba-tiba",
	"title": "Double U Karena Cinta Datang Tiba Tiba",
	"author": "Pretty Angelia",
	"Jumlah Halaman": "378",
	"Tanggal Terbit": "2 Feb 2016",
	"ISBN": "9789792950472",
	"Bahasa": "Indonesia",
	"Penerbit": "Andi Offset",
	"Berat": "0.3000 kg",
	"Lebar": "19 cm"
},
{
	"page": 49,
	"kategori 1": "fiksi-sastra",
	"kategori 2": "sastra",
	"book_url": "https://www.gramedia.com/products/fazan",
	"title": "Fazan",
	"author": "Yudhi Aw",
	"Jumlah Halaman": "210",
	"Tanggal Terbit": "22 Apr 2016",
	"ISBN": "9786027399808",
	"Penerbit": "Solusi Distribusi",
	"Berat": "0.2000 kg",
	"Lebar": "14 cm"
},
{
	"page": 49,
	"kategori 1": "fiksi-sastra",
	"kategori 2": "sastra",
	"book_url": "https://www.gramedia.com/products/rumah-tangga-0",
	"title": "Rumah Tangga",
	"author": "Fahd Pahdepie",
	"Jumlah Halaman": "0",
	"Tanggal Terbit": "23 Jun 2005",
	"ISBN": "9789797808136",
	"Bahasa": "Indonesia",
	"Penerbit": "Transmedia",
	"Berat": "0.4000 kg",
	"Lebar": "0 cm"
},
{
	"page": 49,
	"kategori 1": "fiksi-sastra",
	"kategori 2": "sastra",
	"book_url": "https://www.gramedia.com/products/hr-a-highland-duchess",
	"title": "Hr: A Highland Duchess",
	"author": "Karen Ranney",
	"Jumlah Halaman": "484",
	"Tanggal Terbit": "30 Mei 2016",
	"ISBN": "9786020286518",
	"Bahasa": "Indonesia",
	"Penerbit": "Elex Media Komputindo",
	"Berat": "0.2400 kg",
	"Lebar": "11 cm"
},
{
	"page": 49,
	"kategori 1": "fiksi-sastra",
	"kategori 2": "sastra",
	"book_url": "https://www.gramedia.com/products/100-mutiara-cinta-pilihan-kahlil-gibran",
	"title": "100 Mutiara Cinta Pilihan Kahlil Gibran",
	"author": "Anjali Ratri",
	"Jumlah Halaman": "182",
	"Tanggal Terbit": "22 Okt 2015",
	"ISBN": "9786020983714",
	"Bahasa": "Indonesia",
	"Penerbit": "Galmas Publisher",
	"Berat": "0.1500 kg",
	"Lebar": "13 cm"
},
{
	"page": 49,
	"kategori 1": "fiksi-sastra",
	"kategori 2": "sastra",
	"book_url": "https://www.gramedia.com/products/espera",
	"title": "Espera",
	"author": "Mariana Malau",
	"Jumlah Halaman": "247",
	"Tanggal Terbit": "17 Apr 2014",
	"Penerbit": "+++",
	"Berat": "0.2000 kg",
	"Lebar": "13 cm",
	"Panjang": "0 cm"
},
{
	"page": 49,
	"kategori 1": "fiksi-sastra",
	"kategori 2": "sastra",
	"book_url": "https://www.gramedia.com/products/catatan-hati-seorang-ibu",
	"title": "Catatan Hati Seorang Ibu",
	"author": "Rembulan Ratri",
	"Jumlah Halaman": "160",
	"Tanggal Terbit": "20 Jun 2016",
	"ISBN": "9786027311282",
	"Bahasa": "Indonesia",
	"Penerbit": "Serambi Semesta",
	"Berat": "0.1500 kg",
	"Lebar": "19 cm"
},
{
	"page": 49,
	"kategori 1": "fiksi-sastra",
	"kategori 2": "sastra",
	"book_url": "https://www.gramedia.com/products/conf-the-secret-of-sir-richard-rahasia-sir-richard-kenworthy",
	"title": "The Secret of Sir Richard - Rahasia Sir Richard Kenworthy",
	"author": "Julia Quinn",
	"Jumlah Halaman": "472",
	"Tanggal Terbit": "11 Agt 2015",
	"ISBN": "9786020318899",
	"Bahasa": "Indonesia",
	"Penerbit": "Gramedia Pustaka Utama",
	"Berat": "0.3370 kg",
	"Lebar": "11 cm"
},
{
	"page": 49,
	"kategori 1": "fiksi-sastra",
	"kategori 2": "sastra",
	"book_url": "https://www.gramedia.com/products/conf-hr-i-adored-a-lord",
	"title": "HR: I Adored A Lord",
	"author": "Katharine Ashe",
	"Jumlah Halaman": "472",
	"Tanggal Terbit": "20 Nov 2016",
	"ISBN": "9786020293240",
	"Bahasa": "Indonesia",
	"Penerbit": "Elex Media Komputindo",
	"Berat": "0.2300 kg",
	"Lebar": "11 cm"
},
{
	"page": 49,
	"kategori 1": "fiksi-sastra",
	"kategori 2": "sastra",
	"book_url": "https://www.gramedia.com/products/conf-the-prince-she-never-forgot-kenangan-sang-pangeran",
	"title": "The Prince She Never Forgot - Kenangan Sang Pangeran",
	"author": "Scarlet Wilson",
	"Jumlah Halaman": "232",
	"Tanggal Terbit": "1 Jan 1970",
	"ISBN": "9786020327679",
	"Bahasa": "Indonesia",
	"Penerbit": "Gramedia Pustaka Utama",
	"Berat": "0.1000 kg",
	"Lebar": "11 cm"
},
{
	"page": 49,
	"kategori 1": "fiksi-sastra",
	"kategori 2": "sastra",
	"book_url": "https://www.gramedia.com/products/riwayatku-riwayatmu-sebuah-novel-petualangan",
	"title": "Riwayatku Riwayatmu : Sebuah Novel Petualangan",
	"author": "Usman Pangeran Harahap",
	"Jumlah Halaman": "168",
	"Tanggal Terbit": "26 Nov 2015",
	"ISBN": "9786021951361",
	"Bahasa": "Indonesia",
	"Penerbit": "Buku Kita",
	"Berat": "0.2000 kg",
	"Lebar": "14 cm"
},
{
	"page": 49,
	"kategori 1": "fiksi-sastra",
	"kategori 2": "sastra",
	"book_url": "https://www.gramedia.com/products/on-the-road-sudut-negeri-seribu-kuil",
	"title": "On The Road: Sudut Negeri Seribu Kuil",
	"author": "Linda B",
	"Jumlah Halaman": "346",
	"Tanggal Terbit": "13 Jan 2016",
	"ISBN": "9786027321540",
	"Bahasa": "Indonesia",
	"Penerbit": "Metagraf",
	"Berat": "0.3500 kg",
	"Lebar": "14 cm"
},
{
	"page": 49,
	"kategori 1": "fiksi-sastra",
	"kategori 2": "sastra",
	"book_url": "https://www.gramedia.com/products/world-after-buku-ke-2-penryn-the-end-of-days-angelfall",
	"title": "World After: Buku Ke 2 Penryn & The End of Days (Angelfall)",
	"author": "Susan Ee",
	"Jumlah Halaman": "480",
	"Tanggal Terbit": "7 Mei 2015",
	"ISBN": "9786021139868",
	"Bahasa": "Indonesia",
	"Penerbit": "Matahari",
	"Berat": "0.5000 kg",
	"Lebar": "14 cm"
},
{
	"page": 49,
	"kategori 1": "fiksi-sastra",
	"kategori 2": "sastra",
	"book_url": "https://www.gramedia.com/products/di-ambang-kematian",
	"title": "Di Ambang Kematian",
	"author": "Raovi Cauvin",
	"Jumlah Halaman": "192",
	"Tanggal Terbit": "29 Mei 2015",
	"ISBN": "9786020266152",
	"Bahasa": "Indonesia",
	"Penerbit": "Elex Media Komputindo",
	"Berat": "0.1430 kg",
	"Lebar": "11 cm",
	"Panjang": "18 cm"
},
{
	"page": 49,
	"kategori 1": "fiksi-sastra",
	"kategori 2": "sastra",
	"book_url": "https://www.gramedia.com/products/queen-of-hearts-the-wonder-vol-two",
	"title": "Queen Of Hearts : The Wonder Vol Two",
	"author": "Colleen Oakes",
	"Jumlah Halaman": "328",
	"Tanggal Terbit": "26 Jan 2016",
	"ISBN": "9786027283466",
	"Bahasa": "Indonesia",
	"Penerbit": "Metamind",
	"Berat": "0.3000 kg",
	"Lebar": "14 cm"
},
{
	"page": 49,
	"kategori 1": "fiksi-sastra",
	"kategori 2": "sastra",
	"book_url": "https://www.gramedia.com/products/kisah-ramayana-seri-literasi-remaja",
	"title": "Kisah Ramayana : Seri Literasi Remaja",
	"author": "B. Suryosubroto",
	"Jumlah Halaman": "160",
	"Tanggal Terbit": "15 Nov 2016",
	"ISBN": "9786026847058",
	"Bahasa": "Indonesia",
	"Penerbit": "Esensi",
	"Berat": "0.2500 kg",
	"Lebar": "15 cm"
},
{
	"page": 49,
	"kategori 1": "fiksi-sastra",
	"kategori 2": "sastra",
	"book_url": "https://www.gramedia.com/products/the-housekeeper-the-professor",
	"title": "The Housekeeper & The Professor",
	"author": "Yoko Ogawa",
	"Jumlah Halaman": "274",
	"Tanggal Terbit": "28 Mar 2016",
	"ISBN": "9786021637906",
	"Bahasa": "Indonesia",
	"Penerbit": "Mizan",
	"Berat": "0.2000 kg",
	"Lebar": "13 cm"
},
{
	"page": 49,
	"kategori 1": "fiksi-sastra",
	"kategori 2": "sastra",
	"book_url": "https://www.gramedia.com/products/autumn-in-korea-be-my-love-again",
	"title": "Autumn In Korea, Be My Love Again?",
	"author": "Charansa",
	"Jumlah Halaman": "294",
	"Tanggal Terbit": "8 Feb 2016",
	"ISBN": "9789792951615",
	"Bahasa": "Indonesia",
	"Penerbit": "Andi Offset",
	"Berat": "0.8000 kg",
	"Lebar": "14 cm"
},
{
	"page": 49,
	"kategori 1": "fiksi-sastra",
	"kategori 2": "sastra",
	"book_url": "https://www.gramedia.com/products/lost-in-the-rain",
	"title": "Lost In The Rain",
	"author": "Daisy Ann",
	"Jumlah Halaman": "276",
	"Tanggal Terbit": "10 Jul 2017",
	"ISBN": "9786023948239",
	"Bahasa": "Indonesia",
	"Penerbit": "Bhuana Ilmu Populer",
	"Berat": "0.1800 kg",
	"Lebar": "13 cm"
},
{
	"page": 49,
	"kategori 1": "fiksi-sastra",
	"kategori 2": "sastra",
	"book_url": "https://www.gramedia.com/products/cahaya-bintang-tareem",
	"title": "Cahaya Bintang Tareem",
	"author": "Taanee Jee",
	"Jumlah Halaman": "320",
	"Tanggal Terbit": "25 Nov 2015",
	"ISBN": "9786020806679",
	"Bahasa": "Indonesia",
	"Penerbit": "Diva Press",
	"Berat": "0.2500 kg",
	"Lebar": "14 cm"
},
{
	"page": 49,
	"kategori 1": "fiksi-sastra",
	"kategori 2": "sastra",
	"book_url": "https://www.gramedia.com/products/singasana-antartika",
	"title": "Singasana Antartika",
	"author": "Virgi Chang",
	"Jumlah Halaman": "232",
	"Tanggal Terbit": "18 Feb 2016",
	"ISBN": "9786027370913",
	"Bahasa": "Indonesia",
	"Penerbit": "Kandil Semesta",
	"Berat": "0.2000 kg",
	"Lebar": "12 cm"
},
{
	"page": 49,
	"kategori 1": "fiksi-sastra",
	"kategori 2": "sastra",
	"book_url": "https://www.gramedia.com/products/dear-mantan-karena-waktu-tak-bisa-menghapusmu",
	"title": "Dear Mantan : Karena Waktu Tak Bisa Menghapusmu",
	"author": "Rina Kartomisastro",
	"Jumlah Halaman": "224",
	"Tanggal Terbit": "21 Mei 2015",
	"ISBN": "9786022558804",
	"Bahasa": "Indonesia",
	"Penerbit": "Serambi Semesta",
	"Berat": "0.3000 kg",
	"Lebar": "13 cm"
},
{
	"page": 49,
	"kategori 1": "fiksi-sastra",
	"kategori 2": "sastra",
	"book_url": "https://www.gramedia.com/products/hr-blame-it-on-bath",
	"title": "Hr: Blame It On Bath",
	"author": "Caroline Linden",
	"Jumlah Halaman": "474",
	"Tanggal Terbit": "23 Nov 2015",
	"ISBN": "9786020276762",
	"Bahasa": "Indonesia",
	"Penerbit": "Elex Media Komputindo",
	"Berat": "0.300 kg",
	"Lebar": "11 cm",
	"Panjang": "18 cm"
},
{
	"page": 49,
	"kategori 1": "fiksi-sastra",
	"kategori 2": "sastra",
	"book_url": "https://www.gramedia.com/products/tell-me-your-wish",
	"title": "Tell Me Your Wish",
	"author": "Kim Rang",
	"Jumlah Halaman": "508",
	"Tanggal Terbit": "25 Apr 2016",
	"ISBN": "9786027742857",
	"Bahasa": "Indonesia",
	"Penerbit": "Haru",
	"Berat": "0.3800 kg",
	"Lebar": "14 cm"
},
{
	"page": 49,
	"kategori 1": "fiksi-sastra",
	"kategori 2": "sastra",
	"book_url": "https://www.gramedia.com/products/petrus-harga-sebuah-amin",
	"title": "Petrus Harga Sebuah Amin",
	"author": "Martinus Joko Lelono",
	"Jumlah Halaman": "299",
	"Tanggal Terbit": "1 Des 2017",
	"ISBN": "9786026525239",
	"Bahasa": "Indonesia",
	"Penerbit": "Amara Books",
	"Berat": "0.21 kg",
	"Lebar": "12 cm",
	"Panjang": "19 cm"
},
{
	"page": 49,
	"kategori 1": "fiksi-sastra",
	"kategori 2": "sastra",
	"book_url": "https://www.gramedia.com/products/fesyenissheeza-cerita-penuh-mimpi-desainer-belia",
	"title": "Fesyenissheeza: Cerita Penuh Mimpi Desainer Belia",
	"author": "Nita Lana Faera",
	"Jumlah Halaman": "188",
	"Tanggal Terbit": "22 Jan 2016",
	"ISBN": "9786023910601",
	"Bahasa": "Indonesia",
	"Penerbit": "Ping",
	"Berat": "0.1500 kg",
	"Lebar": "13 cm"
},
{
	"page": 49,
	"kategori 1": "fiksi-sastra",
	"kategori 2": "sastra",
	"book_url": "https://www.gramedia.com/products/cinta-gangga",
	"title": "Cinta Gangga",
	"author": "Shaheer Khan",
	"Jumlah Halaman": "158",
	"Tanggal Terbit": "1 Feb 2017",
	"ISBN": "9786023980130",
	"Bahasa": "Indonesia",
	"Penerbit": "Euthenia",
	"Berat": "0.1160 kg",
	"Lebar": "13 cm"
},
{
	"page": 49,
	"kategori 1": "fiksi-sastra",
	"kategori 2": "sastra",
	"book_url": "https://www.gramedia.com/products/conf-the-virgin-secretary-s-impossible-boss-bos-sang-sekretaris",
	"title": "The Virgin Secretary's Impossible Boss - Bos sang Sekretaris",
	"author": "Carole Mortimer",
	"Jumlah Halaman": "200",
	"Tanggal Terbit": "24 Jul 2016",
	"ISBN": "9786020332840",
	"Bahasa": "Indonesia",
	"Penerbit": "Gramedia Pustaka Utama",
	"Berat": "0.1000 kg",
	"Lebar": "11 cm"
},
{
	"page": 49,
	"kategori 1": "fiksi-sastra",
	"kategori 2": "sastra",
	"book_url": "https://www.gramedia.com/products/super-not-ispiring-book",
	"title": "Super Not Inspiring Book",
	"author": "Marco Ivanos",
	"Jumlah Halaman": "144",
	"Tanggal Terbit": "15 Feb 2016",
	"ISBN": "9786022201779",
	"Bahasa": "Indonesia",
	"Penerbit": "Bukune",
	"Berat": "0.1500 kg",
	"Lebar": "13 cm",
	"Panjang": "19 cm"
},
{
	"page": 49,
	"kategori 1": "fiksi-sastra",
	"kategori 2": "sastra",
	"book_url": "https://www.gramedia.com/products/merayakan-kehilangan",
	"title": "Merayakan Kehilangan",
	"author": "Brian Khrisna",
	"Jumlah Halaman": "222.0",
	"Tanggal Terbit": "31 Okt 2016",
	"ISBN": "9789797945275",
	"Bahasa": "Indonesia",
	"Penerbit": "Media Kita",
	"Berat": "0.2 kg",
	"Lebar": "13.0 cm",
	"Panjang": "19.0 cm"
},
{
	"page": 49,
	"kategori 1": "fiksi-sastra",
	"kategori 2": "sastra",
	"book_url": "https://www.gramedia.com/products/spellbound-kembalikan-hidupku",
	"title": "Spellbound:Kembalikan Hidupku",
	"author": "Riesna Kurnia",
	"Jumlah Halaman": "172",
	"Tanggal Terbit": "10 Okt 2016",
	"ISBN": "9786021383520",
	"Bahasa": "Indonesia",
	"Penerbit": "Mizan",
	"Berat": "0.1600 kg",
	"Lebar": "21 cm"
},
{
	"page": 49,
	"kategori 1": "fiksi-sastra",
	"kategori 2": "sastra",
	"book_url": "https://www.gramedia.com/products/matt-mou",
	"title": "Matt & Mou",
	"author": "Wulan Fadila Fatia",
	"Jumlah Halaman": "342",
	"Tanggal Terbit": "29 Sep 2016",
	"ISBN": "9789797808723",
	"Bahasa": "Indonesia",
	"Penerbit": "Transmedia",
	"Berat": "0.300 kg",
	"Lebar": "20 cm",
	"Panjang": "14 cm"
},
{
	"page": 49,
	"kategori 1": "fiksi-sastra",
	"kategori 2": "sastra",
	"book_url": "https://www.gramedia.com/products/jejak-seoul-puisi2-maman-s-mahayana",
	"title": "Jejak Seoul :Puisi2 Maman S.Mahayana",
	"author": "Maman S.mahayana",
	"Jumlah Halaman": "136",
	"Tanggal Terbit": "27 Jul 2016",
	"ISBN": "9786028966948",
	"Bahasa": "Indonesia",
	"Penerbit": "Kosakatakita",
	"Berat": "0.1500 kg",
	"Lebar": "14 cm"
},
{
	"page": 49,
	"kategori 1": "fiksi-sastra",
	"kategori 2": "sastra",
	"book_url": "https://www.gramedia.com/products/metropop-dimi-is-married-cover-baru",
	"title": "Dimi is Married",
	"author": "Retni Sb",
	"Jumlah Halaman": "384",
	"Tanggal Terbit": "26 Okt 2015",
	"ISBN": "9786020322414",
	"Bahasa": "Indonesia",
	"Penerbit": "Gramedia Pustaka Utama",
	"Berat": "0.3500 kg",
	"Lebar": "13.5 cm"
},
{
	"page": 49,
	"kategori 1": "fiksi-sastra",
	"kategori 2": "sastra",
	"book_url": "https://www.gramedia.com/products/second-chance-series-revenge",
	"title": "Second Chance Series : Revenge",
	"author": "Anggun Prameswari",
	"Jumlah Halaman": "348",
	"Tanggal Terbit": "24 Jan 2018",
	"ISBN": "9786026714152",
	"Bahasa": "Indonesia",
	"Penerbit": "Falcon Publishing",
	"Berat": "0.30 kg",
	"Lebar": "14 cm",
	"Panjang": "20.5 cm"
},
{
	"page": 49,
	"kategori 1": "fiksi-sastra",
	"kategori 2": "sastra",
	"book_url": "https://www.gramedia.com/products/sorry-i-love-you",
	"title": "Sorry I Love You",
	"author": "Fanny Salma",
	"Jumlah Halaman": "196",
	"Tanggal Terbit": "30 Agt 2016",
	"ISBN": "9786021010778",
	"Bahasa": "Indonesia",
	"Penerbit": "Euthenia",
	"Berat": "0.1500 kg",
	"Lebar": "13 cm"
},
{
	"page": 49,
	"kategori 1": "fiksi-sastra",
	"kategori 2": "sastra",
	"book_url": "https://www.gramedia.com/products/cr-wife-by-wednesday",
	"title": "Cr: Wife By Wednesday",
	"author": "Catherine Bybee",
	"Jumlah Halaman": "272",
	"Tanggal Terbit": "25 Apr 2016",
	"ISBN": "9786020284651",
	"Bahasa": "Indonesia",
	"Penerbit": "Elex Media Komputindo",
	"Berat": "0.1000 kg",
	"Lebar": "11 cm"
},
