{
	"page": 78,
	"kategori 1": "non-fiksi",
	"kategori 2": "sosial",
	"book_url": "https://www.gramedia.com/products/history-of-education",
	"title": "History Of Education",
	"author": "Levi Seeley",
	"Jumlah Halaman": "396",
	"Tanggal Terbit": "3 Nov 2015",
	"ISBN": "9786020869179",
	"Bahasa": "Indonesia",
	"Penerbit": "Indoliterasi",
	"Berat": "0.3500 kg",
	"Lebar": "14 cm"
},
{
	"page": 78,
	"kategori 1": "non-fiksi",
	"kategori 2": "sosial",
	"book_url": "https://www.gramedia.com/products/indonesia-dalam-cengkraman-liberalisme",
	"title": "Indonesia Dalam Cengkraman Liberalisme",
	"author": "Galih Prasetyo",
	"Jumlah Halaman": "206",
	"Tanggal Terbit": "8 Jan 2016",
	"ISBN": "9789791442732",
	"Bahasa": "Indonesia",
	"Penerbit": "Koekoesan",
	"Berat": "0.2000 kg",
	"Lebar": "14 cm"
},
{
	"page": 78,
	"kategori 1": "non-fiksi",
	"kategori 2": "sosial",
	"book_url": "https://www.gramedia.com/products/freemasonry-di-indonesia-jaringan-zionis-tertua-yg-mengenda",
	"title": "Freemasonry Di Indonesia: Jaringan Zionis Tertua Yang Mengendalikan Nusantara",
	"author": "Prof Paul W",
	"Jumlah Halaman": "154",
	"Tanggal Terbit": "12 Mei 2012",
	"ISBN": "9786027689268",
	"Bahasa": "Indonesia",
	"Penerbit": "Ufuk Press",
	"Berat": "0.35 kg",
	"Lebar": "15 cm",
	"Panjang": "23.5 cm"
},
{
	"page": 78,
	"kategori 1": "non-fiksi",
	"kategori 2": "sosial",
	"book_url": "https://www.gramedia.com/products/dialektika-ilmu-pemerintahan",
	"title": "Dialektika Ilmu Pemerintahan",
	"author": "Muhadam Labolo Dkk",
	"Jumlah Halaman": "440",
	"Tanggal Terbit": "12 Okt 2015",
	"ISBN": "9789794507025",
	"Bahasa": "Indonesia",
	"Penerbit": "Ghalia Indonesia",
	"Berat": "0.7000 kg",
	"Lebar": "15 cm"
},
{
	"page": 78,
	"kategori 1": "non-fiksi",
	"kategori 2": "sosial",
	"book_url": "https://www.gramedia.com/products/obrolan-nusantara-menyambut-indonesia-baru",
	"title": "Obrolan Nusantara Menyambut Indonesia Baru",
	"author": "Sudarsono Soedomo",
	"Jumlah Halaman": "298",
	"Tanggal Terbit": "25 Mei 2016",
	"ISBN": "9786029252491",
	"Bahasa": "Indonesia",
	"Penerbit": "Firdauss",
	"Berat": "0.2800 kg",
	"Lebar": "16 cm"
},
{
	"page": 78,
	"kategori 1": "non-fiksi",
	"kategori 2": "sosial",
	"book_url": "https://www.gramedia.com/products/politik-luar-negeri-indonesia-dibawah-soeharto",
	"title": "Politik Luar Negeri Indonesia Dibawah Soeharto",
	"author": "Leo Suryadinata",
	"Jumlah Halaman": "307.0",
	"Tanggal Terbit": "31 Des 2019",
	"ISBN": "9789798391729",
	"Bahasa": "Indonesia",
	"Penerbit": "Lp3es",
	"Berat": "0.37 kg",
	"Lebar": "15.0 cm",
	"Panjang": "23.0 cm"
},
{
	"page": 78,
	"kategori 1": "non-fiksi",
	"kategori 2": "sosial",
	"book_url": "https://www.gramedia.com/products/dinamika-politik-di-indonesia-perjalanan-politik-sejak-orla",
	"title": "Dinamika Politik Di Indonesia: Perjalanan Politik Sejak Orde Lama Hingga Reformasi",
	"author": "Muhammad Alfan",
	"Jumlah Halaman": "220",
	"Tanggal Terbit": "2 Des 2015",
	"ISBN": "9789790764972",
	"Bahasa": "Indonesia",
	"Penerbit": "Pustaka Setia",
	"Berat": "0.55 kg",
	"Lebar": "16 cm",
	"Panjang": "24 cm"
},
{
	"page": 78,
	"kategori 1": "non-fiksi",
	"kategori 2": "sosial",
	"book_url": "https://www.gramedia.com/products/nostradamus-tanda-tanda-perang-bencana-abad-xxi",
	"title": "Nostradamus Tanda-Tanda Perang & Bencana Abad Xxi",
	"author": "Ashok K. Sharma",
	"Jumlah Halaman": "608.0",
	"Tanggal Terbit": "26 Sep 2019",
	"ISBN": "9786025753169",
	"Bahasa": "Indonesia",
	"Penerbit": "Cakrawala Sketsa Mandiri Cv",
	"Berat": "0.759 kg",
	"Lebar": "14.7 cm",
	"Panjang": "22.5 cm"
},
{
	"page": 78,
	"kategori 1": "non-fiksi",
	"kategori 2": "sosial",
	"book_url": "https://www.gramedia.com/products/komunikasi-pemerintahan-filosofi-konsep-aplikasi",
	"title": "Komunikasi Pemerintahan :Filosofi,Konsep & Aplikasi",
	"author": "Dr. Yusuf Zainal Abidin",
	"Jumlah Halaman": "274",
	"Tanggal Terbit": "14 Sep 2016",
	"ISBN": "9789790765856",
	"Bahasa": "Indonesia",
	"Penerbit": "Pustaka Setia",
	"Berat": "0.3500 kg",
	"Lebar": "16 cm"
},
{
	"page": 78,
	"kategori 1": "non-fiksi",
	"kategori 2": "sosial",
	"book_url": "https://www.gramedia.com/products/sejarah-wanita-perspektif-androgynous",
	"title": "Sejarah Wanita: Perspektif Androgynous",
	"author": "Dr. Luh Putu Sendratari & Dr, Tuty Maryati",
	"Jumlah Halaman": "106",
	"Tanggal Terbit": "26 Jun 2015",
	"ISBN": "9786022623663",
	"Bahasa": "Indonesia",
	"Penerbit": "Graha Ilmu",
	"Berat": "0.2500 kg",
	"Lebar": "21 cm"
},
{
	"page": 78,
	"kategori 1": "non-fiksi",
	"kategori 2": "sosial",
	"book_url": "https://www.gramedia.com/products/conf-percepatan-dan-perlambatan-demokrasi-di-tingkat-lokal",
	"title": "Percepatan dan Perlambatan Demokrasi di Tingkat Lokal",
	"author": "Dr. H. Nurhamin, M.h.",
	"Jumlah Halaman": "264",
	"Tanggal Terbit": "11 Des 2015",
	"ISBN": "9786020276274",
	"Bahasa": "Indonesia",
	"Penerbit": "Elex Media Komputindo",
	"Berat": "0.3500 kg",
	"Lebar": "14 cm"
},
{
	"page": 78,
	"kategori 1": "non-fiksi",
	"kategori 2": "sosial",
	"book_url": "https://www.gramedia.com/products/komunikasi-kesehatan-1",
	"title": "KOMUNIKASI KESEHATAN",
	"author": "Fajar Junaedi",
	"Jumlah Halaman": "142",
	"Tanggal Terbit": "6 Apr 2018",
	"ISBN": "9786024222383",
	"Bahasa": "Indonesia",
	"Penerbit": "Prenada Media Group",
	"Berat": "0.15 kg",
	"Lebar": "13 cm",
	"Panjang": "20 cm"
},
{
	"page": 78,
	"kategori 1": "non-fiksi",
	"kategori 2": "sosial",
	"book_url": "https://www.gramedia.com/products/laut-masa-depan-bangsa-kedaulatan-keberlanjutan-kesejahteraan",
	"title": "Laut Masa Depan Bangsa-Kedaulatan, Keberlanjutan, Kesejahteraan",
	"author": "Tim Kementerian Kelautan Dan Perikanan",
	"Jumlah Halaman": "108",
	"Tanggal Terbit": "30 Apr 2018",
	"ISBN": "9786024123819",
	"Bahasa": "Indonesia",
	"Penerbit": "Penerbit Buku Kompas",
	"Berat": "0.30 kg",
	"Lebar": "17 cm",
	"Panjang": "25 cm"
},
{
	"page": 78,
	"kategori 1": "non-fiksi",
	"kategori 2": "sosial",
	"book_url": "https://www.gramedia.com/products/keadilan-jender-perspektif-feminis-muslim",
	"title": "Keadilan Jender: Perspektif Feminis Muslim",
	"author": "Free Hearty",
	"Jumlah Halaman": "288",
	"Tanggal Terbit": "2 Nov 2015",
	"ISBN": "9789794619568",
	"Bahasa": "Indonesia",
	"Penerbit": "Obor",
	"Berat": "0.3000 kg",
	"Lebar": "15 cm"
},
{
	"page": 78,
	"kategori 1": "non-fiksi",
	"kategori 2": "sosial",
	"book_url": "https://www.gramedia.com/products/the-power-of-concentration-1",
	"title": "The Power Of Concentration",
	"author": "Theron Q. Dumont",
	"Jumlah Halaman": "178.0",
	"Tanggal Terbit": "5 Des 2019",
	"ISBN": "9786025868863",
	"Bahasa": "Indonesia",
	"Penerbit": "Solusi Distribusi Buku Cv",
	"Berat": "0.163 kg",
	"Lebar": "13.5 cm",
	"Panjang": "20.0 cm"
},
{
	"page": 78,
	"kategori 1": "non-fiksi",
	"kategori 2": "sosial",
	"book_url": "https://www.gramedia.com/products/teknik-berargumentasi-berpikir-sebagai-kecakapan",
	"title": "Teknik Berargumentasi : Berpikir Sebagai Kecakapan Hidup",
	"author": "Donny Gahral Adian",
	"Jumlah Halaman": "None",
	"Tanggal Terbit": "9 Des 2013",
	"ISBN": "9786027985285",
	"Bahasa": "Indonesia",
	"Penerbit": "Kencana",
	"Berat": "0.2 kg",
	"Lebar": "13.5 cm",
	"Panjang": "20.5 cm"
},
{
	"page": 78,
	"kategori 1": "non-fiksi",
	"kategori 2": "sosial",
	"book_url": "https://www.gramedia.com/products/ilmu-sejarah-sebuah-pengatar",
	"title": "Ilmu Sejarah Sebuah Pengantar",
	"author": "M Dien Madjid & Johan Wahyudhi",
	"Jumlah Halaman": "266",
	"Tanggal Terbit": "18 Nov 2014",
	"ISBN": "9786021186107",
	"Bahasa": "Indonesia",
	"Penerbit": "Kencana",
	"Berat": "0.2 kg",
	"Lebar": "13.5 cm",
	"Panjang": "20.5 cm"
},
{
	"page": 78,
	"kategori 1": "non-fiksi",
	"kategori 2": "sosial",
	"book_url": "https://www.gramedia.com/products/yang-laju-dang-yang-layu-membumikan-agama-dl-krisis-ruang-publik",
	"title": "Yang Laju Dang Yang Layu Membumikan Agama Dl Krisis Ruang Publik",
	"author": "Yudi Latif",
	"Jumlah Halaman": "270",
	"Tanggal Terbit": "7 Okt 2016",
	"ISBN": "9786027973381",
	"Bahasa": "Indonesia",
	"Penerbit": "Simbiosa Rekatama Media",
	"Berat": "0.2500 kg",
	"Lebar": "14 cm"
},
{
	"page": 78,
	"kategori 1": "non-fiksi",
	"kategori 2": "sosial",
	"book_url": "https://www.gramedia.com/products/lurik-pesona-ragam-dan-filosofi",
	"title": "Lurik, Pesona, Ragam Dan Filosofi",
	"author": "Asti Musman",
	"Jumlah Halaman": "184",
	"Tanggal Terbit": "11 Mar 2016",
	"ISBN": "9789792951042",
	"Bahasa": "Indonesia",
	"Penerbit": "Andi Offset",
	"Berat": "0.4000 kg",
	"Lebar": "18 cm"
},
{
	"page": 78,
	"kategori 1": "non-fiksi",
	"kategori 2": "sosial",
	"book_url": "https://www.gramedia.com/products/perilaku-organisasi-kepolisian",
	"title": "Perilaku Organisasi Kepolisian",
	"author": "Riant Nugroho",
	"Jumlah Halaman": "0.0",
	"Tanggal Terbit": "16 Des 2014",
	"ISBN": "0",
	"Bahasa": "Indonesia",
	"Penerbit": "Pustaka Pelajar",
	"Berat": "0.0 kg",
	"Lebar": "0.0 cm",
	"Panjang": "1.0 cm"
},
{
	"page": 78,
	"kategori 1": "non-fiksi",
	"kategori 2": "sosial",
	"book_url": "https://www.gramedia.com/products/kebijakan-pembangunan-kepariwisataan",
	"title": "Kebijakan Pembangunan Kepariwisataan",
	"author": "Basuki Antariksa",
	"Jumlah Halaman": "168",
	"Tanggal Terbit": "27 Apr 2016",
	"ISBN": "9789793580883",
	"Bahasa": "Indonesia",
	"Penerbit": "Intrans Publishing",
	"Berat": "0.1300 kg",
	"Lebar": "14 cm"
},
{
	"page": 78,
	"kategori 1": "non-fiksi",
	"kategori 2": "sosial",
	"book_url": "https://www.gramedia.com/products/gurita-narkoba-di-indonesia",
	"title": "Gurita Narkoba Di Indonesia",
	"author": "Bambang Abimanyu",
	"Jumlah Halaman": "324",
	"Tanggal Terbit": "28 Nov 2017",
	"ISBN": "9786027764040",
	"Penerbit": "Indonesia Press",
	"Berat": "0.45 kg",
	"Lebar": "15.5 cm",
	"Panjang": "23.5 cm"
},
{
	"page": 78,
	"kategori 1": "non-fiksi",
	"kategori 2": "sosial",
	"book_url": "https://www.gramedia.com/products/menimbang-demokrasi-dua-dekade-reformasi",
	"title": "Menimbang Demokrasi Dua Dekade Reformasi",
	"author": "Syamsuddin Haris",
	"Jumlah Halaman": "556",
	"Tanggal Terbit": "15 Jun 2019",
	"ISBN": "9786024337575",
	"Bahasa": "Indonesia",
	"Penerbit": "Yayasan Obor Indonesia",
	"Berat": "0.5 kg",
	"Lebar": "14 cm",
	"Panjang": "21 cm"
},
{
	"page": 78,
	"kategori 1": "non-fiksi",
	"kategori 2": "sosial",
	"book_url": "https://www.gramedia.com/products/sejarah-klasik-dunia-timur",
	"title": "Sejarah Klasik Dunia Timur",
	"author": "Victor Duruy",
	"Jumlah Halaman": "316",
	"Tanggal Terbit": "13 Okt 2016",
	"ISBN": "9786020869995",
	"Bahasa": "Indonesia",
	"Penerbit": "Solusi Distribusi",
	"Berat": "0.3500 kg",
	"Lebar": "15 cm"
},
{
	"page": 78,
	"kategori 1": "non-fiksi",
	"kategori 2": "sosial",
	"book_url": "https://www.gramedia.com/products/down-to-earth-catatan-abdi-bhayangkara-di-bumi-pandalungan",
	"title": "Down To Earth: Catatan Abdi Bhayangkara Di Bumi Pandalungan",
	"author": "Akbp. H.m. Sabilul Alif, S.h., Sik., M.si",
	"Jumlah Halaman": "202",
	"Tanggal Terbit": "24 Nov 2016",
	"ISBN": "9786027497948",
	"Bahasa": "Indonesia",
	"Penerbit": "Jember Kata Media",
	"Berat": "0.2740 kg",
	"Lebar": "16.7 cm"
},
{
	"page": 78,
	"kategori 1": "non-fiksi",
	"kategori 2": "sosial",
	"book_url": "https://www.gramedia.com/products/bangkitlah-gerakan-mahasiswa",
	"title": "Bangkitlah Gerakan Mahasiswa",
	"author": "Eko Prasetyo",
	"Jumlah Halaman": "220",
	"Tanggal Terbit": "19 Mei 2015",
	"ISBN": "XXX",
	"Bahasa": "Indonesia",
	"Penerbit": "Intrans Publishing",
	"Berat": "0.2000 kg",
	"Lebar": "15 cm"
},
