{
	"page": 62,
	"kategori 1": "non-fiksi",
	"kategori 2": "sosial",
	"book_url": "https://www.gramedia.com/products/markesot-belajar-ngaji-daur-v",
	"title": "Markesot Belajar Ngaji",
	"author": "Emha Ainun Nadjib",
	"Jumlah Halaman": "None",
	"Tanggal Terbit": "28 Jan 2019",
	"ISBN": "9786022915164",
	"Bahasa": "Indonesia",
	"Penerbit": "Bentang Pustaka",
	"Berat": "0.22 kg"
},
{
	"page": 62,
	"kategori 1": "non-fiksi",
	"kategori 2": "sosial",
	"book_url": "https://www.gramedia.com/products/prisma-humor-yang-adil-beradab",
	"title": "Prisma: Humor Yang Adil & Beradab",
	"author": "Tim Redaksi",
	"Jumlah Halaman": "None",
	"Tanggal Terbit": "22 Jan 2019",
	"ISBN": "208011725",
	"Bahasa": "Indonesia",
	"Penerbit": "LP3ES",
	"Berat": "0.31 kg"
},
{
	"page": 62,
	"kategori 1": "non-fiksi",
	"kategori 2": "sosial",
	"book_url": "https://www.gramedia.com/products/dasar-dasar-logika",
	"title": "Dasar Dasar Logika",
	"author": "Nanang Martono",
	"Jumlah Halaman": "282.0",
	"Tanggal Terbit": "2 Okt 2019",
	"ISBN": "9786024254551",
	"Bahasa": "Indonesia",
	"Penerbit": "Rajagrafindo Persada",
	"Berat": "0.326 kg",
	"Lebar": "15.0 cm",
	"Panjang": "23.0 cm"
},
{
	"page": 62,
	"kategori 1": "non-fiksi",
	"kategori 2": "sosial",
	"book_url": "https://www.gramedia.com/products/analisis-prosa",
	"title": "Analisis Prosa",
	"author": "Albertine Minderop",
	"Jumlah Halaman": "332.0",
	"Tanggal Terbit": "17 Okt 2019",
	"ISBN": "9786024337728",
	"Bahasa": "Indonesia",
	"Penerbit": "Yayasan Pustaka Obor Indonesia",
	"Berat": "0.289 kg",
	"Lebar": "14.5 cm",
	"Panjang": "21.0 cm"
},
{
	"page": 62,
	"kategori 1": "non-fiksi",
	"kategori 2": "sosial",
	"book_url": "https://www.gramedia.com/products/sukses-berdebat",
	"title": "Sukses Berdebat",
	"author": "Sony Adam",
	"Jumlah Halaman": "215",
	"Tanggal Terbit": "19 Apr 2017",
	"ISBN": "9786026380760",
	"Bahasa": "Indonesia",
	"Penerbit": "Psikologi Corner",
	"Berat": "0.1800 kg",
	"Lebar": "14 cm"
},
{
	"page": 62,
	"kategori 1": "non-fiksi",
	"kategori 2": "sosial",
	"book_url": "https://www.gramedia.com/products/konstitusi-kebudayaan-dan-kebudayaan-konstitusi",
	"title": "Konstitusi Kebudayaan Dan Kebudayaan Konstitusi",
	"author": "Prof.dr. Jimly Asshiddiqie, S.h.",
	"Jumlah Halaman": "216",
	"Tanggal Terbit": "1 Jun 2017",
	"ISBN": "9786026293268",
	"Bahasa": "Indonesia",
	"Penerbit": "Inrans Publishing",
	"Berat": "0.2500 kg",
	"Lebar": "15.5 cm"
},
{
	"page": 62,
	"kategori 1": "non-fiksi",
	"kategori 2": "sosial",
	"book_url": "https://www.gramedia.com/products/masalah-terorisme-global",
	"title": "Masalah Terorisme Global",
	"author": "Costantinus Fatlolon",
	"Jumlah Halaman": "104",
	"Tanggal Terbit": "2 Jun 2016",
	"ISBN": "9789792146837",
	"Bahasa": "Indonesia",
	"Penerbit": "Kanisius",
	"Berat": "0.9119 kg",
	"Lebar": "15.5 cm"
},
{
	"page": 62,
	"kategori 1": "non-fiksi",
	"kategori 2": "sosial",
	"book_url": "https://www.gramedia.com/products/pengantar-jurnalistik-teknik-penulisan-berita-artikel-feature",
	"title": "Pengantar Jurnalistik: Teknik Penulisan Berita, Artikel & Feature",
	"author": "Indiwan Seto Wahjuwibowo",
	"Jumlah Halaman": "170",
	"Tanggal Terbit": "17 Feb 2016",
	"ISBN": "9786027226814",
	"Bahasa": "Indonesia",
	"Penerbit": "Matana Publishing",
	"Berat": "0.2000 kg",
	"Lebar": "15 cm"
},
{
	"page": 62,
	"kategori 1": "non-fiksi",
	"kategori 2": "sosial",
	"book_url": "https://www.gramedia.com/products/merawat-tradisi-dan-keariban-budaya",
	"title": "Merawat Tradisi dan Keariban Budaya",
	"author": "Dkk",
	"Jumlah Halaman": "164",
	"Tanggal Terbit": "20 Mar 2018",
	"ISBN": "9786026181640",
	"Bahasa": "Indonesia",
	"Penerbit": "Intrans Publishing",
	"Berat": "0.16 kg",
	"Lebar": "16 cm",
	"Panjang": "23 cm"
},
{
	"page": 62,
	"kategori 1": "non-fiksi",
	"kategori 2": "sosial",
	"book_url": "https://www.gramedia.com/products/aparatur-sipil-negara",
	"title": "Aparatur Sipil Negara",
	"author": "Bambang Rudito",
	"Jumlah Halaman": "151",
	"Tanggal Terbit": "28 Jul 2017",
	"ISBN": "9786024221270",
	"Penerbit": "Kencana Prenada Media",
	"Berat": "0.14 kg",
	"Lebar": "13.5 cm",
	"Panjang": "20.5 cm"
},
{
	"page": 62,
	"kategori 1": "non-fiksi",
	"kategori 2": "sosial",
	"book_url": "https://www.gramedia.com/products/strategi-pemerintahan-manajemen-organisasi-publik",
	"title": "Strategi Pemerintahan: Manajemen Organisasi Publik",
	"author": "Suwarsono Muhammad",
	"Tanggal Terbit": "20 Mei 2013",
	"Penerbit": "Erlangga",
	"Berat": "0.3000 kg",
	"Lebar": "0 cm",
	"Panjang": "0 cm"
},
{
	"page": 62,
	"kategori 1": "non-fiksi",
	"kategori 2": "sosial",
	"book_url": "https://www.gramedia.com/products/the-remarkable-story-of-soekarno",
	"title": "The Remarkable Story Of Soekarno",
	"author": "Adimitra Nursalim",
	"Jumlah Halaman": "306.0",
	"Tanggal Terbit": "10 Jan 2020",
	"ISBN": "9786232440319",
	"Bahasa": "Indonesia",
	"Penerbit": "Roemah Soekarno",
	"Berat": "0.243 kg",
	"Lebar": "14.0 cm",
	"Panjang": "20.0 cm"
},
{
	"page": 62,
	"kategori 1": "non-fiksi",
	"kategori 2": "sosial",
	"book_url": "https://www.gramedia.com/products/gusti-noeroel-mengejar-kebahagiaan",
	"title": "Gusti Noeroel - Mengejar Kebahagiaan",
	"author": "Ully Hermono",
	"Tanggal Terbit": "28 Mar 2014",
	"Penerbit": "Penerbit Buku Kompas",
	"Berat": "0.3000 kg",
	"Lebar": "0 cm",
	"Panjang": "0 cm"
},
{
	"page": 62,
	"kategori 1": "non-fiksi",
	"kategori 2": "sosial",
	"book_url": "https://www.gramedia.com/products/buku-pintar-raja-tokoh-keraton-candi-di-tanah-jawa",
	"title": "Buku Pintar Raja/Tokoh, Keraton & Candi Di Tanah Jawa",
	"author": "Agustia Soebachman",
	"Jumlah Halaman": "332",
	"Tanggal Terbit": "25 Agt 2016",
	"ISBN": "9786021038345",
	"Bahasa": "Indonesia",
	"Penerbit": "Syura Media Utama",
	"Berat": "0.4500 kg",
	"Lebar": "15 cm"
},
{
	"page": 62,
	"kategori 1": "non-fiksi",
	"kategori 2": "sosial",
	"book_url": "https://www.gramedia.com/products/ilmu-komunikasi-edisi-revisi",
	"title": "Ilmu Komunikasi Edisi Revisi",
	"author": "ROUDHONAH",
	"Jumlah Halaman": "233",
	"Tanggal Terbit": "1 Jan 2019",
	"ISBN": "9786024254568",
	"Bahasa": "Indonesia",
	"Penerbit": "Rajagrafindo Persada",
	"Berat": "0.282 kg",
	"Lebar": "15 cm",
	"Panjang": "23 cm"
},
{
	"page": 62,
	"kategori 1": "non-fiksi",
	"kategori 2": "sosial",
	"book_url": "https://www.gramedia.com/products/serat-centhini-11-akhir-perjalanan-syekh-amongraga",
	"title": "Serat Centhini 11: Akhir Perjalanan Syekh Amongraga",
	"author": "Agus Wahyudi",
	"Jumlah Halaman": "424",
	"Tanggal Terbit": "7 Agt 2015",
	"ISBN": "9789793832913",
	"Bahasa": "Indonesia",
	"Penerbit": "Cakrawala",
	"Berat": "0.5000 kg",
	"Lebar": "15 cm"
},
{
	"page": 62,
	"kategori 1": "non-fiksi",
	"kategori 2": "sosial",
	"book_url": "https://www.gramedia.com/products/semesta-tafsir",
	"title": "Semesta Tafsir",
	"author": "UMBRTO ECO",
	"Jumlah Halaman": "216.0",
	"Tanggal Terbit": "26 Okt 2014",
	"ISBN": "9786237378129",
	"Bahasa": "Indonesia",
	"Penerbit": "Divapress",
	"Berat": "0.186 kg",
	"Lebar": "14.0 cm",
	"Panjang": "20.0 cm"
},
{
	"page": 62,
	"kategori 1": "non-fiksi",
	"kategori 2": "sosial",
	"book_url": "https://www.gramedia.com/products/pemilihan-umum-demokratis",
	"title": "Pemilihan Umum Demokratis",
	"author": "Saldi Isra",
	"Jumlah Halaman": "252.0",
	"Tanggal Terbit": "1 Agt 2019",
	"ISBN": "9786232311329",
	"Bahasa": "Indonesia",
	"Penerbit": "Rajagrafindo Persada",
	"Berat": "0.21 kg",
	"Lebar": "15.0 cm",
	"Panjang": "23.0 cm"
},
{
	"page": 62,
	"kategori 1": "non-fiksi",
	"kategori 2": "sosial",
	"book_url": "https://www.gramedia.com/products/reformasi-birokrasi-pelayanan-prima-pemilu",
	"title": "Reformasi Birokrasi Pelayanan Prima Pemilu",
	"author": "Arif Maruf Suha",
	"Jumlah Halaman": "208",
	"Tanggal Terbit": "10 Jun 2015",
	"ISBN": "9786027046009",
	"Bahasa": "Indonesia",
	"Penerbit": "Nusantara Publishing",
	"Berat": "0.3000 kg",
	"Lebar": "14 cm"
},
{
	"page": 62,
	"kategori 1": "non-fiksi",
	"kategori 2": "sosial",
	"book_url": "https://www.gramedia.com/products/tan-tjeng-bok-seniman-tiga-zaman",
	"title": "Tan Tjeng Bok: Seniman Tiga Zaman",
	"author": "Fandy Hutari",
	"Jumlah Halaman": "192",
	"Tanggal Terbit": "6 Mei 2019",
	"ISBN": "9786024811358",
	"Bahasa": "Indonesia",
	"Penerbit": "Kepustakaan Populer Gramedia",
	"Berat": "0.150 kg",
	"Lebar": "14.5 cm",
	"Panjang": "20 cm"
},
{
	"page": 62,
	"kategori 1": "non-fiksi",
	"kategori 2": "sosial",
	"book_url": "https://www.gramedia.com/products/bencana-komunikasi",
	"title": "Bencana Komunikasi",
	"author": "Catur Prasetyo",
	"Jumlah Halaman": "232",
	"Tanggal Terbit": "19 Des 2017",
	"ISBN": "9789791060189",
	"Bahasa": "Indonesia",
	"Penerbit": "Pranaya",
	"Berat": "0.315 kg",
	"Lebar": "15 cm",
	"Panjang": "23 cm"
},
{
	"page": 62,
	"kategori 1": "non-fiksi",
	"kategori 2": "sosial",
	"book_url": "https://www.gramedia.com/products/sistem-presidensial-indonesia-dari-soekarno-ke-jokowi-edisi-revisi",
	"title": "Sistem Presidensial Indonesia Dari Soekarno Ke Jokowi (Edisi Revisi)",
	"author": "Sarah Nuraini Siregar",
	"Jumlah Halaman": "490",
	"Tanggal Terbit": "18 Okt 2018",
	"ISBN": "9786024336462",
	"Bahasa": "Indonesia",
	"Penerbit": "Yayasan Pustaka Obor Indonesia",
	"Berat": "0.45 kg",
	"Lebar": "14.5 cm",
	"Panjang": "21 cm"
},
{
	"page": 62,
	"kategori 1": "non-fiksi",
	"kategori 2": "sosial",
	"book_url": "https://www.gramedia.com/products/atlantis-nusantara-0",
	"title": "Atlantis Nusantara",
	"author": "Ahmad Y. Samantho",
	"Jumlah Halaman": "538",
	"Tanggal Terbit": "11 Agt 2015",
	"ISBN": "9786027290501",
	"Bahasa": "Indonesia",
	"Penerbit": "Phoenix",
	"Berat": "0.7000 kg",
	"Lebar": "15 cm"
},
{
	"page": 62,
	"kategori 1": "non-fiksi",
	"kategori 2": "sosial",
	"book_url": "https://www.gramedia.com/products/paket-character-excellencemengembangkan-karakter-pribadi-di-belt-buku-1-dan-2",
	"title": "Paket Character Excellence,Mengembangkan Karakter Pribadi (Di Belt Buku 1 Dan 2)",
	"author": "Rizal Badudu",
	"Jumlah Halaman": "496.0",
	"Tanggal Terbit": "30 Sep 2019",
	"ISBN": "581915201",
	"Bahasa": "Indonesia",
	"Penerbit": "Penerbit Buku Kompas Pt",
	"Berat": "0.57 kg",
	"Lebar": "14.0 cm",
	"Panjang": "21.0 cm"
},
{
	"page": 62,
	"kategori 1": "non-fiksi",
	"kategori 2": "sosial",
	"book_url": "https://www.gramedia.com/products/reformasi-ekonomi-tiongkok-dan-kebangkitan-renminbi",
	"title": "Reformasi Ekonomi Tiongkok Dan Kebangkitan Renminbi",
	"author": "Chen Yulu",
	"Jumlah Halaman": "251",
	"Tanggal Terbit": "6 Feb 2019",
	"ISBN": "9786024337230",
	"Bahasa": "Indonesia",
	"Penerbit": "Yayasan Pustaka Obor Indonesia",
	"Berat": "0.200 kg"
},
{
	"page": 62,
	"kategori 1": "non-fiksi",
	"kategori 2": "sosial",
	"book_url": "https://www.gramedia.com/products/studi-dan-teori-hubungan-internasional",
	"title": "Studi dan Teori Hubungan Internasional",
	"author": "Bob Sugeng Hadiwinata",
	"Jumlah Halaman": "316",
	"Tanggal Terbit": "1 Okt 2017",
	"ISBN": "9786024335090",
	"Penerbit": "Yayasan Pustaka Obor Indonesia",
	"Berat": "0.37 kg",
	"Lebar": "16 cm",
	"Panjang": "24 cm"
},
