{
	"page": 40,
	"kategori 1": "non-fiksi",
	"kategori 2": "sosial",
	"book_url": "https://www.gramedia.com/products/teori-komunikasi",
	"title": "Teori Komunikasi",
	"author": "POPPY RULIANA",
	"Jumlah Halaman": "298.0",
	"Tanggal Terbit": "21 Agt 2019",
	"ISBN": "9786232310148",
	"Bahasa": "Indonesia",
	"Penerbit": "Rajagrafindo Persada",
	"Berat": "0.35 kg",
	"Lebar": "15.0 cm",
	"Panjang": "23.0 cm"
},
{
	"page": 40,
	"kategori 1": "non-fiksi",
	"kategori 2": "sosial",
	"book_url": "https://www.gramedia.com/products/buya-hamka-teladan-inspirasi-penuh-talenta",
	"title": "Buya Hamka: Teladan & Inspirasi Penuh Talenta",
	"author": "Dadi Purnama Eksan",
	"Jumlah Halaman": "164.0",
	"Tanggal Terbit": "13 Jan 2020",
	"ISBN": "9786237333128",
	"Bahasa": "Indonesia",
	"Penerbit": "C-Klik Media",
	"Berat": "0.128 kg",
	"Lebar": "13.0 cm",
	"Panjang": "19.0 cm"
},
{
	"page": 40,
	"kategori 1": "non-fiksi",
	"kategori 2": "sosial",
	"book_url": "https://www.gramedia.com/products/journalism-today",
	"title": "Journalism Today",
	"author": "Andi Fachruddin",
	"Jumlah Halaman": "450",
	"Tanggal Terbit": "1 Mar 2019",
	"ISBN": "9786024229191",
	"Bahasa": "Indonesia",
	"Penerbit": "Prenadamedia Group",
	"Berat": "0.45 kg",
	"Lebar": "15 cm",
	"Panjang": "23 cm"
},
