{
	"page": 90,
	"kategori 1": "non-fiksi",
	"kategori 2": "sosial",
	"book_url": "https://www.gramedia.com/products/kedahsyatan-kalimat-motivasi-dunia",
	"title": "Kedahsyatan Kalimat Motivasi Dunia",
	"author": "Desy Ambarwati",
	"Jumlah Halaman": "320",
	"Tanggal Terbit": "8 Jul 2015",
	"ISBN": "9786023190836",
	"Bahasa": "Indonesia",
	"Penerbit": "Pustaka Nusantara Indonesia",
	"Berat": "0.2500 kg",
	"Lebar": "13 cm"
},
{
	"page": 90,
	"kategori 1": "non-fiksi",
	"kategori 2": "sosial",
	"book_url": "https://www.gramedia.com/products/studi-kebijakan-publik-pelayanan-publik",
	"title": "Studi Kebijakan Publik & Pelayanan Publik",
	"author": "Deddy Mulyadi",
	"Jumlah Halaman": "258",
	"Tanggal Terbit": "12 Mei 2015",
	"ISBN": "9786022891437",
	"Bahasa": "Indonesia",
	"Penerbit": "Alfabeta",
	"Berat": "0.4000 kg",
	"Lebar": "16 cm"
},
{
	"page": 90,
	"kategori 1": "non-fiksi",
	"kategori 2": "sosial",
	"book_url": "https://www.gramedia.com/products/politik-perlindungan-buruh-migran-indonesia",
	"title": "Politik Perlindungan Buruh Migran Indonesia",
	"author": "M.alvin Dwiana Qobulsyah",
	"Jumlah Halaman": "226",
	"Tanggal Terbit": "22 Mei 2015",
	"ISBN": "9786021429419",
	"Bahasa": "Indonesia",
	"Penerbit": "Dep Ilmu Pol Fisip Ui",
	"Berat": "0.3000 kg",
	"Lebar": "14 cm"
},
{
	"page": 90,
	"kategori 1": "non-fiksi",
	"kategori 2": "sosial",
	"book_url": "https://www.gramedia.com/products/politik-serikat-buruh-dan-kaum-precariat",
	"title": "Politik Serikat Buruh Dan Kaum Precariat",
	"author": "Fathimah Fildzah Izzati",
	"Jumlah Halaman": "168",
	"Tanggal Terbit": "22 Mei 2015",
	"ISBN": "9786021429457",
	"Bahasa": "Indonesia",
	"Penerbit": "Depilpol Fisip",
	"Berat": "0.2500 kg",
	"Lebar": "14 cm"
},
{
	"page": 90,
	"kategori 1": "non-fiksi",
	"kategori 2": "sosial",
	"book_url": "https://www.gramedia.com/products/conf-ketimpangan-wilayah-dan-kebijakan-penanggulangan-di-indonesia",
	"title": "Ketimpangan Wilayah dan Kebijakan Penanggulangan di Indonesia",
	"author": "Ivanovich Agusta",
	"Tanggal Terbit": "1 Agt 2016",
	"ISBN": "9789794618981",
	"Penerbit": "Yayasan Pustaka Obor Indonesia",
	"Berat": "0.3000 kg",
	"Lebar": "0 cm"
},
{
	"page": 90,
	"kategori 1": "non-fiksi",
	"kategori 2": "sosial",
	"book_url": "https://www.gramedia.com/products/menggapai-mimpi-menuju-eksistensi-religius",
	"title": "Menggapai Mimpi : Menuju Eksistensi Religius",
	"author": "Nyoman Wijaya",
	"Jumlah Halaman": "246",
	"Tanggal Terbit": "14 Jul 2016",
	"ISBN": "9786021586426",
	"Bahasa": "Indonesia",
	"Penerbit": "Udiknas",
	"Berat": "0.4500 kg",
	"Lebar": "15 cm"
},
{
	"page": 90,
	"kategori 1": "non-fiksi",
	"kategori 2": "sosial",
	"book_url": "https://www.gramedia.com/products/conf-selidik-national-geographic-irak",
	"title": "Selidik National Geographic IRAK",
	"author": "Beth Gruber",
	"Jumlah Halaman": "64",
	"Tanggal Terbit": "15 Mar 2011",
	"ISBN": "9789799103260",
	"Penerbit": "Kepustakaan Populer Gramedia",
	"Berat": "0.09 kg",
	"Lebar": "17.0 cm",
	"Panjang": "25.0 cm"
},
{
	"page": 90,
	"kategori 1": "non-fiksi",
	"kategori 2": "sosial",
	"book_url": "https://www.gramedia.com/products/perang-tuanku-tambusai-sang-harimau-rokan-melawan-penjajahan-belanda",
	"title": "Perang Tuanku Tambusai Sang Harimau Rokan Melawan Penjajahan Belanda",
	"author": "Juni Sjafrien Jahja",
	"Jumlah Halaman": "140",
	"Tanggal Terbit": "11 Sep 2015",
	"ISBN": "9789790652460",
	"Bahasa": "Indonesia",
	"Penerbit": "Transmedia",
	"Berat": "0.3000 kg",
	"Lebar": "14 cm"
},
{
	"page": 90,
	"kategori 1": "non-fiksi",
	"kategori 2": "sosial",
	"book_url": "https://www.gramedia.com/products/panduan-praktis-metode-penelitian-sosial",
	"title": "Panduan Praktis : Metode Penelitian Sosial",
	"author": "Tim Puskapol",
	"Jumlah Halaman": "94",
	"Tanggal Terbit": "25 Mei 2015",
	"ISBN": "9789791908993",
	"Bahasa": "Indonesia",
	"Penerbit": "Yayasan Pustaka Obor",
	"Berat": "0.2500 kg",
	"Lebar": "17 cm"
},
{
	"page": 90,
	"kategori 1": "non-fiksi",
	"kategori 2": "sosial",
	"book_url": "https://www.gramedia.com/products/nilai-keindonesian",
	"title": "Nilai Keindonesian",
	"author": "Kumpulan Tulisan",
	"Jumlah Halaman": "388",
	"Tanggal Terbit": "3 Feb 2017",
	"ISBN": "9786024121815",
	"Bahasa": "Indonesia",
	"Penerbit": "Pbk",
	"Berat": "0.4150 kg",
	"Lebar": "15 cm"
},
{
	"page": 90,
	"kategori 1": "non-fiksi",
	"kategori 2": "sosial",
	"book_url": "https://www.gramedia.com/products/children-of-war-the-english-version",
	"title": "Children Of War,The (English Version)",
	"author": "Forum Silaturahmi Anak Bangsa",
	"Jumlah Halaman": "0",
	"Tanggal Terbit": "26 Okt 2015",
	"ISBN": "9789797099817",
	"Bahasa": "Indonesia",
	"Penerbit": "Penerbit Buku Kompas",
	"Berat": "0.5000 kg",
	"Lebar": "0 cm"
},
{
	"page": 90,
	"kategori 1": "non-fiksi",
	"kategori 2": "sosial",
	"book_url": "https://www.gramedia.com/products/mata-cinta-dan-terang-semesta",
	"title": "Mata, Cinta, dan Terang Semesta",
	"author": "Agus Irkham",
	"Jumlah Halaman": "316",
	"Tanggal Terbit": "22 Mei 2017",
	"ISBN": "9786024243555",
	"Bahasa": "Indonesia",
	"Penerbit": "Kepustakaan Populer Gramedia",
	"Berat": "0.6500 kg",
	"Lebar": "15 cm"
},
{
	"page": 90,
	"kategori 1": "non-fiksi",
	"kategori 2": "sosial",
	"book_url": "https://www.gramedia.com/products/surya-paloh-matahari-restorasi-sang-ideolog-sc",
	"title": "Surya Paloh Matahari Restorasi Sang Ideolog Sc",
	"author": "Usamah Hisyam",
	"Tanggal Terbit": "1 Apr 2014",
	"Penerbit": "Dharmapena",
	"Berat": "0.3000 kg",
	"Lebar": "0 cm",
	"Panjang": "0 cm"
},
{
	"page": 90,
	"kategori 1": "non-fiksi",
	"kategori 2": "sosial",
	"book_url": "https://www.gramedia.com/products/dari-wina-ke-yogyakarta-kisah-hidup-herb-feith",
	"title": "Dari Wina Ke Yogyakarta: Kisah Hidup Herb Feith",
	"author": "Jemma Purdey",
	"Jumlah Halaman": "None",
	"Tanggal Terbit": "25 Apr 2014",
	"ISBN": "9789799107145",
	"Bahasa": "Indonesia",
	"Penerbit": "Kepustakaan Populer Gramedia",
	"Berat": "0.3000 kg",
	"Lebar": "16 cm",
	"Panjang": "0 cm"
},
{
	"page": 90,
	"kategori 1": "non-fiksi",
	"kategori 2": "sosial",
	"book_url": "https://www.gramedia.com/products/sejarah-gelap-raja-ratu-inggris",
	"title": "Sejarah Gelap Raja & Ratu Inggris",
	"author": "Amber Books",
	"Jumlah Halaman": "252",
	"Tanggal Terbit": "17 Jun 2013",
	"ISBN": "9786020213651",
	"Bahasa": "Indonesia",
	"Penerbit": "Elex Media Komputindo",
	"Berat": "0.5000 kg",
	"Lebar": "21 cm",
	"Panjang": "0 cm"
},
{
	"page": 90,
	"kategori 1": "non-fiksi",
	"kategori 2": "sosial",
	"book_url": "https://www.gramedia.com/products/jokowi-sang-fenomenal",
	"title": "Jokowi Sang Fenomenal",
	"author": "Febby Mahendra Putra",
	"Jumlah Halaman": "172",
	"Tanggal Terbit": "12 Sep 2014",
	"ISBN": "9786022517177",
	"Penerbit": "Gramedia Widiasarana Indonesia",
	"Berat": "0.3000 kg",
	"Lebar": "0 cm",
	"Panjang": "0 cm"
},
{
	"page": 90,
	"kategori 1": "non-fiksi",
	"kategori 2": "sosial",
	"book_url": "https://www.gramedia.com/products/cenk-blonk-dalang-inovatif",
	"title": "Cenk Blonk Dalang Inovatif",
	"author": "Ni Putu Winanti",
	"Jumlah Halaman": "254",
	"Tanggal Terbit": "7 Mar 2016",
	"ISBN": "9786022045281",
	"Bahasa": "Indonesia",
	"Penerbit": "Paramita",
	"Berat": "0.3000 kg",
	"Lebar": "15 cm"
},
{
	"page": 90,
	"kategori 1": "non-fiksi",
	"kategori 2": "sosial",
	"book_url": "https://www.gramedia.com/products/hari-hari-terakhir-sukarno",
	"title": "Hari-hari Terakhir Sukarno",
	"author": "Peter Kasenda",
	"Jumlah Halaman": "280",
	"Tanggal Terbit": "11 Sep 2012",
	"ISBN": "9786029402186",
	"Penerbit": "Komunitas Bambu",
	"Berat": "0.3000 kg",
	"Lebar": "21 cm",
	"Panjang": "0 cm"
},
{
	"page": 90,
	"kategori 1": "non-fiksi",
	"kategori 2": "sosial",
	"book_url": "https://www.gramedia.com/products/conf-rakyat-memantau-ibukota-rakyat-memantau-jokowi-basuki",
	"title": "Rakyat Memantau Ibukota, Rakyat Memantau Jokowi Basuki",
	"author": "Andri Indradie",
	"Jumlah Halaman": "151",
	"Tanggal Terbit": "27 Mei 2013",
	"ISBN": "978979081912",
	"Penerbit": "Gramedia Widiasarana Indonesia",
	"Berat": "0.08 kg",
	"Lebar": "13.5 cm",
	"Panjang": "12.5 cm"
},
{
	"page": 90,
	"kategori 1": "non-fiksi",
	"kategori 2": "sosial",
	"book_url": "https://www.gramedia.com/products/conf-menyibak-tabir-orde-baru",
	"title": "Menyibak Tabir Orde Baru",
	"author": "Jusuf Wanandi",
	"Jumlah Halaman": "-",
	"Tanggal Terbit": "8 Mei 2015",
	"ISBN": "9789797097882",
	"Bahasa": "Indonesia",
	"Penerbit": "Kompas Penerbit Buku",
	"Berat": "0.2500 kg",
	"Lebar": "- cm"
},
{
	"page": 90,
	"kategori 1": "non-fiksi",
	"kategori 2": "sosial",
	"book_url": "https://www.gramedia.com/products/made-in-prison",
	"title": "Made In Prison",
	"author": "Feby Indirani",
	"Jumlah Halaman": "230",
	"Tanggal Terbit": "25 Sep 2017",
	"ISBN": "9786024243456",
	"Bahasa": "Indonesia",
	"Penerbit": "Kepustakaan Populer Gramedia",
	"Berat": "0.1700 kg",
	"Lebar": "13.5 cm"
},
{
	"page": 90,
	"kategori 1": "non-fiksi",
	"kategori 2": "sosial",
	"book_url": "https://www.gramedia.com/products/ini-itu-demokrasi",
	"title": "Ini-Itu Demokrasi",
	"author": "Pamflet",
	"Jumlah Halaman": "248",
	"Tanggal Terbit": "31 Agt 2015",
	"ISBN": "9789799109125",
	"Bahasa": "Indonesia",
	"Penerbit": "Kepustakaan Populer Gramedia",
	"Berat": "0.3170 kg",
	"Lebar": "15 cm"
},
{
	"page": 90,
	"kategori 1": "non-fiksi",
	"kategori 2": "sosial",
	"book_url": "https://www.gramedia.com/products/han-kaisar-petani-1",
	"title": "Han - Kaisar Petani",
	"author": "Michael Wicaksono",
},
{
	"page": 90,
	"kategori 1": "non-fiksi",
	"kategori 2": "sosial",
	"book_url": "https://www.gramedia.com/products/evaluasi-pemilu-legislatif-2014",
	"title": "Evaluasi Pemilu Legislatif 2014",
	"author": "Luky Sandra Amalia Dkk",
	"Jumlah Halaman": "200",
	"Tanggal Terbit": "10 Okt 2016",
	"ISBN": "9786022296478",
	"Bahasa": "Indonesia",
	"Penerbit": "Pustaka Pelajar",
	"Berat": "0.3000 kg",
	"Lebar": "16 cm"
},
{
	"page": 90,
	"kategori 1": "non-fiksi",
	"kategori 2": "sosial",
	"book_url": "https://www.gramedia.com/products/conf-hell-yeah-the-new-chapter",
	"title": "Hell Yeah! *The New Chapter",
	"author": "Fira Basuki",
	"Jumlah Halaman": "368",
	"Tanggal Terbit": "2 Apr 2014",
	"ISBN": "978602251487",
	"Penerbit": "Gramedia Widiasarana Indonesia",
	"Berat": "0.37 kg",
	"Lebar": "15.0 cm",
	"Panjang": "23.0 cm"
},
{
	"page": 90,
	"kategori 1": "non-fiksi",
	"kategori 2": "sosial",
	"book_url": "https://www.gramedia.com/products/conf-seri-tokoh-dunia-80-william-shakespeare",
	"title": "Seri Tokoh Dunia 80: William Shakespeare",
	"author": "Jony Wong",
	"Jumlah Halaman": "116",
	"Tanggal Terbit": "17 Apr 2014",
	"ISBN": "978602002766",
	"Penerbit": "Elex Media Komputindo",
	"Berat": "0.11 kg",
	"Lebar": "14.0 cm",
	"Panjang": "21.0 cm"
},
{
	"page": 90,
	"kategori 1": "non-fiksi",
	"kategori 2": "sosial",
	"book_url": "https://www.gramedia.com/products/conf-kuntowijoyo-karya-dan-dunianya",
	"title": "Kuntowijoyo: Karya Dan Dunianya",
	"author": "Wan Anwar",
	"Jumlah Halaman": "186",
	"Tanggal Terbit": "7 Nov 2016",
	"ISBN": "978979759613",
	"Penerbit": "Gramedia Widiasarana Indonesia",
	"Berat": "0.16 kg",
	"Lebar": "14.0 cm",
	"Panjang": "21.0 cm"
},
{
	"page": 90,
	"kategori 1": "non-fiksi",
	"kategori 2": "sosial",
	"book_url": "https://www.gramedia.com/products/komunikasi-organisasi",
	"title": "Komunikasi Organisasi",
	"author": "Ilona V. Oisina Situmeang",
	"Jumlah Halaman": "130",
	"Tanggal Terbit": "8 Nov 2016",
	"ISBN": "9786027498433",
	"Bahasa": "Indonesia",
	"Penerbit": "Ekuilibria",
	"Berat": "0.2500 kg",
	"Lebar": "18 cm"
},
{
	"page": 90,
	"kategori 1": "non-fiksi",
	"kategori 2": "sosial",
	"book_url": "https://www.gramedia.com/products/pak-harto-saya-dan-kontainer-medik-udara",
	"title": "Pak Harto, Saya, Dan Kontainer Medik Udara",
	"author": "Imelda Bachtiar",
	"Jumlah Halaman": "241",
	"Tanggal Terbit": "31 Mei 2017",
	"ISBN": "9786024122522",
	"Bahasa": "Indonesia",
	"Penerbit": "Penerbit Buku Kompas",
	"Berat": "0.25 kg",
	"Lebar": "14 cm",
	"Panjang": "21 cm"
},
{
	"page": 90,
	"kategori 1": "non-fiksi",
	"kategori 2": "sosial",
	"book_url": "https://www.gramedia.com/products/jk75-adil-itu-damai",
	"title": "#Jk75 - Adil Itu Damai",
	"author": "Jusuf Kalla",
	"Jumlah Halaman": "392",
	"Tanggal Terbit": "31 Mei 2017",
	"ISBN": "9786024122508",
	"Bahasa": "Indonesia",
	"Penerbit": "Penerbit Buku Kompas",
	"Berat": "0.4000 kg",
	"Lebar": "13 cm"
},
{
	"page": 90,
	"kategori 1": "non-fiksi",
	"kategori 2": "sosial",
	"book_url": "https://www.gramedia.com/products/conf-dua-tangis-sejuta-damprat",
	"title": "Dua Tangis Sejuta Damprat",
	"author": "Aris Darmawan",
	"Jumlah Halaman": "213",
	"Tanggal Terbit": "5 Feb 2013",
	"ISBN": "978602020161",
	"Penerbit": "Elex Media Komputindo",
	"Berat": "0.19 kg",
	"Lebar": "14.0 cm",
	"Panjang": "21.0 cm"
},
{
	"page": 90,
	"kategori 1": "non-fiksi",
	"kategori 2": "sosial",
	"book_url": "https://www.gramedia.com/products/conf-seri-tokoh-dunia-alessandro-volta",
	"title": "Seri Tokoh Dunia: Alessandro Volta",
	"author": "Yulius & Wong Comic",
	"Jumlah Halaman": "120",
	"Tanggal Terbit": "29 Jun 2013",
	"ISBN": "978602001109",
	"Penerbit": "Elex Media Komputindo",
	"Berat": "0.11 kg",
	"Lebar": "14.0 cm",
	"Panjang": "21.0 cm"
},
{
	"page": 90,
	"kategori 1": "non-fiksi",
	"kategori 2": "sosial",
	"book_url": "https://www.gramedia.com/products/menembus-badai-pengembaraan-seorang-tionghoa-indonesia",
	"title": "Menembus Badai: Pengembaraan Seorang Tionghoa-Indonesia",
	"author": "Wu Da Ying & Peilin Ngo",
	"Jumlah Halaman": "398",
	"Tanggal Terbit": "20 Mei 2015",
	"ISBN": "9786020818061",
	"Bahasa": "Indonesia",
	"Penerbit": "Galang Pustaka",
	"Berat": "0.4000 kg",
	"Lebar": "15 cm"
},
{
	"page": 90,
	"kategori 1": "non-fiksi",
	"kategori 2": "sosial",
	"book_url": "https://www.gramedia.com/products/pertempuran-terbesar-sepanjang-sejarah",
	"title": "Pertempuran Terbesar Sepanjang Sejarah",
	"author": "Rupert Butler",
	"Jumlah Halaman": "448",
	"Tanggal Terbit": "8 Agt 2016",
	"ISBN": "9786020289335",
	"Bahasa": "Indonesia",
	"Penerbit": "Elex Media Komputindo",
	"Berat": "0.4000 kg",
	"Lebar": "21 cm"
},
{
	"page": 90,
	"kategori 1": "non-fiksi",
	"kategori 2": "sosial",
	"book_url": "https://www.gramedia.com/products/conf-pasukan-payung-amerika-serikat-1941-45",
	"title": "Pasukan Payung Amerika Serikat 1941-45",
	"author": "Carl Smith",
	"Jumlah Halaman": "96",
	"Tanggal Terbit": "16 Mei 2011",
	"ISBN": "978979910343",
	"Penerbit": "Kepustakaan Populer Gramedia",
	"Berat": "0.13 kg",
	"Lebar": "17.0 cm",
	"Panjang": "24.8 cm"
},
{
	"page": 90,
	"kategori 1": "non-fiksi",
	"kategori 2": "sosial",
	"book_url": "https://www.gramedia.com/products/conf-migrasi-sebagai-dampak-perubahan-politik-dan-ekonomi-di-wilayah-eks-uni-soviet",
	"title": "Migrasi sebagai Dampak Perubahan Politik dan Ekonomi di Wilayah Eks Uni Soviet",
	"author": "Zulfikar Ghazali, Tri Nuke Pudjiastuti, Sunardi",
	"Jumlah Halaman": "0",
	"Tanggal Terbit": "14 Jun 2016",
	"ISBN": "9789794619100",
	"Penerbit": "Yayasan Pustaka Obor Indonesia",
	"Berat": "0.9119 kg",
	"Lebar": "0 cm"
},
