{
	"page": 97,
	"kategori 1": "non-fiksi",
	"kategori 2": "sosial",
	"book_url": "https://www.gramedia.com/products/birokrasi-dinamika-kekuasaan",
	"title": "Birokrasi&Dinamika Kekuasaan",
	"author": "Miftah Thoha",
	"Jumlah Halaman": "311",
	"Tanggal Terbit": "9 Des 2014",
	"ISBN": "9786027985988",
	"Bahasa": "Indonesia",
	"Penerbit": "Kencana",
	"Berat": "0.40 kg",
	"Lebar": "15 cm",
	"Panjang": "23 cm"
},
{
	"page": 97,
	"kategori 1": "non-fiksi",
	"kategori 2": "sosial",
	"book_url": "https://www.gramedia.com/products/sagu-papua-untuk-dunia",
	"title": "Sagu Papua untuk Dunia",
	"author": "Ahmad Arif",
	"Jumlah Halaman": "224.0",
	"Tanggal Terbit": "25 Nov 2019",
	"ISBN": "9786024811990",
	"Bahasa": "Indonesia",
	"Penerbit": "Kepustakaan Populer Gramedia",
	"Berat": "0.28 kg",
	"Lebar": "14.0 cm",
	"Panjang": "21.0 cm"
},
{
	"page": 97,
	"kategori 1": "non-fiksi",
	"kategori 2": "sosial",
	"book_url": "https://www.gramedia.com/products/memotret-negeri",
	"title": "Memotret Negeri",
	"author": "Edy Saputra",
	"Jumlah Halaman": "260",
	"Tanggal Terbit": "1 Jul 2017",
	"ISBN": "9786026293329",
	"Bahasa": "Indonesia",
	"Penerbit": "Intrans Publishing",
	"Berat": "0.23 kg",
	"Lebar": "14.5 cm",
	"Panjang": "18 cm"
},
{
	"page": 97,
	"kategori 1": "non-fiksi",
	"kategori 2": "sosial",
	"book_url": "https://www.gramedia.com/products/conf-akal-akal-akil",
	"title": "Akal-Akal-Akil",
	"author": "",
	"Tanggal Terbit": "14 Sep 2015",
	"ISBN": "9789797098834",
	"Penerbit": "Kompas Penerbit Buku",
	"Berat": "0.3000 kg",
	"Lebar": "0 cm"
},
{
	"page": 97,
	"kategori 1": "non-fiksi",
	"kategori 2": "sosial",
	"book_url": "https://www.gramedia.com/products/populisme-demokratisasi-multikulturalisme-artikulasi-baru",
	"title": "Populisme, Demokratisasi, Multikulturalisme Artikulasi Baru",
	"author": "Prof. Dr. Syamsul Arifin, M.Si.",
	"Jumlah Halaman": "0.0",
	"Tanggal Terbit": "23 Okt 2019",
	"ISBN": "9786026293831",
	"Bahasa": "Indonesia",
	"Penerbit": "Intrans Publishing",
	"Berat": "0.274 kg",
	"Lebar": "15.5 cm",
	"Panjang": "23.0 cm"
},
{
	"page": 97,
	"kategori 1": "non-fiksi",
	"kategori 2": "sosial",
	"book_url": "https://www.gramedia.com/products/dongeng-dari-dullah",
	"title": "Dongeng Dari Dullah",
	"author": "Agus Dermawan T.",
	"Jumlah Halaman": "304.0",
	"Tanggal Terbit": "23 Mar 2020",
	"ISBN": "9786024813574",
	"Bahasa": "Indonesia",
	"Penerbit": "Kepustakaan Populer Gramedia",
	"Berat": "0.55 kg",
	"Lebar": "15.0 cm",
	"Panjang": "23.0 cm"
},
{
	"page": 97,
	"kategori 1": "non-fiksi",
	"kategori 2": "sosial",
	"book_url": "https://www.gramedia.com/products/kualitas-pelayanan-publik-ed-rev",
	"title": "Kualitas Pelayanan Publik Ed. Rev.",
	"author": "Dr. Hardiansyah, M.SI.",
	"Jumlah Halaman": "262.0",
	"Tanggal Terbit": "25 Sep 2019",
	"ISBN": "9786025568213",
	"Bahasa": "Indonesia",
	"Penerbit": "Gava Media",
	"Berat": "0.441 kg",
	"Lebar": "16.0 cm",
	"Panjang": "23.0 cm"
},
{
	"page": 97,
	"kategori 1": "non-fiksi",
	"kategori 2": "sosial",
	"book_url": "https://www.gramedia.com/products/mataram-modernisme",
	"title": "Mataram & Modernisme",
	"author": "Akhmad Santosos & Soimin",
	"Jumlah Halaman": "224",
	"Tanggal Terbit": "10 Mar 2016",
	"ISBN": "9789793580760",
	"Bahasa": "Indonesia",
	"Penerbit": "Intrans Publishing",
	"Berat": "0.2500 kg",
	"Lebar": "15 cm"
},
{
	"page": 97,
	"kategori 1": "non-fiksi",
	"kategori 2": "sosial",
	"book_url": "https://www.gramedia.com/products/rezim-gender-muhammadiyah-0",
	"title": "Rezim Gender Muhammadiyah",
	"author": "Siti Ruhaini Dzuhayatin",
	"Jumlah Halaman": "346",
	"Tanggal Terbit": "20 Apr 2016",
	"ISBN": "9786022295853",
	"Bahasa": "Indonesia",
	"Penerbit": "Pustaka Pelajar",
	"Berat": "0.4800 kg",
	"Lebar": "16 cm"
},
{
	"page": 97,
	"kategori 1": "non-fiksi",
	"kategori 2": "sosial",
	"book_url": "https://www.gramedia.com/products/mbah-moen-kiai-kharismatik-penuh-inspirasi",
	"title": "Mbah Moen: Kiai Kharismatik Penuh Inspirasi",
	"author": "Anom Whani W.",
	"Jumlah Halaman": "160.0",
	"Tanggal Terbit": "9 Jul 2019",
	"ISBN": "9786237333159",
	"Bahasa": "Indonesia",
	"Penerbit": "C-Klik Media",
	"Berat": "0.296 kg",
	"Lebar": "20.0 cm",
	"Panjang": "14.0 cm"
},
{
	"page": 97,
	"kategori 1": "non-fiksi",
	"kategori 2": "sosial",
	"book_url": "https://www.gramedia.com/products/ilmu-sosial-dasar",
	"title": "Ilmu Sosial Dasar",
	"author": "Abu Ahmadi",
	"Tanggal Terbit": "1 Jan 1900",
	"ISBN": "9789795181873",
	"Penerbit": "Rineka Cipta",
	"Berat": "0.4000 kg",
	"Lebar": "20.5 cm",
	"Panjang": "0 cm"
},
{
	"page": 97,
	"kategori 1": "non-fiksi",
	"kategori 2": "sosial",
	"book_url": "https://www.gramedia.com/products/sejarah-raja-raja-majapahit",
	"title": "Sejarah Raja-Raja Majapahit",
	"author": "Sri Wintala Achmad",
	"Jumlah Halaman": "288.0",
	"Tanggal Terbit": "30 Nov 2019",
	"ISBN": "9786237145974",
	"Bahasa": "Indonesia",
	"Penerbit": "Solusi Distribusi Buku Cv",
	"Berat": "0.289 kg",
	"Lebar": "14.0 cm",
	"Panjang": "20.5 cm"
},
{
	"page": 97,
	"kategori 1": "non-fiksi",
	"kategori 2": "sosial",
	"book_url": "https://www.gramedia.com/products/prahara-partai-islam",
	"title": "Prahara Partai Islam",
	"author": "M. AMIN NURDIN, ALI THAUFAN DWI SAPUTRA, ADI PRAYITNO",
	"Jumlah Halaman": "None",
	"Tanggal Terbit": "25 Apr 2019",
	"ISBN": "9786024337353",
	"Bahasa": "Indonesia",
	"Penerbit": "Yayasan Pustaka Obor Indonesia",
	"Berat": "0.3 kg"
},
{
	"page": 97,
	"kategori 1": "non-fiksi",
	"kategori 2": "sosial",
	"book_url": "https://www.gramedia.com/products/komunikasi-media-masyarakat",
	"title": "Komunikasi Media & Masyarakat",
	"author": "Deddy Mulyana Dkk",
	"Jumlah Halaman": "268",
	"Tanggal Terbit": "19 Jan 2016",
	"ISBN": "9789796926466",
	"Bahasa": "Indonesia",
	"Penerbit": "Remaja Rosdakarya",
	"Berat": "0.4000 kg",
	"Lebar": "15 cm"
},
{
	"page": 97,
	"kategori 1": "non-fiksi",
	"kategori 2": "sosial",
	"book_url": "https://www.gramedia.com/products/sang-penyebar-berita-proklamasi-ri",
	"title": "Sang Penyebar Berita Proklamasi Ri",
	"author": "Perjuangan M.asad Shahab",
	"Jumlah Halaman": "359",
	"Tanggal Terbit": "21 Apr 2017",
	"ISBN": "9786023721191",
	"Bahasa": "Indonesia",
	"Penerbit": "Penerbit Change",
	"Berat": "0.4000 kg",
	"Lebar": "15 cm"
},
{
	"page": 97,
	"kategori 1": "non-fiksi",
	"kategori 2": "sosial",
	"book_url": "https://www.gramedia.com/products/politik-hukum-1",
	"title": "Politik Hukum",
	"author": "Abdul Latif",
	"Jumlah Halaman": "202",
	"Tanggal Terbit": "14 Des 2010",
	"ISBN": "9789790073654",
	"Bahasa": "Indonesia",
	"Penerbit": "Sinar Grafika",
	"Berat": "0.26 kg",
	"Lebar": "15.5 cm",
	"Panjang": "23 cm"
},
{
	"page": 97,
	"kategori 1": "non-fiksi",
	"kategori 2": "sosial",
	"book_url": "https://www.gramedia.com/products/gajah-mada-kisah-cinta-7-kisah-penaklukan-penaklukannya",
	"title": "Gajah Mada: Kisah Cinta 7 Kisah Penaklukan-Penaklukannya",
	"author": "Sri Wintala A",
	"Jumlah Halaman": "296.0",
	"Tanggal Terbit": "30 Sep 2019",
	"ISBN": "9786237145752",
	"Bahasa": "Indonesia",
	"Penerbit": "Solusi Distribusi Buku Cv",
	"Berat": "0.258 kg",
	"Lebar": "14.2 cm",
	"Panjang": "20.5 cm"
},
{
	"page": 97,
	"kategori 1": "non-fiksi",
	"kategori 2": "sosial",
	"book_url": "https://www.gramedia.com/products/politik-hukum-integratif-umkm",
	"title": "Politik Hukum Integratif UMKM",
	"author": "Dr. Ade Komarudin, Mh",
	"Jumlah Halaman": "333",
	"Tanggal Terbit": "10 Okt 2014",
	"ISBN": "9786027936300",
	"Bahasa": "Indonesia",
	"Penerbit": "Rm Book",
	"Berat": "0.315 kg",
	"Lebar": "14 cm",
	"Panjang": "21 cm"
},
{
	"page": 97,
	"kategori 1": "non-fiksi",
	"kategori 2": "sosial",
	"book_url": "https://www.gramedia.com/products/sri-sultan-hamengkubuwono-inspirasi-sang-pemimpin-rakyat",
	"title": "Sri Sultan Hamengkubuwono: Inspirasi Sang Pemimpin Rakyat",
	"author": "Anom Whani Wicaksana",
	"Jumlah Halaman": "128.0",
	"Tanggal Terbit": "9 Jan 2020",
	"ISBN": "9786237333142",
	"Bahasa": "Indonesia",
	"Penerbit": "C-Klik Media",
	"Berat": "0.105 kg",
	"Lebar": "13.0 cm",
	"Panjang": "19.0 cm"
},
{
	"page": 97,
	"kategori 1": "non-fiksi",
	"kategori 2": "sosial",
	"book_url": "https://www.gramedia.com/products/conf-kebudayaan-dan-kekuasaan-di-indonesia",
	"title": "Kebudayaan dan Kekuasaan di Indonesia",
	"author": "Tod Jones",
	"Jumlah Halaman": "0",
	"Tanggal Terbit": "1 Agt 2016",
	"ISBN": "9789794618851",
	"Penerbit": "Yayasan Pustaka Obor Indonesia",
	"Berat": "0.9119 kg",
	"Lebar": "0 cm"
},
{
	"page": 97,
	"kategori 1": "non-fiksi",
	"kategori 2": "sosial",
	"book_url": "https://www.gramedia.com/products/cara-praktis-belajar-pidato-mc-penyiar-radio",
	"title": "Cara Praktis Belajar Pidato MC & Penyiar Radio",
	"author": "Ristiana Yani Puspita",
	"Jumlah Halaman": "156",
	"Tanggal Terbit": "19 Apr 2017",
	"ISBN": "9786026595430",
	"Bahasa": "Indonesia",
	"Penerbit": "Komunika",
	"Berat": "0.15 kg",
	"Lebar": "14 cm",
	"Panjang": "20 cm"
},
{
	"page": 97,
	"kategori 1": "non-fiksi",
	"kategori 2": "sosial",
	"book_url": "https://www.gramedia.com/products/antropologi-wayang-simbolisme-mistisme-dan-realisme-hidup",
	"title": "Antropologi Wayang Simbolisme Mistisme Dan Realisme Hidup",
	"author": "Suwardi Endraswara",
	"Jumlah Halaman": "207",
	"Tanggal Terbit": "17 Mar 2017",
	"ISBN": "9786026013354",
	"Bahasa": "Indonesia",
	"Penerbit": "Morfalingua",
	"Berat": "0.3800 kg",
	"Lebar": "17 cm"
},
{
	"page": 97,
	"kategori 1": "non-fiksi",
	"kategori 2": "sosial",
	"book_url": "https://www.gramedia.com/products/al-quran-dan-impian-amerika-serikat",
	"title": "Al-Quran Dan Impian Amerika Serikat",
	"author": "Denise A",
	"Jumlah Halaman": "488.0",
	"Tanggal Terbit": "5 Des 2019",
	"ISBN": "9786232200715",
	"Bahasa": "Indonesia",
	"Penerbit": "Pustaka Alvabet Pt / Lisawa Mitra Utama Cv",
	"Berat": "0.5 kg",
	"Lebar": "15.0 cm",
	"Panjang": "23.0 cm"
},
{
	"page": 97,
	"kategori 1": "non-fiksi",
	"kategori 2": "sosial",
	"book_url": "https://www.gramedia.com/products/ki-hajar-sebuah-memoar",
	"title": "Ki Hajar: Sebuah Memoar",
	"author": "Haidar Musyafa",
	"Jumlah Halaman": "558",
	"Tanggal Terbit": "7 Apr 2017",
	"ISBN": "9786027926349",
	"Bahasa": "Indonesia",
	"Penerbit": "IIman Real",
	"Berat": "0.4800 kg",
	"Lebar": "14 cm"
},
